id,time,time,time,time,time,time,time,time,time,time,median
array_axiom.mona-walk.dot_26__901states.dfa,3620.1946,3640.7712,3615.2548,3563.2305,3644.5544,3568.8327,3717.4414,3622.8772,3594.0881,3622.7916,3621.4931
array_axiom.mona-walk.dot_27__897states.dfa,2501.0985,2368.1668,2416.1624,2543.0179,2433.1279,2614.5948,2599.9819,2512.6446,2461.351,2487.5822,2494.34035
array_axiom.mona-walk.dot_36__105states.dfa,16.7168,15.0889,32.669,13.7483,68.5595,18.171,24.3364,23.0385,14.6491,15.4836,17.4439
ex10.mona-walk.dot_5__242states.dfa,88.9873,80.9887,85.7891,80.0693,74.3614,86.6729,86.5924,77.4222,76.9836,74.284,80.529
ex11.mona-walk.dot_0__143states.dfa,39.8493,38.5447,47.4911,38.7531,36.6622,38.3351,41.5112,40.488,37.7911,37.7217,38.6489
ex11.mona-walk.dot_2__143states.dfa,44.896,40.3175,37.591,44.2045,35.6793,38.5755,43.0846,44.3631,37.2551,38.6864,39.50195
ex11.mona-walk.dot_4__281states.dfa,193.416,187.8001,193.7961,189.0597,188.7198,307.7539,234.0781,193.1065,207.9033,186.6237,193.26125
ex11.mona-walk.dot_5__281states.dfa,205.9774,264.3258,207.3326,208.8661,244.8158,330.155,203.6402,200.258,205.6111,212.1369,208.09935
ex11.mona-walk.dot_6__301states.dfa,140.65,163.835,154.3107,161.9213,313.418,191.2497,151.7781,158.2562,140.6922,156.1842,157.2202
ex11.mona-walk.dot_7__325states.dfa,210.3551,205.201,209.0524,197.648,223.4711,199.4662,203.9619,234.1164,225.2802,196.8139,207.1267
ex11.mona.aut,8724.1879,8704.9262,8638.5306,8581.8172,8566.4042,8767.1032,8991.7992,8481.0268,8752.9348,8505.0546,8671.7284
ex12.mona-walk.dot_13__317states.dfa,272.3967,285.0366,273.7518,272.8814,280.4458,274.2046,283.7608,274.1422,276.4949,279.2095,275.34975
ex12.mona-walk.dot_14__317states.dfa,437.6114,456.4677,440.2494,438.3235,455.7465,471.244,440.6552,446.345,435.5567,436.137,440.4523
ex12.mona-walk.dot_15__290states.dfa,673.5472,677.7346,674.2052,673.2614,725.7732,734.9268,674.1784,665.3342,660.9396,663.4237,673.8628
ex12.mona-walk.dot_16__280states.dfa,888.2251,889.21,879.287,875.7296,941.8568,920.8866,878.361,894.2879,875.3716,883.9982,886.11165
ex12.mona-walk.dot_17__280states.dfa,737.9758,732.3709,732.0507,730.5334,756.2072,781.0395,758.8082,732.5892,748.1135,749.0143,743.04465
ex12.mona.aut,249.2326,241.264,248.6555,244.0433,248.9835,249.9384,250.7981,249.5803,245.7324,331.0483,249.10805
ex13.mona.aut,-1,-1,-1,-1,-1,-1,-1,-1,-1,-1,-1
ex14.mona-walk.dot_10__103states.dfa,26.0397,30.8556,31.2467,25.8791,24.9716,30.4656,25.9541,30.2094,28.9221,24.8074,27.4809
ex14.mona-walk.dot_11__202states.dfa,135.1075,141.445,135.3605,137.3401,128.0953,139.9702,145.484,130.5111,146.1258,146.6366,138.65515
ex14.mona-walk.dot_12__316states.dfa,340.3661,656.5529,367.8305,337.4967,329.6758,333.5932,347.6889,339.8028,343.3152,333.4392,340.08445
ex14.mona-walk.dot_13__316states.dfa,350.4245,318.4715,341.6877,343.882,338.0454,350.2492,343.5457,346.4972,337.6961,334.6136,342.6167
ex14.mona-walk.dot_14__852states.dfa,2399.956,2447.8063,2707.3807,2785.0402,2503.855,2551.2095,2414.5874,2372.3072,2406.0342,2688.0033,2475.83065
ex14.mona-walk.dot_15__852states.dfa,4251.8951,4449.5049,4498.4241,4377.4238,4481.3678,4532.5636,4245.205,4223.9144,4213.6531,4416.9294,4397.1766
ex14.mona-walk.dot_16__852states.dfa,5743.1867,5215.8345,5336.9654,5211.1303,5310.6446,5201.8709,5925.6097,5745.7064,5489.7971,5261.5852,5323.805
ex14.mona-walk.dot_17__167states.dfa,230.6289,214.6767,214.0017,272.5009,216.0981,217.3025,241.9165,227.0462,207.3535,216.457,216.87975
ex14.mona-walk.dot_21__35states.dfa,2.7367,2.3933,2.5756,19.0852,2.5476,2.4596,4.3618,3.4093,2.55,2.6522,2.6139
ex14.mona-walk.dot_22__53states.dfa,7.1736,19.1452,18.544,7.5714,18.3486,19.6434,7.3626,8.2626,48.4917,18.814,18.4463
ex14.mona-walk.dot_24__42states.dfa,4.1629,4.0918,4.037,3.4855,3.6975,3.6564,4.6583,3.4373,3.4393,3.7338,3.71565
ex14.mona-walk.dot_3__30states.dfa,1.6448,0.969,1.2734,1.1277,1.0602,0.9268,1.0515,0.9738,1.2454,0.9682,1.05585
ex14.mona-walk.dot_4__30states.dfa,0.909,1.0215,0.9059,0.913,2.379,0.9075,0.9757,1.0661,0.9793,0.9094,0.94435
ex14.mona-walk.dot_5__45states.dfa,2.8997,3.0331,2.8681,3.4938,3.2581,2.8705,3.1362,3.1685,2.8555,3.0572,3.04515
ex14.mona-walk.dot_6__65states.dfa,14.8441,15.3261,14.4885,10.2332,7.8434,13.3043,14.8591,14.1964,17.1944,14.3554,14.42195
ex14.mona-walk.dot_7__65states.dfa,7.9907,8.6116,7.744,7.4546,7.3239,7.9026,7.8115,7.7937,7.5047,8.3475,7.8026
ex14.mona-walk.dot_8__77states.dfa,12.2941,11.7336,12.4662,12.7106,12.3336,12.8839,12.5815,20.5477,12.2191,12.0028,12.3999
ex14.mona-walk.dot_9__103states.dfa,39.2896,25.3825,24.3956,45.7913,24.3049,25.2953,39.4388,34.8772,24.745,26.2722,25.82735
ex15.mona.aut,0.6398,1.5244,1.331,0.6355,0.6765,0.6343,0.6817,0.6813,1.47,0.6742,0.6789
ex16.mona-walk.dot_56__16states.dfa,23.8549,33.1786,13.4041,21.6238,13.5466,34.0624,25.4867,37.1138,13.1523,13.7696,22.73935
ex16.mona-walk.dot_58__25states.dfa,51.9903,66.077,27.4655,64.6472,28.8894,60.8348,93.0835,53.6427,28.0221,40.7675,52.8165
ex16.mona.aut,3467.0893,3504.2908,3663.7292,3517.5753,4093.9259,3727.7086,3638.3139,3509.6213,3997.6355,3847.0088,3651.02155
ex17.mona.aut,0.0296,0.0276,0.0276,0.0307,0.0268,0.0284,0.0284,0.0311,0.0335,0.0268,0.0284
ex18.mona-walk.dot_106__298states.dfa,5410.3672,5373.0572,5421.118,5740.6904,5435.0081,5419.1636,6694.3669,5679.1091,5568.7841,5529.0978,5482.05295
ex18.mona-walk.dot_107__298states.dfa,5633.3299,5208.7706,5293.5062,5434.9125,5327.3882,5322.4086,5836.5075,5360.5918,5456.3725,5529.3382,5397.75215
ex18.mona-walk.dot_109__269states.dfa,2812.8697,2408.0304,2660.0368,2680.4259,2722.455,2458.5069,3662.6019,2829.06,2757.7341,2439.8353,2701.44045
ex18.mona-walk.dot_94__108states.dfa,34.6166,16.1164,18.5582,15.4023,17.4391,23.5454,20.209,14.5074,32.5099,154.46,19.3836
ex18.mona-walk.dot_95__172states.dfa,41.0126,44.701,42.408,105.3094,40.2346,45.7128,78.475,42.125,39.5757,47.7476,43.5545
ex18.mona-walk.dot_96__300states.dfa,140.9378,143.1065,142.4528,139.9545,126.2641,127.7207,158.81,127.607,145.9659,147.2129,141.6953
ex18.mona-walk.dot_97__556states.dfa,548.1448,641.43,601.4259,547.3237,546.6601,671.6299,541.4014,545.755,542.8229,551.3358,547.73425
ex18.mona-walk.dot_98__1068states.dfa,2209.8498,2170.5049,2262.1674,2239.0822,2170.0474,2240.1982,2216.5943,2287.8211,2220.0972,2221.5037,2220.80045
ex18.mona-walk.dot_99__2056states.dfa,9165.0453,9202.7098,9288.7271,9276.0883,8972.7609,9224.7761,10157.7773,9186.4793,9083.3835,8952.0154,9194.59455
ex19.mona-walk.dot_10__119states.dfa,13.7953,14.4008,14.8114,13.9568,22.0023,22.3177,14.5406,22.1152,21.3135,14.265,14.676
ex19.mona-walk.dot_47__135states.dfa,28.3738,25.7709,25.4618,20.2904,34.4201,33.2808,26.7514,34.2349,34.2851,26.0863,27.5626
ex19.mona-walk.dot_49__247states.dfa,90.8047,89.5458,87.1608,86.2967,89.6382,88.0581,90.4652,87.3112,110.0316,90.8536,89.592
ex19.mona-walk.dot_51__141states.dfa,54.6789,66.7097,47.7074,52.3124,70.8241,50.0798,53.6269,49.9838,55.8248,52.4269,53.0269
ex19.mona.aut,7476.6712,7741.6895,7410.773,7437.3694,7351.1271,7372.9743,7773.7735,7371.4471,7335.8294,7399.9126,7405.3428
ex20.mona-walk.dot_20__20states.dfa,0.1575,0.1965,0.1689,0.1878,0.1634,0.1515,0.1559,0.1563,0.1563,0.1571,0.1573
ex3.mona-walk.dot_33__579states.dfa,812.5089,820.7136,832.6509,814.3808,781.9664,786.2726,808.2248,802.5615,817.1353,846.9057,813.44485
ex3.mona-walk.dot_34__449states.dfa,533.8193,544.7145,541.4764,608.1854,589.8431,578.8022,568.1944,548.3228,547.857,546.4865,548.0899
ex4.mona-walk.dot_20__276states.dfa,549.8532,554.7898,578.8452,557.6485,527.6424,522.8337,577.0571,562.0301,579.4697,569.6245,559.8393
ex4.mona-walk.dot_21__531states.dfa,1718.2759,1722.5513,1713.3867,1704.0136,1707.0697,1688.5852,1674.3963,1705.495,1708.977,1661.1737,1706.28235
ex4.mona-walk.dot_22__139states.dfa,60.3126,66.2799,63.7089,62.55,67.1862,70.039,68.1304,52.6306,54.0173,70.7278,64.9944
ex4.mona-walk.dot_23__139states.dfa,75.7734,72.2266,70.7499,72.0435,59.3376,60.5498,69.8538,75.5934,79.8487,66.1488,71.3967
ex4.mona-walk.dot_24__147states.dfa,64.9907,76.2826,76.2024,72.9841,66.7236,63.1279,85.3572,66.7721,65.3278,80.406,69.8781
ex4.mona-walk.dot_25__151states.dfa,58.9018,38.9702,38.9177,38.5538,41.2498,48.9054,40.22,61.6184,59.0321,40.7067,40.97825
ex4.mona-walk.dot_26__602states.dfa,950.1657,920.5266,985.1798,945.6491,931.9717,935.22,951.4825,945.3526,924.9856,932.9424,940.2863
ex4.mona-walk.dot_38__134states.dfa,37.5124,50.5037,42.2426,35.6765,50.0419,51.5403,37.2535,41.3019,35.682,35.0497,39.40715
ex5.mona-walk.dot_3__66states.dfa,3.2885,3.8135,3.2743,3.1014,4.1597,3.3916,3.4373,18.7923,3.1022,3.0841,3.34005
ex7.mona.aut,47.2949,49.7565,46.6976,44.5664,47.0292,45.4072,47.0766,45.8521,48.1984,45.6362,46.8634
ex8.mona-walk.dot_18__242states.dfa,85.6051,91.756,93.1064,74.9941,76.5202,78.955,88.3182,91.8408,86.7803,84.2618,86.1927
horn_trans05.mona.aut,0.8044,0.6718,0.7405,0.72,0.6023,0.6477,0.6607,0.6398,0.6418,0.8163,0.66625
horn_trans10.mona.aut,22.6023,22.5167,23.7487,22.3272,22.506,22.3083,22.8581,24.0783,22.7381,23.5509,22.6702
parametric_uabe1_11.mona-walk.dot_0__167states.dfa,72.8006,75.9968,75.1019,72.2503,66.9324,68.3353,74.0148,75.2464,72.6068,72.4129,72.7037
parametric_uabe1_11.mona.aut,10610.9024,10411.9462,10533.9061,10436.5558,10375.1024,10440.3082,11298.8277,10434.8478,10509.7248,10490.1599,10465.23405
parametric_uabe1_12.mona-walk.dot_0__181states.dfa,82.6205,85.3726,86.0844,83.0192,82.03,80.3097,83.6239,96.59,80.7147,94.1576,83.32155
parametric_uabe1_13.mona-walk.dot_0__195states.dfa,91.6826,87.6902,91.9147,84.1553,88.9494,88.7015,110.2558,87.8181,90.3246,91.7193,89.637
parametric_uabe1_14.mona-walk.dot_0__209states.dfa,97.8014,96.2157,98.7042,97.7927,97.5113,95.2123,95.9118,96.2213,93.4119,92.911,96.2185
parametric_uabe2_03.mona-walk.dot_0__142states.dfa,52.571,56.2705,84.2303,52.1383,65.4403,52.8477,51.8644,53.6324,66.032,66.8503,54.95145
parametric_uabe2_04.mona-walk.dot_0__702states.dfa,1642.09,1643.4424,1657.5748,1698.0972,1657.2054,1628.3795,1708.0308,1655.4515,1648.6447,1640.3733,1652.0481
parametric_uabe2_05.mona-walk.dot_0__86states.dfa,12.5827,18.5567,18.1805,19.8325,12.5953,12.4339,19.3813,19.4172,17.8765,18.5421,18.3613
parametric_uabe2_06.mona-walk.dot_0__91states.dfa,22.0098,37.3238,10.5928,11.0771,20.6239,19.5376,12.8467,10.8415,9.8009,11.1269,11.9868
parametric_uabe2_07.mona-walk.dot_0__108states.dfa,14.3997,13.935,15.7189,15.2006,13.6244,13.5687,16.7598,15.9774,15.9526,15.9087,15.45975
parametric_uabe2_08.mona-walk.dot_0__125states.dfa,19.7772,21.5358,22.8771,23.1889,22.3288,20.0855,24.5871,22.7977,25.2593,23.3038,22.8374
parametric_uabe3_06.mona-walk.dot_0__97states.dfa,27.0913,27.2832,26.0958,26.0299,26.0895,25.4441,27.1762,26.4976,25.1914,25.1172,26.09265
parametric_uabe3_07.mona-walk.dot_0__111states.dfa,30.9381,30.6909,29.8991,29.7286,30.6013,31.0115,31.6273,30.7956,29.9757,30.9787,30.74325
parametric_uabe3_08.mona-walk.dot_0__125states.dfa,36.1664,35.0433,33.059,33.8382,35.2233,33.8102,35.9122,34.9328,34.1497,39.3736,34.98805
parametric_uabe3_09.mona-walk.dot_0__139states.dfa,37.6538,37.6798,37.1623,36.9894,36.2872,36.6164,40.7833,38.9067,36.7443,39.4396,37.40805
parametric_uabe3_10.mona-walk.dot_0__153states.dfa,40.9269,42.8651,40.7904,42.0223,37.0952,37.2685,42.23,43.8587,42.8616,47.4776,42.12615
parametric_uabe3_10.mona.aut,10555.5501,10057.8202,9683.1184,9764.3878,9777.4446,9623.3308,10773.6452,9714.7185,10128.5031,9860.2574,9818.851
parametric_uabe3_11.mona-walk.dot_0__167states.dfa,47.4761,51.4925,47.5361,46.0451,50.8408,50.7982,57.7042,47.6612,45.8789,54.8423,49.2297
parametric_uabe3_12.mona-walk.dot_0__181states.dfa,56.9261,53.3324,59.0364,57.1113,51.815,51.0054,58.1601,54.7294,58.5473,58.9804,57.0187
parametric_uabe3_13.mona-walk.dot_0__195states.dfa,58.5836,56.7663,56.364,60.5783,57.5589,55.933,62.8658,53.8132,59.456,60.7902,58.07125
parametric_uabe3_14.mona-walk.dot_0__209states.dfa,60.6521,72.409,62.4027,63.7926,67.204,67.9003,67.1463,63.9849,64.5466,71.3357,65.84645
set_closed05.mona.aut,3.0193,4.6701,3.0667,3.5262,4.2695,3.6316,2.9735,2.979,3.0205,2.9731,3.0436
set_closed10.mona.aut,48.1242,52.7731,43.9522,56.2811,51.532,72.3932,48.0709,50.9806,80.5939,45.271,51.2563
set_obvious05.mona.aut,0.0256,0.0276,0.0256,0.0264,0.0244,0.0252,0.0248,0.0244,0.026,0.0248,0.0254
set_obvious10.mona.aut,0.0272,0.0244,0.0244,0.0236,0.0244,0.0248,0.0252,0.0351,0.0236,0.0307,0.0246
set_singletons05.mona.aut,38.8711,4.8774,36.6701,5.1363,38.8719,4.7641,6.0256,5.1221,5.1568,37.6289,5.5912
set_singletons10.mona.aut,430.7504,437.3927,392.1236,442.9613,398.9747,458.0995,456.2229,432.0803,394.0301,393.9378,431.41535
strand-new-sorted-list-insert-after-loop.mona.aut,1571.4561,1576.024,1566.842,1596.9417,1571.6187,1572.9158,1700.9472,1563.9782,1561.5481,1559.0621,1571.5374
strand-new-sorted-list-insert-before-head.mona.aut,245.1695,257.6997,225.3469,234.662,256.9103,221.6573,263.5395,251.5473,253.8238,251.4696,251.50845
strand-new-sorted-list-insert-before-loop.mona.aut,827.8785,777.7399,639.8885,652.701,645.9656,646.3157,691.7502,808.0002,643.663,646.9244,649.8127
strand-new-sorted-list-insert-error-error.mona.aut,688.1312,668.7172,660.8208,827.7814,822.0502,834.4462,865.3085,678.6835,682.989,652.1314,685.5601
strand-new-sorted-list-reverse-after-loop.mona.aut,12319.8006,12237.2834,12117.1401,12125.1012,12123.7267,12067.1653,13123.9403,12200.9165,12067.099,12208.4043,12163.00885
strand-new-sorted-list-reverse-before-loop.mona.aut,12427.8542,12371.3291,12183.2183,11961.3001,11939.2697,12750.1863,13124.8636,12127.6366,12234.2116,11981.7859,12208.71495
strand-new-sorted-list-search-after-loop.mona.aut,1388.9412,1372.627,1373.1686,1417.6056,1410.1087,1461.0388,1418.6741,1524.9909,1375.3124,1424.6635,1413.85715
strand-new-sorted-list-search-before-loop.mona.aut,451.0716,429.3167,434.7913,443.6051,439.6601,446.8317,447.7826,456.2044,477.694,449.3407,447.30715
strand-old-bubblesort-loop-else.mona-walk.dot_0__1044states.dfa,1.149,1.2311,1.3389,1.1467,1.2252,1.2236,1.2248,1.2051,1.2288,1.2244,1.2246
strand-old-bubblesort-loop-if-else.mona-walk.dot_0__1027states.dfa,0.0303,0.0307,0.03,0.0327,0.0315,0.0311,0.0292,0.0335,0.0386,0.0339,0.0313
strand-old-bubblesort-loop-if-if.mona-walk.dot_0__2051states.dfa,0.0303,0.0288,0.03,0.0319,0.0339,0.0497,0.0339,0.0331,0.0477,0.0307,0.0325
strand-old-sorted-list-insert-after-loop.mona-walk.dot_0__151states.dfa,1.7068,1.6373,1.6322,1.755,2.8729,1.6156,1.7186,1.7072,1.7033,1.6997,1.70505
strand-old-sorted-list-insert-before-head.mona-walk.dot_0__114states.dfa,18.6463,19.4136,23.1084,21.0964,18.231,20.2394,19.6777,22.0004,19.4772,18.4615,19.57745
strand-old-sorted-list-insert-before-loop.mona-walk.dot_0__131states.dfa,0.0303,0.0331,0.0264,0.0284,0.0667,0.0276,0.0268,0.0256,0.0315,0.0307,0.02935
strand-old-sorted-list-insert-error-before-loop.mona-walk.dot_0__156states.dfa,2.8705,2.6597,8.9317,13.4337,3.0493,8.4371,3.0067,3.0789,2.6684,2.8046,3.028
strand-old-sorted-list-insert-in-loop.mona-walk.dot_0__515states.dfa,0.0307,0.0296,0.0288,0.0296,0.0315,0.0331,0.0331,0.0319,0.0347,0.0319,0.0317
strand-old-sorted-list-reverse-after-loop.mona-walk.dot_0__131states.dfa,0.0292,0.0264,0.0296,0.0307,0.0292,0.0256,0.0288,0.0256,0.0864,0.0252,0.029
strand-old-sorted-list-reverse-before-loop.mona-walk.dot_0__212states.dfa,178.8876,184.8644,186.4544,211.3447,209.0915,182.0661,190.9986,205.0821,211.1627,219.9611,198.04035
strand-old-sorted-list-reverse-in-loop.mona-walk.dot_0__515states.dfa,0.0434,0.0307,0.0296,0.0296,0.0327,0.0331,0.0303,0.0331,0.0323,0.0331,0.0325
strand-old-sorted-list-search-after-loop.mona-walk.dot_0__317states.dfa,7769.9623,7646.3654,7911.3947,7840.972,8066.3383,7486.3479,8484.3817,7800.5408,7786.3085,7338.4603,7793.42465
strand-old-sorted-list-search-before-loop.mona-walk.dot_0__112states.dfa,16.9816,30.8824,25.3892,16.8711,16.219,17.0519,17.5903,17.0132,27.2579,15.9001,17.03255
toss05.mona.aut,20.8288,18.0628,19.7203,20.7506,19.9082,20.5004,16.8514,24.7853,15.0814,14.6337,19.81425
toss10.mona.aut,39799.8125,39869.3577,39866.6285,39604.4938,39569.8862,42298.8016,41370.7492,39863.4149,39727.4887,40119.1402,39865.0217
veanes05.mona.aut,0.4764,0.4681,0.4697,0.4535,0.2478,0.2735,0.4239,0.2348,0.2388,0.2482,0.3487
veanes05_1alts.mona.aut,1.0961,1.6405,0.5613,0.6027,1.2627,0.6292,1.6527,0.5581,0.5956,0.6209,0.62505
veanes05_2alts.mona.aut,10.0867,4.6275,5.8938,6.2637,5.4754,9.7469,4.83,4.7451,5.642,4.6614,5.5587
veanes05_3alts.mona.aut,0.7681,2.3127,0.7922,0.8072,0.7677,0.7677,1.3152,0.7184,0.7606,0.9,0.78015
veanes05_4alts.mona.aut,2.2034,2.651,1.9294,2.321,2.6104,1.9393,2.5602,3.9927,2.0522,2.111,2.2622
veanes10.mona.aut,0.686,1.3389,0.6836,0.6844,0.6742,0.7144,0.6706,0.63,0.671,1.4542,0.684
veanes10_1alts.mona.aut,2.1015,2.9731,1.8248,1.8296,1.8233,1.8256,2.9546,1.8197,1.9413,2.2286,1.88545
veanes10_2alts.mona.aut,32825.3766,32210.123,32021.0542,32207.6183,32480.9944,33952.3241,33362.5832,32030.3554,31635.3238,32372.4454,32291.2842
veanes10_3alts.mona.aut,2.6092,3.6623,3.6229,2.7031,3.6844,4.8039,3.0679,2.4106,2.4773,3.7563,3.3454
veanes10_4alts.mona.aut,8756.9039,8599.9547,8674.3319,8589.5285,8493.8167,9684.307,9521.6419,8578.2129,8531.2274,8531.4757,8594.7416
