id,time,time,time,time,time,time,time,time,time,time,median
array_axiom.mona-walk.dot_26__901states.dfa,1846.8011,1840.7577,1845.1495,1809.259,1878.7004,1845.5502,1815.2934,1823.3607,1848.2013,1850.4241,1845.34985
array_axiom.mona-walk.dot_27__897states.dfa,1152.2127,1163.458,1135.0467,1135.7086,1140.3634,1108.5632,1050.2235,1160.6278,1143.757,1129.8195,1138.036
array_axiom.mona-walk.dot_36__105states.dfa,10.1025,9.9237,10.397,10.9406,11.2007,10.6346,32.774,10.8948,11.1873,10.9331,10.91395
ex10.mona-walk.dot_5__242states.dfa,48.7598,45.3259,50.1603,46.1217,48.369,50.5167,48.6133,46.3874,67.0804,48.8596,48.68655
ex11.mona-walk.dot_0__143states.dfa,20.9527,19.189,16.9872,17.9815,18.0838,17.3488,19.3876,18.2997,27.2843,20.0859,18.74435
ex11.mona-walk.dot_2__143states.dfa,17.6661,17.5114,18.3498,18.2835,18.9423,17.9681,18.5428,18.9617,18.6865,18.7272,18.4463
ex11.mona-walk.dot_4__281states.dfa,86.77,87.7806,88.3656,87.43,87.5291,87.6432,91.1043,99.1913,83.9307,84.6767,87.58615
ex11.mona-walk.dot_5__281states.dfa,175.1451,166.6057,164.9592,163.7229,165.1783,190.9106,180.1682,166.3625,163.9029,162.5537,165.7704
ex11.mona-walk.dot_6__301states.dfa,126.7919,118.5604,117.8262,116.6151,119.1079,119.0333,125.9973,116.5772,122.055,123.1508,119.0706
ex11.mona-walk.dot_7__325states.dfa,184.1124,175.8959,169.9389,174.7397,180.6347,173.2105,180.6667,184.5746,177.5763,181.8829,179.1055
ex11.mona.aut,3362.5126,3222.7708,3166.9807,3155.403,3217.6246,3204.2599,3258.4647,3163.3625,3158.3481,3237.0182,3210.94225
ex12.mona-walk.dot_13__317states.dfa,115.1913,118.5616,155.7101,125.9057,121.3721,114.0714,114.8913,128.07,114.7997,115.0582,116.87645
ex12.mona-walk.dot_14__317states.dfa,444.1463,471.7248,445.2977,451.5674,451.5926,437.864,477.9526,446.9355,456.14,504.6563,451.58
ex12.mona-walk.dot_15__290states.dfa,340.3866,339.8166,337.2808,346.8375,343.9211,347.0048,340.6207,341.2393,337.4008,338.4117,340.50365
ex12.mona-walk.dot_16__280states.dfa,416.5954,413.4932,422.6614,418.5893,410.8918,420.2191,413.3369,414.3237,412.2817,416.0365,415.1801
ex12.mona-walk.dot_17__280states.dfa,396.4756,408.0268,399.7835,392.377,389.7985,395.799,390.4739,388.6901,403.5134,391.5682,394.088
ex12.mona.aut,117.8214,118.6156,117.1393,123.3671,121.2624,110.375,118.1242,119.0597,121.6472,117.7492,118.3699
ex13.mona.aut,802.8031,805.9034,812.9416,859.6278,859.4948,802.4881,900.2757,799.914,842.4894,850.9124,827.7155
ex14.mona-walk.dot_10__103states.dfa,11.6499,11.3838,10.9082,11.6329,10.7546,9.7208,8.308,8.2658,12.0707,9.0363,10.8314
ex14.mona-walk.dot_11__202states.dfa,43.7987,39.9965,41.0833,41.1208,39.8379,39.2248,38.4377,40.9514,38.7097,37.9553,39.9172
ex14.mona-walk.dot_12__316states.dfa,115.3717,106.8188,106.9183,106.222,107.9999,100.7414,111.6252,110.7264,102.226,104.6249,106.86855
ex14.mona-walk.dot_13__316states.dfa,105.2908,111.0449,105.2359,109.9014,100.2827,107.5341,107.2763,101.1441,108.5099,105.6382,106.45725
ex14.mona-walk.dot_14__852states.dfa,949.3537,951.5611,945.1339,952.2961,944.9425,940.3627,951.209,945.8409,953.4834,941.0097,947.5973
ex14.mona-walk.dot_15__852states.dfa,1302.2737,1301.204,1285.0781,1305.3357,1285.2095,1390.1956,1292.2173,1287.5113,1285.2155,1440.9102,1296.71065
ex14.mona-walk.dot_16__852states.dfa,2422.8256,2397.4261,2463.7822,2390.0685,2403.0105,2461.0719,2439.5657,2405.9019,2539.8402,2455.7836,2431.19565
ex14.mona-walk.dot_17__167states.dfa,74.8666,65.3325,65.2547,73.4586,60.8072,65.5105,65.4849,61.5319,65.8646,64.0757,65.4087
ex14.mona-walk.dot_21__35states.dfa,1.0444,1.1218,16.4369,0.9351,12.306,0.9414,1.0164,1.4111,1.0417,1.1972,1.0831
ex14.mona-walk.dot_22__53states.dfa,3.7677,3.4839,3.2771,3.4717,3.2451,3.6004,3.2471,3.2905,3.4879,3.4788,3.47525
ex14.mona-walk.dot_24__42states.dfa,2.0317,1.8011,1.8315,1.9819,2.1513,1.6894,1.7909,1.9661,2.0143,1.8039,1.8988
ex14.mona-walk.dot_3__30states.dfa,0.643,0.5609,0.5289,0.6572,0.5636,0.6576,0.5625,0.5731,0.5253,0.5589,0.56305
ex14.mona-walk.dot_4__30states.dfa,0.7065,0.57,0.5321,0.5613,0.7563,0.5277,0.5285,0.5909,0.564,0.6288,0.567
ex14.mona-walk.dot_5__45states.dfa,2.9755,1.3859,2.3605,1.4917,16.6366,1.453,1.3634,1.3571,1.3942,18.3988,1.47235
ex14.mona-walk.dot_6__65states.dfa,5.2275,3.009,3.009,3.0165,3.0304,3.5163,3.0244,3.0165,3.015,3.2218,3.02045
ex14.mona-walk.dot_7__65states.dfa,3.009,3.7654,3.2123,3.2127,3.0063,3.0272,3.0505,3.39,3.6063,3.2341,3.2125
ex14.mona-walk.dot_8__77states.dfa,4.3504,4.3314,4.3346,4.335,4.4964,4.7775,4.3429,5.0388,4.3231,4.3421,4.3425
ex14.mona-walk.dot_9__103states.dfa,8.5307,8.2437,8.5824,13.0323,13.1041,12.3415,10.1728,12.666,9.1228,12.9825,11.25715
ex15.mona.aut,0.2873,0.2869,0.2885,0.2715,0.2743,0.2715,0.2881,0.2688,0.2873,0.2913,0.2871
ex16.mona-walk.dot_56__16states.dfa,4.247,4.6599,4.2221,3.9829,4.2864,4.3662,4.3318,4.4751,3.9876,12.7062,4.3091
ex16.mona-walk.dot_58__25states.dfa,5.7367,5.7414,5.687,5.7383,5.3676,30.9302,31.2598,5.6901,31.4307,5.3771,5.7375
ex16.mona.aut,186.5243,186.8096,191.8947,195.5429,192.3032,188.6586,195.8294,186.6758,198.3455,193.1693,192.09895
ex17.mona.aut,0.0106,0.011,0.0114,0.0114,0.011,0.0106,0.011,0.0106,0.0114,0.0157,0.011
ex18.mona-walk.dot_106__298states.dfa,737.4232,737.4946,791.5826,733.3708,739.6195,805.0235,789.3425,719.3658,817.8312,794.9537,764.481
ex18.mona-walk.dot_107__298states.dfa,804.7334,722.1586,770.2394,720.6747,719.2245,762.1058,758.2251,707.2145,769.2068,761.5935,759.9093
ex18.mona-walk.dot_109__269states.dfa,532.3643,528.4978,549.3388,520.5611,530.8753,585.5365,576.2289,527.0199,551.037,586.9662,540.85155
ex18.mona-walk.dot_94__108states.dfa,11.5552,23.4854,9.1658,11.389,24.2441,25.0995,24.1316,18.6905,29.5675,24.111,23.7982
ex18.mona-walk.dot_95__172states.dfa,20.4088,19.0994,19.2964,20.0622,18.9948,20.2023,19.3201,20.0772,19.7097,20.1427,19.88595
ex18.mona-walk.dot_96__300states.dfa,57.6564,54.0978,57.0603,60.1527,57.3682,57.9722,54.9414,57.3272,58.8552,57.8123,57.5123
ex18.mona-walk.dot_97__556states.dfa,365.0243,402.7267,191.9085,372.7636,199.765,195.8527,195.5413,184.5221,198.1225,195.1821,196.9876
ex18.mona-walk.dot_98__1068states.dfa,711.7753,781.887,746.3956,699.3166,702.435,737.2526,704.2575,693.1586,684.8458,706.4491,705.3533
ex18.mona-walk.dot_99__2056states.dfa,2516.3441,2466.3788,2529.1365,2521.4371,2492.2958,2476.3558,2541.2293,2509.6612,2481.1357,2560.9675,2513.00265
ex19.mona-walk.dot_10__119states.dfa,8.1971,10.9848,9.3679,9.6588,9.7559,9.8084,10.7534,11.8181,8.4166,10.7902,9.78215
ex19.mona-walk.dot_47__135states.dfa,11.4892,13.1783,12.5621,17.6235,17.7853,16.3797,17.556,15.5183,14.4589,17.2114,15.949
ex19.mona-walk.dot_49__247states.dfa,45.6563,47.1741,45.9311,46.1138,45.4128,47.0115,44.7445,51.5723,47.6517,45.1854,46.02245
ex19.mona-walk.dot_51__141states.dfa,28.3679,19.8735,22.1219,20.479,21.1434,26.7179,38.7251,23.4254,25.4918,28.9671,24.4586
ex19.mona.aut,438.3708,435.3878,430.8665,456.2075,450.264,437.4385,460.2698,432.7667,452.5704,450.8359,444.3174
ex20.mona-walk.dot_20__20states.dfa,0.0738,0.073,0.0734,0.075,0.0686,0.0675,0.069,0.0682,0.073,0.0682,0.071
ex3.mona-walk.dot_33__579states.dfa,404.1185,398.4718,417.1836,414.4638,416.1892,402.0931,392.0138,357.1382,381.8153,400.4928,401.29295
ex3.mona-walk.dot_34__449states.dfa,308.2651,302.8473,300.3016,279.9919,293.0341,325.6411,295.6263,445.7031,281.9328,288.3201,297.96395
ex4.mona-walk.dot_20__276states.dfa,322.6987,332.6055,335.6829,350.5235,308.3756,339.866,317.6409,354.6584,319.5361,332.3955,332.5005
ex4.mona-walk.dot_21__531states.dfa,1077.6369,1102.3978,1086.6978,1057.3224,1074.7013,1100.6475,1056.6099,1069.6585,1054.0185,1072.2712,1073.48625
ex4.mona-walk.dot_22__139states.dfa,29.0962,31.0217,27.5595,30.0049,34.6095,31.6553,32.5245,30.1052,34.3186,33.1297,31.3385
ex4.mona-walk.dot_23__139states.dfa,32.7045,33.1293,22.3762,32.7168,38.8463,33.5895,34.9316,22.0244,49.0933,36.4861,33.3594
ex4.mona-walk.dot_24__147states.dfa,38.0035,39.9279,36.9136,40.0352,34.6008,37.0174,32.305,39.68,32.2983,33.0499,36.9655
ex4.mona-walk.dot_25__151states.dfa,31.6936,48.1834,47.6146,39.0902,39.346,46.9321,32.5731,44.8582,41.2187,31.9774,40.28235
ex4.mona-walk.dot_26__602states.dfa,398.4062,387.511,394.7415,361.2557,373.7776,398.8618,382.7359,395.4737,376.8878,400.2548,391.12625
ex4.mona-walk.dot_38__134states.dfa,18.8511,26.3642,25.9454,19.4428,25.3932,24.1699,18.9036,24.7931,24.2389,23.6243,24.2044
ex5.mona-walk.dot_3__66states.dfa,2.0258,3.1121,3.2522,9.3719,2.4339,2.1635,2.2058,2.3084,2.4509,2.171,2.37115
ex7.mona.aut,15.1512,14.6104,15.9608,15.9715,16.2956,15.846,14.5552,15.5333,15.4181,15.8006,15.66695
ex8.mona-walk.dot_18__242states.dfa,50.2992,51.5383,50.5171,51.9966,51.3141,52.2962,51.461,52.2856,50.1062,52.1016,51.49965
horn_trans05.mona.aut,0.1776,0.1772,0.1764,0.1744,0.176,0.1776,0.178,0.1764,0.165,0.1669,0.1764
horn_trans10.mona.aut,0.5581,1.0196,0.5321,0.5696,0.6303,0.5289,0.5297,0.5301,0.5502,1.3425,0.55415
parametric_uabe1_11.mona-walk.dot_0__167states.dfa,27.2078,28.9798,28.4678,29.247,27.535,28.8783,28.9134,27.9921,27.2903,28.7938,28.6308
parametric_uabe1_11.mona.aut,4085.9782,4050.2996,4072.2345,4014.9132,4026.44,4096.4514,4000.3035,4091.2669,4000.5901,4002.5125,4038.3698
parametric_uabe1_12.mona-walk.dot_0__181states.dfa,33.1537,33.7825,33.5512,32.4614,35.0019,33.4506,31.5783,34.1962,32.5194,32.2028,33.30215
parametric_uabe1_13.mona-walk.dot_0__195states.dfa,37.8484,37.1726,34.3999,40.1319,36.2138,35.5364,38.1642,35.5131,40.2381,37.0281,37.10035
parametric_uabe1_14.mona-walk.dot_0__209states.dfa,41.5479,44.2542,38.7736,39.5868,39.8229,39.6859,40.0526,41.6931,39.3164,39.7561,39.7895
parametric_uabe2_03.mona-walk.dot_0__142states.dfa,44.3778,44.9217,50.8361,47.0801,46.3878,44.4149,49.9396,46.8812,44.6257,49.3215,46.6345
parametric_uabe2_04.mona-walk.dot_0__702states.dfa,1529.3145,1496.216,1461.9352,1467.7434,1463.5785,1513.3761,1480.5026,1484.7259,1482.7163,1499.032,1483.7211
parametric_uabe2_05.mona-walk.dot_0__86states.dfa,11.7312,12.1038,11.2583,12.4607,12.5519,11.8311,12.8081,10.6216,12.5175,12.4299,12.26685
parametric_uabe2_06.mona-walk.dot_0__91states.dfa,9.9423,11.1561,10.0982,9.9991,10.8711,10.2983,10.0204,10.1834,10.1791,9.7125,10.13865
parametric_uabe2_07.mona-walk.dot_0__108states.dfa,14.5133,13.8833,13.8087,15.5112,13.9244,14.5544,15.5077,15.5499,15.7966,15.2629,14.90865
parametric_uabe2_08.mona-walk.dot_0__125states.dfa,20.1889,19.6371,19.2668,18.5124,19.2182,19.8696,19.8025,21.0696,18.1228,19.6793,19.6582
parametric_uabe3_06.mona-walk.dot_0__97states.dfa,10.3788,11.3313,11.2473,10.9962,9.6955,9.6959,11.1679,9.7698,10.0019,11.3803,10.6875
parametric_uabe3_07.mona-walk.dot_0__111states.dfa,13.7207,13.3374,13.0875,12.2866,12.9573,14.0428,12.3292,12.9833,12.3924,12.4181,12.9703
parametric_uabe3_08.mona-walk.dot_0__125states.dfa,14.5686,15.5069,15.6407,15.9486,16.5822,17.4549,15.0636,16.594,17.9823,15.0932,15.79465
parametric_uabe3_09.mona-walk.dot_0__139states.dfa,17.7538,16.7993,16.4326,18.8653,18.9652,19.2455,16.6173,18.1465,18.0198,18.4852,18.08315
parametric_uabe3_10.mona-walk.dot_0__153states.dfa,19.9303,19.6315,18.5247,20.4759,20.6717,20.5742,20.3902,20.4964,20.6113,19.7282,20.43305
parametric_uabe3_10.mona.aut,3275.4405,3296.1604,3270.9559,3257.4736,3297.9426,3284.2637,3459.823,3281.6636,3273.8935,3291.7669,3282.96365
parametric_uabe3_11.mona-walk.dot_0__167states.dfa,21.8539,24.8808,22.5048,22.4748,23.3192,23.2604,23.6216,23.6231,21.3459,22.9035,23.08195
parametric_uabe3_12.mona-walk.dot_0__181states.dfa,24.6278,27.0147,23.5489,26.3117,23.5205,26.1739,25.9067,25.3971,24.5105,24.7521,25.0746
parametric_uabe3_13.mona-walk.dot_0__195states.dfa,28.332,27.7359,27.8769,27.1126,27.2871,28.1236,27.5611,28.2447,29.3054,28.2826,28.00025
parametric_uabe3_14.mona-walk.dot_0__209states.dfa,31.8286,32.7661,33.7956,33.1202,31.8325,31.4998,33.1107,34.0466,31.2906,33.6266,32.9384
set_closed05.mona.aut,0.78,0.6975,0.7298,0.7784,0.6955,0.6998,0.7014,0.7203,0.7768,0.6975,0.71085
set_closed10.mona.aut,3.4026,2.1675,3.6394,3.2644,1.9954,1.9973,1.9883,2.2006,3.3833,2.0017,2.18405
set_obvious05.mona.aut,0.0094,0.0094,0.0094,0.0142,0.009,0.0094,0.0098,0.0118,0.0134,0.009,0.0094
set_obvious10.mona.aut,0.0098,0.0126,0.0102,0.009,0.0094,0.009,0.0138,0.0094,0.009,0.0086,0.0094
set_singletons05.mona.aut,0.6003,0.5569,0.6071,0.7448,0.5553,0.5601,0.6071,1.0492,0.9051,0.5565,0.6037
set_singletons10.mona.aut,1.9871,1.8675,2.5662,2.0427,1.8525,2.1304,2.5902,3.9331,2.7872,1.8809,2.08655
strand-new-sorted-list-insert-after-loop.mona.aut,516.5289,454.8903,453.9027,452.5475,451.7115,450.7282,447.2379,451.4884,456.9252,445.3901,452.1295
strand-new-sorted-list-insert-before-head.mona.aut,62.2962,65.8015,64.0784,60.8881,61.6595,62.8456,61.7637,62.7785,61.2189,60.7097,62.02995
strand-new-sorted-list-insert-before-loop.mona.aut,187.365,187.0931,185.4127,184.4949,185.8714,186.6198,178.3192,182.3598,187.0777,186.1177,185.99455
strand-new-sorted-list-insert-error-error.mona.aut,188.9736,185.7664,180.2783,185.931,184.3125,186.1552,184.8332,192.4572,181.1215,185.8256,185.796
strand-new-sorted-list-reverse-after-loop.mona.aut,1634.3555,1616.7679,1624.8229,1669.4423,1687.2502,1611.7243,1582.3158,1693.1989,1666.1079,1678.7404,1650.2317
strand-new-sorted-list-reverse-before-loop.mona.aut,1608.3066,1710.6622,1654.5176,1607.1256,1625.9523,1685.9969,1704.1616,1633.1586,1600.2788,1619.235,1629.55545
strand-new-sorted-list-search-after-loop.mona.aut,271.7264,272.1476,273.8793,274.3925,268.4698,275.0434,274.3041,271.5543,272.3627,267.6061,272.25515
strand-new-sorted-list-search-before-loop.mona.aut,123.5436,129.2614,127.6366,122.4999,122.5622,126.6304,122.702,124.4657,122.1939,125.5903,124.00465
strand-old-bubblesort-loop-else.mona-walk.dot_0__1044states.dfa,0.6375,0.6457,0.6323,0.6343,0.6367,0.6311,0.6355,0.6438,0.6363,0.7267,0.6365
strand-old-bubblesort-loop-if-else.mona-walk.dot_0__1027states.dfa,0.0134,0.015,0.0134,0.0142,0.0142,0.0189,0.0126,0.0134,0.013,0.013,0.0134
strand-old-bubblesort-loop-if-if.mona-walk.dot_0__2051states.dfa,0.0311,0.024,0.0122,0.013,0.0134,0.013,0.0142,0.013,0.0122,0.028,0.0132
strand-old-sorted-list-insert-after-loop.mona-walk.dot_0__151states.dfa,0.7188,0.671,1.6338,0.6785,0.6852,0.7444,0.6773,0.7215,0.6813,0.8127,0.702
strand-old-sorted-list-insert-before-head.mona-walk.dot_0__114states.dfa,6.6446,6.9963,7.8217,7.9938,7.5213,6.3833,7.9295,7.8628,7.5718,8.2433,7.69675
strand-old-sorted-list-insert-before-loop.mona-walk.dot_0__131states.dfa,0.0102,0.0098,0.011,0.0114,0.011,0.011,0.0118,0.0098,0.0102,0.0106,0.0108
strand-old-sorted-list-insert-error-before-loop.mona-walk.dot_0__156states.dfa,1.4731,1.3732,1.6342,1.5813,1.4929,1.4194,1.5177,1.5773,1.3815,1.5805,1.5053
strand-old-sorted-list-insert-in-loop.mona-walk.dot_0__515states.dfa,0.0153,0.0197,0.013,0.0134,0.0118,0.0122,0.0146,0.0134,0.0122,0.0122,0.0132
strand-old-sorted-list-reverse-after-loop.mona-walk.dot_0__131states.dfa,0.0106,0.0146,0.0098,0.011,0.011,0.0106,0.011,0.011,0.0165,0.0098,0.011
strand-old-sorted-list-reverse-before-loop.mona-walk.dot_0__212states.dfa,47.4097,34.8203,42.5939,44.4835,44.3466,41.0671,46.8883,44.2585,43.7106,46.5066,44.30255
strand-old-sorted-list-reverse-in-loop.mona-walk.dot_0__515states.dfa,0.0153,0.013,0.0118,0.0126,0.0126,0.013,0.0134,0.013,0.0118,0.0126,0.0128
strand-old-sorted-list-search-after-loop.mona-walk.dot_0__317states.dfa,1248.8161,1240.2578,1272.0296,1322.8776,1157.0716,1206.1685,1176.2231,1298.4459,1334.7983,1156.5927,1244.53695
strand-old-sorted-list-search-before-loop.mona-walk.dot_0__112states.dfa,6.1054,9.2057,6.6138,6.4942,7.3587,6.4378,22.9288,6.0793,6.4666,91.4252,6.554
toss05.mona.aut,4.9551,4.6926,5.2476,4.7771,4.9689,4.421,4.7289,4.7518,4.5533,4.7684,4.7601
toss10.mona.aut,2512.1852,2580.813,2584.0313,2519.0173,2528.4832,2518.3451,2528.0722,2520.2248,2495.642,2492.867,2519.62105
veanes05.mona.aut,0.1721,0.0947,0.101,0.101,0.103,0.0998,0.1034,0.101,0.0998,0.1038,0.101
veanes05_1alts.mona.aut,0.6765,0.3813,0.3564,0.388,0.6497,0.3884,0.6698,0.675,0.3896,0.3947,0.39215
veanes05_2alts.mona.aut,3.0335,1.6314,1.6981,1.2679,1.2588,1.258,1.2607,2.1106,1.9914,1.29,1.4607
veanes05_3alts.mona.aut,0.4602,0.4657,0.4618,0.4634,0.4606,0.8427,0.4622,0.4626,0.8581,0.4614,0.4624
veanes05_4alts.mona.aut,1.4972,0.8269,0.8167,2.008,1.3559,0.8175,0.8246,0.8159,1.4605,0.8305,0.8287
veanes10.mona.aut,0.2625,0.2676,0.264,0.4022,0.2676,0.264,0.2636,0.2802,0.491,0.2648,0.2662
veanes10_1alts.mona.aut,1.796,1.3279,1.2963,1.318,1.3271,2.0735,1.4798,1.3223,1.8572,1.8588,1.40385
veanes10_2alts.mona.aut,2092.808,2191.436,2144.6507,2089.3939,2147.7545,2182.567,2090.8244,2146.3682,2144.3369,2203.3461,2145.50945
veanes10_3alts.mona.aut,1.56,1.5307,1.5694,2.1919,1.5236,1.5331,1.543,1.5544,1.543,1.5343,1.543
veanes10_4alts.mona.aut,952.5874,907.5247,896.8056,950.0121,926.475,883.5253,966.826,909.4443,933.512,945.2602,929.9935
