id,states,transitions,simRelSize,time,goodruns,minterms,mintermizedAutomatonTransitions
ex10.mona-walk.dot_5__242states.dfa,234,650,1627,50.1603,1,0,0
ex11.mona-walk.dot_0__143states.dfa,139,574,2699,16.9872,1,0,0
ex11.mona-walk.dot_2__143states.dfa,139,574,2699,18.3498,1,0,0
ex11.mona-walk.dot_4__281states.dfa,279,1541,11663,88.3656,1,0,0
ex11.mona-walk.dot_5__281states.dfa,277,2007,12989,164.9592,1,0,0
ex11.mona-walk.dot_6__301states.dfa,293,1214,16613,117.8262,1,0,0
ex11.mona-walk.dot_7__325states.dfa,309,1508,19113,169.9389,1,0,0
ex12.mona-walk.dot_13__317states.dfa,313,1911,6823,155.7101,1,0,0
ex12.mona-walk.dot_14__317states.dfa,313,3046,6823,445.2977,1,0,0
ex12.mona-walk.dot_15__290states.dfa,282,4059,11654,337.2808,1,0,0
ex12.mona-walk.dot_16__280states.dfa,276,5188,12168,422.6614,1,0,0
ex12.mona-walk.dot_17__280states.dfa,273,3617,11384,399.7835,1,0,0
ex14.mona-walk.dot_10__103states.dfa,95,378,464,10.9082,1,0,0
ex14.mona-walk.dot_11__202states.dfa,194,989,1119,41.0833,1,0,0
ex14.mona-walk.dot_12__316states.dfa,308,1762,1885,106.9183,1,0,0
ex14.mona-walk.dot_13__316states.dfa,308,1762,1885,105.2359,1,0,0
ex14.mona-walk.dot_14__852states.dfa,844,5573,14669,945.1339,1,0,0
ex14.mona-walk.dot_15__852states.dfa,844,9038,16705,1285.0781,1,0,0
ex14.mona-walk.dot_16__852states.dfa,846,12733,13199,2463.7822,1,0,0
ex14.mona-walk.dot_17__167states.dfa,153,1365,1502,65.2547,1,0,0
ex14.mona-walk.dot_21__35states.dfa,22,68,114,16.4369,1,0,0
ex14.mona-walk.dot_22__53states.dfa,38,140,250,3.2771,1,0,0
ex14.mona-walk.dot_24__42states.dfa,28,104,183,1.8315,1,0,0
ex14.mona-walk.dot_3__30states.dfa,22,40,78,0.5289,1,0,0
ex14.mona-walk.dot_4__30states.dfa,22,40,78,0.5321,1,0,0
ex14.mona-walk.dot_5__45states.dfa,37,81,141,2.3605,1,0,0
ex14.mona-walk.dot_6__65states.dfa,57,150,260,3.009,1,0,0
ex14.mona-walk.dot_7__65states.dfa,57,150,260,3.2123,1,0,0
ex14.mona-walk.dot_8__77states.dfa,69,219,312,4.3346,1,0,0
ex14.mona-walk.dot_9__103states.dfa,95,378,464,8.5824,1,0,0
ex16.mona-walk.dot_56__16states.dfa,8,23,38,4.2221,1,0,0
ex16.mona-walk.dot_58__25states.dfa,11,34,63,5.687,1,0,0
ex18.mona-walk.dot_106__298states.dfa,290,3207,1912,791.5826,1,0,0
ex18.mona-walk.dot_107__298states.dfa,290,3207,1912,770.2394,1,0,0
ex18.mona-walk.dot_109__269states.dfa,265,1308,1581,549.3388,1,0,0
ex18.mona-walk.dot_94__108states.dfa,104,196,312,9.1658,1,0,0
ex18.mona-walk.dot_95__172states.dfa,168,324,504,19.2964,1,0,0
ex18.mona-walk.dot_96__300states.dfa,296,580,888,57.0603,1,0,0
ex18.mona-walk.dot_97__556states.dfa,552,1092,1656,191.9085,1,0,0
ex19.mona-walk.dot_10__119states.dfa,115,171,1081,9.3679,1,0,0
ex19.mona-walk.dot_47__135states.dfa,131,250,1334,12.5621,1,0,0
ex19.mona-walk.dot_49__247states.dfa,243,578,7902,45.9311,1,0,0
ex19.mona-walk.dot_51__141states.dfa,137,472,1762,22.1219,1,0,0
ex20.mona-walk.dot_20__20states.dfa,6,12,25,0.0734,1,0,0
ex3.mona-walk.dot_33__579states.dfa,572,1782,6342,417.1836,1,0,0
ex3.mona-walk.dot_34__449states.dfa,446,1276,3010,300.3016,1,0,0
ex4.mona-walk.dot_20__276states.dfa,269,2586,7909,335.6829,1,0,0
ex4.mona-walk.dot_21__531states.dfa,524,3606,15235,1086.6978,1,0,0
ex4.mona-walk.dot_22__139states.dfa,131,499,1136,27.5595,1,0,0
ex4.mona-walk.dot_23__139states.dfa,131,499,1136,22.3762,1,0,0
ex4.mona-walk.dot_24__147states.dfa,139,530,1170,36.9136,1,0,0
ex4.mona-walk.dot_25__151states.dfa,135,414,1231,47.6146,1,0,0
ex4.mona-walk.dot_26__602states.dfa,586,2686,4370,394.7415,1,0,0
ex4.mona-walk.dot_38__134states.dfa,120,442,1093,25.9454,1,0,0
ex5.mona-walk.dot_3__66states.dfa,64,70,369,3.2522,1,0,0
ex8.mona-walk.dot_18__242states.dfa,234,650,1627,50.5171,1,0,0
parametric_uabe1_11.mona-walk.dot_0__167states.dfa,163,1123,3095,28.4678,1,0,0
parametric_uabe1_12.mona-walk.dot_0__181states.dfa,177,1137,3337,33.5512,1,0,0
parametric_uabe1_13.mona-walk.dot_0__195states.dfa,191,1151,3670,34.3999,1,0,0
parametric_uabe1_14.mona-walk.dot_0__209states.dfa,205,1165,4094,38.7736,1,0,0
parametric_uabe2_03.mona-walk.dot_0__142states.dfa,140,517,558,50.8361,1,0,0
parametric_uabe2_04.mona-walk.dot_0__702states.dfa,700,3197,2798,1461.9352,1,0,0
parametric_uabe2_05.mona-walk.dot_0__86states.dfa,78,314,1798,11.2583,1,0,0
parametric_uabe2_06.mona-walk.dot_0__91states.dfa,87,314,2093,10.0982,1,0,0
parametric_uabe2_07.mona-walk.dot_0__108states.dfa,104,380,2879,13.8087,1,0,0
parametric_uabe2_08.mona-walk.dot_0__125states.dfa,121,446,3788,19.2668,1,0,0
parametric_uabe3_06.mona-walk.dot_0__97states.dfa,93,528,2050,11.2473,1,0,0
parametric_uabe3_07.mona-walk.dot_0__111states.dfa,107,542,2437,13.0875,1,0,0
parametric_uabe3_08.mona-walk.dot_0__125states.dfa,121,556,2915,15.6407,1,0,0
parametric_uabe3_09.mona-walk.dot_0__139states.dfa,135,570,3484,16.4326,1,0,0
parametric_uabe3_10.mona-walk.dot_0__153states.dfa,149,584,4144,18.5247,1,0,0
parametric_uabe3_11.mona-walk.dot_0__167states.dfa,163,598,4895,22.5048,1,0,0
parametric_uabe3_12.mona-walk.dot_0__181states.dfa,177,612,5737,23.5489,1,0,0
parametric_uabe3_13.mona-walk.dot_0__195states.dfa,191,626,6670,27.8769,1,0,0
parametric_uabe3_14.mona-walk.dot_0__209states.dfa,205,640,7694,33.7956,1,0,0
array_axiom.mona-walk.dot_26__901states.dfa,899,5254,8727,1845.1495,1,0,0
array_axiom.mona-walk.dot_27__897states.dfa,894,2684,6658,1135.0467,1,0,0
array_axiom.mona-walk.dot_36__105states.dfa,102,252,450,10.397,1,0,0
ex18.mona-walk.dot_98__1068states.dfa,1064,2116,3192,746.3956,1,0,0
ex18.mona-walk.dot_99__2056states.dfa,2052,4092,6156,2529.1365,1,0,0
strand-old-bubblesort-loop-else.mona-walk.dot_0__1044states.dfa,18,37,51,0.6323,1,0,0
strand-old-bubblesort-loop-if-else.mona-walk.dot_0__1027states.dfa,1,0,4,0.0134,1,0,0
strand-old-bubblesort-loop-if-if.mona-walk.dot_0__2051states.dfa,1,0,4,0.0122,1,0,0
strand-old-sorted-list-insert-after-loop.mona-walk.dot_0__151states.dfa,21,39,58,1.6338,1,0,0
strand-old-sorted-list-insert-before-head.mona-walk.dot_0__114states.dfa,48,254,382,7.8217,1,0,0
strand-old-sorted-list-insert-before-loop.mona-walk.dot_0__131states.dfa,1,0,4,0.011,1,0,0
strand-old-sorted-list-insert-error-before-loop.mona-walk.dot_0__156states.dfa,26,65,72,1.6342,1,0,0
strand-old-sorted-list-insert-in-loop.mona-walk.dot_0__515states.dfa,1,0,4,0.013,1,0,0
strand-old-sorted-list-reverse-after-loop.mona-walk.dot_0__131states.dfa,1,0,4,0.0098,1,0,0
strand-old-sorted-list-reverse-before-loop.mona-walk.dot_0__212states.dfa,111,1043,1333,42.5939,1,0,0
strand-old-sorted-list-reverse-in-loop.mona-walk.dot_0__515states.dfa,1,0,4,0.0118,1,0,0
strand-old-sorted-list-search-after-loop.mona-walk.dot_0__317states.dfa,316,8535,8597,1272.0296,1,0,0
strand-old-sorted-list-search-before-loop.mona-walk.dot_0__112states.dfa,46,265,390,6.6138,1,0,0
ex11.mona.aut,2217,6513,30280,3166.9807,1,0,0
ex12.mona.aut,377,1089,2064,117.1393,1,0,0
ex13.mona.aut,933,4591,10506,812.9416,1,0,0
ex15.mona.aut,10,27,32,0.2885,1,0,0
ex16.mona.aut,543,1426,11770,191.8947,1,0,0
ex17.mona.aut,1,0,4,0.0114,1,0,0
ex19.mona.aut,814,2885,13430,430.8665,1,0,0
ex7.mona.aut,148,373,1547,15.9608,1,0,0
horn_trans05.mona.aut,11,25,28,0.1764,1,0,0
horn_trans10.mona.aut,21,50,53,0.5321,1,0,0
parametric_uabe1_11.mona.aut,2507,7493,34788,4072.2345,1,0,0
parametric_uabe3_10.mona.aut,2257,6733,30470,3270.9559,1,0,0
set_closed05.mona.aut,24,53,86,0.7298,1,0,0
set_closed10.mona.aut,44,98,211,3.6394,1,0,0
set_obvious05.mona.aut,1,0,4,0.0094,1,0,0
set_obvious10.mona.aut,1,0,4,0.0102,1,0,0
set_singletons05.mona.aut,21,55,68,0.6071,1,0,0
set_singletons10.mona.aut,41,110,183,2.5662,1,0,0
strand-new-sorted-list-insert-after-loop.mona.aut,674,5429,4987,453.9027,1,0,0
strand-new-sorted-list-insert-before-head.mona.aut,219,1699,1570,64.0784,1,0,0
strand-new-sorted-list-insert-before-loop.mona.aut,387,3430,2181,185.4127,1,0,0
strand-new-sorted-list-insert-error-error.mona.aut,387,3430,2181,180.2783,1,0,0
strand-new-sorted-list-reverse-after-loop.mona.aut,956,20383,11152,1624.8229,1,0,0
strand-new-sorted-list-reverse-before-loop.mona.aut,956,20383,11152,1654.5176,1,0,0
strand-new-sorted-list-search-after-loop.mona.aut,431,5629,4197,273.8793,1,0,0
strand-new-sorted-list-search-before-loop.mona.aut,300,2849,1670,127.6366,1,0,0
toss05.mona.aut,65,288,174,5.2476,1,0,0
toss10.mona.aut,1413,16619,4772,2584.0313,1,0,0
veanes05.mona.aut,6,11,13,0.101,1,0,0
veanes05_1alts.mona.aut,19,45,109,0.3564,1,0,0
veanes05_2alts.mona.aut,31,172,73,1.6981,1,0,0
veanes05_3alts.mona.aut,19,50,87,0.4618,1,0,0
veanes05_4alts.mona.aut,25,91,70,0.8167,1,0,0
veanes10.mona.aut,11,21,23,0.264,1,0,0
veanes10_1alts.mona.aut,39,95,414,1.2963,1,0,0
veanes10_2alts.mona.aut,780,33596,1576,2144.6507,1,0,0
veanes10_3alts.mona.aut,39,100,357,1.5694,1,0,0
veanes10_4alts.mona.aut,588,15179,1206,896.8056,1,0,0
