id,states,transitions,simRelSize,time,goodruns,minterms,mintermizedAutomatonTransitions
ex10.mona-walk.dot_5__242states.dfa,234,650,1627,48.369,1,0,0
ex11.mona-walk.dot_0__143states.dfa,139,574,2699,18.0838,1,0,0
ex11.mona-walk.dot_2__143states.dfa,139,574,2699,18.9423,1,0,0
ex11.mona-walk.dot_4__281states.dfa,279,1541,11663,87.5291,1,0,0
ex11.mona-walk.dot_5__281states.dfa,277,2007,12989,165.1783,1,0,0
ex11.mona-walk.dot_6__301states.dfa,293,1214,16613,119.1079,1,0,0
ex11.mona-walk.dot_7__325states.dfa,309,1508,19113,180.6347,1,0,0
ex12.mona-walk.dot_13__317states.dfa,313,1911,6823,121.3721,1,0,0
ex12.mona-walk.dot_14__317states.dfa,313,3046,6823,451.5926,1,0,0
ex12.mona-walk.dot_15__290states.dfa,282,4059,11654,343.9211,1,0,0
ex12.mona-walk.dot_16__280states.dfa,276,5188,12168,410.8918,1,0,0
ex12.mona-walk.dot_17__280states.dfa,273,3617,11384,389.7985,1,0,0
ex14.mona-walk.dot_10__103states.dfa,95,378,464,10.7546,1,0,0
ex14.mona-walk.dot_11__202states.dfa,194,989,1119,39.8379,1,0,0
ex14.mona-walk.dot_12__316states.dfa,308,1762,1885,107.9999,1,0,0
ex14.mona-walk.dot_13__316states.dfa,308,1762,1885,100.2827,1,0,0
ex14.mona-walk.dot_14__852states.dfa,844,5573,14669,944.9425,1,0,0
ex14.mona-walk.dot_15__852states.dfa,844,9038,16705,1285.2095,1,0,0
ex14.mona-walk.dot_16__852states.dfa,846,12733,13199,2403.0105,1,0,0
ex14.mona-walk.dot_17__167states.dfa,153,1365,1502,60.8072,1,0,0
ex14.mona-walk.dot_21__35states.dfa,22,68,114,12.306,1,0,0
ex14.mona-walk.dot_22__53states.dfa,38,140,250,3.2451,1,0,0
ex14.mona-walk.dot_24__42states.dfa,28,104,183,2.1513,1,0,0
ex14.mona-walk.dot_3__30states.dfa,22,40,78,0.5636,1,0,0
ex14.mona-walk.dot_4__30states.dfa,22,40,78,0.7563,1,0,0
ex14.mona-walk.dot_5__45states.dfa,37,81,141,16.6366,1,0,0
ex14.mona-walk.dot_6__65states.dfa,57,150,260,3.0304,1,0,0
ex14.mona-walk.dot_7__65states.dfa,57,150,260,3.0063,1,0,0
ex14.mona-walk.dot_8__77states.dfa,69,219,312,4.4964,1,0,0
ex14.mona-walk.dot_9__103states.dfa,95,378,464,13.1041,1,0,0
ex16.mona-walk.dot_56__16states.dfa,8,23,38,4.2864,1,0,0
ex16.mona-walk.dot_58__25states.dfa,11,34,63,5.3676,1,0,0
ex18.mona-walk.dot_106__298states.dfa,290,3207,1912,739.6195,1,0,0
ex18.mona-walk.dot_107__298states.dfa,290,3207,1912,719.2245,1,0,0
ex18.mona-walk.dot_109__269states.dfa,265,1308,1581,530.8753,1,0,0
ex18.mona-walk.dot_94__108states.dfa,104,196,312,24.2441,1,0,0
ex18.mona-walk.dot_95__172states.dfa,168,324,504,18.9948,1,0,0
ex18.mona-walk.dot_96__300states.dfa,296,580,888,57.3682,1,0,0
ex18.mona-walk.dot_97__556states.dfa,552,1092,1656,199.765,1,0,0
ex19.mona-walk.dot_10__119states.dfa,115,171,1081,9.7559,1,0,0
ex19.mona-walk.dot_47__135states.dfa,131,250,1334,17.7853,1,0,0
ex19.mona-walk.dot_49__247states.dfa,243,578,7902,45.4128,1,0,0
ex19.mona-walk.dot_51__141states.dfa,137,472,1762,21.1434,1,0,0
ex20.mona-walk.dot_20__20states.dfa,6,12,25,0.0686,1,0,0
ex3.mona-walk.dot_33__579states.dfa,572,1782,6342,416.1892,1,0,0
ex3.mona-walk.dot_34__449states.dfa,446,1276,3010,293.0341,1,0,0
ex4.mona-walk.dot_20__276states.dfa,269,2586,7909,308.3756,1,0,0
ex4.mona-walk.dot_21__531states.dfa,524,3606,15235,1074.7013,1,0,0
ex4.mona-walk.dot_22__139states.dfa,131,499,1136,34.6095,1,0,0
ex4.mona-walk.dot_23__139states.dfa,131,499,1136,38.8463,1,0,0
ex4.mona-walk.dot_24__147states.dfa,139,530,1170,34.6008,1,0,0
ex4.mona-walk.dot_25__151states.dfa,135,414,1231,39.346,1,0,0
ex4.mona-walk.dot_26__602states.dfa,586,2686,4370,373.7776,1,0,0
ex4.mona-walk.dot_38__134states.dfa,120,442,1093,25.3932,1,0,0
ex5.mona-walk.dot_3__66states.dfa,64,70,369,2.4339,1,0,0
ex8.mona-walk.dot_18__242states.dfa,234,650,1627,51.3141,1,0,0
parametric_uabe1_11.mona-walk.dot_0__167states.dfa,163,1123,3095,27.535,1,0,0
parametric_uabe1_12.mona-walk.dot_0__181states.dfa,177,1137,3337,35.0019,1,0,0
parametric_uabe1_13.mona-walk.dot_0__195states.dfa,191,1151,3670,36.2138,1,0,0
parametric_uabe1_14.mona-walk.dot_0__209states.dfa,205,1165,4094,39.8229,1,0,0
parametric_uabe2_03.mona-walk.dot_0__142states.dfa,140,517,558,46.3878,1,0,0
parametric_uabe2_04.mona-walk.dot_0__702states.dfa,700,3197,2798,1463.5785,1,0,0
parametric_uabe2_05.mona-walk.dot_0__86states.dfa,78,314,1798,12.5519,1,0,0
parametric_uabe2_06.mona-walk.dot_0__91states.dfa,87,314,2093,10.8711,1,0,0
parametric_uabe2_07.mona-walk.dot_0__108states.dfa,104,380,2879,13.9244,1,0,0
parametric_uabe2_08.mona-walk.dot_0__125states.dfa,121,446,3788,19.2182,1,0,0
parametric_uabe3_06.mona-walk.dot_0__97states.dfa,93,528,2050,9.6955,1,0,0
parametric_uabe3_07.mona-walk.dot_0__111states.dfa,107,542,2437,12.9573,1,0,0
parametric_uabe3_08.mona-walk.dot_0__125states.dfa,121,556,2915,16.5822,1,0,0
parametric_uabe3_09.mona-walk.dot_0__139states.dfa,135,570,3484,18.9652,1,0,0
parametric_uabe3_10.mona-walk.dot_0__153states.dfa,149,584,4144,20.6717,1,0,0
parametric_uabe3_11.mona-walk.dot_0__167states.dfa,163,598,4895,23.3192,1,0,0
parametric_uabe3_12.mona-walk.dot_0__181states.dfa,177,612,5737,23.5205,1,0,0
parametric_uabe3_13.mona-walk.dot_0__195states.dfa,191,626,6670,27.2871,1,0,0
parametric_uabe3_14.mona-walk.dot_0__209states.dfa,205,640,7694,31.8325,1,0,0
array_axiom.mona-walk.dot_26__901states.dfa,899,5254,8727,1878.7004,1,0,0
array_axiom.mona-walk.dot_27__897states.dfa,894,2684,6658,1140.3634,1,0,0
array_axiom.mona-walk.dot_36__105states.dfa,102,252,450,11.2007,1,0,0
ex18.mona-walk.dot_98__1068states.dfa,1064,2116,3192,702.435,1,0,0
ex18.mona-walk.dot_99__2056states.dfa,2052,4092,6156,2492.2958,1,0,0
strand-old-bubblesort-loop-else.mona-walk.dot_0__1044states.dfa,18,37,51,0.6367,1,0,0
strand-old-bubblesort-loop-if-else.mona-walk.dot_0__1027states.dfa,1,0,4,0.0142,1,0,0
strand-old-bubblesort-loop-if-if.mona-walk.dot_0__2051states.dfa,1,0,4,0.0134,1,0,0
strand-old-sorted-list-insert-after-loop.mona-walk.dot_0__151states.dfa,21,39,58,0.6852,1,0,0
strand-old-sorted-list-insert-before-head.mona-walk.dot_0__114states.dfa,48,254,382,7.5213,1,0,0
strand-old-sorted-list-insert-before-loop.mona-walk.dot_0__131states.dfa,1,0,4,0.011,1,0,0
strand-old-sorted-list-insert-error-before-loop.mona-walk.dot_0__156states.dfa,26,65,72,1.4929,1,0,0
strand-old-sorted-list-insert-in-loop.mona-walk.dot_0__515states.dfa,1,0,4,0.0118,1,0,0
strand-old-sorted-list-reverse-after-loop.mona-walk.dot_0__131states.dfa,1,0,4,0.011,1,0,0
strand-old-sorted-list-reverse-before-loop.mona-walk.dot_0__212states.dfa,111,1043,1333,44.3466,1,0,0
strand-old-sorted-list-reverse-in-loop.mona-walk.dot_0__515states.dfa,1,0,4,0.0126,1,0,0
strand-old-sorted-list-search-after-loop.mona-walk.dot_0__317states.dfa,316,8535,8597,1157.0716,1,0,0
strand-old-sorted-list-search-before-loop.mona-walk.dot_0__112states.dfa,46,265,390,7.3587,1,0,0
ex11.mona.aut,2217,6513,30280,3217.6246,1,0,0
ex12.mona.aut,377,1089,2064,121.2624,1,0,0
ex13.mona.aut,933,4591,10506,859.4948,1,0,0
ex15.mona.aut,10,27,32,0.2743,1,0,0
ex16.mona.aut,543,1426,11770,192.3032,1,0,0
ex17.mona.aut,1,0,4,0.011,1,0,0
ex19.mona.aut,814,2885,13430,450.264,1,0,0
ex7.mona.aut,148,373,1547,16.2956,1,0,0
horn_trans05.mona.aut,11,25,28,0.176,1,0,0
horn_trans10.mona.aut,21,50,53,0.6303,1,0,0
parametric_uabe1_11.mona.aut,2507,7493,34788,4026.44,1,0,0
parametric_uabe3_10.mona.aut,2257,6733,30470,3297.9426,1,0,0
set_closed05.mona.aut,24,53,86,0.6955,1,0,0
set_closed10.mona.aut,44,98,211,1.9954,1,0,0
set_obvious05.mona.aut,1,0,4,0.009,1,0,0
set_obvious10.mona.aut,1,0,4,0.0094,1,0,0
set_singletons05.mona.aut,21,55,68,0.5553,1,0,0
set_singletons10.mona.aut,41,110,183,1.8525,1,0,0
strand-new-sorted-list-insert-after-loop.mona.aut,674,5429,4987,451.7115,1,0,0
strand-new-sorted-list-insert-before-head.mona.aut,219,1699,1570,61.6595,1,0,0
strand-new-sorted-list-insert-before-loop.mona.aut,387,3430,2181,185.8714,1,0,0
strand-new-sorted-list-insert-error-error.mona.aut,387,3430,2181,184.3125,1,0,0
strand-new-sorted-list-reverse-after-loop.mona.aut,956,20383,11152,1687.2502,1,0,0
strand-new-sorted-list-reverse-before-loop.mona.aut,956,20383,11152,1625.9523,1,0,0
strand-new-sorted-list-search-after-loop.mona.aut,431,5629,4197,268.4698,1,0,0
strand-new-sorted-list-search-before-loop.mona.aut,300,2849,1670,122.5622,1,0,0
toss05.mona.aut,65,288,174,4.9689,1,0,0
toss10.mona.aut,1413,16619,4772,2528.4832,1,0,0
veanes05.mona.aut,6,11,13,0.103,1,0,0
veanes05_1alts.mona.aut,19,45,109,0.6497,1,0,0
veanes05_2alts.mona.aut,31,172,73,1.2588,1,0,0
veanes05_3alts.mona.aut,19,50,87,0.4606,1,0,0
veanes05_4alts.mona.aut,25,91,70,1.3559,1,0,0
veanes10.mona.aut,11,21,23,0.2676,1,0,0
veanes10_1alts.mona.aut,39,95,414,1.3271,1,0,0
veanes10_2alts.mona.aut,780,33596,1576,2147.7545,1,0,0
veanes10_3alts.mona.aut,39,100,357,1.5236,1,0,0
veanes10_4alts.mona.aut,588,15179,1206,926.475,1,0,0
