id,states,transitions,statesSim,time,goodruns
ex10.mona-walk.dot_5__242states.dfa,234,650,234,329.8738,1,882
ex11.mona-walk.dot_0__143states.dfa,139,574,139,127.3044,1,711
ex11.mona-walk.dot_2__143states.dfa,139,574,139,172.1057,1,711
ex11.mona-walk.dot_4__281states.dfa,279,1541,279,605.9001,1,1815
ex11.mona-walk.dot_5__281states.dfa,277,2007,277,463.9927,1,2041
ex11.mona-walk.dot_6__301states.dfa,293,1214,293,296.7256,1,1264
ex11.mona-walk.dot_7__325states.dfa,309,1508,309,340.3229,1,1801
ex12.mona-walk.dot_13__317states.dfa,313,1911,313,441.5979,1,2220
ex12.mona-walk.dot_14__317states.dfa,313,3046,313,754.5955,1,3059
ex12.mona-walk.dot_15__290states.dfa,282,4059,282,1061.0191,1,4328
ex12.mona-walk.dot_16__280states.dfa,276,5188,276,1197.6611,1,5456
ex12.mona-walk.dot_17__280states.dfa,273,3617,273,1309.8601,1,3886
ex14.mona-walk.dot_10__103states.dfa,95,378,95,72.2581,1,472
ex14.mona-walk.dot_11__202states.dfa,194,989,194,227.5468,1,1182
ex14.mona-walk.dot_12__316states.dfa,308,1762,308,521.2582,1,2069
ex14.mona-walk.dot_13__316states.dfa,308,1762,308,553.045,1,2069
ex14.mona-walk.dot_14__852states.dfa,844,5573,844,3836.0811,1,6414
ex14.mona-walk.dot_15__852states.dfa,844,9038,844,6815.649,1,9876
ex14.mona-walk.dot_16__852states.dfa,846,12733,846,7859.7433,1,13183
ex14.mona-walk.dot_17__167states.dfa,153,1365,153,372.0272,1,1510
ex14.mona-walk.dot_21__35states.dfa,22,68,22,4.5162,1,86
ex14.mona-walk.dot_22__53states.dfa,38,140,38,42.685,1,174
ex14.mona-walk.dot_24__42states.dfa,28,104,28,7.151,1,128
ex14.mona-walk.dot_3__30states.dfa,22,40,22,1.1869,1,61
ex14.mona-walk.dot_4__30states.dfa,22,40,22,1.183,1,61
ex14.mona-walk.dot_5__45states.dfa,37,81,37,3.4709,1,117
ex14.mona-walk.dot_6__65states.dfa,57,150,57,19.3382,1,206
ex14.mona-walk.dot_7__65states.dfa,57,150,57,9.4129,1,206
ex14.mona-walk.dot_8__77states.dfa,69,219,69,29.5055,1,287
ex14.mona-walk.dot_9__103states.dfa,95,378,95,64.6116,1,472
ex16.mona-walk.dot_56__16states.dfa,8,23,8,44.6343,1,25
ex16.mona-walk.dot_58__25states.dfa,11,34,11,84.5976,1,37
ex18.mona-walk.dot_106__298states.dfa,290,3207,290,7305.7268,1,3468
ex18.mona-walk.dot_107__298states.dfa,290,3207,290,7262.2183,1,3468
ex18.mona-walk.dot_109__269states.dfa,265,1308,265,3401.9788,1,1565
ex18.mona-walk.dot_94__108states.dfa,104,196,104,41.8249,1,299
ex18.mona-walk.dot_95__172states.dfa,168,324,168,53.3896,1,491
ex18.mona-walk.dot_96__300states.dfa,296,580,296,226.2007,1,875
ex18.mona-walk.dot_97__556states.dfa,552,1092,552,769.9047,1,1643
ex19.mona-walk.dot_10__119states.dfa,115,171,115,29.9444,1,284
ex19.mona-walk.dot_47__135states.dfa,131,250,131,32.1672,1,379
ex19.mona-walk.dot_49__247states.dfa,243,578,243,160.1684,1,819
ex19.mona-walk.dot_51__141states.dfa,137,472,137,101.558,1,607
ex20.mona-walk.dot_20__20states.dfa,6,12,6,0.4026,1,16
ex3.mona-walk.dot_33__579states.dfa,572,1782,572,1196.4694,1,2350
ex3.mona-walk.dot_34__449states.dfa,446,1276,446,904.8805,1,1720
ex4.mona-walk.dot_20__276states.dfa,269,2586,269,851.3152,1,2851
ex4.mona-walk.dot_21__531states.dfa,524,3606,524,2319.8277,1,4126
ex4.mona-walk.dot_22__139states.dfa,131,499,131,121.6901,1,626
ex4.mona-walk.dot_23__139states.dfa,131,499,131,109.913,1,626
ex4.mona-walk.dot_24__147states.dfa,139,530,139,104.7206,1,665
ex4.mona-walk.dot_25__151states.dfa,135,414,135,63.9027,1,545
ex4.mona-walk.dot_26__602states.dfa,586,2686,586,1496.002,1,3268
ex4.mona-walk.dot_38__134states.dfa,120,442,120,51.74,1,558
ex5.mona-walk.dot_3__66states.dfa,64,70,64,7.4313,1,132
ex8.mona-walk.dot_18__242states.dfa,234,650,234,115.6423,1,882
parametric_uabe1_11.mona-walk.dot_0__167states.dfa,163,1123,163,136.8267,1,1284
parametric_uabe1_12.mona-walk.dot_0__181states.dfa,177,1137,177,165.9438,1,1312
parametric_uabe1_13.mona-walk.dot_0__195states.dfa,191,1151,191,154.5106,1,1340
parametric_uabe1_14.mona-walk.dot_0__209states.dfa,205,1165,205,167.0487,1,1368
parametric_uabe2_03.mona-walk.dot_0__142states.dfa,140,517,140,72.911,1,654
parametric_uabe2_04.mona-walk.dot_0__702states.dfa,700,3197,700,2575.9272,1,3894
parametric_uabe2_05.mona-walk.dot_0__86states.dfa,78,314,78,31.2277,1,384
parametric_uabe2_06.mona-walk.dot_0__91states.dfa,87,314,87,32.736,1,332
parametric_uabe2_07.mona-walk.dot_0__108states.dfa,104,380,104,23.3693,1,398
parametric_uabe2_08.mona-walk.dot_0__125states.dfa,121,446,121,26.6875,1,464
parametric_uabe3_06.mona-walk.dot_0__97states.dfa,93,528,93,63.4294,1,619
parametric_uabe3_07.mona-walk.dot_0__111states.dfa,107,542,107,39.4502,1,647
parametric_uabe3_08.mona-walk.dot_0__125states.dfa,121,556,121,68.6758,1,675
parametric_uabe3_09.mona-walk.dot_0__139states.dfa,135,570,135,59.0363,1,703
parametric_uabe3_10.mona-walk.dot_0__153states.dfa,149,584,149,53.1705,1,731
parametric_uabe3_11.mona-walk.dot_0__167states.dfa,163,598,163,58.055,1,759
parametric_uabe3_12.mona-walk.dot_0__181states.dfa,177,612,177,63.0263,1,787
parametric_uabe3_13.mona-walk.dot_0__195states.dfa,191,626,191,76.0756,1,815
parametric_uabe3_14.mona-walk.dot_0__209states.dfa,205,640,205,85.245,1,843
array_axiom.mona-walk.dot_26__901states.dfa,899,5254,899,5421.1137,1,6147
array_axiom.mona-walk.dot_27__897states.dfa,894,2684,894,3376.8055,1,3576
array_axiom.mona-walk.dot_36__105states.dfa,102,252,102,22.8616,1,336
ex18.mona-walk.dot_98__1068states.dfa,1064,2116,1064,3346.4315,1,3179
ex18.mona-walk.dot_99__2056states.dfa,2052,4092,2052,13148.9345,1,6143
strand-old-bubblesort-loop-else.mona-walk.dot_0__1044states.dfa,18,37,16,2.0838,1,55
strand-old-bubblesort-loop-if-else.mona-walk.dot_0__1027states.dfa,1,0,1,0.0615,1,2
strand-old-bubblesort-loop-if-if.mona-walk.dot_0__2051states.dfa,1,0,1,0.0722,1,2
strand-old-sorted-list-insert-after-loop.mona-walk.dot_0__151states.dfa,21,39,19,2.2669,1,60
strand-old-sorted-list-insert-before-head.mona-walk.dot_0__114states.dfa,48,254,45,41.6796,1,302
strand-old-sorted-list-insert-before-loop.mona-walk.dot_0__131states.dfa,1,0,1,0.0647,1,2
strand-old-sorted-list-insert-error-before-loop.mona-walk.dot_0__156states.dfa,26,65,24,3.33,1,91
strand-old-sorted-list-insert-in-loop.mona-walk.dot_0__515states.dfa,1,0,1,0.0686,1,2
strand-old-sorted-list-reverse-after-loop.mona-walk.dot_0__131states.dfa,1,0,1,0.0619,1,2
strand-old-sorted-list-reverse-before-loop.mona-walk.dot_0__212states.dfa,111,1043,111,312.4804,1,1146
strand-old-sorted-list-reverse-in-loop.mona-walk.dot_0__515states.dfa,1,0,1,0.0667,1,2
strand-old-sorted-list-search-after-loop.mona-walk.dot_0__317states.dfa,316,8535,316,10626.6807,1,8843
strand-old-sorted-list-search-before-loop.mona-walk.dot_0__112states.dfa,46,265,44,47.9765,1,311
ex11.mona.aut,2217,6513,1100,12113.1325,1,8422
ex12.mona.aut,377,1089,287,412.2262,1,1389
ex13.mona.aut,933,4591,-1,-1,0,0
ex15.mona.aut,10,27,10,1.7246,1,33
ex16.mona.aut,543,1426,275,4903.2984,1,3455
ex17.mona.aut,1,0,1,0.0513,1,2
ex19.mona.aut,814,2885,414,10191.875,1,5790
ex7.mona.aut,148,373,74,58.7525,1,412
horn_trans05.mona.aut,11,25,11,1.2446,1,53
horn_trans10.mona.aut,21,50,21,29.4518,1,1065
parametric_uabe1_11.mona.aut,2507,7493,1262,15376.7577,1,9537
parametric_uabe3_10.mona.aut,2257,6733,1140,11714.8915,1,8552
set_closed05.mona.aut,24,53,20,5.0562,1,109
set_closed10.mona.aut,44,98,35,100.1665,1,808
set_obvious05.mona.aut,1,0,1,0.086,1,2
set_obvious10.mona.aut,1,0,1,0.0801,1,2
set_singletons05.mona.aut,21,55,17,5.0562,1,144
set_singletons10.mona.aut,41,110,32,675.0805,1,2518
strand-new-sorted-list-insert-after-loop.mona.aut,674,5429,387,3003.855,1,5904
strand-new-sorted-list-insert-before-head.mona.aut,219,1699,170,399.6526,1,1871
strand-new-sorted-list-insert-before-loop.mona.aut,387,3430,262,1007.862,1,3376
strand-new-sorted-list-insert-error-error.mona.aut,387,3430,262,1177.5283,1,3376
strand-new-sorted-list-reverse-after-loop.mona.aut,956,20383,683,15910.6097,1,20901
strand-new-sorted-list-reverse-before-loop.mona.aut,956,20383,683,15493.7647,1,20901
strand-new-sorted-list-search-after-loop.mona.aut,431,5629,291,2355.6826,1,5949
strand-new-sorted-list-search-before-loop.mona.aut,300,2849,194,675.1057,1,2777
toss05.mona.aut,65,288,63,22.3998,1,358
toss10.mona.aut,1413,16619,1411,44226.5221,1,18762
veanes05.mona.aut,6,11,6,0.6931,1,18
veanes05_1alts.mona.aut,19,45,10,1.6231,1,46
veanes05_2alts.mona.aut,31,172,31,28.2984,1,192
veanes05_3alts.mona.aut,19,50,16,1.2335,1,55
veanes05_4alts.mona.aut,25,91,25,2.6289,1,109
veanes10.mona.aut,11,21,11,1.6515,1,33
veanes10_1alts.mona.aut,39,95,15,4.0772,1,91
veanes10_2alts.mona.aut,780,33596,780,38895.9018,1,34117
veanes10_3alts.mona.aut,39,100,21,5.7556,1,100
veanes10_4alts.mona.aut,588,15179,588,12496.0466,1,15698
