id,states,transitions,statesBisim,transitionsBisim,timeBisim,stateMinAfterBisim,transitionsMinAfterBisim,timeBisimAndMin,statesSim,transitionsSim,timeSim,stateMinAfterSim,transitionsMinAfterSim,timeSimAndMin
ex11.mona.aut,2217,6513,1100,3899,892.16,172,712,17898.9827,1100,3856,3339.6388,172,712,29304.0448
ex12.mona.aut,377,1089,287,971,31.4026,202,1603,2311.9471,287,907,150.4969,202,1603,2419.6418
ex13.mona.aut,933,4591,641,3899,147.3836,-1,-1,-1,-1,-1,-1,-1,-1,-1
ex15.mona.aut,10,27,10,27,0.3927,9,31,0.9264,10,27,0.3757,9,31,0.6785
ex16.mona.aut,543,1426,275,1047,28.2396,-1,-1,-1,275,999,209.7966,-1,-1,-1
ex17.mona.aut,1,0,1,0,0.071,1,0,0.0746,1,0,0.0296,1,0,0.0327
ex19.mona.aut,814,2885,414,2049,55.565,-1,-1,-1,414,1907,482.6251,-1,-1,-1
ex7.mona.aut,148,373,74,224,6.3549,180,826,146.2152,74,220,25.7997,180,826,247.1073
horn_trans05.mona.aut,11,25,11,25,0.3548,2,3,9.0403,11,25,0.4898,2,3,9.9868
horn_trans10.mona.aut,21,50,21,50,1.198,2,3,8314.2788,21,50,1.3117,2,3,7980.1912
