id,states,transitions,statesSim,time,goodruns
ex10.mona-walk.dot_5__242states.dfa,234,650,,79.6133,1
ex11.mona-walk.dot_0__143states.dfa,139,574,,30.9455,1
ex11.mona-walk.dot_2__143states.dfa,139,574,,43.7512,1
ex11.mona-walk.dot_4__281states.dfa,279,1541,,158.8642,1
ex11.mona-walk.dot_5__281states.dfa,277,2007,,338.7017,1
ex11.mona-walk.dot_6__301states.dfa,293,1214,,221.9202,1
ex11.mona-walk.dot_7__325states.dfa,309,1508,,285.9974,1
ex12.mona-walk.dot_13__317states.dfa,313,1911,,165.4737,1
ex12.mona-walk.dot_14__317states.dfa,313,3046,,739.0025,1
ex12.mona-walk.dot_15__290states.dfa,282,4059,,649.919,1
ex12.mona-walk.dot_16__280states.dfa,276,5188,,757.2458,1
ex12.mona-walk.dot_17__280states.dfa,273,3617,,644.2052,1
ex14.mona-walk.dot_10__103states.dfa,95,378,,29.7625,1
ex14.mona-walk.dot_11__202states.dfa,194,989,,70.9262,1
ex14.mona-walk.dot_12__316states.dfa,308,1762,,186.3732,1
ex14.mona-walk.dot_13__316states.dfa,308,1762,,176.374,1
ex14.mona-walk.dot_14__852states.dfa,844,5573,,1335.1649,1
ex14.mona-walk.dot_15__852states.dfa,844,9038,,2097.0197,1
ex14.mona-walk.dot_16__852states.dfa,846,12733,,4088.8008,1
ex14.mona-walk.dot_17__167states.dfa,153,1365,,84.7314,1
ex14.mona-walk.dot_21__35states.dfa,22,68,,3.06,1
ex14.mona-walk.dot_22__53states.dfa,38,140,,4.8477,1
ex14.mona-walk.dot_24__42states.dfa,28,104,,9.5566,1
ex14.mona-walk.dot_3__30states.dfa,22,40,,1.5264,1
ex14.mona-walk.dot_4__30states.dfa,22,40,,0.7626,1
ex14.mona-walk.dot_5__45states.dfa,37,81,,1.9014,1
ex14.mona-walk.dot_6__65states.dfa,57,150,,3.9904,1
ex14.mona-walk.dot_7__65states.dfa,57,150,,4.1348,1
ex14.mona-walk.dot_8__77states.dfa,69,219,,5.5093,1
ex14.mona-walk.dot_9__103states.dfa,95,378,,11.1411,1
ex16.mona-walk.dot_56__16states.dfa,8,23,,10.7357,1
ex16.mona-walk.dot_58__25states.dfa,11,34,,11.6925,1
ex18.mona-walk.dot_106__298states.dfa,290,3207,,1272.6891,1
ex18.mona-walk.dot_107__298states.dfa,290,3207,,1153.8589,1
ex18.mona-walk.dot_109__269states.dfa,265,1308,,744.7622,1
ex18.mona-walk.dot_94__108states.dfa,104,196,,42.2445,1
ex18.mona-walk.dot_95__172states.dfa,168,324,,35.4621,1
ex18.mona-walk.dot_96__300states.dfa,296,580,,74.9747,1
ex18.mona-walk.dot_97__556states.dfa,552,1092,,270.8205,1
ex19.mona-walk.dot_10__119states.dfa,115,171,,16.6504,1
ex19.mona-walk.dot_47__135states.dfa,131,250,,25.1851,1
ex19.mona-walk.dot_49__247states.dfa,243,578,,70.571,1
ex19.mona-walk.dot_51__141states.dfa,137,472,,35.8245,1
ex20.mona-walk.dot_20__20states.dfa,6,12,,0.2589,1
ex3.mona-walk.dot_33__579states.dfa,572,1782,,580.7896,1
ex3.mona-walk.dot_34__449states.dfa,446,1276,,433.4825,1
ex4.mona-walk.dot_20__276states.dfa,269,2586,,537.0959,1
ex4.mona-walk.dot_21__531states.dfa,524,3606,,1487.1334,1
ex4.mona-walk.dot_22__139states.dfa,131,499,,56.4942,1
ex4.mona-walk.dot_23__139states.dfa,131,499,,53.6706,1
ex4.mona-walk.dot_24__147states.dfa,139,530,,61.822,1
ex4.mona-walk.dot_25__151states.dfa,135,414,,47.4247,1
ex4.mona-walk.dot_26__602states.dfa,586,2686,,642.2682,1
ex4.mona-walk.dot_38__134states.dfa,120,442,,30.6009,1
ex5.mona-walk.dot_3__66states.dfa,64,70,,5.4027,1
ex8.mona-walk.dot_18__242states.dfa,234,650,,66.3019,1
parametric_uabe1_11.mona-walk.dot_0__167states.dfa,163,1123,,57.3504,1
parametric_uabe1_12.mona-walk.dot_0__181states.dfa,177,1137,,47.0066,1
parametric_uabe1_13.mona-walk.dot_0__195states.dfa,191,1151,,65.3186,1
parametric_uabe1_14.mona-walk.dot_0__209states.dfa,205,1165,,93.6644,1
parametric_uabe2_03.mona-walk.dot_0__142states.dfa,140,517,,82.4262,1
parametric_uabe2_04.mona-walk.dot_0__702states.dfa,700,3197,,2354.2955,1
parametric_uabe2_05.mona-walk.dot_0__86states.dfa,78,314,,24.0672,1
parametric_uabe2_06.mona-walk.dot_0__91states.dfa,87,314,,13.9749,1
parametric_uabe2_07.mona-walk.dot_0__108states.dfa,104,380,,35.9149,1
parametric_uabe2_08.mona-walk.dot_0__125states.dfa,121,446,,37.1157,1
parametric_uabe3_06.mona-walk.dot_0__97states.dfa,93,528,,29.2694,1
parametric_uabe3_07.mona-walk.dot_0__111states.dfa,107,542,,19.2482,1
parametric_uabe3_08.mona-walk.dot_0__125states.dfa,121,556,,28.6548,1
parametric_uabe3_09.mona-walk.dot_0__139states.dfa,135,570,,24.5578,1
parametric_uabe3_10.mona-walk.dot_0__153states.dfa,149,584,,33.4608,1
parametric_uabe3_11.mona-walk.dot_0__167states.dfa,163,598,,33.6372,1
parametric_uabe3_12.mona-walk.dot_0__181states.dfa,177,612,,50.5581,1
parametric_uabe3_13.mona-walk.dot_0__195states.dfa,191,626,,44.0418,1
parametric_uabe3_14.mona-walk.dot_0__209states.dfa,205,640,,58.4762,1
array_axiom.mona-walk.dot_26__901states.dfa,899,5254,,2695.0468,1
array_axiom.mona-walk.dot_27__897states.dfa,894,2684,,1698.569,1
array_axiom.mona-walk.dot_36__105states.dfa,102,252,,23.6614,1
ex18.mona-walk.dot_98__1068states.dfa,1064,2116,,1067.6077,1
ex18.mona-walk.dot_99__2056states.dfa,2052,4092,,3480.2452,1
strand-old-bubblesort-loop-else.mona-walk.dot_0__1044states.dfa,18,37,,1.4455,1
strand-old-bubblesort-loop-if-else.mona-walk.dot_0__1027states.dfa,1,0,,0.0485,1
strand-old-bubblesort-loop-if-if.mona-walk.dot_0__2051states.dfa,1,0,,0.0505,1
strand-old-sorted-list-insert-after-loop.mona-walk.dot_0__151states.dfa,21,39,,2.008,1
strand-old-sorted-list-insert-before-head.mona-walk.dot_0__114states.dfa,48,254,,18.4098,1
strand-old-sorted-list-insert-before-loop.mona-walk.dot_0__131states.dfa,1,0,,0.0406,1
strand-old-sorted-list-insert-error-before-loop.mona-walk.dot_0__156states.dfa,26,65,,1.901,1
strand-old-sorted-list-insert-in-loop.mona-walk.dot_0__515states.dfa,1,0,,0.0461,1
strand-old-sorted-list-reverse-after-loop.mona-walk.dot_0__131states.dfa,1,0,,0.0532,1
strand-old-sorted-list-reverse-before-loop.mona-walk.dot_0__212states.dfa,111,1043,,104.5426,1
strand-old-sorted-list-reverse-in-loop.mona-walk.dot_0__515states.dfa,1,0,,0.0465,1
strand-old-sorted-list-search-after-loop.mona-walk.dot_0__317states.dfa,316,8535,,2552.3842,1
strand-old-sorted-list-search-before-loop.mona-walk.dot_0__112states.dfa,46,265,,15.4836,1
ex11.mona.aut,2217,6513,,4721.4962,1
ex12.mona.aut,377,1089,,194.5758,1
ex13.mona.aut,933,4591,,1385.7921,1
ex15.mona.aut,10,27,,0.8435,1
ex16.mona.aut,543,1426,,266.1065,1
ex17.mona.aut,1,0,,0.0351,1
ex19.mona.aut,814,2885,,608.0345,1
ex7.mona.aut,148,373,,19.2285,1
horn_trans05.mona.aut,11,25,,0.4176,1
horn_trans10.mona.aut,21,50,,0.926,1
parametric_uabe1_11.mona.aut,2507,7493,,5877.2208,1
parametric_uabe3_10.mona.aut,2257,6733,,4742.4766,1
set_closed05.mona.aut,24,53,,1.7818,1
set_closed10.mona.aut,44,98,,2.5117,1
set_obvious05.mona.aut,1,0,,0.0323,1
set_obvious10.mona.aut,1,0,,0.0335,1
set_singletons05.mona.aut,21,55,,0.8451,1
set_singletons10.mona.aut,41,110,,2.6388,1
strand-new-sorted-list-insert-after-loop.mona.aut,674,5429,,732.2754,1
strand-new-sorted-list-insert-before-head.mona.aut,219,1699,,92.7825,1
strand-new-sorted-list-insert-before-loop.mona.aut,387,3430,,330.1205,1
strand-new-sorted-list-insert-error-error.mona.aut,387,3430,,328.013,1
strand-new-sorted-list-reverse-after-loop.mona.aut,956,20383,,2701.0823,1
strand-new-sorted-list-reverse-before-loop.mona.aut,956,20383,,2361.2058,1
strand-new-sorted-list-search-after-loop.mona.aut,431,5629,,464.1352,1
strand-new-sorted-list-search-before-loop.mona.aut,300,2849,,229.6516,1
toss05.mona.aut,65,288,,13.3374,1
toss10.mona.aut,1413,16619,,3632.2529,1
veanes05.mona.aut,6,11,,0.369,1
veanes05_1alts.mona.aut,19,45,,0.5238,1
veanes05_2alts.mona.aut,31,172,,2.0206,1
veanes05_3alts.mona.aut,19,50,,1.2568,1
veanes05_4alts.mona.aut,25,91,,2.3905,1
veanes10.mona.aut,11,21,,0.8273,1
veanes10_1alts.mona.aut,39,95,,2.8259,1
veanes10_2alts.mona.aut,780,33596,,3577.021,1
veanes10_3alts.mona.aut,39,100,,3.073,1
veanes10_4alts.mona.aut,588,15179,,1471.3324,1
