id,states,transitions,statesSim,time,goodruns
0,14,40,5,0.4156,1
1,59,127,35,8.4399,1
2,17,20,17,1.7577,1
3,2,1,2,0.0888,1
4,29,47,25,3.596,1
5,3,3,3,0.1606,1
6,18,21,16,2.1169,1
7,25,36,21,3.0351,1
8,3,6,1,0.0371,1
9,7,9,6,0.4188,1
10,12,14,12,1.4838,1
11,8,13,6,0.311,1
12,16,19,15,1.8102,1
13,38,66,36,15.4868,1
14,44,81,40,20.9756,1
15,15,16,15,1.7546,1
16,3,3,1,0.0919,1
17,65,135,40,10.7878,1
18,44,49,29,4.7151,1
19,40,52,32,39.3361,1
20,6,10,6,0.3769,1
21,4,5,4,0.2431,1
22,4,5,3,0.1215,1
23,11,13,11,1.0156,1
24,22,29,22,3.0923,1
25,11,11,11,0.5202,1
26,8,9,8,0.4038,1
27,6,11,6,0.465,1
28,18,29,18,32.0382,1
29,11,11,9,0.4878,1
30,1,1,1,0.0607,1
31,33,36,19,6.4863,1
32,16,16,10,1.0563,1
33,36,51,28,13.9887,1
34,3,2,3,0.1306,1
35,19,24,15,1.3322,1
36,370,804,193,163.9675,1
37,6,8,6,0.2025,1
38,3,3,3,0.1365,1
39,28,66,27,4.6737,1
40,14,13,14,1.3121,1
41,13,26,4,0.3146,1
42,7,8,7,0.2546,1
43,9,13,9,0.8411,1
44,4,6,2,0.2163,1
45,19,23,18,1.7996,1
46,7,8,7,0.3544,1
47,7,8,7,0.6678,1
48,11,12,11,0.5403,1
49,2,2,2,0.1046,1
50,102,202,78,76.7882,1
51,101,185,76,47.3327,1
52,10,9,10,5.1438,1
53,29,59,17,3.1839,1
54,17,40,13,2.0333,1
55,46,66,36,13.1937,1
56,3,4,3,0.1796,1
57,55,77,36,14.4695,1
58,101,185,76,67.0373,1
59,24,38,23,5.9826,1
60,27,53,25,2.1485,1
61,14,34,14,1.5434,1
62,9,18,9,0.774,1
63,7,8,7,0.2048,1
64,62,100,31,9.6821,1
65,64,102,33,6.1745,1
66,15,16,15,1.2548,1
67,46,69,31,3.341,1
68,2,2,2,0.0832,1
69,3,4,3,0.0659,1
70,32,31,32,3.0209,1
71,55,134,38,7.5043,1
72,132,230,102,31.7275,1
73,143,262,119,203.085,1
74,124,238,107,81.0407,1
75,22,50,16,1.0188,1
76,20,21,20,4.1041,1
77,6,5,6,0.1843,1
78,6,5,6,0.3556,1
79,8,11,6,0.3801,1
80,30,71,27,3.9473,1
81,16,15,16,1.0413,1
82,5,5,5,0.1432,1
83,1,1,1,0.056,1
84,18,27,11,0.8751,1
85,32,50,3,0.9947,1
86,13,22,3,0.1207,1
87,2,3,2,0.03,1
88,19,30,3,0.2861,1
89,9,14,3,0.1725,1
90,26,42,13,1.0681,1
91,68,95,62,31.017,1
92,25,33,20,2.0147,1
93,10,11,10,0.6153,1
94,3,3,3,0.1361,1
95,4,5,4,0.1859,1
96,4,6,4,0.2005,1
97,5,8,5,0.2759,1
98,26,47,25,5.1908,1
99,6,11,3,0.1942,1
100,28,43,25,5.1675,1
101,8,13,3,0.2269,1
102,15,21,15,0.6939,1
103,33,44,18,1.7479,1
104,33,43,18,1.8201,1
105,16,24,16,1.8552,1
106,40,59,20,6.3959,1
107,29,30,29,6.3478,1
108,61,85,39,9.4563,1
109,21,23,12,1.2884,1
110,27,44,23,3.9351,1
111,20,20,20,1.9338,1
112,31,36,3,0.8269,1
113,43,46,43,7.7475,1
114,30,52,20,2.9388,1
115,13,20,10,0.4444,1
116,8,8,8,0.2877,1
117,13,30,6,0.2905,1
118,18,33,11,0.6157,1
119,9,22,4,0.2739,1
120,49,53,49,16.9737,1
121,5,5,4,0.1298,1
122,6,7,6,0.495,1
123,14,17,14,1.2142,1
124,10,9,10,0.6671,1
125,9,8,9,1.1036,1
126,7,9,6,0.3876,1
127,21,38,20,2.1161,1
128,4,5,4,0.1665,1
129,95,150,55,19.4748,1
130,1,1,1,0.0264,1
131,13,16,9,0.2581,1
132,79,248,25,5.1217,1
133,79,248,27,10.0772,1
134,6,9,5,0.2321,1
135,21,131,18,2.6806,1
136,3,5,2,0.0896,1
137,14,16,11,0.8392,1
138,13,18,7,0.4243,1
139,7,7,7,0.5151,1
140,2,3,2,0.0536,1
141,65,69,65,44.4977,1
142,14,17,11,0.9442,1
143,14,18,14,13.3425,1
144,31,30,31,2.4134,1
145,7,9,4,0.12,1
146,13,15,5,0.2775,1
147,28,39,24,4.6156,1
148,13,16,13,1.3622,1
149,19,32,6,0.6398,1
150,4,7,3,0.1365,1
151,39,42,21,3.1247,1
152,28,30,19,1.8394,1
153,79,148,35,9.3983,1
154,74,74,74,22.0442,1
155,3,5,2,0.0367,1
156,25,69,17,1.798,1
157,13,17,13,1.3069,1
158,23,32,21,1.4636,1
159,20,23,19,1.3535,1
160,10,16,7,0.4673,1
161,15,16,15,0.939,1
162,77,108,15,3.6777,1
163,13,33,7,0.2798,1
164,13,12,13,0.3742,1
165,9,33,2,0.146,1
166,747,986,304,715.993,1
167,76,116,56,10.7144,1
168,11,11,11,0.6153,1
169,2,2,2,0.0521,1
170,9,8,9,0.5068,1
171,9,8,9,0.6205,1
172,9,8,9,1.1577,1
173,6,5,6,0.3106,1
174,80,104,64,14.2781,1
175,4,7,4,0.165,1
176,4,7,4,0.1053,1
177,10,12,5,0.1578,1
178,34,55,34,4.5339,1
179,7,14,5,0.1559,1
180,279,489,243,144.3123,1
181,8,8,8,0.3382,1
182,12,17,5,0.1721,1
183,19,24,13,0.8711,1
184,48,59,32,6.8033,1
185,15,29,11,0.5944,1
186,3,4,3,0.1464,1
187,14,13,14,4.7755,1
188,15,14,15,0.6939,1
189,14,13,14,0.6284,1
190,14,13,14,0.6378,1
191,44,59,43,7.1775,1
192,25,25,25,1.8552,1
193,18,19,6,0.3078,1
194,6,8,6,0.2857,1
195,4,10,3,0.116,1
196,8,8,8,0.3035,1
197,71,118,33,2.88,1
198,2,3,2,0.0734,1
199,4,5,4,0.2336,1
200,4,7,4,0.0915,1
201,11,15,11,0.489,1
202,32,34,32,3.3244,1
203,13,16,13,1.5296,1
204,10,11,10,0.7275,1
205,8,8,8,0.6422,1
206,95,194,48,24.85,1
207,3,6,1,0.0351,1
208,9,38,1,0.0943,1
209,70,80,31,7.3832,1
210,138,186,30,7.3567,1
211,23,26,14,1.4167,1
212,44,52,19,1.5469,1
213,17,34,6,0.4571,1
214,16,19,10,0.4772,1
215,26,42,23,1.8221,1
216,4,6,3,0.1018,1
217,36,74,18,2.7106,1
218,3,4,2,0.0671,1
219,19,30,18,2.4994,1
220,6,10,4,0.1673,1
221,49,110,33,9.2976,1
222,12,15,8,0.5873,1
223,18,21,9,0.5703,1
224,52,69,36,5.9645,1
225,94,124,73,32.3196,1
226,36,51,24,2.0929,1
227,18,30,15,1.4514,1
228,6,7,6,0.4006,1
229,25,34,21,3.369,1
230,5,8,4,0.3007,1
231,5,14,3,0.2786,1
232,3,5,2,0.0773,1
233,23,25,23,5.9846,1
234,15,17,15,0.8613,1
235,18,36,3,0.1997,1
236,13,26,4,0.1792,1
237,96,121,93,47.6923,1
238,20,26,17,26.0125,1
239,12,23,6,0.1914,1
240,79,101,52,11.0029,1
241,31,30,19,1.2738,1
242,9,10,5,0.3165,1
243,100,187,51,7.0713,1
244,215,401,87,100.3245,1
245,27,50,27,14.6029,1
246,8,11,8,0.2897,1
247,86,115,67,23.4546,1
248,3,4,3,0.0623,1
249,17,18,17,0.8305,1
250,20,26,18,0.9738,1
251,3,2,3,0.5869,1
252,24,39,24,5.7418,1
253,65,102,62,26.4538,1
254,5,5,5,0.1827,1
255,4,3,4,0.1397,1
256,37,61,23,3.5889,1
257,11,12,9,1.361,1
258,9,8,9,0.6146,1
259,15,26,11,0.5064,1
260,10,11,10,0.7152,1
261,5,10,3,0.1176,1
262,5,10,2,0.0915,1
263,43,52,43,7.6058,1
264,15,16,15,0.8802,1
265,10,9,10,0.6963,1
266,19,27,19,1.9215,1
267,13,16,11,1.8694,1
268,7,6,7,0.223,1
269,7,8,7,0.2068,1
270,11,17,7,0.2388,1
271,56,94,27,6.0777,1
272,28,31,28,1.8213,1
273,11,19,3,0.1239,1
274,205,3036,7,10.7598,1
275,39,41,18,2.0084,1
276,13,18,12,1.0373,1
277,29,45,26,3.3738,1
278,7,18,2,0.058,1
279,44,45,44,7.933,1
280,10,11,6,0.3588,1
281,10,15,10,0.3252,1
282,6,12,4,0.2273,1
283,22,28,13,2.1422,1
284,20,22,20,1.3772,1
285,20,22,20,1.4289,1
286,11,13,11,0.6643,1
287,2,2,2,0.0963,1
288,14,16,14,1.9969,1
289,5,9,3,0.084,1
290,30,31,30,3.8064,1
291,9,20,2,0.0742,1
292,17,36,13,2.3486,1
293,12,11,12,6.632,1
294,3,4,3,0.0998,1
295,33,54,31,3.5866,1
296,21,45,3,0.3086,1
297,2,3,2,0.0517,1
298,11,11,11,0.3722,1
299,7,9,6,0.1642,1
300,7,8,7,0.3094,1
301,60,134,40,14.4202,1
302,15,19,11,0.7188,1
303,15,25,10,1.0725,1
304,59,257,25,18.0226,1
305,29,41,25,3.2467,1
306,24,38,16,1.644,1
307,29,61,22,2.366,1
308,43,156,35,13.8391,1
309,16,22,15,1.7992,1
310,5,9,2,0.0931,1
311,38,70,35,8.9992,1
312,4,6,1,0.0497,1
313,29,32,20,1.3531,1
314,45,46,45,11.8883,1
315,20,33,18,1.4869,1
316,24,26,23,0.9951,1
317,19,20,19,2.43,1
318,21,22,21,1.2998,1
319,16,29,13,0.7176,1
320,3,5,2,0.0635,1
321,19,27,11,0.5194,1
322,393,736,108,102.224,1
323,7,15,7,0.3453,1
324,5,6,5,0.1918,1
325,15,14,15,1.2086,1
326,16,26,13,1.903,1
327,43,56,37,11.7004,1
328,45,55,40,5.6645,1
329,43,70,27,4.7159,1
330,10,20,8,0.3031,1
331,30,40,20,10.8348,1
332,52,84,15,2.6467,1
333,16,20,13,0.7484,1
334,2,3,2,0.0576,1
335,2,3,2,0.0761,1
336,9,15,8,0.2305,1
337,13,29,11,0.765,1
338,35,120,15,14.359,1
339,16,16,16,1.093,1
340,15,34,7,0.6651,1
341,11,19,4,0.1665,1
342,80,114,52,38.2549,1
343,57,195,22,4.3733,1
344,18,27,6,0.3631,1
345,25,34,25,3.2968,1
346,10,24,9,0.4247,1
347,18,21,7,0.4361,1
348,14,18,6,0.4807,1
349,21,34,21,5.2093,1
350,40,51,26,3.1835,1
351,16,22,12,1.0271,1
352,10,17,7,0.3832,1
353,3,2,3,0.075,1
354,8,8,8,0.2182,1
355,89,172,62,18.338,1
356,5,6,5,0.1673,1
357,18,30,11,0.4488,1
358,11,11,11,0.5956,1
359,9,11,9,0.6371,1
360,27,57,26,5.64,1
361,64,141,51,5.5164,1
362,16,21,10,0.7476,1
363,20,27,15,1.1171,1
364,23,36,11,1.7352,1
365,52,78,35,4.185,1
366,101,100,56,14.5911,1
367,27,31,27,3.9659,1
368,14,14,14,1.1881,1
369,16,28,9,0.6805,1
370,10,21,7,0.4401,1
371,28,48,20,3.1772,1
372,54,65,52,14.0839,1
373,4,3,4,0.1507,1
374,11,11,11,0.8538,1
375,19,18,19,1.4013,1
376,9,10,9,0.4981,1
377,8,11,4,0.2538,1
378,32,33,32,9.7334,1
379,18,32,13,4.8801,1
380,45,44,45,7.9342,1
381,30,33,27,3.5818,1
382,31,30,31,5.5196,1
383,49,65,39,5.1114,1
384,18,19,18,1.1261,1
385,34,34,32,2.3171,1
386,5,8,5,0.2475,1
387,13,14,13,0.5585,1
388,28,72,23,4.922,1
389,11,10,11,0.4752,1
390,9,10,9,0.2636,1
391,9,10,9,0.2597,1
392,2,3,2,0.0544,1
393,3,5,3,0.0896,1
394,24,26,16,1.1885,1
395,46,80,40,9.81,1
396,7,14,6,0.3805,1
397,9,13,6,0.4547,1
398,8,12,6,0.2321,1
399,19,29,2,0.131,1
400,14,26,13,1.2615,1
401,7,9,1,0.1148,1
402,28,29,28,4.2154,1
403,5,6,5,0.1894,1
404,11,46,3,0.1432,1
405,12,17,7,0.2522,1
406,18,25,18,2.4122,1
407,13,19,8,0.6386,1
408,21,47,17,1.1826,1
409,6,5,6,0.1803,1
410,13,22,11,0.4859,1
411,6,8,6,0.1527,1
412,113,132,18,4.3456,1
413,5,5,5,0.1665,1
414,7,9,7,0.1575,1
415,558,2116,557,360.9013,1
416,7,8,7,0.2988,1
417,17,23,5,0.2534,1
418,7,8,7,0.2471,1
419,6,9,5,0.2522,1
420,9,10,9,0.6872,1
421,19,18,19,1.4076,1
422,16,39,13,1.6125,1
423,20,44,14,5.1959,1
424,16,32,12,1.1929,1
425,9,14,8,0.6003,1
426,9,14,8,0.7503,1
427,5,7,5,0.2182,1
428,54,120,41,20.0117,1
429,18,25,5,0.675,1
430,13,24,4,0.4026,1
431,61,86,56,28.4358,1
432,36,46,18,1.5805,1
433,42,61,42,13.5758,1
434,41,62,39,8.9625,1
435,7,9,7,0.3367,1
436,19,28,9,0.5143,1
437,302,769,189,70.0259,1
438,7,10,7,0.27,1
439,4,6,4,0.0994,1
440,31,55,21,1.946,1
441,49,50,13,1.3077,1
442,6,13,5,0.1685,1
443,12,13,12,0.4448,1
444,6,9,4,0.1503,1
445,22,24,21,2.1434,1
446,17,47,13,0.9229,1
447,7,9,7,0.2546,1
448,99,249,46,10.7744,1
449,15,20,14,1.005,1
450,4,7,3,0.0876,1
451,15,31,13,0.714,1
452,17,28,12,0.9367,1
453,8,10,6,7.3018,1
454,2,3,2,0.0505,1
455,104,167,70,13.3824,1
456,4,7,3,0.1863,1
457,6,5,6,0.1622,1
458,17,37,8,0.6106,1
459,11,28,9,0.7965,1
460,16,25,12,0.81,1
461,20,27,18,2.4394,1
462,22,28,13,0.8455,1
463,128,145,56,13.1088,1
464,11,16,10,0.4302,1
465,4,9,1,0.0402,1
466,13,37,5,0.2171,1
467,12,20,6,0.1863,1
468,17,34,12,0.5664,1
469,11,14,10,0.7432,1
470,34,36,34,3.6635,1
471,17,22,14,0.7042,1
472,20,36,20,2.1075,1
473,24,25,24,2.2942,1
474,2,3,2,0.0525,1
475,5,7,3,0.1342,1
476,44,125,35,17.2828,1
477,11,10,11,0.4405,1
478,27,30,27,19.1184,1
479,4,7,3,0.1405,1
480,4,6,3,0.1784,1
481,5,7,5,0.1981,1
482,6,12,5,0.2044,1
483,2,2,2,0.086,1
484,18,27,14,1.1814,1
485,13,14,13,1.119,1
486,11,16,4,0.146,1
487,14,35,5,0.2988,1
488,20,84,10,1.5864,1
489,47,70,47,9.4484,1
490,101,139,67,16.9714,1
491,36,51,28,6.302,1
492,14,23,7,0.5842,1
493,12,15,12,0.538,1
494,14,19,9,0.4539,1
495,31,39,15,1.9271,1
496,22,29,22,2.7694,1
497,7,9,6,0.2921,1
498,6,9,4,0.1286,1
499,16,18,16,0.7444,1
500,6,10,3,0.1752,1
501,70,127,50,18.1268,1
502,22,29,22,1.5576,1
503,53,54,53,23.8809,1
504,63,92,23,6.3403,1
505,20,27,18,1.2931,1
506,501,718,315,823.8274,1
507,15,16,15,1.5907,1
508,8,10,8,0.549,1
509,76,139,66,12.5712,1
510,21,38,18,1.9002,1
511,22,40,21,2.4304,1
512,13,20,11,0.6864,1
513,13,22,3,0.1365,1
514,25,26,25,2.1004,1
515,13,20,10,0.6244,1
516,97,132,51,14.6764,1
517,7,8,7,0.3185,1
518,4,5,4,0.1421,1
519,5,4,5,0.3821,1
520,3,4,2,0.1409,1
521,3,5,3,0.0986,1
522,20,28,16,1.5777,1
523,16,34,3,0.1788,1
524,5,4,5,0.2901,1
525,10,15,8,0.4034,1
526,24,50,20,4.9847,1
527,4,5,4,0.2376,1
528,39,52,36,12.345,1
529,89,90,89,38.4104,1
530,21,23,13,1.404,1
531,12,14,12,1.0472,1
532,32,67,12,0.9311,1
533,7,10,7,0.2403,1
534,12,22,5,0.1898,1
535,81,82,81,39.702,1
536,23,32,14,1.2509,1
537,17,40,17,2.3759,1
538,103,143,46,8.0116,1
539,13,36,11,0.8478,1
540,3,5,2,0.0406,1
541,5,8,3,0.1705,1
542,30,81,14,1.6081,1
543,17,27,8,0.3011,1
544,44,70,20,2.0506,1
545,25,39,7,0.4811,1
546,14,35,13,0.8226,1
547,21,59,12,1.2098,1
548,6,10,3,0.3003,1
549,19,32,15,1.0235,1
550,75,76,75,24.2448,1
551,45,46,45,9.1441,1
552,11,13,6,0.2865,1
553,576,1102,104,78.7852,1
554,223,1964,195,27.7229,1
555,13,16,8,0.5786,1
556,6,9,6,0.1728,1
557,18,21,14,0.8388,1
558,17,22,14,0.8668,1
559,18,23,9,0.4875,1
560,27,35,19,1.6397,1
561,14,17,14,0.5542,1
562,46,70,36,6.1879,1
563,20,23,18,1.1238,1
564,11,10,11,0.2889,1
565,19,26,19,4.7597,1
566,21,57,4,0.3217,1
567,7,9,7,0.2214,1
568,7,8,7,1.1348,1
569,99,181,55,17.1648,1
570,5,10,3,0.0852,1
571,8,8,6,0.1811,1
572,6,6,6,0.1586,1
573,4,6,2,0.0734,1
574,13,29,5,0.36,1
575,10,24,2,0.1053,1
576,70,84,25,4.0259,1
577,3,4,3,0.1057,1
578,74,97,40,3.2779,1
579,4,4,4,0.1034,1
580,16,20,16,1.0626,1
581,57,76,45,11.8121,1
582,16,21,13,1.5161,1
583,88,105,52,11.6929,1
584,68,128,53,36.8074,1
585,22,61,11,0.8727,1
586,67,198,35,17.2611,1
587,5,9,4,0.1448,1
588,36,67,32,3.8356,1
589,13,30,11,0.5096,1
590,4,6,3,0.1034,1
591,12,24,4,0.3667,1
592,11,12,11,0.5135,1
593,39,78,24,1.5118,1
594,220,276,42,11.2224,1
595,29,68,9,0.7306,1
596,5,7,4,0.1456,1
597,20,30,20,4.8998,1
598,15,28,11,0.5253,1
599,12,34,4,0.405,1
600,13,25,3,0.2009,1
601,8,7,8,0.2984,1
602,5,5,5,0.2147,1
603,12,13,12,0.6572,1
604,2,1,2,0.0864,1
605,8,18,5,0.2838,1
606,32,41,28,3.8909,1
607,12,37,9,1.018,1
608,24,32,24,4.7356,1
609,28,58,6,0.8151,1
610,15,30,4,0.4073,1
611,103,166,56,50.9596,1
612,107,173,57,46.535,1
613,16,51,14,0.9919,1
614,9,10,9,5.0159,1
615,6,15,3,0.0967,1
616,9,11,9,0.3189,1
617,7,9,7,0.1721,1
618,16,19,16,1.0042,1
619,9,13,9,0.3118,1
620,9,11,9,0.328,1
621,9,13,9,0.3386,1
622,8,12,8,0.2771,1
623,14,16,14,0.954,1
624,65,64,65,4.6942,1
625,6,6,5,0.1807,1
626,11,11,11,0.4235,1
627,19,29,10,0.4109,1
628,11,18,10,0.4507,1
629,11,21,9,0.4247,1
630,15,14,15,0.744,1
631,13,20,12,0.6722,1
632,71,113,33,6.4121,1
633,8,14,7,0.2865,1
634,10,9,7,0.2581,1
635,23,31,20,1.5264,1
636,19,24,17,1.0334,1
637,26,35,25,2.8721,1
638,4,6,2,0.0757,1
639,13,16,11,0.3098,1
640,15,17,15,0.658,1
641,153,200,77,25.2009,1
642,65,87,53,6.8281,1
643,194,472,154,246.7057,1
644,21,24,20,1.4451,1
645,5,9,4,0.1788,1
646,22,22,21,1.1996,1
647,18,23,18,1.6247,1
648,11,14,9,0.4567,1
649,9,10,8,0.5538,1
650,12,14,12,1.1526,1
651,9,26,5,0.4527,1
652,14,25,5,0.3769,1
653,8,9,6,0.3252,1
654,19,21,16,1.0606,1
655,8,7,8,0.2593,1
656,9,11,7,0.234,1
657,12,28,9,0.5159,1
658,9,11,6,0.2281,1
659,21,44,17,1.6732,1
660,12,16,8,0.3236,1
661,10,10,10,0.2826,1
662,16,21,13,0.5885,1
663,8,12,6,0.4488,1
664,19,20,15,0.8032,1
665,9,9,9,0.4069,1
666,2,3,2,0.041,1
667,18,22,17,0.701,1
668,68,95,47,10.5778,1
669,14,27,9,0.3572,1
670,6,7,6,0.2581,1
671,37,110,8,0.7673,1
672,3,5,2,0.1152,1
673,11,70,1,0.1886,1
674,11,17,2,0.0868,1
675,7,9,2,0.06,1
676,29,75,5,0.8463,1
677,13,25,4,0.3094,1
678,13,16,13,1.2726,1
679,8,9,8,0.4152,1
680,15,20,14,2.1951,1
681,33,38,26,2.533,1
682,2,3,2,1.1644,1
683,35,35,35,7.5245,1
684,72,75,22,2.9719,1
685,35,47,33,10.7523,1
686,116,117,116,101.9315,1
687,1,1,1,0.0355,1
688,8,9,8,0.2257,1
689,59,60,59,13.8553,1
690,20,26,18,1.0409,1
691,17,29,16,1.4455,1
692,15,16,15,0.8186,1
693,4,6,4,0.1113,1
694,4,8,3,0.0939,1
695,6,11,5,0.1294,1
696,9,13,9,0.2901,1
697,7,12,7,0.1796,1
698,2,2,2,0.0939,1
699,307,581,67,62.8069,1
700,324,623,80,56.9952,1
701,11,10,11,0.4831,1
702,22,23,22,2.0514,1
703,15,17,15,1.0515,1
704,15,19,11,0.3457,1
705,3,5,3,0.0667,1
706,7,14,6,0.1709,1
707,72,118,62,20.8386,1
708,45,73,28,1.9883,1
709,27,43,23,1.6942,1
710,3,6,1,0.0363,1
711,15,38,3,0.1405,1
712,23,35,17,1.5935,1
713,23,30,21,1.53,1
714,9,8,9,0.5009,1
715,26,34,15,1.5331,1
716,11,16,5,0.1634,1
717,33,58,19,1.7731,1
718,92,110,71,23.8722,1
719,92,110,56,9.9371,1
720,6,7,6,0.18,1
721,23,24,23,3.7831,1
722,14,16,14,0.8459,1
723,31,51,18,1.5007,1
724,4,6,4,0.0793,1
725,42,45,33,1.8154,1
726,19,27,10,0.3746,1
727,31,48,22,3.0994,1
728,48,52,36,5.955,1
729,53,55,17,3.9091,1
730,9,17,3,0.2735,1
731,2,3,2,0.0311,1
732,3,6,1,0.0382,1
733,3,3,3,0.1428,1
734,46,118,23,3.7914,1
735,224,362,197,263.3198,1
736,21,21,21,1.9736,1
737,10,17,9,0.5143,1
738,9,10,8,0.4894,1
739,5,6,5,1.5975,1
740,25,61,14,1.9492,1
741,177,256,88,40.9198,1
742,5,8,3,0.1085,1
743,16,37,15,0.9398,1
744,12,13,11,0.4432,1
745,130,195,65,5.5042,1
746,7,10,4,0.1496,1
747,13,22,8,0.3872,1
748,12,21,9,0.6607,1
749,17,30,11,0.9718,1
750,6,9,5,0.1211,1
751,16,17,12,0.3414,1
752,18,26,18,1.2746,1
753,19,23,16,1.1269,1
754,16,25,14,0.6769,1
755,19,33,19,5.351,1
756,7,15,4,0.3536,1
757,54,81,40,9.4832,1
758,29,39,3,0.4353,1
759,56,78,28,3.2301,1
760,81,118,41,10.2596,1
761,17,35,5,0.2956,1
762,508,923,307,605.4135,1
763,51,87,15,2.6739,1
764,6,8,3,0.1661,1
765,87,101,85,28.5333,1
766,25,32,7,0.7172,1
767,18,18,18,1.0144,1
768,4,5,4,0.1227,1
769,9,12,9,0.3071,1
770,16,31,2,0.1073,1
771,11,14,11,0.3118,1
772,22,56,9,0.9067,1
773,13,22,12,0.9213,1
774,20,30,16,1.4167,1
775,2,2,2,0.0525,1
776,55,74,41,4.3294,1
777,13,16,9,0.3793,1
778,14,26,4,0.1898,1
779,12,22,9,0.2455,1
780,22,25,18,0.8447,1
781,35,50,28,4.1297,1
782,39,70,32,5.2093,1
783,29,37,29,4.7297,1
784,13,30,10,0.7685,1
785,8,19,5,0.1977,1
786,53,149,31,4.4301,1
787,53,149,31,5.9301,1
788,23,31,8,0.4531,1
789,18,23,13,0.6007,1
790,6,7,6,0.5553,1
791,15,18,14,1.0748,1
792,11,18,11,0.4875,1
793,12,18,12,0.5719,1
794,6,8,6,0.2628,1
795,11,12,11,0.4867,1
796,28,55,23,4.0121,1
797,33,57,24,1.845,1
798,9,17,6,0.343,1
799,288,465,191,198.0213,1
800,546,2608,541,744.4951,1
801,5,8,3,0.1448,1
802,25,32,10,1.2067,1
803,46,72,13,2.6625,1
804,7,8,7,0.4871,1
805,6,7,6,0.3521,1
806,72,120,64,22.0382,1
807,1501,1500,1501,2263.1785,1
808,38,50,32,3.8506,1
809,11,10,11,0.9422,1
810,22,28,20,2.8515,1
811,15,22,10,0.8731,1
812,9,11,9,0.6844,1
813,42,47,33,6.7816,1
814,10,18,2,0.1547,1
815,13,23,8,0.3355,1
816,19,19,19,3.5368,1
817,6,8,6,0.4089,1
818,10,11,10,0.8186,1
819,9,8,9,0.6998,1
820,9,8,9,0.5984,1
821,18,17,18,1.6393,1
822,10,19,3,0.2692,1
823,2,2,2,0.0967,1
824,1,1,1,0.0639,1
825,29,41,27,7.3863,1
826,8,11,7,0.6477,1
827,8,8,8,0.4476,1
828,3,5,2,0.0568,1
829,4,7,4,0.1519,1
830,4,7,2,0.0872,1
831,74,99,61,15.1256,1
832,14,14,14,0.9217,1
833,22,32,5,0.2794,1
834,307,306,113,61.6787,1
835,19,19,19,2.5184,1
836,15,14,15,0.7559,1
837,41,42,19,4.2406,1
838,53,55,21,2.2227,1
839,26,26,16,1.9946,1
840,32,32,20,1.5663,1
841,17,16,17,1.7542,1
842,134,141,47,16.9118,1
843,8,11,6,0.2392,1
844,63,68,57,11.9969,1
845,8,9,8,0.4725,1
846,18,23,16,1.8552,1
847,74,116,44,20.5986,1
848,56,79,49,28.2274,1
849,38,41,11,0.9193,1
850,2,3,2,0.1042,1
851,2,3,2,0.0998,1
852,385,1323,298,782.7773,1
853,3,5,2,0.1401,1
854,577,1105,336,493.9944,1
855,25,279,4,0.9027,1
856,39,40,34,4.7277,1
857,55,78,53,25.7121,1
858,19,35,16,0.6675,1
859,13,13,13,1.6432,1
860,35,60,25,3.9197,1
861,12,20,11,0.7306,1
862,30,45,11,1.6018,1
863,17,21,15,1.6204,1
864,5,9,4,0.1878,1
865,81,96,65,18.6826,1
866,11,13,10,0.459,1
867,13,19,11,0.405,1
868,9,26,7,0.3402,1
869,46,59,41,6.602,1
870,178,267,64,19.9015,1
871,28,55,6,0.4286,1
872,21,38,19,1.0468,1
873,46,65,35,12.5002,1
874,37,45,21,5.8535,1
875,28,30,16,2.6498,1
876,9,11,1,0.0856,1
877,2,2,2,0.054,1
878,13,20,6,0.2056,1
879,4,4,4,0.1736,1
880,842,4387,556,1665.1391,1
881,5,7,5,0.3319,1
882,2,2,1,0.0363,1
883,6,9,3,0.1298,1
884,39,66,38,5.9945,1
885,10,14,9,0.7875,1
886,10,30,10,0.5009,1
887,45,51,44,13.251,1
888,22,26,8,0.96,1
889,19,30,19,2.6254,1
890,8,11,2,0.1294,1
891,34,50,26,5.3893,1
892,5,8,4,0.3114,1
893,75,99,48,12.0975,1
894,36,66,26,2.2125,1
895,4,6,3,0.1093,1
896,9,10,9,0.341,1
897,12,15,5,0.1764,1
898,6,7,6,0.225,1
899,11,21,5,0.2877,1
900,16,32,10,0.9746,1
901,13,23,7,0.5151,1
902,12,22,8,0.6031,1
903,64,140,44,13.3413,1
904,14,13,14,1.7246,1
905,10,26,2,0.1851,1
906,17,21,17,2.0147,1
907,25,31,24,3.7606,1
908,18,22,18,8.6167,1
909,7,16,3,0.1606,1
910,55,71,53,21.1738,1
911,17,19,17,1.0294,1
912,33,43,32,2.4039,1
913,10,21,7,0.2873,1
914,65,98,47,16.2447,1
915,76,106,41,5.4572,1
916,2,2,2,0.088,1
917,3,4,3,0.1042,1
918,201,4009,69,76.0962,1
919,72,132,27,1.9977,1
920,22,36,18,2.6565,1
921,52,79,13,2.5077,1
922,30,40,30,6.5258,1
923,2,3,2,0.0576,1
924,11,14,10,0.8281,1
925,27,41,25,2.9084,1
926,15,16,15,0.8771,1
927,17,17,14,1.1546,1
928,5,7,5,0.2585,1
929,1,1,1,0.0528,1
930,11,21,11,7.9074,1
931,8,15,8,0.3418,1
932,11,33,10,0.5865,1
933,10,12,8,0.7957,1
934,6,8,3,0.1697,1
935,20,35,10,0.7188,1
936,7,8,7,0.5332,1
937,12,44,10,0.7227,1
938,10,26,8,0.555,1
939,9,11,9,0.2755,1
940,26,51,25,2.216,1
941,48,56,27,2.6562,1
942,11,14,10,0.298,1
943,19,28,13,1.1088,1
944,30,50,26,3.1452,1
945,5,10,5,0.2119,1
946,20,54,17,5.3514,1
947,36,166,34,12.7713,1
948,36,131,23,42.5323,1
949,20,71,13,1.8793,1
950,10,9,10,0.4452,1
951,12,13,12,0.566,1
952,10,12,10,0.7705,1
953,6,7,6,0.204,1
954,20,29,15,0.9122,1
955,52,75,29,4.6748,1
956,59,96,49,8.6408,1
957,28,61,21,2.1138,1
958,17,18,17,1.933,1
959,21,33,12,0.6268,1
960,28,35,16,2.0889,1
961,37,66,25,3.6726,1
962,19,22,19,1.134,1
963,6,7,6,0.1772,1
964,11,16,10,0.5921,1
965,36,59,33,4.1187,1
966,19,37,14,0.9161,1
967,5,6,5,0.1101,1
968,13,21,10,0.7665,1
969,4,5,4,0.1871,1
970,10,11,10,0.8431,1
971,36,51,28,4.2304,1
972,1,1,1,0.0572,1
973,26,31,24,3.0383,1
974,6,16,4,0.193,1
975,12,25,3,0.1488,1
976,24,36,24,3.2305,1
977,13,33,7,0.2731,1
978,71,125,61,16.9651,1
979,28,39,8,0.6777,1
980,13,17,9,0.3386,1
981,14,28,11,0.789,1
982,14,26,10,5.7529,1
983,10,11,10,1.4309,1
984,13,15,8,1.5055,1
985,70,129,37,3.5218,1
986,11,22,9,1.3057,1
987,37,42,32,4.2967,1
988,34,34,32,5.7592,1
989,15,34,10,1.7107,1
990,35,58,34,4.9666,1
991,547,1106,19,28.6829,1
992,47,46,25,3.8905,1
993,23,47,15,0.9813,1
994,4,6,2,0.1507,1
995,21,28,18,11.5678,1
996,17,19,14,1.5315,1
997,208,554,56,32.6496,1
998,7,11,3,0.1657,1
999,9,13,9,0.7859,1
1000,8,31,4,0.5151,1
1001,28,44,3,0.3232,1
1002,19,23,19,1.318,1
1003,21,42,21,2.1872,1
1004,14,19,13,0.7128,1
1005,18,22,10,1.0571,1
1006,11,14,8,0.3742,1
1007,306,586,50,50.2005,1
1008,6,11,5,0.3611,1
1009,13,24,11,1.0385,1
1010,150,185,147,107.1523,1
1011,10,10,10,0.9359,1
1012,127,250,64,29.9279,1
1013,6,8,6,0.2786,1
1014,21,46,7,0.3059,1
1015,23,62,19,1.8947,1
1016,15,15,15,0.8032,1
1017,23,25,15,0.8321,1
1018,11,11,11,0.4507,1
1019,38,47,32,3.8617,1
1020,15,15,15,0.8032,1
1021,22,25,21,1.5161,1
1022,14,14,14,1.4182,1
1023,13,13,13,0.5064,1
1024,12,12,12,0.4973,1
1025,13,15,13,0.7113,1
1026,15,16,15,0.8475,1
1027,14,15,14,0.7369,1
1028,15,19,13,0.716,1
1029,15,18,14,1.5098,1
1030,17,21,16,0.6714,1
1031,6,5,6,0.2435,1
1032,8,8,8,0.2644,1
1033,35,52,17,1.3626,1
1034,60,86,32,6.4733,1
1035,28,41,21,3.4452,1
1036,35,68,5,1.4419,1
1037,8,11,7,0.8115,1
1038,87,137,59,16.3291,1
1039,22,36,3,0.3027,1
1040,89,94,15,4.2154,1
1041,15,18,7,0.2238,1
1042,47,114,11,0.8557,1
1043,5,7,5,0.1661,1
1044,5,8,2,0.0746,1
1045,5,8,2,0.0469,1
1046,5,8,2,0.0446,1
1047,8,14,7,0.6422,1
1048,42,55,37,4.4309,1
1049,17,25,14,1.1482,1
1050,8,12,8,0.3023,1
1051,15,28,10,0.4227,1
1052,12,11,12,0.4796,1
1053,51,90,22,2.1477,1
1054,11,11,11,0.6225,1
1055,30,50,21,1.5292,1
1056,12,14,11,0.9375,1
1057,4,5,4,0.1725,1
1058,4,5,4,0.2656,1
1059,8,12,8,0.2707,1
1060,61,65,31,3.478,1
1061,45,48,23,3.39,1
1062,3,5,2,0.0663,1
1063,25,40,13,0.9102,1
1064,10,19,9,0.538,1
1065,46,106,6,0.7965,1
1066,36,51,28,5.7572,1
1067,17,17,13,0.6982,1
1068,14,29,4,0.1902,1
1069,3,4,3,0.0923,1
1070,65,70,58,9.9711,1
1071,52,57,47,10.6812,1
1072,50,55,46,6.671,1
1073,1,1,1,0.0236,1
1074,56,61,49,12.0766,1
1075,56,61,49,10.5016,1
1076,56,61,49,7.757,1
1077,56,61,49,5.9779,1
1078,56,61,49,6.5566,1
1079,12,15,12,0.5273,1
1080,28,35,26,4.3737,1
1081,64,116,48,14.706,1
1082,13,31,8,0.3702,1
1083,2,3,2,0.0311,1
1084,8,9,8,0.3607,1
1085,44,57,38,5.1955,1
1086,6,11,2,0.1527,1
1087,4,7,3,0.1196,1
1088,52,72,47,9.9119,1
1089,48,62,43,5.475,1
1090,2,2,2,0.0888,1
1091,28,33,7,0.8471,1
1092,10,17,6,0.3094,1
1093,19,21,19,2.3486,1
1094,5,4,5,0.2597,1
1095,11,10,11,1.0057,1
1096,6,5,6,0.1827,1
1097,6,5,6,0.1657,1
1098,7,7,7,0.2494,1
1099,5,4,5,0.159,1
1100,6,5,6,0.2932,1
1101,6,5,6,0.3055,1
1102,5,4,5,0.2419,1
1103,9,8,9,0.3311,1
1104,9,8,9,0.6623,1
1105,7,6,7,0.4211,1
1106,7,7,7,0.2253,1
1107,7,6,7,0.3627,1
1108,5,4,5,0.3094,1
1109,5,5,5,0.1472,1
1110,8,8,8,0.5285,1
1111,13,15,12,0.3418,1
1112,6,5,6,0.3268,1
1113,4,5,4,0.1886,1
1114,6,5,5,0.268,1
1115,26,27,16,1.3097,1
1116,8,9,8,0.315,1
1117,5,4,5,0.1444,1
1118,5,4,5,0.7468,1
1119,2,2,2,0.0986,1
1120,2,3,2,0.0536,1
1121,3,4,2,0.0651,1
1122,14,25,14,0.7697,1
1123,14,25,14,0.7677,1
1124,35,49,35,11.8011,1
1125,39,51,39,7.8422,1
1126,36,51,28,4.3843,1
1127,21,191,3,0.4488,1
1128,4,6,4,0.1215,1
1129,18,17,18,1.1554,1
1130,64,561,63,8.5307,1
1131,44,58,32,2.6972,1
1132,32,45,18,1.6129,1
1133,31,39,17,1.2959,1
1134,11,10,11,0.2826,1
1135,31,30,19,2.4789,1
1136,31,30,19,1.3519,1
1137,34,40,25,2.5263,1
1138,34,41,22,1.6338,1
1139,13,12,10,0.8897,1
1140,40,47,40,4.59,1
1141,8,8,8,0.3355,1
1142,17,21,16,1.2276,1
1143,3,3,3,0.0982,1
1144,38,40,37,5.3301,1
1145,4,4,4,0.2178,1
1146,28,39,24,3.7843,1
1147,28,39,24,4.3808,1
1148,22,28,13,1.3571,1
1149,60,65,40,3.9375,1
1150,155,413,81,44.6556,1
1151,151,150,151,40.4761,1
1152,14,21,2,0.1053,1
1153,11,18,2,0.1507,1
1154,8,8,8,2.7935,1
1155,26,44,26,2.6676,1
1156,95,115,7,2.6408,1
1157,30,29,30,5.1067,1
1158,28,45,22,14.1371,1
1159,24,39,16,2.1686,1
1160,3,4,3,0.1038,1
1161,9,12,7,0.6059,1
1162,42,61,42,8.175,1
1163,23,51,12,2.1533,1
1164,126,220,54,14.1067,1
1165,68,88,60,35.011,1
1166,53,92,46,44.4026,1
1167,12,26,3,0.3118,1
1168,15,19,15,0.8786,1
1169,4,6,3,0.1302,1
1170,13,12,13,1.0582,1
1171,3,5,3,0.1097,1
1172,107,152,16,4.5742,1
1173,11,23,8,0.4152,1
1174,6,8,5,0.2005,1
1175,67,94,16,1.7388,1
1176,14,25,13,0.6114,1
1177,2,3,2,0.0307,1
1178,8,9,8,0.2171,1
1179,10,12,9,0.3607,1
1180,14,23,11,0.6718,1
1181,40,52,40,7.3003,1
1182,9,22,3,0.1472,1
1183,8,8,8,0.3067,1
1184,25,34,24,2.7675,1
1185,34,46,33,4.17,1
1186,1,1,1,0.0375,1
1187,39,82,35,7.2225,1
1188,11,29,4,0.2427,1
1189,43,58,38,7.3476,1
1190,33,45,29,6.9146,1
1191,23,32,19,1.4538,1
1192,27,33,24,20.0792,1
1193,257,508,6,4.9737,1
1194,11,29,4,0.2396,1
1195,42,66,38,9.1749,1
1196,57,76,45,13.8956,1
1197,2,2,2,0.0955,1
1198,3,5,3,0.1642,1
1199,13,18,7,0.2001,1
1200,9,10,9,0.8617,1
1201,13,12,13,1.7364,1
1202,518,6026,4,29.5446,1
1203,36,40,34,5.3388,1
1204,13,22,12,0.6292,1
1205,53,88,15,1.4017,1
1206,14,26,12,0.5573,1
1207,13,14,9,1.6634,1
1208,3,4,3,0.0596,1
1209,13,28,5,0.1851,1
1210,22,26,22,4.455,1
1211,32,40,23,1.7629,1
1212,9,9,7,0.2202,1
1213,10,10,10,0.3793,1
1214,5,5,5,0.1373,1
1215,33,44,29,3.6647,1
1216,21,40,20,1.3247,1
1217,4,4,4,0.1144,1
1218,18,33,14,0.9757,1
1219,29,40,29,4.0097,1
1220,366,1301,286,646.899,1
1221,15,19,12,1.181,1
1222,21,31,18,2.064,1
1223,57,76,25,4.2379,1
1224,10,13,10,0.9915,1
1225,54,89,40,9.8238,1
1226,27,32,18,1.1996,1
1227,9,8,9,3.2463,1
1228,95,136,54,31.334,1
1229,10,14,8,0.3939,1
1230,14,18,13,1.0547,1
1231,4,5,4,0.1357,1
1232,16,28,7,0.3955,1
1233,256,255,256,113.5893,1
1234,6,9,3,0.0915,1
1235,8,8,8,0.2542,1
1236,17,26,17,1.1735,1
1237,28,43,28,3.0935,1
1238,57,81,48,10.3026,1
1239,5,8,4,0.1728,1
1240,41,50,34,5.7726,1
1241,13,19,12,0.5171,1
1242,20,26,16,1.7581,1
1243,3,6,3,0.0675,1
1244,15,14,15,0.8771,1
1245,17,16,17,1.7988,1
1246,16,15,16,0.943,1
1247,17,16,17,0.9071,1
1248,17,16,17,0.9161,1
1249,11,10,11,0.3027,1
1250,19,24,8,0.4046,1
1251,18,23,15,0.8459,1
1252,28,35,11,1.3788,1
1253,15,17,14,0.7006,1
1254,9,15,8,0.3367,1
1255,13,50,11,1.7936,1
1256,5,11,2,0.1073,1
1257,14,19,9,0.7342,1
1258,11,20,4,0.3852,1
1259,18,31,4,0.2273,1
1260,61,72,43,12.4911,1
1261,26,36,22,5.1959,1
1262,37,69,18,2.951,1
1263,27,36,23,1.5982,1
1264,15,20,14,1.8986,1
1265,11,11,11,0.8076,1
1266,15,19,15,1.301,1
1267,5,8,3,0.0805,1
1268,14,15,14,1.1151,1
1269,16,19,16,0.8257,1
1270,11,11,11,0.3217,1
1271,11,11,11,0.324,1
1272,235,427,59,25.776,1
1273,3,4,3,0.0947,1
1274,30,45,17,1.303,1
1275,30,47,24,4.3271,1
1276,13,15,13,1.32,1
1277,16,20,16,2.6356,1
1278,3,3,3,0.069,1
1279,5,4,5,0.2076,1
1280,40,72,39,2.4023,1
1281,23,26,19,2.5456,1
1282,33,32,33,2.5409,1
1283,4,6,3,0.206,1
1284,8,8,8,0.5242,1
1285,22,30,2,0.7673,1
1286,2,2,2,0.09,1
1287,24,25,13,0.9907,1
1288,19,27,15,0.9809,1
1289,22,25,22,1.0275,1
1290,1,1,1,0.099,1
1291,48,60,48,14.5469,1
1292,31,33,31,5.5516,1
1293,20,25,13,0.6734,1
1294,34,36,33,2.2208,1
1295,3,5,3,0.9367,1
1296,3,3,3,0.069,1
1297,65,122,31,3.5202,1
1298,18,18,17,1.9942,1
1299,27,29,26,2.4244,1
1300,6,8,5,0.1172,1
1301,10,13,10,0.746,1
1302,9,14,7,0.2538,1
1303,13,12,13,0.5905,1
1304,6,8,6,0.1772,1
1305,23,50,8,0.6063,1
1306,6,10,6,0.3075,1
1307,16,26,7,0.3939,1
1308,20,30,18,0.729,1
1309,37,69,18,1.2154,1
1310,18,19,18,1.0286,1
1311,57,83,45,8.205,1
1312,6,12,1,0.0647,1
1313,16,32,13,0.8597,1
1314,13,14,13,0.7922,1
1315,18,22,13,0.6659,1
1316,37,36,35,2.8748,1
1317,16,19,16,0.9473,1
1318,104,148,70,12.5081,1
1319,18,111,3,0.5253,1
1320,4,3,4,0.1026,1
1321,11,10,11,0.3114,1
1322,50,63,49,8.3767,1
1323,1,1,1,0.0619,1
1324,11,21,11,0.4819,1
1325,3,4,1,0.0335,1
1326,8,16,2,0.099,1
1327,21,22,13,0.7496,1
1328,40,60,40,8.4829,1
1329,16,17,16,0.9832,1
1330,15,22,15,2.0605,1
1331,6,16,3,0.1306,1
1332,2,2,2,0.086,1
1333,6,10,5,0.1646,1
1334,2,2,2,0.0568,1
1335,10,17,8,0.5921,1
1336,39,40,39,8.5271,1
1337,110,163,88,60.8873,1
1338,22,28,13,1.0764,1
1339,16,56,13,1.5473,1
1340,21,36,10,1.1281,1
1341,9,9,9,0.5747,1
1342,7,12,6,0.1693,1
1343,15,32,14,1.6681,1
1344,14,17,12,0.7397,1
1345,8,11,8,0.3371,1
1346,44,59,34,5.5216,1
1347,12,15,8,1.0476,1
1348,30,45,21,2.3802,1
1349,3,4,3,0.1219,1
1350,39,42,37,5.6175,1
1351,21,38,10,0.6588,1
1352,194,282,78,35.6556,1
1353,31,60,12,0.8384,1
1354,26,30,22,2.7465,1
1355,96,110,55,10.7921,1
1356,5,5,5,0.12,1
1357,66,121,66,7.078,1
1358,3,5,3,0.3631,1
1359,35,48,34,8.0629,1
1360,18,22,18,2.2851,1
1361,12,11,12,0.7057,1
1362,12,11,12,1.7546,1
1363,19,27,18,1.2327,1
1364,19,29,18,1.6598,1
1365,21,22,14,1.2351,1
1366,9,11,9,0.7207,1
1367,19,27,19,1.7411,1
1368,11,11,11,0.7093,1
1369,19,25,18,3.3513,1
1370,13,13,11,0.7255,1
1371,7,8,7,0.2048,1
1372,19,31,19,3.885,1
1373,65,90,62,13.804,1
1374,32,44,14,1.9219,1
1375,5,9,3,0.2167,1
1376,10,15,5,7.7076,1
1377,6,8,3,0.1701,1
1378,26,27,26,2.0186,1
1379,19,21,18,1.5706,1
1380,5,9,4,0.2403,1
1381,15,20,15,0.8644,1
1382,25,55,4,0.3675,1
1383,5,9,3,0.0813,1
1384,4,6,3,0.1436,1
1385,18,28,4,0.2656,1
1386,6,11,4,0.0994,1
1387,5,9,4,0.1792,1
1388,12,13,12,0.6698,1
1389,5,8,4,0.0872,1
1390,5,8,4,0.0813,1
1391,4,5,4,0.1527,1
1392,10,12,10,0.4203,1
1393,7,8,7,0.238,1
1394,19,31,12,0.5557,1
1395,16,22,12,1.3559,1
1396,4,5,4,0.1796,1
1397,19,27,17,1.7494,1
1398,13,17,13,0.8802,1
1399,5,6,5,0.146,1
1400,5,7,5,0.1969,1
1401,7,11,3,0.1014,1
1402,21,34,15,1.5457,1
1403,14,15,13,1.1352,1
1404,104,148,70,14.7664,1
1405,68,88,61,12.2531,1
1406,7,8,7,0.1784,1
1407,9,14,7,0.1902,1
1408,5,5,5,0.2372,1
1409,12,12,12,0.5273,1
1410,13,30,8,0.5317,1
1411,8,8,8,0.2755,1
1412,33,32,33,7.1203,1
1413,67,132,24,1.7609,1
1414,67,132,24,3.2021,1
1415,23,33,19,1.1226,1
1416,39,50,36,12.2408,1
1417,6,5,6,0.373,1
1418,7,8,7,0.4705,1
1419,16,24,12,1.1786,1
1420,19,20,18,2.1647,1
1421,41,75,37,11.5891,1
1422,41,57,33,7.772,1
1423,59,104,40,4.8935,1
1424,59,104,40,19.7018,1
1425,22,26,21,2.2954,1
1426,2,3,2,0.0493,1
1427,2,3,2,0.0536,1
1428,2,3,2,0.0556,1
1429,2,3,2,0.0481,1
1430,2,3,2,0.0675,1
1431,2,3,2,0.0311,1
1432,2,3,2,0.0572,1
1433,2,3,2,0.0556,1
1434,2,3,2,0.0481,1
1435,39,43,39,9.8558,1
1436,44,77,24,1.1467,1
1437,2,2,2,0.0781,1
1438,14,23,13,0.6643,1
1439,58,95,45,13.5529,1
1440,58,91,43,9.3557,1
1441,22,35,18,1.1151,1
1442,20,33,18,2.846,1
1443,15,21,14,1.5726,1
1444,13,18,12,0.7875,1
1445,20,32,18,1.5623,1
1446,13,18,13,3.9201,1
1447,12,18,12,0.6347,1
1448,15,21,11,1.284,1
1449,11,24,4,0.3915,1
1450,2,3,2,0.0521,1
1451,89,107,67,32.7459,1
1452,7,7,7,0.2198,1
1453,19,32,7,0.8032,1
1454,28,57,23,9.7184,1
1455,7,7,7,0.3836,1
1456,223,1964,195,36.3803,1
1457,19,25,16,2.2559,1
1458,14,13,14,1.1743,1
1459,20,20,20,2.5748,1
1460,10,9,10,0.8435,1
1461,19,18,19,1.8663,1
1462,5,8,3,0.264,1
1463,7,12,6,0.3177,1
1464,2,3,2,0.0477,1
1465,7,18,2,0.0903,1
1466,63,66,61,25.7271,1
1467,10,13,8,0.5913,1
1468,10,13,8,0.579,1
1469,10,13,8,0.4156,1
1470,10,13,8,0.4405,1
1471,41,44,39,9.4717,1
1472,70,100,70,22.2482,1
1473,71,129,33,7.7349,1
1474,5,6,5,0.3075,1
1475,10,11,10,0.7575,1
1476,33,54,27,4.817,1
1477,27,32,17,3.204,1
1478,23,24,15,1.2339,1
1479,7,12,4,0.2328,1
1480,33,50,23,4.2406,1
1481,257,415,57,22.9154,1
1482,264,7965,135,239.6296,1
1483,20,24,18,6.6083,1
1484,13,23,12,1.1782,1
1485,11,12,10,0.8546,1
1486,2,2,2,0.084,1
1487,264,7965,135,318.8407,1
1488,21,38,10,0.7981,1
1489,26,63,18,1.5844,1
1490,22,36,19,2.5721,1
1491,11,14,11,1.0219,1
1492,5,7,4,0.1598,1
1493,73,100,57,14.5141,1
1494,24,31,23,3.2135,1
1495,26,52,22,4.843,1
1496,32,40,15,1.7522,1
1497,52,70,39,8.1955,1
1498,17,26,17,2.2444,1
1499,22,30,22,7.6737,1
1500,14,13,14,0.746,1
1501,2,2,2,0.099,1
1502,1,1,1,0.0339,1
1503,10,16,10,0.8384,1
1504,65,122,59,7.7112,1
1505,34,56,21,2.4035,1
1506,61,93,37,4.0216,1
1507,26,28,20,1.2844,1
1508,11,19,10,0.4815,1
1509,8,13,8,0.2936,1
1510,7,14,5,0.1882,1
1511,5,6,5,0.1046,1
1512,8,8,8,0.2751,1
1513,8,21,7,0.2557,1
1514,2,3,2,0.1046,1
1515,17,26,14,0.926,1
1516,294,377,157,81.5823,1
1517,385,498,195,90.6139,1
1518,329,424,177,95.5714,1
1519,265,342,135,57.5762,1
