id,states,transitions,statesSim,time,goodruns
2,3,2,2,0.0457,1
3,5,5,4,0.1468,1
4,7,8,6,0.1788,1
5,9,11,8,0.1492,1
6,11,14,10,0.1878,1
7,13,17,12,0.3773,1
8,15,20,14,0.429,1
9,17,23,16,0.3497,1
10,19,26,18,0.6884,1
11,21,29,20,0.5076,1
12,23,32,22,0.534,1
13,25,35,24,0.538,1
14,27,38,26,0.6213,1
15,29,41,28,0.8155,1
16,31,44,30,0.7701,1
17,33,47,32,0.8411,1
18,35,50,34,1.1984,1
19,37,53,36,1.0417,1
