id,states,transitions,statesSim,time,goodruns
0,14,40,11,0.6596,1
1,60,141,45,5.0913,1
2,18,22,17,0.5909,1
3,2,1,2,0.0406,1
4,31,60,28,1.9243,1
5,3,3,3,0.0678,1
6,18,21,15,0.5435,1
7,26,39,23,0.9955,1
8,3,6,1,0.028,1
9,7,9,7,0.1819,1
10,12,14,12,0.326,1
11,7,9,6,0.1425,1
12,16,19,16,0.4582,1
13,36,68,32,2.0877,1
14,47,90,31,3.3927,1
15,15,15,15,0.9797,1
16,4,5,3,0.2332,1
17,66,109,46,7.0125,1
18,44,49,29,2.4489,1
19,32,46,28,1.3855,1
20,7,11,6,0.2388,1
21,5,7,4,3.3612,1
22,5,7,4,0.1275,1
23,13,17,11,0.3426,1
24,23,34,22,0.9004,1
25,11,11,11,0.2593,1
26,8,9,8,0.1946,1
27,8,14,5,0.1744,1
28,19,30,15,0.3177,1
29,10,13,10,0.2601,1
30,1,1,1,0.0296,1
31,34,39,33,1.6448,1
32,16,16,16,0.311,1
33,36,51,32,1.9429,1
34,3,3,3,0.0698,1
35,18,29,13,1.631,1
36,353,886,222,107.3094,1
37,8,12,6,0.2194,1
38,3,2,3,0.0694,1
39,41,89,29,2.2058,1
40,14,13,14,0.3623,1
41,19,44,15,0.716,1
42,7,8,7,0.1748,1
43,11,16,9,0.3082,1
44,6,13,5,0.1006,1
45,19,23,14,0.5486,1
46,7,8,7,0.1377,1
47,7,8,7,0.1756,1
48,12,13,11,0.3122,1
49,2,2,2,0.0461,1
50,103,227,78,19.6576,1
51,102,215,84,15.977,1
52,10,12,10,0.1559,1
53,39,103,25,2.5981,1
54,21,73,18,0.7555,1
55,41,73,31,2.2713,1
56,4,6,3,0.1022,1
57,51,87,40,4.125,1
58,102,215,84,7.4412,1
59,24,38,24,0.5463,1
60,27,51,27,1.1585,1
61,14,34,14,2.9917,1
62,9,18,9,0.1697,1
63,8,9,7,0.1626,1
64,62,100,42,5.0751,1
65,64,102,45,4.0606,1
66,15,16,15,0.3907,1
67,53,87,20,3.2865,1
68,2,2,2,0.0442,1
69,3,4,3,0.0631,1
70,32,61,32,1.5959,1
71,56,140,31,6.4204,1
72,133,238,100,19.2916,1
73,146,295,133,26.3748,1
74,132,276,125,11.3069,1
75,21,67,17,0.6181,1
76,21,22,20,0.36,1
77,6,5,6,0.1061,1
78,6,5,6,0.0667,1
79,8,11,8,0.2423,1
80,27,65,27,0.7859,1
81,16,29,16,0.5419,1
82,6,7,5,0.1515,1
83,1,1,1,0.0319,1
84,18,32,12,0.2739,1
85,46,82,34,3.4504,1
86,19,36,13,0.3525,1
87,2,3,2,0.0307,1
88,26,47,19,1.0882,1
89,12,21,9,0.3493,1
90,27,52,25,2.6937,1
91,72,104,60,4.0887,1
92,25,33,22,0.4646,1
93,12,15,10,0.1689,1
94,4,7,3,0.0813,1
95,5,8,4,0.1231,1
96,6,13,5,0.1875,1
97,7,14,6,0.1231,1
98,25,42,25,2.0585,1
99,8,16,7,0.1298,1
100,28,43,25,0.8522,1
101,9,16,7,0.1369,1
102,16,22,14,0.2546,1
103,28,39,20,0.9994,1
104,33,57,26,0.7855,1
105,17,25,14,0.3856,1
106,44,87,38,2.6301,1
107,29,32,26,1.2031,1
108,60,80,43,2.0419,1
109,18,28,18,0.3422,1
110,25,48,25,0.6667,1
111,21,21,20,0.3481,1
112,32,39,31,0.778,1
113,44,48,43,1.2659,1
114,32,48,23,0.7851,1
115,16,32,13,0.2782,1
116,8,7,8,0.0927,1
117,19,52,16,0.4026,1
118,22,50,21,0.5139,1
119,13,38,10,0.3118,1
120,50,55,49,1.4104,1
121,5,7,5,0.0722,1
122,7,8,6,0.1081,1
123,16,20,14,0.2202,1
124,10,9,10,0.1286,1
125,9,8,9,0.195,1
126,7,9,7,0.09,1
127,21,38,21,0.5617,1
128,4,5,4,0.0501,1
129,88,123,57,5.7552,1
130,1,1,1,0.0221,1
131,12,15,12,0.159,1
132,83,242,70,4.781,1
133,83,242,70,6.0477,1
134,6,10,5,0.0832,1
135,26,172,15,2.5669,1
136,4,7,3,0.0568,1
137,14,16,11,0.2005,1
138,19,33,13,0.3611,1
139,8,9,7,0.1077,1
140,2,3,2,0.0296,1
141,66,71,65,3.3146,1
142,15,19,10,0.3375,1
143,14,17,14,0.3106,1
144,31,57,31,0.8135,1
145,10,15,7,0.1373,1
146,15,21,13,0.2415,1
147,28,39,28,0.6217,1
148,13,15,13,0.1989,1
149,19,48,19,0.4002,1
150,5,10,4,0.0872,1
151,36,58,35,1.2588,1
152,26,42,26,0.8198,1
153,87,184,46,7.106,1
154,74,74,74,10.0776,1
155,4,7,3,0.0742,1
156,25,69,20,1.1064,1
157,13,17,13,0.371,1
158,22,36,21,0.5581,1
159,19,30,19,0.3619,1
160,14,14,9,0.1906,1
161,15,16,15,0.2273,1
162,78,122,62,4.0105,1
163,13,40,13,0.2921,1
164,13,19,13,0.3177,1
165,11,48,6,0.2522,1
166,718,1250,694,435.1072,1
167,75,96,58,5.5808,1
168,11,11,11,0.1788,1
169,2,2,2,0.0446,1
170,9,9,9,0.1464,1
171,9,8,9,0.2143,1
172,9,8,9,0.1172,1
173,6,5,6,0.0678,1
174,79,116,71,3.6244,1
175,5,10,4,0.0623,1
176,5,10,4,0.0718,1
177,11,16,8,0.2865,1
178,34,55,34,0.8664,1
179,10,22,6,0.3888,1
180,259,513,215,42.8426,1
181,8,8,8,0.1022,1
182,13,20,11,0.2044,1
183,21,35,18,0.3927,1
184,36,51,32,0.8917,1
185,18,38,17,0.3797,1
186,3,3,3,0.0375,1
187,14,13,14,0.1823,1
188,15,14,15,0.2131,1
189,14,13,14,0.1934,1
190,14,13,14,0.2032,1
191,45,67,45,2.2934,1
192,26,27,25,0.4705,1
193,19,21,18,0.3059,1
194,6,8,6,0.0801,1
195,5,11,4,0.0813,1
196,8,8,8,0.1188,1
197,69,145,65,3.3477,1
198,3,4,2,0.0319,1
199,4,4,4,0.0505,1
200,5,10,4,0.2423,1
201,11,17,11,0.2013,1
202,32,34,32,0.7164,1
203,13,16,13,0.1973,1
204,10,12,10,0.1397,1
205,8,8,8,0.0986,1
206,85,119,44,3.3387,1
207,3,6,1,0.0157,1
208,8,30,7,0.1748,1
209,67,93,65,7.5016,1
210,137,232,131,10.0607,1
211,20,31,20,0.4361,1
212,38,61,38,1.9433,1
213,16,36,13,0.4839,1
214,12,19,12,0.369,1
215,27,41,22,0.8767,1
216,4,7,4,0.1117,1
217,36,61,23,1.7881,1
218,3,5,3,0.0793,1
219,19,29,19,0.6817,1
220,6,12,5,0.1559,1
221,46,78,45,1.5422,1
222,12,15,8,0.1657,1
223,21,31,15,0.7646,1
224,40,57,36,1.1388,1
225,94,124,48,6.4918,1
226,35,53,24,1.6894,1
227,17,24,15,0.5644,1
228,6,7,6,0.1314,1
229,25,33,22,0.5178,1
230,6,11,5,0.1736,1
231,5,14,4,0.1077,1
232,4,7,3,0.0931,1
233,23,25,23,0.4357,1
234,15,15,15,0.2257,1
235,21,47,15,0.8648,1
236,19,44,15,0.3967,1
237,96,121,89,5.3017,1
238,20,28,17,0.4042,1
239,15,30,10,0.2478,1
240,79,99,66,3.8692,1
241,25,32,19,0.7847,1
242,10,13,8,0.2581,1
243,100,187,100,11.0775,1
244,215,401,214,38.3876,1
245,27,50,27,1.2576,1
246,9,12,7,0.1906,1
247,96,135,23,12.8617,1
248,3,4,3,0.0367,1
249,17,18,17,0.4898,1
250,20,24,18,0.3714,1
251,3,2,3,0.0588,1
252,24,54,24,4.3429,1
253,65,99,57,2.7422,1
254,5,4,5,0.1231,1
255,4,3,4,0.0477,1
256,37,62,17,2.3048,1
257,11,12,8,0.1448,1
258,9,8,9,0.1132,1
259,17,45,14,0.733,1
260,10,11,10,0.1322,1
261,7,15,5,0.0975,1
262,7,15,5,0.1417,1
263,44,54,43,3.1251,1
264,15,15,15,9.6608,1
265,10,9,10,0.1338,1
266,24,39,21,0.5538,1
267,13,16,13,0.1961,1
268,7,6,7,0.4393,1
269,7,8,7,0.0907,1
270,14,28,11,0.2909,1
271,43,79,35,2.8654,1
272,28,43,28,1.065,1
273,16,34,13,0.5561,1
274,206,3038,199,289.5053,1
275,39,41,17,1.7305,1
276,12,17,11,0.3686,1
277,27,47,26,0.6378,1
278,7,18,2,0.0446,1
279,44,45,44,1.194,1
280,11,13,10,0.1578,1
281,11,16,10,0.1922,1
282,6,10,4,0.0825,1
283,20,42,18,0.8482,1
284,20,22,20,0.3789,1
285,20,22,20,1.3575,1
286,12,15,11,0.1756,1
287,2,2,2,0.0264,1
288,14,15,14,0.2048,1
289,7,14,6,0.1732,1
290,30,31,30,0.6185,1
291,9,20,6,0.0935,1
292,21,54,16,1.2114,1
293,12,11,12,0.1626,1
294,4,7,3,0.0572,1
295,33,52,27,1.4976,1
296,26,55,18,1.2154,1
297,2,3,2,0.0292,1
298,11,11,11,0.2715,1
299,8,12,7,0.1172,1
300,7,7,7,0.0896,1
301,60,148,50,3.0864,1
302,14,18,14,0.2107,1
303,15,26,13,0.2593,1
304,57,232,45,6.4389,1
305,32,55,29,0.9154,1
306,24,38,19,0.819,1
307,34,82,27,1.5971,1
308,44,159,32,3.8818,1
309,16,22,16,0.309,1
310,4,7,4,0.1113,1
311,38,70,34,1.1372,1
312,6,10,3,0.0773,1
313,29,32,20,0.5846,1
314,45,46,45,1.8181,1
315,20,31,20,0.4203,1
316,23,43,21,0.8913,1
317,19,20,19,0.5996,1
318,21,22,21,0.3651,1
319,17,31,15,0.4255,1
320,3,5,2,0.0371,1
321,25,43,17,1.1356,1
322,377,810,320,107.2707,1
323,9,25,6,0.1902,1
324,5,6,5,0.1144,1
325,15,14,15,0.2009,1
326,18,31,18,0.5771,1
327,41,53,35,2.8184,1
328,47,64,46,1.4593,1
329,41,63,31,1.164,1
330,11,28,9,0.2088,1
331,32,57,26,0.6671,1
332,54,83,32,1.6429,1
333,18,29,13,0.3477,1
334,2,3,2,0.0185,1
335,3,4,2,0.0513,1
336,11,19,8,0.1531,1
337,13,27,11,0.3793,1
338,49,166,23,3.315,1
339,16,16,16,0.234,1
340,15,44,15,0.3457,1
341,15,31,12,0.2581,1
342,80,114,54,3.4247,1
343,59,201,53,3.474,1
344,20,33,15,0.6967,1
345,25,34,25,0.5056,1
346,11,25,9,0.54,1
347,18,21,18,0.3157,1
348,13,28,13,0.2273,1
349,21,34,21,0.4203,1
350,41,66,37,1.5532,1
351,16,22,15,0.2411,1
352,11,20,9,0.15,1
353,3,2,3,0.0576,1
354,8,8,8,0.135,1
355,92,143,53,3.9292,1
356,5,6,5,0.056,1
357,18,26,13,47058.0325,1
358,11,10,11,0.27,1
359,9,10,9,0.2332,1
360,27,56,27,0.7128,1
361,65,165,64,3.0915,1
362,18,23,12,0.4156,1
363,19,26,16,0.311,1
364,29,56,23,0.7002,1
365,45,64,38,2.6092,1
366,91,115,63,4.7293,1
367,27,32,27,0.5644,1
368,14,14,14,0.3485,1
369,16,48,16,0.4496,1
370,15,41,10,0.2782,1
371,33,59,21,1.5414,1
372,54,65,51,3.0067,1
373,4,3,4,0.0876,1
374,11,11,11,0.2913,1
375,19,18,19,0.3205,1
376,9,10,9,0.1231,1
377,9,19,9,0.2459,1
378,32,33,32,0.7776,1
379,26,60,21,1.2481,1
380,45,44,45,1.7021,1
381,30,33,20,0.6536,1
382,31,30,31,2.0068,1
383,49,65,44,1.6164,1
384,18,19,18,0.9189,1
385,34,34,32,0.8332,1
386,7,12,4,0.0896,1
387,13,14,13,0.33,1
388,27,63,22,1.1577,1
389,11,10,11,0.1425,1
390,9,10,9,0.2025,1
391,9,10,9,0.1788,1
392,2,3,2,0.0268,1
393,4,7,3,0.0852,1
394,24,26,22,0.4476,1
395,46,78,37,1.3756,1
396,9,21,7,0.2072,1
397,10,15,10,0.2909,1
398,12,23,9,0.3513,1
399,27,46,19,1.6748,1
400,14,27,14,0.4993,1
401,9,13,7,0.2522,1
402,28,29,28,1.0357,1
403,5,6,5,0.0892,1
404,11,55,11,0.3813,1
405,12,25,10,0.3473,1
406,19,26,19,0.36,1
407,15,27,12,0.2467,1
408,24,58,15,0.5328,1
409,6,5,6,0.1334,1
410,17,35,14,0.6067,1
411,8,11,6,0.0884,1
412,119,167,50,9.283,1
413,6,11,5,0.0836,1
414,7,9,7,0.0903,1
415,696,2393,557,401.9301,1
416,7,7,7,0.161,1
417,19,31,16,0.6331,1
418,7,7,7,0.1093,1
419,6,12,5,0.105,1
420,9,10,9,0.1357,1
421,19,27,19,0.6102,1
422,16,38,14,0.6078,1
423,19,50,14,0.8234,1
424,15,42,13,0.3406,1
425,10,17,9,0.5096,1
426,10,17,9,0.1543,1
427,6,9,5,0.1428,1
428,55,125,52,4.6302,1
429,21,31,16,0.4685,1
430,17,38,14,0.6793,1
431,61,86,41,2.7758,1
432,32,44,21,1.3614,1
433,42,57,37,2.4619,1
434,39,59,35,1.1723,1
435,8,12,7,0.1136,1
436,18,27,18,0.5703,1
437,376,918,301,126.1582,1
438,9,14,7,0.1405,1
439,5,8,4,0.1022,1
440,32,59,24,1.5209,1
441,50,52,27,1.8343,1
442,10,17,6,0.42,1
443,13,14,12,0.1815,1
444,6,8,4,0.1117,1
445,23,25,22,0.703,1
446,22,65,13,0.5972,1
447,7,9,7,0.1997,1
448,100,242,70,10.1901,1
449,15,20,14,0.251,1
450,7,16,5,0.1981,1
451,21,61,17,0.5317,1
452,15,30,12,0.2834,1
453,8,14,7,0.118,1
454,2,3,2,0.0367,1
455,110,158,52,7.6299,1
456,5,10,4,0.1057,1
457,6,6,6,0.1275,1
458,18,37,15,0.6031,1
459,11,34,10,0.3201,1
460,19,33,19,0.7259,1
461,20,32,16,0.3951,1
462,20,42,16,0.8021,1
463,128,145,64,15.3016,1
464,11,19,10,0.1835,1
465,4,9,1,0.0323,1
466,15,46,8,0.2696,1
467,11,21,10,0.1721,1
468,24,56,17,1.0405,1
469,11,15,11,0.3288,1
470,34,36,34,2.2602,1
471,18,28,12,0.3221,1
472,20,36,20,0.433,1
473,24,25,24,0.4622,1
474,2,3,2,0.0189,1
475,6,9,4,0.0746,1
476,53,187,47,2.7063,1
477,11,11,11,0.1496,1
478,29,34,27,1.1443,1
479,6,8,4,0.0702,1
480,4,8,3,0.0663,1
481,6,9,5,0.0698,1
482,7,22,6,0.1638,1
483,2,2,2,0.0252,1
484,18,29,16,2.13,1
485,13,13,13,0.3323,1
486,16,25,11,0.4413,1
487,20,59,14,0.6536,1
488,20,94,20,1.0322,1
489,48,72,46,2.2306,1
490,101,133,56,5.8283,1
491,36,51,32,0.9292,1
492,17,34,13,0.2936,1
493,12,18,12,0.195,1
494,14,23,13,0.2384,1
495,31,51,26,0.7539,1
496,25,40,22,0.5407,1
497,7,10,7,0.0927,1
498,9,18,7,0.1413,1
499,17,19,15,0.2293,1
500,11,22,6,0.1689,1
501,71,138,52,3.249,1
502,25,40,22,0.5096,1
503,53,54,53,1.5138,1
504,63,112,58,3.5285,1
505,19,34,12,0.3418,1
506,456,644,332,201.5396,1
507,16,17,15,0.4807,1
508,9,12,8,0.1346,1
509,78,144,75,4.5959,1
510,21,38,21,0.9276,1
511,22,40,21,1.1573,1
512,12,16,11,0.195,1
513,19,34,10,0.5968,1
514,25,26,25,0.9529,1
515,15,24,12,0.4294,1
516,97,138,68,5.4924,1
517,7,8,7,0.165,1
518,4,5,4,0.0801,1
519,5,4,5,0.1871,1
520,3,5,3,0.0726,1
521,4,7,2,0.0738,1
522,19,22,16,0.5139,1
523,19,43,15,0.8625,1
524,5,4,5,0.146,1
525,13,23,10,0.4105,1
526,24,53,21,1.1707,1
527,5,7,4,0.0671,1
528,38,53,36,1.7534,1
529,89,90,89,8.4675,1
530,21,21,13,0.3402,1
531,12,12,12,0.2996,1
532,36,86,29,2.3384,1
533,8,11,6,0.1389,1
534,15,35,15,0.4819,1
535,81,82,81,3.3864,1
536,25,37,18,1.3243,1
537,18,41,9,0.2577,1
538,100,168,73,7.0299,1
539,13,38,12,0.5522,1
540,4,7,3,0.0832,1
541,8,16,6,0.1188,1
542,34,102,29,3.2487,1
543,20,40,18,0.8159,1
544,28,47,28,1.2532,1
545,29,58,27,2.5879,1
546,15,37,15,0.3406,1
547,21,69,18,0.6947,1
548,8,21,5,0.1432,1
549,17,27,16,0.3355,1
550,75,76,75,4.9172,1
551,45,46,45,2.4896,1
552,11,16,10,0.1669,1
553,578,1378,105,286.2364,1
554,223,1964,65,92.7909,1
555,12,22,11,0.2431,1
556,6,7,6,0.1006,1
557,18,21,15,0.5482,1
558,17,22,14,0.3003,1
559,18,23,10,0.6335,1
560,31,43,21,0.699,1
561,14,21,12,0.3331,1
562,42,65,28,1.2564,1
563,20,23,18,0.6481,1
564,11,11,11,0.2703,1
565,19,23,19,0.5625,1
566,21,80,20,1.0744,1
567,8,11,7,0.1006,1
568,7,7,7,0.1377,1
569,90,161,46,9.4224,1
570,7,13,5,0.1642,1
571,6,10,6,0.1125,1
572,6,6,6,0.0667,1
573,6,13,5,0.09,1
574,19,62,18,0.5013,1
575,10,25,5,0.7444,1
576,70,86,59,2.8587,1
577,3,4,3,0.0671,1
578,80,103,49,5.6775,1
579,4,4,4,0.084,1
580,16,20,14,0.4535,1
581,57,76,51,2.1102,1
582,16,21,16,0.5028,1
583,83,104,78,6.3928,1
584,65,114,54,5.0704,1
585,27,68,19,0.5814,1
586,79,238,59,9.3051,1
587,7,12,4,0.0864,1
588,38,75,29,1.1139,1
589,16,39,3,0.1665,1
590,4,8,3,0.1128,1
591,17,37,12,0.6588,1
592,12,13,11,0.1511,1
593,40,82,36,1.3322,1
594,220,276,168,31.0943,1
595,38,116,14,1.2351,1
596,6,9,6,0.0959,1
597,20,32,20,0.4132,1
598,17,31,13,0.2913,1
599,18,63,14,0.4318,1
600,12,25,8,0.1681,1
601,8,7,8,0.1018,1
602,6,9,5,0.0805,1
603,13,15,12,0.1831,1
604,2,1,2,0.0394,1
605,10,26,7,0.1559,1
606,37,53,32,1.0073,1
607,11,32,10,0.2747,1
608,29,41,23,0.6769,1
609,41,98,34,2.0206,1
610,22,49,17,0.4586,1
611,86,150,71,4.1538,1
612,87,152,72,7.3701,1
613,21,75,12,0.6457,1
614,9,10,9,0.1381,1
615,6,15,5,0.1432,1
616,10,13,9,0.1271,1
617,8,11,7,0.1026,1
618,18,23,16,0.3493,1
619,11,17,9,0.2944,1
620,10,13,9,0.1255,1
621,9,11,9,0.2088,1
622,8,10,8,0.1085,1
623,14,16,14,0.2096,1
624,65,126,65,3.0185,1
625,7,9,6,0.0975,1
626,11,11,11,0.1401,1
627,17,29,15,0.474,1
628,14,26,11,0.673,1
629,14,30,12,0.4744,1
630,15,14,15,0.2135,1
631,13,25,13,0.2431,1
632,71,110,40,3.105,1
633,7,13,7,0.1626,1
634,7,9,7,0.1867,1
635,22,25,20,0.7618,1
636,18,20,17,0.5167,1
637,25,35,25,1.1029,1
638,6,13,5,0.09,1
639,12,20,12,0.3718,1
640,16,18,14,0.4235,1
641,150,193,130,12.6513,1
642,62,85,45,2.6321,1
643,197,407,159,30.0834,1
644,21,25,21,0.8447,1
645,7,14,5,0.0931,1
646,22,22,13,0.8036,1
647,20,30,19,0.3963,1
648,12,16,10,0.3339,1
649,9,13,8,0.2427,1
650,13,16,12,0.1934,1
651,12,48,11,0.4207,1
652,16,29,10,0.2392,1
653,9,11,8,0.236,1
654,19,19,19,0.3698,1
655,8,7,8,0.1089,1
656,10,13,9,0.2573,1
657,13,32,12,0.3331,1
658,10,13,9,0.1346,1
659,17,39,17,0.3832,1
660,11,19,10,0.2056,1
661,10,10,10,0.1235,1
662,16,25,16,0.2763,1
663,9,18,7,0.1503,1
664,15,18,15,0.5107,1
665,9,9,9,0.21,1
666,2,3,2,0.0189,1
667,19,24,17,0.3209,1
668,68,89,57,3.1531,1
669,13,26,13,0.2348,1
670,8,12,6,0.0892,1
671,38,126,26,1.0938,1
672,4,7,3,0.0848,1
673,7,22,6,0.268,1
674,15,26,12,0.4807,1
675,8,11,7,0.1164,1
676,41,136,34,3.7843,1
677,18,42,16,0.5305,1
678,13,16,13,0.2025,1
679,8,9,8,0.1539,1
680,15,20,15,0.4665,1
681,31,40,26,1.2892,1
682,2,3,2,0.0363,1
683,35,35,35,0.7839,1
684,72,75,61,5.1316,1
685,35,47,29,2.1848,1
686,116,117,116,7.8912,1
687,1,1,1,0.0209,1
688,8,9,8,0.101,1
689,59,60,59,3.6485,1
690,22,31,19,0.3919,1
691,16,34,14,0.5972,1
692,15,16,15,0.6967,1
693,5,8,4,0.0603,1
694,5,11,4,0.133,1
695,7,14,6,0.1985,1
696,9,13,9,0.1251,1
697,8,15,7,0.12,1
698,2,2,2,0.0434,1
699,310,853,69,110.926,1
700,327,1673,84,108.1435,1
701,11,10,11,0.2498,1
702,22,23,22,0.388,1
703,15,17,15,0.219,1
704,14,25,10,0.2368,1
705,4,6,2,0.0584,1
706,10,21,5,0.1219,1
707,72,139,72,11.0511,1
708,54,94,36,7.2557,1
709,29,54,26,0.7756,1
710,3,6,1,0.0256,1
711,15,38,13,0.2546,1
712,27,51,19,0.6307,1
713,23,30,23,0.45,1
714,9,14,9,0.1267,1
715,29,40,25,0.6481,1
716,15,27,11,0.236,1
717,41,89,32,2.2433,1
718,92,110,58,5.6692,1
719,92,110,68,6.2321,1
720,7,10,6,0.1642,1
721,23,24,23,0.4207,1
722,14,16,14,0.4097,1
723,31,51,24,0.6785,1
724,5,8,4,0.0647,1
725,42,45,34,1.5513,1
726,22,40,18,0.8151,1
727,33,57,25,0.8076,1
728,48,52,42,1.7139,1
729,53,55,17,1.5402,1
730,11,31,9,0.8854,1
731,2,3,2,0.0209,1
732,3,6,1,0.0343,1
733,3,3,3,0.0406,1
734,53,195,48,2.6787,1
735,219,372,218,78.3592,1
736,21,21,21,0.3765,1
737,11,20,9,0.1693,1
738,8,10,8,0.2163,1
739,6,8,5,0.0844,1
740,24,69,14,0.7496,1
741,156,210,125,20.5994,1
742,7,20,4,0.118,1
743,20,46,12,0.6501,1
744,12,13,12,0.2857,1
745,131,259,66,18.4544,1
746,7,10,6,0.1168,1
747,15,28,11,0.2988,1
748,12,25,11,0.3694,1
749,16,29,14,0.3067,1
750,7,12,6,0.1721,1
751,18,29,16,0.3363,1
752,18,23,18,0.3276,1
753,17,27,10,0.4953,1
754,19,28,14,0.3584,1
755,19,28,19,0.703,1
756,8,21,6,0.2913,1
757,46,77,39,3.2344,1
758,30,37,23,0.6556,1
759,50,82,46,1.6144,1
760,71,124,64,3.024,1
761,21,41,11,0.4673,1
762,491,995,221,182.5964,1
763,54,86,29,1.9736,1
764,8,12,6,0.1069,1
765,87,102,84,4.421,1
766,26,35,21,0.5088,1
767,18,18,18,1.6101,1
768,4,5,4,0.103,1
769,10,14,9,0.1377,1
770,18,41,14,0.4117,1
771,11,17,11,0.1748,1
772,23,58,18,0.72,1
773,13,26,13,0.4657,1
774,25,44,20,0.5569,1
775,2,2,2,0.0457,1
776,55,74,43,3.4397,1
777,17,29,13,0.3106,1
778,20,51,16,0.5317,1
779,12,22,10,0.1693,1
780,18,26,13,0.3485,1
781,36,49,30,6.1559,1
782,46,85,38,1.5481,1
783,36,51,29,1.4727,1
784,15,39,13,0.639,1
785,10,24,8,0.4456,1
786,59,178,28,4.9164,1
787,59,178,28,6.197,1
788,29,44,23,0.6367,1
789,20,32,19,0.6943,1
790,7,9,6,0.1665,1
791,15,18,15,0.5482,1
792,13,25,10,0.3477,1
793,13,22,8,0.3596,1
794,8,12,6,0.1026,1
795,11,11,11,0.6876,1
796,29,62,26,1.7656,1
797,36,71,28,1.7948,1
798,13,28,9,0.4492,1
799,288,464,207,44.6868,1
800,552,2620,544,422.2817,1
801,5,7,3,0.1113,1
802,28,44,26,0.6532,1
803,44,87,44,2.7438,1
804,7,7,7,0.1622,1
805,8,11,6,0.1022,1
806,71,103,60,5.3613,1
807,1501,2999,1501,1338.8871,1
808,40,51,33,1.0851,1
809,11,11,11,0.2846,1
810,20,26,18,0.7803,1
811,15,19,10,0.3896,1
812,9,10,9,0.1286,1
813,43,59,32,2.2997,1
814,9,17,9,0.1334,1
815,13,32,13,0.2581,1
816,19,20,19,0.328,1
817,8,12,6,0.1053,1
818,10,11,10,0.1563,1
819,9,8,9,0.2028,1
820,9,8,9,0.1894,1
821,18,17,18,0.2956,1
822,12,27,8,0.1578,1
823,2,2,2,0.0457,1
824,1,1,1,0.0335,1
825,40,63,29,1.8911,1
826,8,11,8,0.1993,1
827,8,8,6,0.1811,1
828,4,7,3,0.0536,1
829,5,10,4,0.0919,1
830,5,10,4,0.0801,1
831,64,87,60,2.4746,1
832,14,13,14,0.315,1
833,23,32,19,1.2418,1
834,289,343,184,45.6125,1
835,19,19,18,0.3185,1
836,15,14,15,0.2131,1
837,41,42,39,1.0748,1
838,53,55,30,3.1251,1
839,26,26,16,0.9,1
840,32,32,31,0.8234,1
841,17,16,17,0.2589,1
842,134,141,114,12.765,1
843,9,18,9,0.2763,1
844,63,68,58,2.5527,1
845,9,10,8,0.1057,1
846,17,19,16,0.3055,1
847,74,96,44,2.8251,1
848,56,76,45,2.3384,1
849,30,54,23,0.7425,1
850,2,3,1,0.0134,1
851,2,3,1,0.0126,1
852,396,1037,320,97.4555,1
853,4,7,3,0.101,1
854,579,1109,338,275.9171,1
855,26,303,25,21.5211,1
856,38,43,35,0.9584,1
857,66,117,59,3.2502,1
858,18,39,18,0.9667,1
859,13,13,13,0.1831,1
860,34,46,21,0.6769,1
861,12,23,12,0.2202,1
862,46,79,21,1.2931,1
863,20,28,17,0.375,1
864,7,14,5,0.0856,1
865,81,96,61,5.2622,1
866,11,12,11,0.5581,1
867,13,18,10,0.1681,1
868,9,21,5,0.1472,1
869,46,59,32,2.01,1
870,178,267,88,14.5694,1
871,33,75,23,1.08,1
872,21,38,21,0.4728,1
873,47,64,41,1.3946,1
874,37,45,25,0.8309,1
875,29,36,25,0.6003,1
876,12,17,9,0.3102,1
877,2,2,2,0.0264,1
878,17,34,14,0.3106,1
879,5,6,4,0.0544,1
880,868,2274,573,946.3308,1
881,7,12,6,0.1946,1
882,2,2,2,0.0453,1
883,6,9,5,0.1385,1
884,38,81,38,2.1935,1
885,11,16,10,0.2952,1
886,10,30,10,0.5147,1
887,49,60,45,3.6473,1
888,24,30,22,1.7913,1
889,20,31,15,0.594,1
890,10,15,8,0.2494,1
891,33,41,29,1.3484,1
892,7,12,5,1.3717,1
893,76,147,64,6.7859,1
894,39,75,26,1.944,1
895,4,7,4,0.0939,1
896,9,13,9,0.2297,1
897,13,19,10,0.2076,1
898,6,7,6,0.1101,1
899,12,25,7,0.2376,1
900,15,25,14,0.2475,1
901,12,19,12,0.3461,1
902,12,26,11,0.3971,1
903,64,155,54,4.5734,1
904,14,14,14,0.3619,1
905,11,32,6,0.354,1
906,17,21,17,0.5317,1
907,25,36,25,0.9706,1
908,18,22,18,0.6003,1
909,10,26,4,0.1969,1
910,55,71,47,2.2358,1
911,18,22,17,0.6268,1
912,33,44,27,1.6314,1
913,11,31,9,0.2293,1
914,74,122,59,5.9435,1
915,65,107,57,5.3506,1
916,2,2,2,0.0256,1
917,3,4,3,0.0584,1
918,193,4016,126,166.6699,1
919,72,157,37,4.363,1
920,21,28,17,0.4555,1
921,60,99,44,2.2883,1
922,31,40,30,0.6963,1
923,2,3,2,0.0292,1
924,13,19,11,0.1827,1
925,28,42,25,0.8818,1
926,15,14,15,0.2147,1
927,17,17,12,0.2328,1
928,7,12,6,0.0931,1
929,1,1,1,0.0363,1
930,21,40,11,0.3714,1
931,15,28,8,0.2475,1
932,12,39,10,0.4077,1
933,10,12,8,0.1282,1
934,8,12,6,0.1057,1
935,24,44,18,0.5538,1
936,7,8,7,0.1026,1
937,12,37,11,0.2692,1
938,10,27,9,0.1981,1
939,10,13,9,0.1701,1
940,26,53,22,1.0859,1
941,48,56,42,12.2223,1
942,11,15,9,0.1642,1
943,21,34,14,0.3532,1
944,30,62,26,0.7432,1
945,7,19,5,0.1156,1
946,21,74,18,0.6157,1
947,36,133,24,1.5394,1
948,36,121,36,1.4317,1
949,19,46,15,0.4428,1
950,10,10,10,0.135,1
951,12,12,12,0.1578,1
952,11,14,10,0.1405,1
953,7,9,6,0.0852,1
954,19,31,18,0.3631,1
955,51,66,30,1.8931,1
956,59,101,54,3.054,1
957,26,51,18,0.7318,1
958,17,18,17,0.4957,1
959,24,44,19,0.5001,1
960,28,35,19,1.1119,1
961,40,70,37,1.6129,1
962,20,23,19,0.3418,1
963,6,6,6,0.0753,1
964,12,17,11,0.9165,1
965,37,59,36,1.9251,1
966,22,48,15,0.5076,1
967,5,6,5,0.3852,1
968,14,22,11,0.21,1
969,6,11,5,0.0884,1
970,11,12,8,0.144,1
971,36,50,32,1.7392,1
972,1,1,1,0.0315,1
973,26,31,26,1.1198,1
974,6,16,5,0.2088,1
975,17,40,14,0.3568,1
976,24,41,24,0.5494,1
977,17,46,11,0.3039,1
978,71,125,42,6.9395,1
979,29,41,25,0.883,1
980,16,23,13,0.2534,1
981,15,36,12,1.1826,1
982,14,22,9,0.2234,1
983,10,11,10,0.1882,1
984,14,17,13,0.204,1
985,70,155,60,5.0041,1
986,10,24,9,0.189,1
987,39,44,34,1.7609,1
988,34,34,32,1.661,1
989,20,51,16,1.526,1
990,35,58,34,1.3251,1
991,554,1139,543,231.4794,1
992,25,46,25,1.331,1
993,25,53,22,0.6177,1
994,6,13,5,0.0915,1
995,25,42,18,0.5431,1
996,18,25,14,0.3075,1
997,228,648,187,35.7037,1
998,10,17,7,0.2344,1
999,9,13,9,0.33,1
1000,8,31,6,0.2017,1
1001,33,61,12,1.14,1
1002,20,24,19,0.6935,1
1003,21,35,21,0.6272,1
1004,15,20,13,0.401,1
1005,21,28,18,0.3753,1
1006,10,17,10,1.3038,1
1007,309,1108,73,101.8462,1
1008,8,17,6,0.2301,1
1009,15,32,13,0.2952,1
1010,150,183,147,19.9181,1
1011,10,10,10,0.2581,1
1012,128,252,64,19.0315,1
1013,8,12,6,0.1081,1
1014,29,82,21,2.2934,1
1015,26,76,19,0.8068,1
1016,15,14,15,0.5952,1
1017,23,23,15,0.9829,1
1018,11,10,11,0.1571,1
1019,38,44,36,1.5801,1
1020,15,14,15,0.431,1
1021,22,24,22,0.8443,1
1022,14,13,14,0.3781,1
1023,13,14,13,0.2107,1
1024,12,11,12,0.3075,1
1025,13,13,13,0.1851,1
1026,15,15,15,0.3655,1
1027,14,14,14,0.3722,1
1028,15,18,15,0.5526,1
1029,15,17,14,0.4148,1
1030,17,21,17,0.3189,1
1031,6,5,6,0.1267,1
1032,8,8,8,0.1851,1
1033,35,52,26,1.4032,1
1034,40,63,32,2.1094,1
1035,33,54,28,1.5773,1
1036,44,98,38,1.6413,1
1037,8,13,7,0.1184,1
1038,100,199,86,10.7866,1
1039,33,60,23,2.439,1
1040,93,102,81,8.5828,1
1041,15,23,10,0.4586,1
1042,65,179,42,4.0626,1
1043,6,8,4,0.1061,1
1044,4,7,4,0.0963,1
1045,4,7,4,0.0947,1
1046,4,7,4,0.0781,1
1047,8,15,7,0.2127,1
1048,42,57,40,2.8626,1
1049,16,31,14,0.3027,1
1050,13,24,5,0.1878,1
1051,17,28,11,0.2261,1
1052,12,11,12,0.2186,1
1053,61,120,42,1.9077,1
1054,11,11,11,0.1361,1
1055,27,41,18,0.5301,1
1056,12,14,10,0.1582,1
1057,4,4,4,0.0501,1
1058,4,4,4,0.09,1
1059,8,12,8,0.1267,1
1060,61,65,38,2.0498,1
1061,45,48,37,1.2525,1
1062,4,7,3,0.043,1
1063,27,50,20,0.6485,1
1064,14,28,9,0.2127,1
1065,54,144,45,2.9968,1
1066,28,45,24,0.6217,1
1067,14,19,14,0.4018,1
1068,19,56,15,0.5222,1
1069,4,5,3,0.084,1
1070,65,70,60,2.5954,1
1071,52,57,47,1.5477,1
1072,50,55,45,1.9606,1
1073,1,1,1,0.0118,1
1074,56,61,51,2.0629,1
1075,56,61,51,2.7517,1
1076,56,61,51,1.7873,1
1077,56,61,51,1.6472,1
1078,56,61,51,1.6685,1
1079,12,15,12,0.1768,1
1080,30,41,29,0.643,1
1081,72,127,42,3.4437,1
1082,16,40,7,0.4523,1
1083,2,3,2,0.0319,1
1084,8,9,8,0.1914,1
1085,38,51,35,3.2901,1
1086,10,18,5,0.2415,1
1087,5,10,4,0.071,1
1088,52,78,51,3.8017,1
1089,48,68,47,1.5319,1
1090,2,2,2,0.0268,1
1091,32,41,28,2.3601,1
1092,15,32,12,0.504,1
1093,20,23,19,0.3442,1
1094,5,4,5,0.0967,1
1095,11,10,11,0.1503,1
1096,6,5,6,0.0686,1
1097,6,5,6,0.1278,1
1098,7,7,7,0.0876,1
1099,5,4,5,0.0911,1
1100,6,5,6,0.1302,1
1101,6,5,6,0.0868,1
1102,5,4,5,0.0892,1
1103,9,8,9,0.2696,1
1104,9,8,9,0.2127,1
1105,7,6,7,0.0817,1
1106,7,7,6,0.3714,1
1107,7,6,7,0.0971,1
1108,5,4,5,0.0923,1
1109,5,5,5,0.1077,1
1110,8,8,8,0.1736,1
1111,14,16,13,0.24,1
1112,6,5,6,0.116,1
1113,6,11,5,0.1547,1
1114,5,6,5,0.1132,1
1115,26,27,19,0.8514,1
1116,8,9,8,0.1109,1
1117,5,4,5,0.1089,1
1118,5,4,5,0.099,1
1119,3,4,3,0.0722,1
1120,2,3,2,0.0967,1
1121,3,5,3,0.073,1
1122,15,27,14,0.2771,1
1123,15,27,14,0.2755,1
1124,47,75,35,2.7268,1
1125,50,73,39,2.2381,1
1126,36,51,32,1.7151,1
1127,21,210,21,2.4935,1
1128,6,13,4,0.0927,1
1129,18,17,18,0.4906,1
1130,95,1088,6,51.847,1
1131,47,61,38,2.4734,1
1132,37,57,33,0.9888,1
1133,35,49,32,0.8676,1
1134,11,19,11,0.3319,1
1135,25,32,19,0.5103,1
1136,25,32,19,0.9169,1
1137,34,40,23,1.5027,1
1138,34,41,25,0.7697,1
1139,10,13,8,0.1405,1
1140,40,47,40,2.0735,1
1141,8,8,8,0.1046,1
1142,18,21,16,0.2731,1
1143,3,3,3,0.0619,1
1144,38,40,37,0.9,1
1145,5,5,4,0.1294,1
1146,32,51,26,0.7756,1
1147,32,51,26,0.7231,1
1148,20,42,18,0.4243,1
1149,62,67,46,2.1173,1
1150,158,428,156,15.3261,1
1151,151,299,151,12.5925,1
1152,15,25,13,0.2423,1
1153,12,22,10,0.6714,1
1154,8,8,8,0.1101,1
1155,27,46,11,1.6207,1
1156,102,128,94,5.2575,1
1157,30,29,30,0.5778,1
1158,28,45,28,1.2825,1
1159,21,43,21,0.6588,1
1160,3,4,3,0.0631,1
1161,10,14,10,0.1511,1
1162,42,57,37,2.2843,1
1163,26,67,19,1.2126,1
1164,126,256,102,16.0635,1
1165,67,97,53,8.8168,1
1166,49,88,42,1.9058,1
1167,17,38,8,0.3718,1
1168,15,18,15,0.2597,1
1169,6,10,4,0.0781,1
1170,13,12,13,0.3371,1
1171,4,7,3,0.0643,1
1172,109,159,92,9.0454,1
1173,10,22,10,0.9023,1
1174,7,15,6,0.1219,1
1175,69,105,58,3.3351,1
1176,13,25,13,0.3359,1
1177,2,3,2,0.0189,1
1178,9,10,8,0.1997,1
1179,9,13,9,0.1405,1
1180,16,34,14,0.3153,1
1181,40,52,35,1.1344,1
1182,12,28,9,0.4243,1
1183,8,8,8,0.1042,1
1184,25,34,21,1.0969,1
1185,34,46,28,1.6432,1
1186,1,1,1,0.0189,1
1187,39,88,32,2.3186,1
1188,13,33,10,0.5261,1
1189,43,54,39,1.1735,1
1190,33,41,29,0.9209,1
1191,23,28,19,0.6252,1
1192,28,41,28,0.6106,1
1193,257,508,256,45.4585,1
1194,17,63,13,0.4875,1
1195,42,66,39,2.5215,1
1196,57,76,51,4.4277,1
1197,2,2,2,0.0465,1
1198,4,6,3,0.0923,1
1199,19,33,12,0.5846,1
1200,9,10,9,0.2388,1
1201,13,13,13,0.1815,1
1202,526,6441,517,721.3452,1
1203,38,44,35,1.6673,1
1204,13,25,13,0.4421,1
1205,54,84,31,3.2948,1
1206,15,36,13,0.3169,1
1207,12,21,10,0.1859,1
1208,3,4,3,0.0343,1
1209,17,38,8,0.2475,1
1210,22,32,22,0.4132,1
1211,32,40,32,0.6963,1
1212,8,10,8,0.2096,1
1213,10,10,7,0.1263,1
1214,5,5,5,0.118,1
1215,33,44,30,1.3752,1
1216,21,40,19,0.4622,1
1217,4,4,4,0.0844,1
1218,21,54,17,1.033,1
1219,32,48,29,1.3697,1
1220,378,1019,305,132.5617,1
1221,16,25,15,0.4697,1
1222,20,27,14,0.5467,1
1223,55,76,42,3.1855,1
1224,10,13,10,0.1484,1
1225,51,95,42,2.6198,1
1226,28,36,28,1.1857,1
1227,9,8,9,0.1192,1
1228,95,136,72,17.858,1
1229,10,16,8,0.1271,1
1230,13,21,12,0.2944,1
1231,6,11,4,0.0789,1
1232,19,40,13,0.343,1
1233,256,509,256,74.1632,1
1234,7,17,7,0.1701,1
1235,8,8,8,0.1042,1
1236,17,22,17,0.5632,1
1237,29,61,29,1.3705,1
1238,57,80,51,2.9696,1
1239,7,12,5,0.0939,1
1240,43,52,35,1.3879,1
1241,12,18,9,0.1863,1
1242,20,26,17,0.399,1
1243,4,7,2,0.3686,1
1244,15,14,15,0.5593,1
1245,17,16,17,0.4882,1
1246,16,15,16,0.2313,1
1247,17,16,17,0.4855,1
1248,17,19,17,0.2775,1
1249,11,11,11,0.2636,1
1250,20,28,17,0.3757,1
1251,19,27,16,0.4886,1
1252,29,40,26,0.6094,1
1253,15,18,15,0.2218,1
1254,9,19,9,0.161,1
1255,13,51,11,0.3528,1
1256,6,14,4,0.1306,1
1257,15,20,11,0.3896,1
1258,14,34,12,0.2869,1
1259,19,33,15,0.7867,1
1260,54,73,47,3.506,1
1261,22,31,22,0.4496,1
1262,58,117,32,2.1252,1
1263,27,36,23,0.6315,1
1264,15,19,14,0.2447,1
1265,11,13,11,0.7389,1
1266,15,18,15,0.2155,1
1267,6,11,5,0.0785,1
1268,14,15,14,0.1938,1
1269,16,20,15,0.2514,1
1270,11,12,11,0.1436,1
1271,11,12,11,0.3003,1
1272,233,457,217,30.9372,1
1273,3,4,3,0.0343,1
1274,28,61,24,1.393,1
1275,35,64,30,1.3022,1
1276,13,14,13,0.1906,1
1277,16,19,16,0.2601,1
1278,3,3,3,0.0572,1
1279,5,5,5,0.1192,1
1280,40,73,40,2.2144,1
1281,22,35,19,0.8482,1
1282,33,60,33,1.5394,1
1283,4,8,3,0.1101,1
1284,8,7,8,0.1803,1
1285,25,36,15,0.8692,1
1286,2,2,2,0.045,1
1287,25,29,25,1.5335,1
1288,19,29,18,0.6292,1
1289,22,31,22,0.81,1
1290,1,1,1,0.0197,1
1291,55,83,51,1.9883,1
1292,32,35,31,1.3476,1
1293,20,25,15,0.5921,1
1294,35,37,34,0.7942,1
1295,4,7,2,0.0473,1
1296,3,3,3,0.073,1
1297,59,152,48,5.7438,1
1298,17,19,14,0.4918,1
1299,28,30,27,0.596,1
1300,8,11,6,0.178,1
1301,13,18,10,0.3327,1
1302,10,19,10,0.3047,1
1303,13,12,13,0.1803,1
1304,7,10,6,0.1843,1
1305,34,100,25,1.1865,1
1306,7,12,5,0.1057,1
1307,20,39,16,0.4571,1
1308,18,32,16,0.3647,1
1309,58,117,32,3.5633,1
1310,19,20,18,0.581,1
1311,57,80,51,4.2781,1
1312,8,18,6,0.2392,1
1313,27,54,15,0.6643,1
1314,13,14,13,0.1894,1
1315,16,27,13,0.5467,1
1316,36,38,35,2.1201,1
1317,16,19,16,0.4203,1
1318,104,136,61,5.9901,1
1319,18,125,16,2.2804,1
1320,4,5,4,0.0927,1
1321,11,11,11,0.1492,1
1322,50,63,47,2.9502,1
1323,1,1,1,0.0331,1
1324,21,40,11,1.935,1
1325,3,4,1,0.0268,1
1326,7,15,7,0.2017,1
1327,22,23,13,0.3635,1
1328,40,63,40,1.1739,1
1329,16,17,16,0.4673,1
1330,15,20,15,0.2467,1
1331,9,26,6,0.1725,1
1332,2,2,2,0.0402,1
1333,8,18,6,0.1369,1
1334,2,2,2,0.0272,1
1335,13,26,10,0.3801,1
1336,39,40,39,1.1214,1
1337,118,183,105,12.6979,1
1338,20,42,18,0.9951,1
1339,16,56,15,0.463,1
1340,26,53,23,1.2039,1
1341,10,15,9,0.2826,1
1342,8,15,5,0.2194,1
1343,16,33,16,0.5822,1
1344,13,22,9,0.4061,1
1345,8,13,8,0.2163,1
1346,44,59,40,2.4939,1
1347,12,15,10,0.1693,1
1348,37,68,31,1.4096,1
1349,3,4,3,0.0367,1
1350,40,43,37,0.9738,1
1351,24,55,20,0.7681,1
1352,193,270,157,18.829,1
1353,36,72,16,0.8585,1
1354,26,30,26,0.6485,1
1355,96,110,45,8.4722,1
1356,5,5,5,0.0939,1
1357,66,121,66,3.2427,1
1358,4,7,2,0.0528,1
1359,35,47,32,0.9039,1
1360,21,28,18,0.3817,1
1361,12,11,12,0.159,1
1362,12,11,12,0.626,1
1363,18,27,18,0.3457,1
1364,18,27,18,0.3548,1
1365,21,22,12,0.6856,1
1366,9,11,9,0.1286,1
1367,19,23,19,0.3446,1
1368,12,14,11,0.1673,1
1369,23,36,20,0.4575,1
1370,13,13,11,0.1665,1
1371,7,8,7,0.0828,1
1372,20,33,19,0.3852,1
1373,65,90,55,3.4034,1
1374,36,55,30,1.121,1
1375,7,14,6,0.1168,1
1376,12,21,6,0.1878,1
1377,6,11,5,0.0832,1
1378,26,27,26,0.5948,1
1379,18,19,18,0.5767,1
1380,6,11,5,0.0892,1
1381,15,18,15,0.6019,1
1382,38,97,30,1.6393,1
1383,7,14,6,0.12,1
1384,6,9,4,0.0706,1
1385,21,39,17,0.7681,1
1386,5,7,4,0.1034,1
1387,6,11,5,0.161,1
1388,12,12,12,0.3142,1
1389,5,9,5,0.0714,1
1390,5,9,5,0.0797,1
1391,4,6,4,0.0738,1
1392,10,12,10,0.1476,1
1393,7,8,7,0.165,1
1394,19,27,14,0.2936,1
1395,15,29,12,0.2861,1
1396,6,11,5,0.1614,1
1397,19,23,17,0.6801,1
1398,13,18,10,0.3643,1
1399,5,6,5,0.1496,1
1400,7,12,6,0.1894,1
1401,10,17,7,0.2372,1
1402,22,32,18,0.7042,1
1403,13,17,9,0.3517,1
1404,104,136,61,9.9174,1
1405,68,88,39,4.9567,1
1406,8,9,7,0.1614,1
1407,9,14,8,0.2325,1
1408,5,5,5,0.1018,1
1409,12,12,12,0.2834,1
1410,15,38,13,0.3213,1
1411,8,8,8,1.0823,1
1412,33,32,33,0.7022,1
1413,89,154,46,5.5879,1
1414,89,154,46,5.3183,1
1415,22,35,21,0.4673,1
1416,39,50,33,1.4518,1
1417,6,5,6,0.264,1
1418,7,7,7,0.1594,1
1419,16,24,14,0.7942,1
1420,18,19,18,0.3039,1
1421,40,69,39,1.903,1
1422,42,60,36,2.0167,1
1423,62,110,45,4.1238,1
1424,62,110,45,4.7139,1
1425,23,30,18,0.6884,1
1426,2,3,2,0.0331,1
1427,2,3,2,0.0181,1
1428,2,3,2,0.0185,1
1429,2,3,2,0.0323,1
1430,2,3,2,0.0339,1
1431,2,3,2,0.0303,1
1432,2,3,2,0.0335,1
1433,2,3,2,0.0363,1
1434,2,3,2,0.0327,1
1435,39,43,39,1.9965,1
1436,44,94,35,4.8245,1
1437,2,2,2,0.0517,1
1438,14,28,14,0.5242,1
1439,58,90,52,4.23,1
1440,58,86,52,2.218,1
1441,22,31,16,0.7989,1
1442,20,31,20,0.4934,1
1443,15,20,15,0.4247,1
1444,13,18,13,0.2088,1
1445,20,32,20,0.4144,1
1446,13,19,13,0.3694,1
1447,12,18,12,0.3426,1
1448,15,23,14,0.2589,1
1449,11,31,10,0.2328,1
1450,2,3,2,0.0181,1
1451,89,107,73,4.4487,1
1452,7,7,7,0.0836,1
1453,21,42,18,1.4068,1
1454,35,82,31,3.1496,1
1455,7,7,7,0.1006,1
1456,223,1964,65,68.1608,1
1457,19,23,16,0.5514,1
1458,14,13,14,0.193,1
1459,20,20,20,0.6678,1
1460,10,9,10,0.1302,1
1461,19,18,19,0.3142,1
1462,6,10,6,0.0903,1
1463,7,10,7,0.101,1
1464,2,3,2,0.03,1
1465,7,18,3,0.0801,1
1466,63,66,61,1.9942,1
1467,10,13,8,0.4101,1
1468,10,13,8,0.118,1
1469,10,13,8,0.2198,1
1470,10,13,8,0.1353,1
1471,41,44,39,1.0369,1
1472,71,101,69,3.8226,1
1473,63,136,57,5.2902,1
1474,6,8,5,0.135,1
1475,11,12,10,0.1385,1
1476,33,54,30,1.4585,1
1477,24,37,19,0.5313,1
1478,20,33,18,0.4046,1
1479,9,18,7,0.2238,1
1480,45,76,34,1.734,1
1481,257,632,201,84.1524,1
1482,265,7971,261,1959.8751,1
1483,18,21,18,0.3185,1
1484,14,28,14,0.5092,1
1485,10,10,10,0.2096,1
1486,2,2,2,0.0497,1
1487,265,7971,261,1947.6034,1
1488,24,55,20,1.1514,1
1489,26,86,25,1.5426,1
1490,22,36,20,0.8779,1
1491,11,14,11,0.3075,1
1492,5,8,5,0.0667,1
1493,70,99,48,6.5195,1
1494,23,29,23,0.8522,1
1495,26,57,23,0.7101,1
1496,31,54,22,0.7871,1
1497,52,72,41,3.178,1
1498,17,23,17,0.3177,1
1499,22,25,18,0.4144,1
1500,14,13,14,0.3623,1
1501,2,2,2,0.0536,1
1502,1,1,1,0.0335,1
1503,10,16,10,0.3094,1
1504,75,143,60,6.1409,1
1505,31,62,23,1.575,1
1506,61,83,45,3.8092,1
1507,24,35,21,0.8755,1
1508,12,26,12,0.4875,1
1509,8,17,8,0.1578,1
1510,9,20,7,0.1638,1
1511,5,6,5,0.0753,1
1512,8,8,8,0.195,1
1513,10,28,10,0.4014,1
1514,2,3,1,0.0477,1
1515,23,48,20,0.9461,1
1516,294,377,124,74.9203,1
1517,385,498,140,84.4591,1
1518,329,424,124,111.6393,1
1519,265,342,99,38.0429,1
1520,423,545,152,75.5945,1
1521,4,8,3,0.0572,1
1522,13,24,12,0.1768,1
1523,2,3,2,0.0323,1
1524,2,3,2,0.0315,1
1525,22,31,21,0.7985,1
1526,6,11,5,0.0864,1
1527,12,21,9,0.3576,1
1528,22,39,18,0.4673,1
1529,8,12,6,0.1223,1
1530,14,17,12,0.2305,1
1531,40,113,32,1.9456,1
1532,2,2,2,0.0489,1
1533,53,54,45,3.6497,1
1534,10,10,10,0.2518,1
1535,8,8,8,0.1061,1
1536,23,43,23,0.9098,1
1537,89,135,83,10.198,1
1538,4,7,4,0.1132,1
1539,4,7,4,0.1207,1
1540,9,10,9,0.2486,1
1541,8,7,8,0.5246,1
1542,8,7,8,0.1942,1
1543,18,17,18,0.538,1
1544,199,299,134,27.9933,1
1545,21,42,18,0.4709,1
1546,54,94,54,1.9393,1
1547,9,9,9,0.176,1
1548,2,2,2,0.0446,1
1549,22,42,17,0.9209,1
1550,12,13,12,0.1693,1
1551,8,13,8,0.2025,1
1552,97,124,54,5.4035,1
1553,71,132,58,4.4033,1
1554,3,4,3,0.0836,1
1555,31,45,30,1.3871,1
1556,9,14,7,0.1053,1
1557,13,18,11,0.3205,1
1558,14,24,10,0.9161,1
1559,7,12,5,0.099,1
1560,9,14,7,0.1061,1
1561,17,22,15,0.4606,1
1562,41,54,35,3.3035,1
1563,16,23,9,0.2028,1
1564,13,18,12,0.1882,1
1565,109,174,94,12.1749,1
1566,406,704,306,100.9281,1
1567,15,15,11,0.2194,1
1568,21,32,20,0.4282,1
1569,6,7,6,0.084,1
1570,18,25,15,0.5336,1
1571,6,13,5,0.0884,1
1572,17,16,17,0.8553,1
1573,21,38,21,0.5885,1
1574,22,212,22,0.7847,1
1575,2,3,2,0.0177,1
1576,6,13,5,0.0844,1
1577,6,11,4,0.0753,1
1578,6,13,5,0.1077,1
1579,19,37,16,0.4377,1
1580,11,12,11,0.1571,1
1581,32,70,25,0.8763,1
1582,7,8,7,0.1634,1
1583,43,52,35,1.1988,1
1584,5,10,4,0.1531,1
1585,11,11,11,0.2869,1
1586,6,9,5,0.1077,1
1587,9,9,9,0.1192,1
1588,4,7,4,0.0607,1
1589,8,11,7,0.0971,1
1590,5,12,4,0.1721,1
1591,4,7,3,0.0682,1
1592,56,109,53,4.6322,1
1593,30,109,23,1.2055,1
1594,47,156,35,3.268,1
1595,44,154,32,2.8958,1
1596,38,152,26,2.8444,1
1597,17,30,15,0.5277,1
1598,12,22,11,0.3907,1
1599,5,9,4,0.129,1
1600,31,50,23,2.01,1
1601,2,1,2,0.0382,1
1602,3,3,3,0.0426,1
1603,3,3,3,0.0611,1
1604,21,23,17,0.4038,1
1605,83,98,47,4.3863,1
1606,10,12,5,0.204,1
1607,2,2,2,0.0497,1
1608,9,18,9,0.2798,1
1609,57,76,51,3.5648,1
1610,4,6,3,0.0951,1
1611,16,20,15,0.4835,1
1612,45,55,45,1.3614,1
1613,2,3,2,0.0359,1
1614,43,129,27,1.8596,1
1615,61,86,41,3.8337,1
1616,4,6,4,0.0746,1
1617,29,52,29,0.8403,1
1618,15,14,15,0.4038,1
1619,61,118,21,6.2893,1
1620,2,2,2,0.0264,1
1621,135,264,134,11.5915,1
1622,66,155,56,5.7809,1
1623,3,5,3,0.101,1
1624,13,18,11,0.2017,1
1625,19,45,13,0.658,1
1626,40,64,38,1.1715,1
1627,4,6,3,0.09,1
1628,45,53,42,1.7901,1
1629,7,9,7,0.1823,1
1630,19,42,12,0.7369,1
1631,17,26,15,0.6359,1
1632,13,17,12,0.206,1
1633,66,137,45,6.002,1
1634,10,9,10,0.133,1
1635,104,136,61,6.2076,1
1636,8,7,8,0.1207,1
1637,5,10,3,0.1022,1
1638,21,29,21,0.7559,1
1639,6,9,5,0.0848,1
1640,8,8,8,0.2376,1
1641,13,21,9,0.2028,1
1642,4,4,4,0.0485,1
1643,14,16,14,0.2107,1
1644,38,73,36,1.4782,1
1645,7,11,7,0.1042,1
1646,21,33,15,0.388,1
1647,12,18,10,0.1807,1
1648,17,24,15,0.2538,1
1649,17,136,17,0.5798,1
1650,20,43,15,0.7176,1
1651,9,22,7,0.1819,1
1652,46,136,31,2.6921,1
1653,21,39,21,0.4306,1
1654,14,25,9,0.2467,1
1655,11,16,8,0.1271,1
1656,32,47,27,1.8205,1
1657,59,173,24,3.7614,1
1658,42,55,42,1.2146,1
1659,3,6,3,0.0418,1
1660,33,42,28,0.8001,1
1661,2,2,2,0.0268,1
1662,9,15,6,0.1125,1
1663,14,34,12,0.2707,1
1664,7,9,7,0.0982,1
1665,14,13,14,0.1803,1
1666,3,5,3,0.043,1
1667,4,8,3,0.0615,1
1668,80,140,68,4.1416,1
1669,9,8,9,0.3228,1
1670,27,38,24,0.5609,1
1671,34,44,27,0.8076,1
1672,20,25,19,0.3714,1
1673,10,13,9,0.1373,1
1674,23,44,12,0.4259,1
1675,106,162,89,12.9316,1
1676,31,41,20,0.7681,1
1677,256,509,256,51.1862,1
1678,44,61,40,2.3573,1
1679,27,39,22,0.6189,1
1680,10,19,8,0.1646,1
1681,9,10,9,0.1492,1
1682,6,9,6,0.0998,1
1683,51,99,51,3.3233,1
1684,14,15,14,0.2032,1
1685,8,9,8,0.2009,1
1686,10,17,8,0.264,1
1687,6,8,5,0.1425,1
1688,15,14,15,0.2175,1
1689,16,22,16,0.5297,1
1690,15,33,11,0.2601,1
1691,95,180,79,10.8498,1
1692,31,38,24,0.7322,1
1693,38,67,24,1.5643,1
1694,11,20,8,0.7555,1
1695,93,198,79,5.7193,1
1696,36,46,32,1.5943,1
1697,15,18,15,0.238,1
1698,7,12,4,0.1914,1
1699,4,7,3,0.0856,1
1700,119,143,61,10.7957,1
1701,10,29,9,0.3832,1
1702,22,42,15,0.4898,1
1703,338,8748,23,535.759,1
1704,13,17,13,0.1989,1
1705,6,13,5,0.165,1
1706,7,7,7,0.1606,1
1707,11,14,10,0.1507,1
1708,5,9,4,0.1409,1
1709,20,25,18,1.1222,1
1710,23,68,15,0.7338,1
1711,7,7,7,0.0947,1
1712,7,7,7,0.163,1
1713,16,20,16,0.5344,1
1714,10,12,8,0.2565,1
1715,23,41,20,0.5072,1
1716,2,2,2,0.0296,1
1717,3,5,2,0.0698,1
1718,34,39,23,0.8242,1
1719,13,33,10,0.3153,1
1720,12,28,9,0.2767,1
1721,15,19,14,0.2427,1
1722,29,52,23,1.3622,1
1723,11,13,10,0.2435,1
1724,2,2,2,0.0497,1
1725,36,52,33,1.7984,1
1726,26,35,26,0.5932,1
1727,15,19,14,0.4223,1
1728,20,33,10,0.3635,1
1729,4,5,4,0.0663,1
1730,29,43,27,0.7602,1
1731,2,3,2,0.0319,1
1732,15,16,15,0.2135,1
1733,10,14,8,0.2494,1
1734,7,7,7,0.1689,1
1735,38,98,30,1.2232,1
1736,35,48,32,1.5418,1
1737,42,62,38,1.2418,1
1738,28,45,27,1.3061,1
1739,4,7,3,0.0639,1
1740,24,29,24,2.1935,1
1741,19,28,19,0.3552,1
1742,10,9,10,0.2289,1
1743,39,44,36,2.3119,1
1744,104,136,57,11.0278,1
1745,26,69,19,1.3259,1
1746,25,41,25,1.0721,1
1747,9,9,9,0.2242,1
1748,18,36,13,0.6694,1
1749,3190,8548,3186,6029.1301,1
1750,9,14,7,0.2498,1
1751,6,10,4,0.165,1
1752,14,42,7,0.2782,1
1753,12,14,12,0.178,1
1754,11,11,11,0.2806,1
1755,16,22,16,0.4811,1
1756,39,39,39,1.8686,1
1757,33,55,28,1.4921,1
1758,6,8,5,0.148,1
1759,8,11,7,0.1022,1
1760,8,9,7,0.1914,1
1761,8,8,8,0.1053,1
1762,8,8,8,0.1053,1
1763,9,9,9,0.1227,1
1764,7,7,7,0.09,1
1765,5,4,5,0.0556,1
1766,14,19,10,0.206,1
1767,56,108,24,4.993,1
1768,8,14,5,0.1148,1
1769,35,44,32,1.6677,1
1770,21,44,19,0.9217,1
1771,13,27,13,0.2514,1
1772,36,51,32,1.0413,1
1773,12,15,11,0.2988,1
1774,20,38,16,0.4109,1
1775,14,21,11,0.4144,1
1776,32,38,28,1.3279,1
1777,15,15,11,0.3592,1
1778,256,509,256,66.3844,1
1779,14,37,12,0.5838,1
1780,4,7,4,0.0848,1
1781,8,10,7,0.191,1
1782,8,11,6,0.1946,1
1783,9,13,7,0.2514,1
1784,31,53,22,1.4711,1
1785,12,18,10,0.341,1
1786,62,92,55,3.4129,1
1787,12,28,11,0.5096,1
1788,12,29,11,0.504,1
1789,25,38,13,0.4653,1
1790,5,7,5,0.1156,1
1791,44,99,40,1.8477,1
1792,9,12,8,0.2427,1
1793,1,1,1,0.0193,1
1794,14,21,11,0.3753,1
1795,34,39,23,1.3488,1
1796,10,15,9,0.1535,1
1797,18,17,18,1.239,1
1798,25,43,20,1.031,1
1799,6,9,6,0.084,1
1800,16,30,12,0.4227,1
1801,83,122,56,5.4047,1
1802,16,16,16,0.2411,1
1803,23,36,19,0.4906,1
1804,2,2,2,0.0268,1
1805,29,43,23,0.6232,1
1806,4,7,4,0.0627,1
1807,11,11,11,0.1598,1
1808,35,59,32,0.9623,1
1809,10,24,8,0.8253,1
1810,27,41,26,1.1684,1
1811,19,32,17,0.384,1
1812,11,11,11,0.148,1
1813,18,18,16,0.2893,1
1814,37,36,37,0.8794,1
1815,10,23,7,0.1314,1
1816,8,10,7,0.1685,1
1817,7,10,6,0.1705,1
1818,17,26,14,0.3075,1
1819,9,13,8,0.1278,1
1820,27,52,23,0.555,1
1821,13,25,13,0.2289,1
1822,10,10,10,0.1318,1
1823,7,14,6,0.0994,1
1824,11,16,9,0.1689,1
1825,21,22,17,0.3596,1
1826,8,8,8,0.1085,1
1827,7,12,6,0.1018,1
1828,24,48,23,0.5853,1
1829,95,127,55,5.3277,1
1830,26,38,23,0.5684,1
1831,8,8,8,0.1882,1
1832,32,56,31,0.8478,1
1833,17,20,17,0.2857,1
1834,73,114,52,4.9251,1
1835,22,34,15,0.8021,1
1836,23,38,20,0.6975,1
1837,15,18,15,0.4472,1
1838,8,10,8,0.2076,1
1839,9,13,7,0.2423,1
1840,9,12,6,0.2021,1
1841,14,23,10,0.7259,1
1842,46,57,45,2.5409,1
1843,31,46,26,0.7282,1
1844,15,17,15,0.4492,1
1845,26,48,19,1.0673,1
1846,23,34,20,0.9063,1
1847,24,29,24,0.8328,1
1848,10,9,10,0.2542,1
1849,9,15,9,0.2893,1
1850,16,22,15,0.2711,1
1851,66,89,61,5.3949,1
1852,30,48,26,0.8384,1
1853,21,22,17,0.6528,1
1854,33,64,28,0.9154,1
1855,39,61,27,1.5268,1
1856,10,11,10,0.1432,1
1857,8,15,7,0.1298,1
1858,14,18,14,0.4503,1
1859,11,10,11,0.2542,1
1860,8,8,8,0.2115,1
1861,37,41,35,1.5556,1
1862,11,11,11,0.148,1
1863,5,12,4,0.1081,1
1864,16,23,11,0.3615,1
1865,17,26,14,0.581,1
1866,13,16,12,0.3667,1
1867,37,37,31,1.3018,1
1868,109,130,102,14.3033,1
1869,55,64,46,1.8576,1
1870,9,12,7,0.1132,1
1871,2,2,2,0.0398,1
1872,4,7,2,0.0852,1
1873,19,26,17,0.3426,1
1874,15,17,15,0.4527,1
1875,7,7,7,0.0892,1
1876,25,34,25,0.9979,1
1877,37,36,37,1.5379,1
1878,4,8,3,0.0651,1
1879,3,5,2,0.0821,1
1880,2,2,2,0.0521,1
1881,1,1,1,0.0355,1
1882,9,12,9,0.1286,1
1883,42,51,42,1.5019,1
1884,38,40,37,1.6543,1
1885,2,2,2,0.0457,1
1886,148,289,146,13.6315,1
1887,15,18,15,0.3,1
1888,33,49,24,0.7803,1
1889,28,47,27,0.6821,1
1890,7,10,6,0.1657,1
1891,10,14,8,0.2672,1
1892,9,12,9,0.2435,1
1893,23,30,20,0.8419,1
1894,8,8,8,0.1215,1
1895,15,29,12,0.2672,1
1896,19,27,17,0.3434,1
1897,36,51,32,0.8621,1
1898,21,25,20,0.3615,1
1899,13,24,7,0.294,1
1900,19,23,14,0.3019,1
1901,29,54,26,1.284,1
1902,25,35,24,0.5111,1
1903,26,31,24,0.9805,1
1904,13,12,13,0.1784,1
1905,14,23,10,0.4598,1
1906,2,1,2,0.0414,1
1907,2,1,2,0.0394,1
1908,4,5,4,0.0777,1
1909,11,12,11,0.1432,1
1910,16,26,16,0.2522,1
1911,3,3,3,0.0927,1
1912,2,2,2,0.0268,1
1913,2,2,2,0.1034,1
1914,2,2,2,0.0264,1
1915,2,1,2,0.024,1
1916,12,11,12,0.1503,1
1917,15,15,11,0.373,1
1918,11,10,11,0.2475,1
1919,6,5,6,0.0667,1
1920,2,1,2,0.1511,1
