id,time
ex10.mona-walk.dot_5__242states.dfa,16.8478
ex11.mona-walk.dot_0__143states.dfa,6.4543
ex11.mona-walk.dot_2__143states.dfa,7.1491
ex11.mona-walk.dot_4__281states.dfa,9.5108
ex11.mona-walk.dot_5__281states.dfa,18.8132
ex11.mona-walk.dot_6__301states.dfa,22.8262
ex11.mona-walk.dot_7__325states.dfa,15.4003
ex12.mona-walk.dot_13__317states.dfa,38.1409
ex12.mona-walk.dot_14__317states.dfa,43.4414
ex12.mona-walk.dot_15__290states.dfa,30.1853
ex12.mona-walk.dot_16__280states.dfa,80.6677
ex12.mona-walk.dot_17__280states.dfa,233.2468
ex14.mona-walk.dot_10__103states.dfa,57.2601
ex14.mona-walk.dot_11__202states.dfa,42.2667
ex14.mona-walk.dot_12__316states.dfa,55.8536
ex14.mona-walk.dot_13__316states.dfa,55.9243
ex14.mona-walk.dot_14__852states.dfa,342.5782
ex14.mona-walk.dot_15__852states.dfa,714.6443
ex14.mona-walk.dot_16__852states.dfa,1613.3869
ex14.mona-walk.dot_17__167states.dfa,222.1767
ex14.mona-walk.dot_21__35states.dfa,4.7633
ex14.mona-walk.dot_22__53states.dfa,40.6779
ex14.mona-walk.dot_24__42states.dfa,7.8509
ex14.mona-walk.dot_3__30states.dfa,1.3184
ex14.mona-walk.dot_4__30states.dfa,1.3425
ex14.mona-walk.dot_5__45states.dfa,3.4389
ex14.mona-walk.dot_6__65states.dfa,43.2271
ex14.mona-walk.dot_7__65states.dfa,8.0309
ex14.mona-walk.dot_8__77states.dfa,10.7077
ex14.mona-walk.dot_9__103states.dfa,16.5687
ex16.mona-walk.dot_56__16states.dfa,143.8166
ex16.mona-walk.dot_58__25states.dfa,95.926
ex18.mona-walk.dot_106__298states.dfa,19560.521
ex18.mona-walk.dot_107__298states.dfa,19827.2911
ex18.mona-walk.dot_109__269states.dfa,19561.4589
ex18.mona-walk.dot_94__108states.dfa,16.8123
ex18.mona-walk.dot_95__172states.dfa,53.1473
ex18.mona-walk.dot_96__300states.dfa,109.4632
ex18.mona-walk.dot_97__556states.dfa,522.2487
ex19.mona-walk.dot_10__119states.dfa,7.2955
ex19.mona-walk.dot_47__135states.dfa,23.4771
ex19.mona-walk.dot_49__247states.dfa,53.437
ex19.mona-walk.dot_51__141states.dfa,40.3573
ex20.mona-walk.dot_20__20states.dfa,0.1492
ex3.mona-walk.dot_33__579states.dfa,2442.6411
ex3.mona-walk.dot_34__449states.dfa,2378.9081
ex4.mona-walk.dot_20__276states.dfa,165.4175
ex4.mona-walk.dot_21__531states.dfa,893.3547
ex4.mona-walk.dot_22__139states.dfa,79.6943
ex4.mona-walk.dot_23__139states.dfa,94.3439
ex4.mona-walk.dot_24__147states.dfa,236.8772
ex4.mona-walk.dot_25__151states.dfa,315.959
ex4.mona-walk.dot_26__602states.dfa,2249.1639
ex4.mona-walk.dot_38__134states.dfa,98.45
ex5.mona-walk.dot_3__66states.dfa,0.5913
ex8.mona-walk.dot_18__242states.dfa,9.8408
parametric_uabe1_11.mona-walk.dot_0__167states.dfa,4.6105
parametric_uabe1_12.mona-walk.dot_0__181states.dfa,12.6139
parametric_uabe1_13.mona-walk.dot_0__195states.dfa,13.6864
parametric_uabe1_14.mona-walk.dot_0__209states.dfa,7.3232
parametric_uabe2_03.mona-walk.dot_0__142states.dfa,9.3541
parametric_uabe2_04.mona-walk.dot_0__702states.dfa,114.7413
parametric_uabe2_05.mona-walk.dot_0__86states.dfa,4.0133
parametric_uabe2_06.mona-walk.dot_0__91states.dfa,4.8016
parametric_uabe2_07.mona-walk.dot_0__108states.dfa,15.1678
parametric_uabe2_08.mona-walk.dot_0__125states.dfa,9.2854
parametric_uabe3_06.mona-walk.dot_0__97states.dfa,3.9631
parametric_uabe3_07.mona-walk.dot_0__111states.dfa,8.5275
parametric_uabe3_08.mona-walk.dot_0__125states.dfa,6.3438
parametric_uabe3_09.mona-walk.dot_0__139states.dfa,12.4812
parametric_uabe3_10.mona-walk.dot_0__153states.dfa,6.5357
parametric_uabe3_11.mona-walk.dot_0__167states.dfa,6.6454
parametric_uabe3_12.mona-walk.dot_0__181states.dfa,20.9709
parametric_uabe3_13.mona-walk.dot_0__195states.dfa,7.5063
parametric_uabe3_14.mona-walk.dot_0__209states.dfa,11.2098
array_axiom.mona-walk.dot_26__901states.dfa,23291.6596
array_axiom.mona-walk.dot_27__897states.dfa,20706.8419
array_axiom.mona-walk.dot_36__105states.dfa,22.5893
ex18.mona-walk.dot_98__1068states.dfa,2928.8845
ex18.mona-walk.dot_99__2056states.dfa,15221.2996
strand-old-bubblesort-loop-else.mona-walk.dot_0__1044states.dfa,2.5626
strand-old-bubblesort-loop-if-else.mona-walk.dot_0__1027states.dfa,0.0126
strand-old-bubblesort-loop-if-if.mona-walk.dot_0__2051states.dfa,0.013
strand-old-sorted-list-insert-after-loop.mona-walk.dot_0__151states.dfa,3.6173
strand-old-sorted-list-insert-before-head.mona-walk.dot_0__114states.dfa,26.7404
strand-old-sorted-list-insert-before-loop.mona-walk.dot_0__131states.dfa,0.0102
strand-old-sorted-list-insert-error-before-loop.mona-walk.dot_0__156states.dfa,7.1305
strand-old-sorted-list-insert-in-loop.mona-walk.dot_0__515states.dfa,0.0106
strand-old-sorted-list-reverse-after-loop.mona-walk.dot_0__131states.dfa,0.0102
strand-old-sorted-list-reverse-before-loop.mona-walk.dot_0__212states.dfa,2084.5311
strand-old-sorted-list-reverse-in-loop.mona-walk.dot_0__515states.dfa,0.0106
strand-old-sorted-list-search-after-loop.mona-walk.dot_0__317states.dfa,681966.9468
strand-old-sorted-list-search-before-loop.mona-walk.dot_0__112states.dfa,108.5735
ex11.mona.aut,379.3233
ex12.mona.aut,108.759
ex13.mona.aut,-1
ex15.mona.aut,0.2115
ex16.mona.aut,-1
ex17.mona.aut,0.0209
ex19.mona.aut,2252.4489
ex7.mona.aut,8.8686
horn_trans05.mona.aut,0.6244
horn_trans10.mona.aut,43.6724
parametric_uabe1_11.mona.aut,91.7003
parametric_uabe3_10.mona.aut,77.0993
set_closed05.mona.aut,2.7477
set_closed10.mona.aut,110.9683
set_obvious05.mona.aut,0.0114
set_obvious10.mona.aut,0.011
set_singletons05.mona.aut,2.0218
set_singletons10.mona.aut,229.0697
strand-new-sorted-list-insert-after-loop.mona.aut,1125.9661
strand-new-sorted-list-insert-before-head.mona.aut,45.9449
strand-new-sorted-list-insert-before-loop.mona.aut,254.121
strand-new-sorted-list-insert-error-error.mona.aut,253.9414
strand-new-sorted-list-reverse-after-loop.mona.aut,206.2206
strand-new-sorted-list-reverse-before-loop.mona.aut,166.9886
strand-new-sorted-list-search-after-loop.mona.aut,29.6532
strand-new-sorted-list-search-before-loop.mona.aut,122.0325
toss05.mona.aut,4.7783
toss10.mona.aut,36105.7432
veanes05.mona.aut,0.1594
veanes05_1alts.mona.aut,0.2407
veanes05_2alts.mona.aut,0.7551
veanes05_3alts.mona.aut,0.2936
veanes05_4alts.mona.aut,0.6888
veanes10.mona.aut,0.4725
veanes10_1alts.mona.aut,0.7871
veanes10_2alts.mona.aut,4287.4228
veanes10_3alts.mona.aut,1.1194
veanes10_4alts.mona.aut,1415.0421
