id,time
ex10.mona-walk.dot_5__242states.dfa,16.3781
ex11.mona-walk.dot_0__143states.dfa,6.776
ex11.mona-walk.dot_2__143states.dfa,7.0678
ex11.mona-walk.dot_4__281states.dfa,9.2353
ex11.mona-walk.dot_5__281states.dfa,23.5738
ex11.mona-walk.dot_6__301states.dfa,20.8765
ex11.mona-walk.dot_7__325states.dfa,12.214
ex12.mona-walk.dot_13__317states.dfa,45.1992
ex12.mona-walk.dot_14__317states.dfa,59.4888
ex12.mona-walk.dot_15__290states.dfa,26.3046
ex12.mona-walk.dot_16__280states.dfa,100.3692
ex12.mona-walk.dot_17__280states.dfa,315.2137
ex14.mona-walk.dot_10__103states.dfa,16.1768
ex14.mona-walk.dot_11__202states.dfa,39.0484
ex14.mona-walk.dot_12__316states.dfa,128.8903
ex14.mona-walk.dot_13__316states.dfa,56.2902
ex14.mona-walk.dot_14__852states.dfa,367.2956
ex14.mona-walk.dot_15__852states.dfa,699.465
ex14.mona-walk.dot_16__852states.dfa,1568.445
ex14.mona-walk.dot_17__167states.dfa,208.5219
ex14.mona-walk.dot_21__35states.dfa,5.1454
ex14.mona-walk.dot_22__53states.dfa,25.2447
ex14.mona-walk.dot_24__42states.dfa,7.9603
ex14.mona-walk.dot_3__30states.dfa,9.8132
ex14.mona-walk.dot_4__30states.dfa,1.2335
ex14.mona-walk.dot_5__45states.dfa,3.4334
ex14.mona-walk.dot_6__65states.dfa,8.1521
ex14.mona-walk.dot_7__65states.dfa,7.7988
ex14.mona-walk.dot_8__77states.dfa,23.1052
ex14.mona-walk.dot_9__103states.dfa,16.0872
ex16.mona-walk.dot_56__16states.dfa,118.7376
ex16.mona-walk.dot_58__25states.dfa,147.8169
ex18.mona-walk.dot_106__298states.dfa,19346.001
ex18.mona-walk.dot_107__298states.dfa,19630.472
ex18.mona-walk.dot_109__269states.dfa,19390.0993
ex18.mona-walk.dot_94__108states.dfa,17.0247
ex18.mona-walk.dot_95__172states.dfa,34.666
ex18.mona-walk.dot_96__300states.dfa,154.304
ex18.mona-walk.dot_97__556states.dfa,621.9038
ex19.mona-walk.dot_10__119states.dfa,7.3172
ex19.mona-walk.dot_47__135states.dfa,18.5571
ex19.mona-walk.dot_49__247states.dfa,29.9177
ex19.mona-walk.dot_51__141states.dfa,32.8091
ex20.mona-walk.dot_20__20states.dfa,0.148
ex3.mona-walk.dot_33__579states.dfa,2463.5406
ex3.mona-walk.dot_34__449states.dfa,2165.3433
ex4.mona-walk.dot_20__276states.dfa,144.6803
ex4.mona-walk.dot_21__531states.dfa,890.5122
ex4.mona-walk.dot_22__139states.dfa,70.4065
ex4.mona-walk.dot_23__139states.dfa,125.6203
ex4.mona-walk.dot_24__147states.dfa,201.1379
ex4.mona-walk.dot_25__151states.dfa,310.1523
ex4.mona-walk.dot_26__602states.dfa,2259.0391
ex4.mona-walk.dot_38__134states.dfa,97.7686
ex5.mona-walk.dot_3__66states.dfa,0.6513
ex8.mona-walk.dot_18__242states.dfa,9.1157
parametric_uabe1_11.mona-walk.dot_0__167states.dfa,4.5864
parametric_uabe1_12.mona-walk.dot_0__181states.dfa,11.6779
parametric_uabe1_13.mona-walk.dot_0__195states.dfa,7.065
parametric_uabe1_14.mona-walk.dot_0__209states.dfa,17.1123
parametric_uabe2_03.mona-walk.dot_0__142states.dfa,9.6932
parametric_uabe2_04.mona-walk.dot_0__702states.dfa,115.2967
parametric_uabe2_05.mona-walk.dot_0__86states.dfa,3.8439
parametric_uabe2_06.mona-walk.dot_0__91states.dfa,10.2667
parametric_uabe2_07.mona-walk.dot_0__108states.dfa,4.7704
parametric_uabe2_08.mona-walk.dot_0__125states.dfa,15.6561
parametric_uabe3_06.mona-walk.dot_0__97states.dfa,4.2375
parametric_uabe3_07.mona-walk.dot_0__111states.dfa,6.2132
parametric_uabe3_08.mona-walk.dot_0__125states.dfa,14.7044
parametric_uabe3_09.mona-walk.dot_0__139states.dfa,7.0153
parametric_uabe3_10.mona-walk.dot_0__153states.dfa,12.7642
parametric_uabe3_11.mona-walk.dot_0__167states.dfa,6.6324
parametric_uabe3_12.mona-walk.dot_0__181states.dfa,7.2782
parametric_uabe3_13.mona-walk.dot_0__195states.dfa,19.1405
parametric_uabe3_14.mona-walk.dot_0__209states.dfa,13.772
array_axiom.mona-walk.dot_26__901states.dfa,23379.0008
array_axiom.mona-walk.dot_27__897states.dfa,21061.4842
array_axiom.mona-walk.dot_36__105states.dfa,6.208
ex18.mona-walk.dot_98__1068states.dfa,2856.698
ex18.mona-walk.dot_99__2056states.dfa,15131.8591
strand-old-bubblesort-loop-else.mona-walk.dot_0__1044states.dfa,2.6506
strand-old-bubblesort-loop-if-else.mona-walk.dot_0__1027states.dfa,0.0122
strand-old-bubblesort-loop-if-if.mona-walk.dot_0__2051states.dfa,0.0126
strand-old-sorted-list-insert-after-loop.mona-walk.dot_0__151states.dfa,3.6568
strand-old-sorted-list-insert-before-head.mona-walk.dot_0__114states.dfa,37.683
strand-old-sorted-list-insert-before-loop.mona-walk.dot_0__131states.dfa,0.0098
strand-old-sorted-list-insert-error-before-loop.mona-walk.dot_0__156states.dfa,8.2445
strand-old-sorted-list-insert-in-loop.mona-walk.dot_0__515states.dfa,0.0118
strand-old-sorted-list-reverse-after-loop.mona-walk.dot_0__131states.dfa,0.0098
strand-old-sorted-list-reverse-before-loop.mona-walk.dot_0__212states.dfa,2155.0513
strand-old-sorted-list-reverse-in-loop.mona-walk.dot_0__515states.dfa,0.0126
strand-old-sorted-list-search-after-loop.mona-walk.dot_0__317states.dfa,650156.2213
strand-old-sorted-list-search-before-loop.mona-walk.dot_0__112states.dfa,110.9581
ex11.mona.aut,85.6517
ex12.mona.aut,105.5873
ex13.mona.aut,-1
ex15.mona.aut,0.2115
ex16.mona.aut,-1
ex17.mona.aut,0.0189
ex19.mona.aut,2260.3417
ex7.mona.aut,9.7019
horn_trans05.mona.aut,0.7176
horn_trans10.mona.aut,59.3573
parametric_uabe1_11.mona.aut,93.8643
parametric_uabe3_10.mona.aut,88.7038
set_closed05.mona.aut,19.2024
set_closed10.mona.aut,120.0841
set_obvious05.mona.aut,0.0106
set_obvious10.mona.aut,0.0086
set_singletons05.mona.aut,1.869
set_singletons10.mona.aut,239.8283
strand-new-sorted-list-insert-after-loop.mona.aut,1128.0471
strand-new-sorted-list-insert-before-head.mona.aut,50.5321
strand-new-sorted-list-insert-before-loop.mona.aut,272.611
strand-new-sorted-list-insert-error-error.mona.aut,266.1807
strand-new-sorted-list-reverse-after-loop.mona.aut,195.6479
strand-new-sorted-list-reverse-before-loop.mona.aut,152.9789
strand-new-sorted-list-search-after-loop.mona.aut,32.9946
strand-new-sorted-list-search-before-loop.mona.aut,116.8125
toss05.mona.aut,5.3735
toss10.mona.aut,36398.2006
veanes05.mona.aut,0.2005
veanes05_1alts.mona.aut,0.2384
veanes05_2alts.mona.aut,0.7093
veanes05_3alts.mona.aut,0.2928
veanes05_4alts.mona.aut,0.6485
veanes10.mona.aut,0.4444
veanes10_1alts.mona.aut,0.7732
veanes10_2alts.mona.aut,4240.9687
veanes10_3alts.mona.aut,1.3922
veanes10_4alts.mona.aut,1410.5401
