id,states,transitions,statesSim,transitionsSim,timeSim,stateMinAfterSim,transitionsMinAfterSim,timeSimAndMin
ex11.mona.aut,2217,6513,644,2719,1382.5991,172,712,16335.018
ex12.mona.aut,377,1089,158,558,62.3142,202,1603,1877.6056
ex13.mona.aut,933,4591,135,944,648.3164,37,214,104892.6965
ex15.mona.aut,10,27,10,27,0.6832,9,31,14.9594
ex16.mona.aut,543,1426,116,574,154.3468,-1,-1,-1
ex17.mona.aut,1,0,1,0,0.0726,1,0,0.0753
ex19.mona.aut,814,2885,250,1416,114.2003,-1,-1,-1
ex7.mona.aut,148,373,42,141,13.813,180,826,117.4608
horn_trans05.mona.aut,11,25,11,25,0.4875,2,3,10.695
horn_trans10.mona.aut,21,50,21,50,3.2593,2,3,8984.1536
parametric_uabe1_11.mona.aut,2507,7493,762,3273,994.7302,208,772,49047.8024
parametric_uabe3_10.mona.aut,2257,6733,684,2939,970.1289,192,782,34905.5508
set_closed05.mona.aut,24,53,20,49,1.1755,3,5,32.6713
set_closed10.mona.aut,44,98,35,89,12.2211,3,5,6345.8666
set_obvious05.mona.aut,1,0,1,0,0.0746,1,0,0.0785
set_obvious10.mona.aut,1,0,1,0,0.0378,1,0,0.0394
set_singletons05.mona.aut,21,55,17,51,2.3573,313,6289,125.9189
set_singletons10.mona.aut,41,110,32,101,2.9427,-1,-1,-1
strand-new-sorted-list-insert-after-loop.mona.aut,674,5429,266,2737,337.9762,232,3935,3700.2131
strand-new-sorted-list-insert-before-head.mona.aut,219,1699,153,1317,103.8443,55,494,1564.9152
strand-new-sorted-list-insert-before-loop.mona.aut,387,3430,197,2059,106.2333,424,9277,5634.4149
strand-new-sorted-list-insert-error-error.mona.aut,387,3430,197,2059,100.0252,424,9277,5795.2737
strand-new-sorted-list-reverse-after-loop.mona.aut,956,20383,664,15908,1372.7251,303,7254,7206.1997
strand-new-sorted-list-reverse-before-loop.mona.aut,956,20383,664,15908,1293.497,303,7254,7404.4455
strand-new-sorted-list-search-after-loop.mona.aut,431,5629,276,3910,194.6666,153,2628,906.0671
strand-new-sorted-list-search-before-loop.mona.aut,300,2849,138,1603,96.7134,156,2680,1197.0232
toss05.mona.aut,65,288,63,285,8.2903,347,3986,161.1872
toss10.mona.aut,1413,16619,1411,16616,787.1776,-1,-1,-1
veanes05.mona.aut,6,11,6,11,0.2861,6,11,0.5198
veanes05_1alts.mona.aut,19,45,10,21,1.0006,9,28,1.4352
veanes05_2alts.mona.aut,31,172,31,172,1.9997,30,207,8.1849
veanes05_3alts.mona.aut,19,50,16,42,0.9931,11,45,2.2689
veanes05_4alts.mona.aut,25,91,25,91,15.1824,36,277,22.4713
veanes10.mona.aut,11,21,11,21,0.6532,11,21,1.3188
veanes10_1alts.mona.aut,39,95,15,31,1.4656,14,48,2.244
veanes10_2alts.mona.aut,780,33596,780,33596,764.7928,779,34871,30560.2947
veanes10_3alts.mona.aut,39,100,21,52,2.679,16,75,4.4289
veanes10_4alts.mona.aut,588,15179,588,15179,305.1221,971,49833,23974.5219
