id,states,transitions,statesSim,time,goodruns,minterms,mintermizedAutomatonTransitions
0,14,40,5,32.459,1,43,68
1,59,127,38,10.9512,1,158,196
2,17,20,17,2.9929,1,35,37
3,2,1,2,0.223,1,4,4
4,29,47,27,4.3599,1,77,79
5,3,3,3,0.7496,1,7,8
6,18,21,16,2.1635,1,37,40
7,25,36,21,3.1804,1,57,65
8,3,6,1,0.1203,1,5,9
9,7,9,6,1.14,1,17,17
10,12,14,12,1.6361,1,27,30
11,8,13,8,0.8743,1,17,24
12,16,19,15,1.4554,1,36,36
13,38,66,36,4.2292,1,93,105
14,44,81,40,3.6012,1,114,154
15,15,16,15,0.6754,1,32,32
16,3,3,3,0.2253,1,7,8
17,65,135,40,21.9483,1,165,221
18,44,49,29,3.1875,1,89,94
19,40,52,32,1.6606,1,89,101
20,6,10,6,2.7209,1,16,16
21,4,5,4,0.3232,1,10,10
22,4,5,4,0.2056,1,10,11
23,11,13,11,1.0456,1,25,25
24,22,29,22,1.3002,1,52,59
25,11,11,11,0.4618,1,22,22
26,8,9,8,0.27,1,18,21
27,6,11,6,1.1688,1,16,19
28,18,29,18,1.9235,1,47,53
29,11,11,9,0.4531,1,23,25
30,1,1,1,0.129,1,3,3
31,33,36,33,1.755,1,68,71
32,16,16,10,0.5467,1,33,33
33,36,51,28,1.8079,1,83,107
34,3,2,3,0.118,1,6,6
35,19,24,15,0.5901,1,38,41
36,370,804,147,123.9708,1,886,1260
37,6,8,6,0.3836,1,13,13
38,3,3,3,0.163,1,7,8
39,28,66,27,7.1696,1,86,100
40,14,13,14,0.4286,1,28,28
41,13,26,7,2.88,1,36,43
42,7,8,7,0.3753,1,14,15
43,9,13,9,0.868,1,23,25
44,4,6,2,0.2281,1,11,11
45,19,23,18,0.8021,1,40,43
46,7,8,7,0.2913,1,14,15
47,7,8,7,0.2731,1,14,15
48,11,12,11,1.6673,1,22,23
49,2,2,2,0.1961,1,5,5
50,102,202,71,24.0455,1,261,410
51,101,185,87,26.8119,1,259,345
52,10,9,10,0.4981,1,20,20
53,29,59,17,4.6658,1,85,121
54,17,40,13,2.3988,1,56,59
55,46,66,38,3.1381,1,108,129
56,3,4,3,0.3461,1,8,8
57,55,77,47,3.4962,1,128,150
58,101,185,87,19.4906,1,259,345
59,24,38,23,2.5255,1,63,63
60,27,53,27,1.6985,1,73,75
61,14,34,14,3.3095,1,43,59
62,9,18,9,8.314,1,24,32
63,7,8,7,0.3007,1,14,15
64,62,100,43,4.7234,1,118,240
65,64,102,45,4.74,1,123,257
66,15,16,15,0.69,1,30,31
67,46,69,31,4.9275,1,114,116
68,2,2,2,0.1468,1,5,5
69,3,4,3,0.1211,1,6,7
70,32,31,32,1.3433,1,64,64
71,55,134,38,13.3445,1,168,190
72,132,230,120,21.3455,1,325,390
73,143,262,119,49.9867,1,388,484
74,124,238,107,36.875,1,347,441
75,22,50,11,2.0562,1,47,87
76,20,21,20,0.5072,1,40,41
77,6,5,6,0.2735,1,12,12
78,6,5,6,0.2411,1,12,12
79,8,11,6,0.1938,1,18,21
80,30,71,27,11.6432,1,97,139
81,16,15,16,0.8621,1,32,32
82,5,5,5,0.2139,1,11,11
83,1,1,1,0.251,1,3,3
84,18,27,9,0.9655,1,34,47
85,32,50,18,4.6508,1,83,92
86,13,22,9,0.7069,1,33,38
87,2,3,2,0.0809,1,3,4
88,19,30,8,0.9335,1,46,57
89,9,14,6,0.2502,1,21,26
90,26,42,21,5.321,1,74,97
91,68,95,62,22.8325,1,158,168
92,25,33,23,1.3579,1,49,61
93,10,11,10,0.8281,1,22,23
94,3,3,3,0.1606,1,7,8
95,4,5,4,0.178,1,10,11
96,4,6,4,0.2017,1,10,11
97,5,8,5,0.236,1,13,14
98,26,47,25,2.3198,1,73,75
99,6,11,5,0.6536,1,15,18
100,28,43,25,1.1664,1,63,84
101,8,13,8,0.2905,1,19,22
102,15,21,15,0.5325,1,35,41
103,33,44,17,2.501,1,62,74
104,33,43,18,0.8715,1,62,72
105,16,24,16,2.6609,1,39,42
106,40,59,24,3.6351,1,85,97
107,29,30,29,1.7569,1,57,59
108,61,85,45,7.7842,1,124,148
109,21,23,12,1.3511,1,43,54
110,27,44,25,3.9071,1,66,72
111,20,20,20,0.581,1,40,41
112,31,36,30,1.5533,1,66,70
113,43,46,43,2.6858,1,88,89
114,30,52,21,2.2843,1,76,98
115,13,20,10,1.5734,1,34,34
116,8,8,8,0.3572,1,17,17
117,13,30,5,0.8921,1,38,51
118,18,33,11,2.1394,1,49,51
119,9,22,3,0.1807,1,26,39
120,49,53,49,2.9862,1,101,102
121,5,5,5,0.234,1,11,12
122,6,7,6,4.7041,1,14,15
123,14,17,14,0.4492,1,30,31
124,10,9,10,0.3394,1,20,20
125,9,8,9,0.3078,1,18,18
126,7,9,6,0.4464,1,17,22
127,21,38,20,30.8461,1,60,60
128,4,5,4,0.6789,1,8,9
129,95,150,66,11.839,1,189,279
130,1,1,1,0.0521,1,1,1
131,13,16,9,0.2798,1,25,28
132,79,248,35,8.685,1,300,762
133,79,248,35,6.0316,1,300,759
134,6,9,5,0.5786,1,15,16
135,21,131,18,6.7022,1,102,162
136,3,5,2,0.2182,1,9,11
137,14,16,11,0.3927,1,29,31
138,13,18,12,1.6318,1,33,36
139,7,7,7,0.2356,1,15,15
140,2,3,2,0.103,1,3,4
141,65,69,65,17.1111,1,134,135
142,14,17,12,1.5627,1,30,33
143,14,18,14,1.5738,1,34,37
144,31,30,31,1.0835,1,62,62
145,7,9,7,0.7168,1,17,18
146,13,15,13,0.4669,1,28,30
147,28,39,24,1.3693,1,64,84
148,13,16,13,0.6722,1,31,34
149,19,32,19,0.6868,1,52,52
150,4,7,3,0.369,1,9,11
151,39,42,21,1.8158,1,80,88
152,28,30,19,1.8418,1,59,63
153,79,148,38,10.4456,1,174,231
154,74,74,74,15.8531,1,149,149
155,3,5,2,8.5836,1,5,7
156,25,69,17,2.9558,1,64,110
157,13,17,13,1.3768,1,30,37
158,23,32,21,2.8567,1,54,78
159,20,23,19,1.6492,1,44,48
160,10,16,8,0.6197,1,23,33
161,15,16,15,1.0026,1,32,32
162,77,108,45,19.6493,1,158,205
163,13,33,13,0.9134,1,26,47
164,13,12,13,0.6296,1,26,26
165,9,33,4,0.3363,1,28,44
166,747,986,298,713.5963,1,1484,2095
167,76,116,66,8.115,1,165,240
168,11,11,11,0.2684,1,22,22
169,2,2,2,0.1338,1,5,5
170,9,8,9,0.2964,1,18,18
171,9,8,9,0.3528,1,18,18
172,9,8,9,0.4993,1,18,18
173,6,5,6,0.2506,1,12,12
174,80,104,67,15.6309,1,180,198
175,4,7,4,0.4598,1,9,10
176,4,7,4,0.3655,1,9,10
177,10,12,9,0.2656,1,21,23
178,34,55,34,1.768,1,90,90
179,7,14,5,0.5155,1,19,28
180,279,489,243,82.5432,1,664,786
181,8,8,8,0.3339,1,17,17
182,12,17,9,0.6935,1,25,30
183,19,24,13,1.6748,1,38,40
184,48,59,32,4.4033,1,104,116
185,15,29,11,1.074,1,41,45
186,3,4,3,0.1282,1,8,8
187,14,13,14,0.4961,1,28,28
188,15,14,15,0.3742,1,30,30
189,14,13,14,0.3623,1,28,28
190,14,13,14,0.4219,1,28,28
191,44,59,43,10.9761,1,103,104
192,25,25,25,0.8005,1,51,51
193,18,19,18,0.6134,1,38,39
194,6,8,6,0.3406,1,13,15
195,4,10,4,0.51,1,14,15
196,8,8,8,0.2656,1,17,17
197,71,118,47,5.7438,1,153,190
198,2,3,2,0.105,1,5,6
199,4,5,4,0.2238,1,11,13
200,4,7,4,0.1871,1,9,10
201,11,15,11,0.4776,1,25,27
202,32,34,32,1.2477,1,67,67
203,13,16,13,0.3967,1,31,34
204,10,11,10,0.2865,1,22,24
205,8,8,8,0.1859,1,17,17
206,95,194,81,41.3655,1,213,1053
207,3,6,1,0.116,1,5,9
208,9,38,1,0.2103,1,20,49
209,70,80,31,5.5378,1,149,153
210,138,186,35,21.58,1,276,334
211,23,26,14,1.1036,1,50,52
212,44,52,19,2.4015,1,97,103
213,17,34,8,0.4034,1,38,63
214,16,19,10,0.5131,1,36,39
215,26,42,24,1.6973,1,63,69
216,4,6,3,0.1661,1,8,10
217,36,74,18,2.1734,1,89,121
218,3,4,2,0.2435,1,8,9
219,19,30,18,1.7877,1,49,49
220,6,10,4,0.208,1,13,16
221,49,110,34,11.2023,1,154,160
222,12,15,11,0.4188,1,25,28
223,18,21,15,0.5913,1,39,41
224,52,69,36,2.8133,1,118,132
225,94,124,73,8.0353,1,196,219
226,36,51,24,1.6436,1,85,88
227,18,30,18,0.8032,1,42,59
228,6,7,6,0.2692,1,14,15
229,25,34,21,1.2067,1,57,64
230,5,8,4,0.3955,1,14,15
231,5,14,4,0.3339,1,17,20
232,3,5,3,0.1275,1,6,8
233,23,25,23,0.7136,1,49,49
234,15,17,15,0.7665,1,33,34
235,18,36,15,0.9221,1,43,55
236,13,26,7,0.3536,1,36,43
237,96,121,93,17.3425,1,210,219
238,20,26,17,0.6343,1,44,47
239,12,23,9,0.5384,1,24,39
240,79,101,52,6.0178,1,175,205
241,31,30,19,0.9927,1,58,66
242,9,10,9,0.4247,1,20,22
243,100,187,51,47.1741,1,288,288
244,215,401,87,367.6091,1,616,617
245,27,50,27,24.5082,1,78,78
246,8,11,8,0.6864,1,18,19
247,86,115,71,13.5549,1,183,201
248,3,4,3,0.2147,1,6,7
249,17,18,17,0.4717,1,34,35
250,20,26,18,0.6848,1,45,47
251,3,2,3,0.1827,1,6,6
252,24,39,24,26.7377,1,64,64
253,65,102,62,14.9515,1,162,187
254,5,5,5,0.3572,1,11,12
255,4,3,4,0.1488,1,8,8
256,37,61,23,1.9038,1,79,99
257,11,12,9,0.2802,1,23,24
258,9,8,9,0.3773,1,18,18
259,15,26,11,2.4367,1,39,42
260,10,11,10,0.4263,1,20,21
261,5,10,3,0.268,1,10,13
262,5,10,4,0.2139,1,12,16
263,43,52,43,6.0639,1,95,105
264,15,16,15,0.9347,1,32,32
265,10,9,10,0.2684,1,20,20
266,19,27,19,1.4498,1,45,49
267,13,16,11,0.8048,1,30,30
268,7,6,7,10.8166,1,14,14
269,7,8,7,0.2668,1,14,15
270,11,17,10,0.7527,1,25,29
271,56,94,34,23.2971,1,126,164
272,28,31,28,2.5038,1,60,60
273,11,19,7,0.9607,1,30,34
274,205,3036,136,204.3462,1,598,4641
275,39,41,18,1.68,1,78,81
276,13,18,12,0.8293,1,30,32
277,29,45,26,3.0912,1,71,83
278,7,18,2,0.1136,1,7,18
279,44,45,44,2.2215,1,88,89
280,10,11,10,0.6007,1,22,24
281,10,15,10,0.658,1,23,25
282,6,12,4,0.4042,1,18,22
283,22,28,13,0.909,1,50,51
284,20,22,20,1.1364,1,43,43
285,20,22,20,0.6935,1,43,43
286,11,13,11,0.5009,1,23,23
287,2,2,2,0.0718,1,5,5
288,14,16,14,0.6734,1,31,31
289,5,9,4,0.1634,1,10,14
290,30,31,30,2.0305,1,60,61
291,9,20,6,0.4843,1,17,40
292,17,36,13,4.541,1,54,56
293,12,11,12,0.5861,1,24,24
294,3,4,3,0.3647,1,8,9
295,33,54,29,3.9237,1,80,90
296,21,45,13,2.4098,1,57,78
297,2,3,2,0.0817,1,3,4
298,11,11,11,0.3639,1,22,23
299,7,9,6,0.6943,1,15,16
300,7,8,7,0.3513,1,16,18
301,60,134,40,12.2266,1,182,223
302,15,19,11,0.8376,1,29,33
303,15,25,10,1.0752,1,35,39
304,59,257,36,11.7091,1,277,630
305,29,41,25,2.034,1,66,72
306,24,38,20,0.9304,1,47,66
307,29,61,25,3.9604,1,78,92
308,43,156,40,8.3503,1,126,247
309,16,22,16,1.4605,1,38,39
310,5,9,2,0.4413,1,14,15
311,38,70,35,7.0129,1,102,108
312,4,6,2,0.2593,1,11,13
313,29,32,20,1.0105,1,60,62
314,45,46,45,2.1446,1,90,91
315,20,33,20,1.4739,1,51,54
316,24,26,23,0.7938,1,50,51
317,19,20,19,0.9529,1,38,39
318,21,22,21,0.6671,1,42,43
319,16,29,15,2.0281,1,37,41
320,3,5,2,0.2273,1,7,8
321,19,27,17,0.9943,1,43,49
322,393,736,116,285.8497,1,1113,1214
323,7,15,7,0.45,1,21,25
324,5,6,5,0.1606,1,10,11
325,15,14,15,0.4203,1,30,30
326,16,26,13,1.3804,1,43,43
327,43,56,37,2.6798,1,97,100
328,45,55,40,2.7312,1,96,98
329,43,70,34,2.7608,1,94,154
330,10,20,8,1.8027,1,30,31
331,30,40,20,2.6518,1,60,64
332,52,84,48,3.9351,1,123,163
333,16,20,13,0.5119,1,31,33
334,2,3,2,0.1286,1,3,4
335,2,3,2,0.0923,1,5,6
336,9,15,8,0.444,1,22,25
337,13,29,5,0.3576,1,35,50
338,35,120,23,3.9477,1,120,162
339,16,16,16,0.4748,1,33,33
340,15,34,15,1.8904,1,50,59
341,11,19,7,0.8159,1,29,31
342,80,114,52,16.6098,1,175,195
343,57,195,21,4.7491,1,227,419
344,18,27,14,0.7192,1,43,46
345,25,34,25,1.0677,1,58,59
346,10,24,9,0.8254,1,33,40
347,18,21,7,0.9785,1,39,43
348,14,18,10,0.5759,1,33,33
349,21,34,21,1.215,1,56,70
350,40,51,26,1.9006,1,80,84
351,16,22,13,0.4815,1,33,41
352,10,17,9,0.3398,1,21,29
353,3,2,3,0.1302,1,6,6
354,8,8,8,0.264,1,17,17
355,89,172,68,19.6608,1,208,282
356,5,6,5,0.2384,1,10,11
357,18,30,15,0.5305,1,37,54
358,11,11,11,0.4239,1,23,23
359,9,11,9,0.4211,1,20,21
360,27,57,27,2.3692,1,79,84
361,64,141,64,9.1062,1,205,220
362,16,21,12,0.3611,1,31,37
363,20,27,15,0.7788,1,45,49
364,23,36,10,0.748,1,54,66
365,52,78,41,7.9583,1,113,175
366,101,100,56,9.3648,1,194,206
367,27,31,27,1.0046,1,59,59
368,14,14,14,0.4101,1,28,28
369,16,28,16,1.0298,1,35,45
370,10,21,7,0.6319,1,27,47
371,28,48,22,2.2981,1,72,77
372,54,65,52,3.1089,1,117,120
373,4,3,4,0.1673,1,8,8
374,11,11,11,0.3173,1,23,23
375,19,18,19,0.761,1,38,38
376,9,10,9,0.2672,1,20,20
377,8,11,4,0.6359,1,16,18
378,32,33,32,1.3267,1,64,65
379,18,32,15,0.93,1,50,55
380,45,44,45,1.8536,1,90,90
381,30,33,27,1.0736,1,60,64
382,31,30,31,2.713,1,62,62
383,49,65,39,3.4093,1,109,116
384,18,19,18,0.5759,1,36,37
385,34,34,32,1.8165,1,68,69
386,5,8,5,0.4006,1,14,16
387,13,14,13,0.4061,1,26,27
388,28,72,26,3.54,1,94,106
389,11,10,11,0.2747,1,22,22
390,9,10,9,0.4121,1,18,19
391,9,10,9,0.2171,1,18,19
392,2,3,2,0.0975,1,3,4
393,3,5,3,0.1061,1,5,6
394,24,26,16,0.8557,1,49,51
395,46,80,36,3.3923,1,110,134
396,7,14,4,0.5475,1,21,24
397,9,13,7,0.4543,1,23,26
398,8,12,6,0.2719,1,21,21
399,19,29,18,0.7006,1,46,56
400,14,26,13,0.5344,1,38,41
401,7,9,7,0.4397,1,15,17
402,28,29,28,1.0263,1,56,57
403,5,6,5,0.1748,1,10,11
404,11,46,11,0.2344,1,12,48
405,12,17,7,0.7247,1,21,25
406,18,25,18,0.6023,1,44,44
407,13,19,8,0.6043,1,33,38
408,21,47,17,4.7897,1,64,73
409,6,5,6,0.2419,1,12,12
410,13,22,12,1.7601,1,34,40
411,6,8,6,0.3461,1,13,14
412,113,132,36,24.1036,1,236,259
413,5,5,5,0.2194,1,11,11
414,7,9,7,0.4969,1,15,16
415,558,2116,31,426.4968,1,1790,3209
416,7,8,7,0.3185,1,16,18
417,17,23,13,2.0131,1,39,45
418,7,8,7,0.4823,1,16,18
419,6,9,5,0.2396,1,12,14
420,9,10,9,0.5984,1,18,19
421,19,18,19,1.0586,1,38,38
422,16,39,13,2.6648,1,48,56
423,20,44,14,2.4821,1,63,66
424,16,32,12,0.7326,1,49,50
425,9,14,8,0.358,1,20,22
426,9,14,8,0.4353,1,20,22
427,5,7,5,0.4263,1,11,12
428,54,120,52,5.0795,1,166,177
429,18,25,14,0.6584,1,41,44
430,13,24,9,1.3571,1,40,47
431,61,86,56,5.8717,1,132,148
432,36,46,17,3.2897,1,75,81
433,42,61,42,6.2163,1,97,113
434,41,62,39,8.5824,1,97,125
435,7,9,7,0.4657,1,17,17
436,19,28,9,0.6284,1,37,46
437,302,769,174,108.0608,1,716,1024
438,7,10,7,0.5806,1,16,17
439,4,6,4,0.2088,1,9,10
440,31,55,22,4.301,1,77,89
441,49,50,25,2.4031,1,98,100
442,6,13,5,0.6347,1,18,27
443,12,13,12,0.3106,1,24,25
444,6,9,4,0.1768,1,14,16
445,22,24,22,3.1291,1,43,46
446,17,47,12,2.7466,1,58,73
447,7,9,7,0.3446,1,16,22
448,99,249,43,13.4405,1,299,484
449,15,20,14,0.8463,1,35,39
450,4,7,3,0.5178,1,12,12
451,15,31,13,2.2022,1,42,47
452,17,28,12,3.7255,1,45,47
453,8,10,6,0.6142,1,19,20
454,2,3,2,0.0975,1,3,4
455,104,167,84,16.313,1,223,348
456,4,7,3,0.1247,1,7,9
457,6,5,6,0.2771,1,12,12
458,17,37,15,1.8536,1,47,55
459,11,28,10,2.5073,1,39,44
460,16,25,12,0.4803,1,42,42
461,20,27,18,1.1242,1,44,49
462,22,28,13,5.2318,1,46,53
463,128,145,56,16.5889,1,259,293
464,11,16,10,0.4342,1,26,28
465,4,9,1,0.1251,1,8,15
466,13,37,7,0.669,1,37,60
467,12,20,8,0.3532,1,23,36
468,17,34,11,1.6373,1,47,57
469,11,14,10,0.3465,1,23,25
470,34,36,34,2.9017,1,69,70
471,17,22,14,1.1984,1,36,40
472,20,36,20,4.1676,1,56,61
473,24,25,24,1.1881,1,50,50
474,2,3,2,0.0521,1,3,4
475,5,7,5,0.6765,1,12,13
476,44,125,35,9.3794,1,174,189
477,11,10,11,0.6876,1,22,22
478,27,30,27,2.4912,1,56,57
479,4,7,4,0.2518,1,10,15
480,4,6,3,0.2257,1,10,11
481,5,7,5,0.2206,1,10,11
482,6,12,6,0.5281,1,19,28
483,2,2,2,0.1464,1,4,4
484,18,27,15,0.6177,1,39,49
485,13,14,13,4.4084,1,28,28
486,11,16,9,1.5023,1,26,30
487,14,35,7,2.2133,1,43,60
488,20,84,20,7.2055,1,77,105
489,47,70,47,7.0184,1,116,118
490,101,139,78,20.3875,1,202,254
491,36,51,28,3.2139,1,83,107
492,14,23,13,0.7835,1,34,40
493,12,15,12,0.7523,1,28,29
494,14,19,9,1.1569,1,33,37
495,31,39,15,1.8619,1,67,75
496,22,29,22,0.9623,1,52,53
497,7,9,6,0.3588,1,14,16
498,6,9,4,0.1882,1,16,16
499,16,18,16,0.3982,1,33,35
500,6,10,5,0.6481,1,16,17
501,70,127,53,8.8804,1,189,203
502,22,29,22,1.5833,1,52,53
503,53,54,53,10.7302,1,106,107
504,63,92,36,10.3311,1,146,157
505,20,27,18,0.75,1,47,48
506,501,718,315,407.8568,1,1137,1288
507,15,16,15,0.4677,1,32,33
508,8,10,8,0.3477,1,17,18
509,76,139,75,7.0366,1,215,217
510,21,38,18,3.2795,1,60,60
511,22,40,21,2.7572,1,62,63
512,13,20,13,0.5707,1,29,38
513,13,22,6,6.5838,1,32,44
514,25,26,25,1.376,1,50,51
515,13,20,12,0.39,1,26,33
516,97,132,51,10.0315,1,218,243
517,7,8,7,0.2877,1,14,15
518,4,5,4,0.1638,1,8,9
519,5,4,5,0.1614,1,10,10
520,3,4,2,0.1796,1,8,9
521,3,5,3,0.3078,1,9,11
522,20,28,19,1.2607,1,41,53
523,16,34,11,1.4968,1,46,57
524,5,4,5,0.294,1,10,10
525,10,15,8,1.0215,1,22,25
526,24,50,20,2.5472,1,72,92
527,4,5,4,0.4215,1,10,10
528,39,52,36,3.8554,1,89,103
529,89,90,89,14.8031,1,178,179
530,21,23,13,5.9874,1,43,45
531,12,14,12,1.258,1,27,27
532,32,67,28,10.0544,1,95,104
533,7,10,7,0.489,1,16,18
534,12,22,7,2.8772,1,29,39
535,81,82,81,10.3406,1,162,163
536,23,32,14,1.3018,1,49,57
537,17,40,17,3.3481,1,50,63
538,103,143,52,21.3735,1,228,290
539,13,36,11,1.7897,1,41,50
540,3,5,2,0.1215,1,5,7
541,5,8,3,0.1563,1,14,14
542,30,81,22,6.3908,1,100,115
543,17,27,12,4.1806,1,43,45
544,44,70,24,2.7122,1,115,119
545,25,39,18,1.0729,1,61,66
546,14,35,13,1.8525,1,48,50
547,21,59,12,5.5085,1,82,113
548,6,10,3,0.6075,1,17,17
549,19,32,15,2.0376,1,48,58
550,75,76,75,5.8966,1,150,151
551,45,46,45,2.1248,1,90,91
552,11,13,6,1.5213,1,25,25
553,576,1102,109,552.9091,1,1207,1679
554,223,1964,28,33.1253,1,636,2357
555,13,16,8,1.0811,1,30,30
556,6,9,6,0.1736,1,14,20
557,18,21,14,0.8613,1,38,46
558,17,22,14,0.7314,1,37,48
559,18,23,9,0.4559,1,38,51
560,27,35,24,1.2757,1,57,69
561,14,17,14,0.4223,1,30,32
562,46,70,36,3.6631,1,105,118
563,20,23,18,0.778,1,42,44
564,11,10,11,0.2893,1,22,22
565,19,26,19,0.7172,1,46,47
566,21,57,4,1.5833,1,79,79
567,7,9,7,0.369,1,15,16
568,7,8,7,0.2782,1,16,17
569,99,181,55,16.6003,1,264,309
570,5,10,5,0.4093,1,11,15
571,8,8,6,0.2561,1,17,18
572,6,6,6,0.2135,1,12,13
573,4,6,2,0.3114,1,11,11
574,13,29,5,1.6081,1,43,43
575,10,24,4,0.6639,1,20,37
576,70,84,25,4.515,1,149,155
577,3,4,3,0.1432,1,7,8
578,74,97,48,4.3839,1,142,187
579,4,4,4,0.1567,1,9,9
580,16,20,16,0.4926,1,35,37
581,57,76,45,3.9505,1,126,137
582,16,21,13,1.5856,1,38,38
583,88,105,53,9.004,1,186,198
584,68,128,53,8.9704,1,177,198
585,22,61,11,2.1568,1,69,85
586,67,198,57,12.5448,1,257,351
587,5,9,5,0.2782,1,12,16
588,36,67,21,4.7289,1,99,110
589,13,30,11,0.6382,1,35,45
590,4,6,3,0.2403,1,11,12
591,12,24,7,6.2621,1,35,44
592,11,12,11,0.2384,1,22,23
593,39,78,25,2.3285,1,103,150
594,220,276,61,38.1535,1,421,496
595,29,68,9,0.7551,1,69,112
596,5,7,4,0.3489,1,13,13
597,20,30,20,1.3196,1,51,53
598,15,28,11,0.9517,1,37,44
599,12,34,3,0.2585,1,36,58
600,13,25,7,0.6343,1,26,49
601,8,7,8,0.2084,1,16,16
602,5,5,5,0.135,1,11,11
603,12,13,12,0.3327,1,26,26
604,2,1,2,0.0975,1,4,4
605,8,18,4,0.6007,1,23,37
606,32,41,31,1.5627,1,71,79
607,12,37,9,0.7346,1,38,50
608,24,32,24,1.0215,1,55,57
609,28,58,15,1.9413,1,82,97
610,15,30,9,0.4677,1,44,48
611,103,166,64,34.4126,1,232,430
612,107,173,65,58.0461,1,241,450
613,16,51,14,2.7402,1,56,67
614,9,10,9,0.2478,1,18,19
615,6,15,3,1.7423,1,20,25
616,9,11,9,0.6213,1,19,20
617,7,9,7,0.3947,1,15,16
618,16,19,16,1.1419,1,34,35
619,9,13,9,0.988,1,21,22
620,9,11,9,0.2257,1,19,20
621,9,13,9,0.5664,1,22,23
622,8,12,8,0.9375,1,20,21
623,14,16,14,0.435,1,31,31
624,65,64,65,4.0851,1,130,130
625,6,6,6,0.2123,1,13,14
626,11,11,11,0.2727,1,23,23
627,19,29,13,0.6935,1,36,52
628,11,18,10,0.474,1,28,31
629,11,21,9,0.3714,1,29,34
630,15,14,15,0.8913,1,30,30
631,13,20,12,0.4768,1,33,34
632,71,113,35,20.3066,1,151,195
633,8,14,7,0.4855,1,21,23
634,10,9,7,1.3575,1,20,20
635,23,31,23,1.8375,1,47,60
636,19,24,19,1.226,1,39,46
637,26,35,25,3.2163,1,61,62
638,4,6,2,0.1792,1,11,11
639,13,16,12,0.5451,1,27,34
640,15,17,15,0.6773,1,31,34
641,153,200,79,53.8188,1,339,370
642,65,87,55,7.0026,1,141,167
643,194,472,140,89.5147,1,522,952
644,21,24,20,1.1411,1,46,46
645,5,9,4,0.2842,1,11,14
646,22,22,21,1.419,1,44,45
647,18,23,18,6.8996,1,42,44
648,11,14,11,1.0302,1,26,29
649,9,10,8,0.4993,1,19,20
650,12,14,12,0.731,1,27,27
651,9,26,6,1.8126,1,29,41
652,14,25,9,0.7247,1,30,41
653,8,9,8,0.4326,1,18,20
654,19,21,16,1.3642,1,40,41
655,8,7,8,0.2996,1,16,16
656,9,11,9,0.5964,1,21,23
657,12,28,11,0.6039,1,34,41
658,9,11,9,0.823,1,20,23
659,21,44,17,3.0998,1,66,66
660,12,16,10,2.3155,1,29,30
661,10,10,10,0.386,1,20,20
662,16,21,16,0.5703,1,32,38
663,8,12,8,1.1676,1,21,23
664,19,20,15,1.4064,1,40,40
665,9,9,9,0.4278,1,19,19
666,2,3,2,0.0726,1,3,4
667,18,22,17,1.8375,1,38,40
668,68,95,47,8.5615,1,152,182
669,14,27,9,0.596,1,36,43
670,6,7,6,0.4042,1,13,14
671,37,110,10,1.2552,1,97,176
672,3,5,2,0.0848,1,5,7
673,11,70,1,0.4788,1,34,82
674,11,17,11,1.4155,1,27,30
675,7,9,7,0.1689,1,14,16
676,29,75,8,2.5018,1,95,109
677,13,25,6,0.7504,1,36,42
678,13,16,13,1.0117,1,30,30
679,8,9,8,0.3501,1,16,17
680,15,20,14,1.5856,1,36,39
681,33,38,26,1.6231,1,67,72
682,2,3,2,0.0998,1,3,4
683,35,35,35,1.419,1,71,71
684,72,75,22,11.8339,1,147,148
685,35,47,33,3.0138,1,79,85
686,116,117,116,15.9364,1,232,233
687,1,1,1,0.0552,1,1,1
688,8,9,8,0.3165,1,16,17
689,59,60,59,3.5001,1,118,119
690,20,26,19,0.8297,1,43,48
691,17,29,16,0.8577,1,45,47
692,15,16,15,0.5901,1,32,32
693,4,6,4,0.3272,1,9,10
694,4,8,3,0.3536,1,11,13
695,6,11,5,0.3793,1,16,18
696,9,13,9,0.5407,1,21,22
697,7,12,7,0.3785,1,18,19
698,2,2,2,0.118,1,5,5
699,307,581,66,98.158,1,648,938
700,324,623,78,113.1301,1,691,982
701,11,10,11,0.3828,1,22,22
702,22,23,22,0.7784,1,44,45
703,15,17,15,0.418,1,33,33
704,15,19,11,0.3927,1,34,35
705,3,5,3,0.1488,1,8,10
706,7,14,6,0.2009,1,17,22
707,72,118,62,14.7909,1,173,333
708,45,73,32,2.3767,1,93,133
709,27,43,25,1.4411,1,71,73
710,3,6,1,0.1357,1,5,9
711,15,38,4,0.5368,1,41,74
712,23,35,16,0.8668,1,49,57
713,23,30,21,0.7981,1,52,53
714,9,8,9,0.3307,1,18,18
715,26,34,24,1.5789,1,60,64
716,11,16,9,0.5782,1,28,30
717,33,58,27,2.2772,1,86,92
718,92,110,71,25.7449,1,192,205
719,92,110,56,7.8999,1,195,214
720,6,7,6,0.1661,1,14,14
721,23,24,23,0.7294,1,46,47
722,14,16,14,0.39,1,31,31
723,31,51,24,1.6484,1,63,102
724,4,6,4,0.1863,1,8,9
725,42,45,34,2.3131,1,84,88
726,19,27,16,0.7902,1,46,53
727,31,48,22,1.7984,1,69,96
728,48,52,36,2.3183,1,99,101
729,53,55,17,2.4221,1,106,109
730,9,17,5,0.2573,1,25,31
731,2,3,2,0.09,1,3,4
732,3,6,1,0.073,1,5,9
733,3,3,3,0.1227,1,7,8
734,46,118,12,7.2719,1,145,209
735,224,362,218,53.4943,1,523,590
736,21,21,21,0.7073,1,43,43
737,10,17,10,0.5127,1,26,31
738,9,10,8,0.2632,1,20,24
739,5,6,5,0.2151,1,12,14
740,25,61,15,2.3869,1,83,155
741,177,256,102,37.4655,1,385,509
742,5,8,3,0.5293,1,14,14
743,16,37,15,1.4743,1,52,65
744,12,13,11,0.45,1,26,26
745,130,195,130,32.6007,1,324,326
746,7,10,6,0.5601,1,18,20
747,13,22,12,1.3172,1,36,40
748,12,21,11,0.4302,1,32,34
749,17,30,14,1.1021,1,39,46
750,6,9,5,0.3678,1,13,15
751,16,17,16,0.5988,1,34,36
752,18,26,18,0.7622,1,45,45
753,19,23,16,0.6292,1,41,43
754,16,25,16,1.0468,1,38,47
755,19,33,19,1.5971,1,53,55
756,7,15,6,1.1009,1,22,31
757,54,81,44,5.3155,1,132,151
758,29,39,29,1.5398,1,60,72
759,56,78,28,4.9962,1,107,147
760,81,118,39,13.2119,1,153,242
761,17,35,9,0.6367,1,42,53
762,508,923,307,566.5233,1,1327,1696
763,51,87,45,7.0022,1,123,178
764,6,8,6,0.2486,1,15,17
765,87,101,85,11.9029,1,185,195
766,25,32,22,3.4516,1,58,61
767,18,18,18,1.1502,1,36,36
768,4,5,4,0.2048,1,9,11
769,9,12,9,0.6789,1,22,22
770,16,31,11,7.4365,1,32,49
771,11,14,11,0.4997,1,26,26
772,22,56,13,0.9272,1,56,97
773,13,22,12,0.8561,1,34,36
774,20,30,19,1.8402,1,46,49
775,2,2,2,0.1578,1,5,5
776,55,74,41,6.2443,1,120,130
777,13,16,13,0.6817,1,30,31
778,14,26,7,0.4223,1,39,43
779,12,22,5,0.4559,1,27,36
780,22,25,18,0.7776,1,43,54
781,35,50,28,1.3065,1,74,90
782,39,70,29,5.4864,1,100,123
783,29,37,29,2.4284,1,65,66
784,13,30,11,2.3471,1,38,46
785,8,19,6,0.4863,1,22,28
786,53,149,33,14.3669,1,175,211
787,53,149,33,4.9405,1,175,211
788,23,31,22,2.1205,1,52,56
789,18,23,13,0.5826,1,37,38
790,6,7,6,1.2951,1,14,14
791,15,18,14,0.448,1,34,34
792,11,18,8,0.6106,1,25,33
793,12,18,12,0.5731,1,26,30
794,6,8,6,0.3536,1,15,15
795,11,12,11,0.5696,1,24,26
796,28,55,23,3.1926,1,76,82
797,33,57,21,2.0139,1,72,94
798,9,17,6,0.3761,1,21,26
799,288,465,191,128.388,1,624,772
800,546,2608,289,710.4613,1,3151,5191
801,5,8,4,0.1527,1,11,14
802,25,32,21,1.5126,1,53,56
803,46,72,13,2.2251,1,101,114
804,7,8,7,0.2301,1,16,18
805,6,7,6,0.5115,1,14,14
806,72,120,64,9.257,1,171,207
807,1501,1500,1501,1238.1265,1,1502,1502
808,38,50,34,3.4291,1,81,91
809,11,10,11,0.735,1,22,22
810,22,28,20,4.213,1,49,52
811,15,22,11,0.5064,1,30,37
812,9,11,9,1.2422,1,21,21
813,42,47,33,3.3655,1,79,84
814,10,18,2,0.1721,1,18,26
815,13,23,13,0.5561,1,32,37
816,19,19,19,0.9848,1,39,39
817,6,8,6,0.4736,1,15,15
818,10,11,10,0.4211,1,22,22
819,9,8,9,0.3446,1,18,18
820,9,8,9,0.3335,1,18,18
821,18,17,18,0.9169,1,36,36
822,10,19,2,0.5198,1,20,33
823,2,2,2,0.105,1,5,5
824,1,1,1,0.0836,1,3,3
825,29,41,27,2.91,1,71,73
826,8,11,7,0.4282,1,20,24
827,8,8,8,0.3702,1,16,17
828,3,5,2,0.1235,1,5,7
829,4,7,4,0.2107,1,9,11
830,4,7,4,0.1551,1,8,10
831,74,99,61,9.947,1,163,184
832,14,14,14,0.834,1,29,30
833,22,32,22,3.0008,1,48,64
834,307,306,113,142.612,1,598,614
835,19,19,19,0.8581,1,38,39
836,15,14,15,0.4239,1,30,30
837,41,42,19,1.7419,1,82,84
838,53,55,21,6.9659,1,106,109
839,26,26,16,0.7879,1,52,53
840,32,32,20,1.044,1,64,65
841,17,16,17,0.4788,1,34,34
842,134,141,47,30.8157,1,268,276
843,8,11,6,0.3903,1,19,22
844,63,68,59,3.8889,1,125,131
845,8,9,8,0.264,1,16,17
846,18,23,18,0.5198,1,37,44
847,74,116,54,5.3625,1,156,248
848,56,79,50,10.4337,1,126,155
849,38,41,11,2.9187,1,75,86
850,2,3,2,0.1168,1,5,6
851,2,3,2,0.1117,1,5,6
852,385,1323,298,453.8685,1,1318,1909
853,3,5,2,0.1705,1,9,9
854,577,1105,336,567.4044,1,1446,1710
855,25,279,25,3.7934,1,74,305
856,39,40,35,1.5118,1,77,81
857,55,78,53,7.7065,1,129,134
858,19,35,11,0.4938,1,45,61
859,13,13,13,0.6442,1,27,27
860,35,60,32,3.011,1,74,108
861,12,20,11,0.3667,1,32,33
862,30,45,21,2.6214,1,69,70
863,17,21,17,0.8017,1,37,40
864,5,9,3,0.1061,1,11,15
865,81,96,65,8.9629,1,170,178
866,11,13,10,0.5585,1,25,28
867,13,19,13,0.3706,1,26,32
868,9,26,7,0.9327,1,34,50
869,46,59,41,2.1473,1,97,108
870,178,267,93,26.1625,1,327,445
871,28,55,18,1.4897,1,70,104
872,21,38,19,2.2831,1,60,60
873,46,65,38,3.0094,1,101,120
874,37,45,24,1.3748,1,72,82
875,28,30,16,0.8317,1,55,56
876,9,11,9,0.3971,1,21,24
877,2,2,2,0.1357,1,5,5
878,13,20,11,0.5684,1,32,34
879,4,4,4,0.1235,1,8,8
880,842,4387,555,1282.7901,1,2477,6970
881,5,7,5,0.2881,1,13,13
882,2,2,2,0.178,1,4,5
883,6,9,3,0.1618,1,11,14
884,39,66,38,2.2251,1,98,112
885,10,14,9,0.4642,1,24,28
886,10,30,10,1.7538,1,33,41
887,45,51,44,3.4389,1,94,99
888,22,26,22,1.0563,1,47,49
889,19,30,19,2.6139,1,49,55
890,8,11,7,0.5644,1,17,20
891,34,50,30,1.9962,1,73,109
892,5,8,4,0.1559,1,11,13
893,75,99,48,11.6693,1,142,151
894,36,66,25,3.1279,1,85,112
895,4,6,3,0.1638,1,8,10
896,9,10,9,0.2573,1,20,20
897,12,15,11,0.3611,1,26,28
898,6,7,6,0.2723,1,12,13
899,11,21,7,0.2948,1,19,34
900,16,32,10,1.2659,1,40,67
901,13,23,7,0.4247,1,28,39
902,12,22,11,0.3911,1,33,35
903,64,140,44,15.6759,1,192,233
904,14,13,14,0.808,1,28,28
905,10,26,6,0.7669,1,24,36
906,17,21,17,0.5861,1,39,42
907,25,31,25,0.8842,1,56,57
908,18,22,18,0.9919,1,41,41
909,7,16,3,0.1492,1,15,27
910,55,71,53,3.8787,1,120,127
911,17,19,17,0.7069,1,37,37
912,33,43,33,4.6089,1,74,78
913,10,21,9,0.4006,1,32,32
914,65,98,52,19.5656,1,157,189
915,76,106,41,12.0849,1,176,183
916,2,2,2,0.101,1,5,5
917,3,4,3,0.2396,1,6,7
918,201,4009,192,240.3374,1,665,7884
919,72,132,30,7.2304,1,166,201
920,22,36,18,2.6206,1,56,61
921,52,79,46,8.7699,1,117,142
922,30,40,30,4.4214,1,68,70
923,2,3,2,0.0978,1,3,4
924,11,14,10,0.615,1,24,25
925,27,41,27,2.2847,1,61,70
926,15,16,15,0.523,1,31,32
927,17,17,14,0.9832,1,34,35
928,5,7,5,0.2498,1,13,13
929,1,1,1,0.1338,1,3,3
930,11,21,11,1.3346,1,33,33
931,8,15,8,0.2621,1,24,24
932,11,33,10,3.4745,1,37,46
933,10,12,8,0.6363,1,21,23
934,6,8,6,0.326,1,15,16
935,20,35,16,7.2553,1,53,62
936,7,8,7,0.2096,1,16,17
937,12,44,10,0.6035,1,40,57
938,10,26,8,0.8025,1,28,37
939,9,11,9,0.2332,1,18,19
940,26,51,21,1.4763,1,70,81
941,48,56,30,2.7469,1,93,104
942,11,14,10,2.1165,1,23,25
943,19,28,14,0.5688,1,37,47
944,30,50,26,6.0778,1,79,81
945,5,10,5,0.6035,1,14,17
946,20,54,18,15.6565,1,69,109
947,36,166,35,23.4108,1,188,256
948,36,131,24,34.6901,1,165,176
949,20,71,13,2.3506,1,65,109
950,10,9,10,0.3126,1,20,20
951,12,13,12,0.7397,1,26,26
952,10,12,10,0.4559,1,20,21
953,6,7,6,0.3714,1,14,14
954,20,29,15,1.2086,1,46,53
955,52,75,34,3.872,1,108,152
956,59,96,51,5.1545,1,144,159
957,28,61,24,4.1952,1,73,101
958,17,18,17,0.9398,1,36,36
959,21,33,17,1.7897,1,44,53
960,28,35,16,1.9243,1,59,73
961,37,66,37,4.6614,1,102,111
962,19,22,19,1.1155,1,40,41
963,6,7,6,0.2325,1,12,14
964,11,16,10,0.8111,1,29,31
965,36,59,33,3.7377,1,96,99
966,19,37,14,0.8214,1,50,58
967,5,6,5,0.225,1,10,11
968,13,21,12,0.6453,1,30,40
969,4,5,4,0.1871,1,10,10
970,10,11,10,0.4732,1,21,24
971,36,51,28,1.8379,1,84,108
972,1,1,1,0.1184,1,3,3
973,26,31,24,0.945,1,58,58
974,6,16,5,0.2727,1,16,23
975,12,25,6,1.0677,1,37,40
976,24,36,24,3.3245,1,61,61
977,13,33,6,0.9588,1,37,55
978,71,125,61,14.1269,1,181,221
979,28,39,25,2.0214,1,62,72
980,13,17,13,0.4077,1,27,29
981,14,28,12,0.8771,1,39,46
982,14,26,10,0.4263,1,29,41
983,10,11,10,0.7026,1,22,22
984,13,15,13,0.5107,1,27,29
985,70,129,37,6.1204,1,158,196
986,11,22,9,0.6694,1,34,35
987,37,42,34,1.4956,1,73,79
988,34,34,32,1.4084,1,68,69
989,15,34,9,1.479,1,39,68
990,35,58,14,1.2007,1,80,103
991,547,1106,275,484.9728,1,1639,2189
992,47,46,25,18.1288,1,94,94
993,23,47,15,1.3997,1,66,71
994,4,6,2,0.1306,1,11,11
995,21,28,18,0.6517,1,47,52
996,17,19,14,0.4977,1,36,38
997,208,554,46,59.177,1,610,1276
998,7,11,6,0.1776,1,16,19
999,9,13,9,0.311,1,22,22
1000,8,31,6,0.9375,1,31,40
1001,28,44,12,0.9434,1,63,73
1002,19,23,19,1.2311,1,43,43
1003,21,42,21,2.1987,1,62,84
1004,14,19,13,0.5881,1,34,34
1005,18,22,18,0.9256,1,38,40
1006,11,14,8,0.4788,1,25,27
1007,306,586,68,108.8483,1,651,909
1008,6,11,5,0.2569,1,19,21
1009,13,24,11,1.2852,1,37,45
1010,150,185,148,25.1437,1,333,342
1011,10,10,10,0.251,1,21,21
1012,127,250,127,18.2918,1,377,500
1013,6,8,6,0.3773,1,15,16
1014,21,46,11,0.7725,1,56,82
1015,23,62,19,2.9431,1,79,86
1016,15,15,15,0.609,1,31,31
1017,23,25,15,0.7646,1,47,49
1018,11,11,11,0.4014,1,23,23
1019,38,47,35,1.5943,1,76,92
1020,15,15,15,0.4571,1,31,32
1021,22,25,22,0.6963,1,45,52
1022,14,14,14,1.0235,1,29,29
1023,13,13,13,0.8076,1,27,27
1024,12,12,12,0.2913,1,25,25
1025,13,15,13,0.4543,1,29,31
1026,15,16,15,0.5853,1,32,32
1027,14,15,14,0.626,1,30,30
1028,15,19,13,2.1592,1,35,35
1029,15,18,14,0.8352,1,33,34
1030,17,21,17,0.6063,1,36,40
1031,6,5,6,0.2467,1,12,12
1032,8,8,8,0.2368,1,17,17
1033,35,52,23,3.8901,1,67,105
1034,60,86,32,5.8145,1,139,147
1035,28,41,27,6.3407,1,68,78
1036,35,68,30,5.0147,1,98,106
1037,8,11,7,0.3868,1,18,20
1038,87,137,59,23.83,1,220,233
1039,22,36,21,1.5505,1,44,58
1040,89,94,65,14.1269,1,180,183
1041,15,18,13,0.7275,1,31,34
1042,47,114,18,2.139,1,110,170
1043,5,7,5,0.2514,1,11,13
1044,5,8,2,0.116,1,8,11
1045,5,8,2,0.1109,1,8,11
1046,5,8,2,0.1361,1,8,11
1047,8,14,7,0.3043,1,20,23
1048,42,55,38,2.3333,1,91,99
1049,17,25,14,1.5086,1,43,46
1050,8,12,8,2.1718,1,20,21
1051,15,28,14,1.1222,1,36,53
1052,12,11,12,0.3256,1,24,24
1053,51,90,32,3.6604,1,102,231
1054,11,11,11,5.1734,1,22,22
1055,30,50,25,2.7276,1,67,91
1056,12,14,11,0.5455,1,25,27
1057,4,5,4,0.5198,1,10,12
1058,4,5,4,0.2194,1,10,11
1059,8,12,8,1.706,1,21,22
1060,61,65,31,7.7104,1,123,127
1061,45,48,23,3.1973,1,91,94
1062,3,5,2,0.1188,1,5,7
1063,25,40,20,1.8655,1,64,76
1064,10,19,9,1.5304,1,27,30
1065,46,106,28,13.3169,1,137,158
1066,36,51,28,3.0138,1,84,108
1067,17,17,13,0.4946,1,35,37
1068,14,29,12,1.7092,1,37,46
1069,3,4,3,0.1997,1,8,8
1070,65,70,60,8.503,1,129,135
1071,52,57,49,2.4473,1,103,109
1072,50,55,48,2.6723,1,99,105
1073,1,1,1,0.0548,1,1,1
1074,56,61,51,6.6865,1,111,117
1075,56,61,51,5.5693,1,111,117
1076,56,61,51,3.3746,1,111,117
1077,56,61,51,3.5806,1,111,117
1078,56,61,51,5.4,1,111,117
1079,12,15,12,0.3619,1,28,28
1080,28,35,28,1.511,1,62,64
1081,64,116,48,12.7319,1,159,218
1082,13,31,11,1.7664,1,35,48
1083,2,3,2,0.1172,1,3,4
1084,8,9,8,0.3209,1,16,17
1085,44,57,38,4.5663,1,97,107
1086,6,11,5,1.4029,1,18,20
1087,4,7,3,0.6406,1,9,11
1088,52,72,48,6.72,1,121,127
1089,48,62,44,2.8326,1,107,113
1090,2,2,2,0.1432,1,5,5
1091,28,33,28,1.4143,1,60,63
1092,10,17,6,0.2822,1,28,28
1093,19,21,19,0.7196,1,38,39
1094,5,4,5,0.1756,1,10,10
1095,11,10,11,0.3031,1,22,22
1096,6,5,6,0.3319,1,12,12
1097,6,5,6,0.2411,1,12,12
1098,7,7,7,0.3114,1,15,15
1099,5,4,5,0.1744,1,10,10
1100,6,5,6,0.2715,1,12,12
1101,6,5,6,0.2131,1,12,12
1102,5,4,5,0.1764,1,10,10
1103,9,8,9,0.2538,1,18,18
1104,9,8,9,0.3078,1,18,18
1105,7,6,7,0.4602,1,14,14
1106,7,7,7,0.3221,1,14,15
1107,7,6,7,0.2873,1,14,14
1108,5,4,5,0.1393,1,10,10
1109,5,5,5,0.2309,1,11,12
1110,8,8,8,2.2152,1,17,18
1111,13,15,13,0.3019,1,25,28
1112,6,5,6,0.1981,1,12,12
1113,4,5,4,0.4413,1,10,10
1114,6,5,5,0.5206,1,12,13
1115,26,27,16,1.4329,1,52,54
1116,8,9,8,0.3848,1,18,20
1117,5,4,5,0.2435,1,10,10
1118,5,4,5,0.1807,1,10,10
1119,2,2,2,0.1965,1,5,5
1120,2,3,2,0.0753,1,3,4
1121,3,4,2,0.1428,1,8,9
1122,14,25,14,0.8017,1,37,40
1123,14,25,14,1.4344,1,37,40
1124,35,49,35,1.9934,1,83,85
1125,39,51,39,2.4927,1,90,91
1126,36,51,28,2.2527,1,84,108
1127,21,191,21,5.4391,1,42,213
1128,4,6,4,0.2711,1,11,12
1129,18,17,18,0.853,1,36,36
1130,64,561,3,4.4187,1,158,655
1131,44,58,37,4.397,1,86,114
1132,32,45,27,2.5748,1,76,87
1133,31,39,26,2.3637,1,69,74
1134,11,10,11,0.5423,1,22,22
1135,31,30,19,1.2268,1,59,64
1136,31,30,19,1.6215,1,59,64
1137,34,40,25,2.203,1,70,75
1138,34,41,22,3.2408,1,71,79
1139,13,12,10,0.4847,1,25,27
1140,40,47,40,3.4891,1,88,96
1141,8,8,8,0.2771,1,17,17
1142,17,21,17,0.4602,1,35,39
1143,3,3,3,0.1456,1,7,7
1144,38,40,37,3.3509,1,78,79
1145,4,4,4,0.2419,1,9,9
1146,28,39,24,2.0368,1,67,68
1147,28,39,24,1.1139,1,67,68
1148,22,28,13,1.631,1,50,51
1149,60,65,42,6.3675,1,117,125
1150,155,413,88,51.0667,1,569,572
1151,151,150,151,36.0448,1,302,302
1152,14,21,14,1.7108,1,31,37
1153,11,18,11,0.5822,1,25,31
1154,8,8,8,0.2293,1,17,17
1155,26,44,26,4.9058,1,54,72
1156,95,115,95,14.8678,1,206,210
1157,30,29,30,2.1548,1,60,60
1158,28,45,22,11.655,1,74,74
1159,24,39,17,1.8572,1,59,64
1160,3,4,3,0.1203,1,6,7
1161,9,12,8,0.3675,1,22,24
1162,42,61,42,2.3972,1,97,113
1163,23,51,12,1.8793,1,66,79
1164,126,220,79,73.7528,1,254,941
1165,68,88,63,5.1991,1,146,158
1166,53,92,46,35.3383,1,139,154
1167,12,26,6,0.6773,1,36,48
1168,15,19,15,0.5719,1,35,35
1169,4,6,4,0.6647,1,10,11
1170,13,12,13,0.5518,1,26,26
1171,3,5,3,0.2368,1,7,8
1172,107,152,48,13.521,1,241,280
1173,11,23,8,0.7827,1,33,41
1174,6,8,6,0.3276,1,15,18
1175,67,94,31,18.1248,1,151,172
1176,14,25,13,0.6201,1,38,40
1177,2,3,2,0.1657,1,3,4
1178,8,9,8,0.4081,1,16,17
1179,10,12,9,0.2676,1,22,23
1180,14,23,11,0.4721,1,37,38
1181,40,52,40,3.7539,1,87,94
1182,9,22,5,0.3619,1,29,40
1183,8,8,8,0.3615,1,17,17
1184,25,34,24,1.8908,1,56,62
1185,34,46,33,1.8008,1,75,83
1186,1,1,1,0.1042,1,3,3
1187,39,82,35,3.3201,1,117,143
1188,11,29,6,0.881,1,36,51
1189,43,58,40,6.178,1,93,111
1190,33,45,31,1.5872,1,70,88
1191,23,32,21,6.9529,1,47,65
1192,27,33,24,1.8963,1,55,59
1193,257,508,6,13.3339,1,513,764
1194,11,29,8,1.6176,1,40,55
1195,42,66,39,15.4161,1,102,127
1196,57,76,45,22.3272,1,126,137
1197,2,2,2,0.1006,1,5,5
1198,3,5,3,0.1657,1,8,9
1199,13,18,12,0.4085,1,32,35
1200,9,10,9,0.4065,1,20,21
1201,13,12,13,0.3714,1,26,26
1202,518,6026,130,1342.0055,1,2241,7745
1203,36,40,34,3.0943,1,76,77
1204,13,22,12,1.0796,1,34,36
1205,53,88,47,3.5206,1,126,177
1206,14,26,12,0.7902,1,39,43
1207,13,14,9,1.14,1,28,28
1208,3,4,3,0.2593,1,6,7
1209,13,28,7,0.585,1,28,45
1210,22,26,22,0.8186,1,48,49
1211,32,40,23,3.2412,1,73,76
1212,9,9,7,1.0219,1,19,19
1213,10,10,10,1.0271,1,20,21
1214,5,5,5,0.1428,1,11,12
1215,33,44,29,1.4558,1,75,80
1216,21,40,20,1.9859,1,62,71
1217,4,4,4,0.1646,1,9,9
1218,18,33,13,3.0955,1,45,54
1219,29,40,29,2.8223,1,69,75
1220,366,1301,286,341.6352,1,1278,1868
1221,15,19,12,0.8151,1,30,32
1222,21,31,21,0.6915,1,44,54
1223,57,76,29,3.2281,1,115,131
1224,10,13,10,0.4855,1,24,28
1225,54,89,42,5.3135,1,137,162
1226,27,32,18,1.455,1,58,58
1227,9,8,9,0.3418,1,18,18
1228,95,136,68,14.0941,1,185,343
1229,10,14,7,0.3485,1,18,23
1230,14,18,13,0.5656,1,32,34
1231,4,5,4,0.1855,1,9,10
1232,16,28,9,0.3694,1,32,51
1233,256,255,256,89.8455,1,512,512
1234,6,9,3,0.2782,1,12,14
1235,8,8,8,0.1985,1,17,17
1236,17,26,17,1.391,1,44,44
1237,28,43,28,2.2772,1,86,101
1238,57,81,48,17.2832,1,135,153
1239,5,8,4,1.0496,1,13,15
1240,41,50,35,1.7917,1,85,91
1241,13,19,12,0.3714,1,31,33
1242,20,26,16,0.99,1,44,47
1243,3,6,2,0.0836,1,5,7
1244,15,14,15,0.4464,1,30,30
1245,17,16,17,0.4728,1,34,34
1246,16,15,16,0.4764,1,32,32
1247,17,16,17,1.2848,1,34,34
1248,17,16,17,0.5103,1,34,34
1249,11,10,11,2.0017,1,22,22
1250,19,24,16,0.8561,1,38,44
1251,18,23,15,1.245,1,36,41
1252,28,35,24,2.8851,1,58,66
1253,15,17,14,0.8115,1,30,32
1254,9,15,9,0.5739,1,25,25
1255,13,50,11,3.7772,1,52,64
1256,5,11,3,0.2313,1,13,21
1257,14,19,14,0.4156,1,31,36
1258,11,20,7,0.4306,1,31,34
1259,18,31,13,0.9797,1,47,67
1260,61,72,43,9.4729,1,129,160
1261,26,36,22,7.9425,1,63,63
1262,37,69,21,3.4295,1,93,106
1263,27,36,23,0.9532,1,60,64
1264,15,20,14,1.0207,1,36,40
1265,11,11,11,0.33,1,23,23
1266,15,19,15,0.5475,1,32,36
1267,5,8,4,0.298,1,11,14
1268,14,15,14,0.6228,1,28,29
1269,16,19,16,0.4602,1,33,36
1270,11,11,11,0.3007,1,23,23
1271,11,11,11,0.3161,1,23,23
1272,235,427,126,64.1235,1,640,847
1273,3,4,3,0.1863,1,6,7
1274,30,45,18,2.1501,1,71,79
1275,30,47,24,8.4608,1,78,83
1276,13,15,13,0.3911,1,29,30
1277,16,20,16,0.8846,1,37,37
1278,3,3,3,0.1582,1,7,7
1279,5,4,5,0.1456,1,10,10
1280,40,72,39,3.5633,1,110,112
1281,23,26,19,2.3175,1,50,50
1282,33,32,33,1.6425,1,66,66
1283,4,6,3,0.2092,1,11,12
1284,8,8,8,0.2403,1,17,17
1285,22,30,19,2.1122,1,46,55
1286,2,2,2,0.1152,1,5,5
1287,24,25,13,0.686,1,48,48
1288,19,27,17,0.6122,1,40,47
1289,22,25,22,0.6501,1,47,48
1290,1,1,1,0.0773,1,3,3
1291,48,60,48,3.7271,1,106,109
1292,31,33,31,1.1139,1,63,64
1293,20,25,15,0.5257,1,39,45
1294,34,36,34,2.1158,1,67,70
1295,3,5,3,0.341,1,9,11
1296,3,3,3,0.1468,1,7,7
1297,65,122,37,5.2693,1,169,189
1298,18,18,17,0.4744,1,36,37
1299,27,29,27,0.8439,1,53,56
1300,6,8,6,0.3607,1,13,15
1301,10,13,10,0.6473,1,22,23
1302,9,14,7,1.9022,1,22,23
1303,13,12,13,0.705,1,26,26
1304,6,8,6,0.2344,1,14,15
1305,23,50,11,1.691,1,65,74
1306,6,10,6,0.2581,1,14,19
1307,16,26,13,1.1704,1,43,44
1308,20,30,18,0.8664,1,47,51
1309,37,69,21,1.5533,1,93,106
1310,18,19,18,0.5723,1,36,37
1311,57,83,45,3.6205,1,131,155
1312,6,12,5,2.0794,1,18,22
1313,16,32,15,2.0206,1,45,55
1314,13,14,13,0.7026,1,28,29
1315,18,22,13,1.0488,1,38,42
1316,37,36,35,1.5185,1,73,74
1317,16,19,16,2.3143,1,36,36
1318,104,148,84,10.8048,1,206,302
1319,18,111,3,11.4103,1,127,205
1320,4,3,4,0.1302,1,8,8
1321,11,10,11,0.4981,1,22,22
1322,50,63,49,2.6593,1,110,118
1323,1,1,1,0.0718,1,3,3
1324,11,21,11,0.3142,1,33,43
1325,3,4,1,0.0702,1,3,4
1326,8,16,2,0.2593,1,16,24
1327,21,22,13,0.7496,1,43,44
1328,40,60,40,1.8971,1,101,101
1329,16,17,16,0.433,1,34,34
1330,15,22,15,0.5617,1,35,46
1331,6,16,3,0.5459,1,20,22
1332,2,2,2,0.1065,1,4,4
1333,6,10,5,0.2032,1,15,17
1334,2,2,2,0.1942,1,5,5
1335,10,17,6,0.4128,1,25,29
1336,39,40,39,1.4202,1,78,79
1337,110,163,88,17.3286,1,260,273
1338,22,28,13,1.0026,1,50,51
1339,16,56,14,2.0214,1,61,73
1340,21,36,20,1.1076,1,58,59
1341,9,9,9,0.431,1,19,19
1342,7,12,4,0.2052,1,14,20
1343,15,32,14,0.9331,1,44,48
1344,14,17,12,0.3813,1,31,32
1345,8,11,7,0.5735,1,20,23
1346,44,59,34,4.3717,1,100,104
1347,12,15,8,0.5893,1,26,29
1348,30,45,21,1.2161,1,76,79
1349,3,4,3,0.1113,1,7,8
1350,39,42,37,1.4171,1,77,81
1351,21,38,16,1.4435,1,58,70
1352,194,282,103,37.8938,1,400,788
1353,31,60,14,1.0918,1,74,99
1354,26,30,22,0.8565,1,57,57
1355,96,110,55,11.3223,1,200,207
1356,5,5,5,0.1855,1,10,11
1357,66,121,66,6.9067,1,244,300
1358,3,5,3,0.4322,1,9,11
1359,35,48,34,1.6701,1,81,89
1360,18,22,18,0.8048,1,39,40
1361,12,11,12,0.3051,1,24,24
1362,12,11,12,0.3548,1,24,24
1363,19,27,18,0.6153,1,45,47
1364,19,29,18,1.2406,1,46,49
1365,21,22,14,0.6,1,42,44
1366,9,11,9,0.3193,1,21,21
1367,19,27,19,0.8096,1,45,47
1368,11,11,11,0.2818,1,23,23
1369,19,25,18,1.2963,1,42,43
1370,13,13,11,0.3272,1,26,27
1371,7,8,7,0.2028,1,14,15
1372,19,31,19,1.4269,1,50,53
1373,65,90,62,12.3391,1,145,181
1374,32,44,29,2.1612,1,79,88
1375,5,9,4,0.1657,1,10,14
1376,10,15,8,0.3047,1,21,26
1377,6,8,3,0.3426,1,15,15
1378,26,27,26,1.6559,1,52,53
1379,19,21,18,0.5822,1,40,41
1380,5,9,4,0.311,1,15,15
1381,15,20,15,2.111,1,35,36
1382,25,55,8,1.0784,1,75,92
1383,5,9,4,0.2553,1,14,18
1384,4,6,4,0.1871,1,10,12
1385,18,28,14,1.7723,1,47,57
1386,6,11,6,0.345,1,13,20
1387,5,9,4,0.225,1,15,15
1388,12,13,12,0.3122,1,25,27
1389,5,8,4,0.4567,1,11,13
1390,5,8,4,0.4425,1,11,13
1391,4,5,4,0.221,1,10,10
1392,10,12,10,0.5115,1,22,25
1393,7,8,7,0.405,1,17,20
1394,19,31,16,3.0671,1,39,56
1395,16,22,12,2.3719,1,35,39
1396,4,5,4,0.2056,1,10,10
1397,19,27,17,0.6402,1,41,47
1398,13,17,13,0.3793,1,28,33
1399,5,6,5,0.3173,1,11,14
1400,5,7,5,0.2455,1,13,13
1401,7,11,6,0.1709,1,16,19
1402,21,34,18,2.3731,1,48,69
1403,14,15,13,0.3753,1,29,30
1404,104,148,84,17.3622,1,206,302
1405,68,88,61,7.2537,1,147,157
1406,7,8,7,0.3903,1,14,15
1407,9,14,8,0.4338,1,20,24
1408,5,5,5,0.2873,1,11,11
1409,12,12,12,0.4511,1,25,25
1410,13,30,8,1.5596,1,37,62
1411,8,8,8,0.3832,1,17,17
1412,33,32,33,1.3622,1,66,66
1413,67,132,46,27.9085,1,126,507
1414,67,132,46,5.2745,1,126,507
1415,23,33,20,0.8435,1,50,58
1416,39,50,36,2.2069,1,84,90
1417,6,5,6,0.1859,1,12,12
1418,7,8,7,0.2001,1,16,18
1419,16,24,13,0.6698,1,36,48
1420,19,20,18,1.0259,1,40,40
1421,41,75,38,6.9762,1,116,123
1422,41,57,38,8.3475,1,94,104
1423,59,104,43,10.1894,1,147,177
1424,59,104,43,7.5332,1,147,177
1425,22,26,21,1.0946,1,47,50
1426,2,3,2,0.4093,1,3,4
1427,2,3,2,0.8439,1,3,4
1428,2,3,2,0.0994,1,3,4
1429,2,3,2,0.0978,1,3,4
1430,2,3,2,0.1125,1,3,4
1431,2,3,2,0.086,1,3,4
1432,2,3,2,0.0911,1,3,4
1433,2,3,2,0.1014,1,3,4
1434,2,3,2,0.2155,1,3,4
1435,39,43,39,2.379,1,83,83
1436,44,77,17,4.4988,1,92,127
1437,2,2,2,0.0911,1,5,5
1438,14,23,13,0.4721,1,36,38
1439,58,95,45,9.5977,1,138,185
1440,58,91,45,7.2324,1,137,171
1441,22,35,18,0.7156,1,46,66
1442,20,33,20,0.7965,1,51,54
1443,15,21,15,0.7579,1,36,37
1444,13,18,13,0.4421,1,31,32
1445,20,32,20,0.7938,1,51,53
1446,13,18,13,1.6413,1,31,32
1447,12,18,12,4.6145,1,34,40
1448,15,21,11,0.5822,1,35,44
1449,11,24,4,1.6993,1,36,36
1450,2,3,2,0.1144,1,3,4
1451,89,107,67,14.0215,1,191,227
1452,7,7,7,0.2478,1,14,14
1453,19,32,14,0.6876,1,52,62
1454,28,57,23,3.1709,1,80,86
1455,7,7,7,0.2305,1,14,15
1456,223,1964,28,24.9617,1,636,2357
1457,19,25,16,1.6559,1,43,45
1458,14,13,14,0.3726,1,28,28
1459,20,20,20,0.9911,1,41,41
1460,10,9,10,0.3753,1,20,20
1461,19,18,19,1.0271,1,38,38
1462,5,8,4,0.3307,1,10,13
1463,7,12,7,0.5178,1,20,20
1464,2,3,2,0.0789,1,3,4
1465,7,18,2,0.206,1,12,23
1466,63,66,61,10.8557,1,125,129
1467,10,13,8,0.3078,1,19,23
1468,10,13,8,0.3659,1,19,23
1469,10,13,8,0.2727,1,19,23
1470,10,13,8,0.2017,1,19,23
1471,41,44,39,1.6721,1,81,85
1472,70,100,70,11.1814,1,169,170
1473,71,129,33,13.9043,1,188,201
1474,5,6,5,0.2032,1,11,11
1475,10,11,10,0.2806,1,20,21
1476,33,54,29,4.3674,1,75,91
1477,27,32,17,4.7534,1,56,62
1478,23,24,15,0.7275,1,47,50
1479,7,12,6,0.2123,1,16,21
1480,33,50,23,2.6226,1,80,84
1481,257,415,225,81.2106,1,570,673
1482,264,7965,136,1067.0355,1,657,8230
1483,20,24,18,1.4498,1,45,45
1484,13,23,12,0.4523,1,35,37
1485,11,12,10,0.3094,1,24,24
1486,2,2,2,0.1555,1,5,5
1487,264,7965,136,742.4633,1,657,8230
1488,21,38,16,0.915,1,58,70
1489,26,63,18,1.3468,1,90,104
1490,22,36,20,0.7294,1,49,58
1491,11,14,11,0.4227,1,26,26
1492,5,7,4,0.118,1,10,12
1493,73,100,57,6.2668,1,167,174
1494,24,31,23,1.1048,1,56,56
1495,26,52,22,4.9942,1,76,96
1496,32,40,22,9.8787,1,68,73
1497,52,70,39,5.6676,1,118,123
1498,17,26,17,1.6614,1,44,44
1499,22,30,22,2.7844,1,45,53
1500,14,13,14,0.594,1,28,28
1501,2,2,2,0.1093,1,5,5
1502,1,1,1,0.1286,1,3,3
1503,10,16,10,1.0196,1,26,27
1504,65,122,63,7.2162,1,179,200
1505,34,56,28,1.7869,1,82,92
1506,61,93,47,4.0745,1,123,179
1507,26,28,20,3.0529,1,53,55
1508,11,19,10,0.3856,1,30,38
1509,8,13,8,1.9871,1,22,22
1510,7,14,5,1.0405,1,18,22
1511,5,6,5,0.1646,1,10,11
1512,8,8,8,0.5175,1,17,17
1513,8,21,7,3.1508,1,29,31
1514,2,3,2,0.1571,1,6,7
1515,17,26,14,1.92,1,44,44
1516,294,377,185,128.5269,1,561,671
1517,385,498,233,236.3884,1,733,883
1518,329,424,209,103.0508,1,627,753
1519,265,342,161,87.3626,1,505,607
1520,423,545,259,215.0527,1,806,968
1521,4,6,3,0.1918,1,11,13
1522,13,24,2,0.3189,1,24,35
1523,2,3,2,0.0828,1,3,4
1524,2,3,2,0.0801,1,3,4
1525,20,25,19,1.1988,1,43,45
1526,5,5,5,0.225,1,11,11
1527,10,12,9,0.7736,1,22,24
1528,19,26,16,1.0342,1,46,52
1529,6,8,6,0.2218,1,13,13
1530,14,17,12,0.6276,1,30,32
1531,28,60,11,2.4738,1,89,97
1532,2,2,2,0.1752,1,5,5
1533,53,54,45,2.9743,1,106,108
1534,10,9,10,0.3765,1,20,20
1535,8,8,8,0.356,1,17,17
1536,23,22,23,1.7763,1,46,46
1537,88,105,65,29.7728,1,176,179
1538,5,9,2,0.3071,1,14,15
1539,5,9,3,0.4906,1,17,21
1540,9,10,9,0.2857,1,20,20
1541,8,7,8,0.4389,1,16,16
1542,8,7,8,0.2628,1,16,16
1543,18,17,18,0.5313,1,36,36
1544,194,245,91,50.9423,1,408,440
1545,19,32,14,1.3539,1,52,62
1546,55,96,45,6.3943,1,141,150
1547,9,9,9,0.403,1,19,19
1548,2,2,2,0.1571,1,5,5
1549,20,35,17,2.2275,1,54,57
1550,12,13,12,0.3343,1,26,26
1551,8,7,8,0.2443,1,16,16
1552,97,132,69,23.1333,1,210,237
1553,65,107,54,5.6203,1,164,223
1554,3,3,3,0.1535,1,7,7
1555,30,45,30,1.9089,1,72,78
1556,8,12,7,0.3588,1,18,23
1557,12,16,11,0.4405,1,26,31
1558,13,22,11,0.4243,1,28,41
1559,6,10,5,0.5084,1,14,19
1560,8,12,7,0.5928,1,18,23
1561,16,20,15,1.166,1,34,39
1562,41,54,35,2.2839,1,89,98
1563,15,22,15,0.7215,1,35,39
1564,14,20,13,0.8494,1,29,37
1565,106,161,85,20.2067,1,235,386
1566,404,515,96,242.1197,1,856,939
1567,15,15,11,0.388,1,30,31
1568,19,29,19,1.11,1,49,51
1569,6,7,6,0.1894,1,12,13
1570,15,19,15,0.6532,1,34,34
1571,6,13,2,0.1334,1,13,20
1572,17,16,17,9.2819,1,34,34
1573,21,38,20,1.7214,1,60,60
1574,22,212,22,0.866,1,43,404
1575,2,3,2,0.0923,1,3,4
1576,4,8,3,0.2285,1,11,12
1577,4,7,4,0.3086,1,10,12
1578,5,7,5,0.508,1,13,13
1579,19,36,15,3.135,1,58,71
1580,11,11,11,0.3023,1,23,23
1581,27,51,24,2.0704,1,77,80
1582,7,8,7,0.176,1,15,16
1583,41,50,35,2.6246,1,85,91
1584,4,7,4,0.2352,1,11,12
1585,11,10,11,0.2707,1,22,22
1586,5,7,5,0.1377,1,10,12
1587,9,8,9,0.2261,1,18,18
1588,3,4,3,0.1357,1,8,8
1589,8,11,5,0.1571,1,15,18
1590,5,12,4,1.8473,1,17,18
1591,3,5,3,0.1231,1,5,6
1592,56,109,42,4.6006,1,148,170
1593,29,87,14,4.365,1,92,152
1594,42,130,23,3.9549,1,128,225
1595,38,127,21,2.4422,1,121,218
1596,32,126,15,1.6977,1,108,208
1597,14,21,12,0.583,1,36,38
1598,13,16,8,0.8929,1,30,30
1599,5,12,4,0.2747,1,15,18
1600,31,48,26,1.5236,1,65,93
1601,2,1,2,0.1417,1,4,4
1602,3,3,3,0.2435,1,7,8
1603,3,3,3,0.1176,1,7,7
1604,21,23,16,0.6631,1,44,45
1605,83,98,67,6.6142,1,173,182
1606,10,13,9,0.3075,1,21,24
1607,2,2,2,0.193,1,5,5
1608,9,12,9,0.4286,1,22,22
1609,57,76,45,4.4199,1,126,137
1610,3,4,3,0.1346,1,8,8
1611,15,19,15,0.5253,1,33,36
1612,45,55,40,3.1922,1,101,101
1613,2,3,2,0.1026,1,3,4
1614,32,91,20,3.2175,1,115,148
1615,61,86,56,3.8917,1,132,148
1616,4,4,4,0.1215,1,8,9
1617,29,71,27,5.2867,1,98,114
1618,15,14,15,0.4038,1,30,30
1619,61,118,24,8.0159,1,140,180
1620,2,2,2,0.1338,1,5,5
1621,134,258,71,21.7363,1,393,516
1622,66,141,46,7.1716,1,195,235
1623,3,4,2,0.1152,1,8,9
1624,11,12,11,0.6773,1,24,26
1625,13,28,13,2.0483,1,36,39
1626,44,61,33,4.0796,1,98,120
1627,3,4,3,0.2392,1,8,9
1628,42,46,41,4.4838,1,87,88
1629,7,7,7,0.2415,1,15,15
1630,20,34,18,0.8751,1,47,55
1631,17,26,14,0.4421,1,39,42
1632,12,16,12,0.4807,1,27,28
1633,66,127,58,6.589,1,183,219
1634,10,9,10,0.3817,1,20,20
1635,104,148,84,13.8423,1,206,302
1636,8,7,8,0.24,1,16,16
1637,3,6,3,0.1353,1,8,8
1638,22,26,21,1.3855,1,48,52
1639,5,8,5,0.21,1,14,15
1640,8,8,8,0.1878,1,17,17
1641,9,12,8,0.2743,1,21,22
1642,4,5,4,0.1444,1,10,13
1643,14,16,14,0.5569,1,31,33
1644,38,66,34,3.0659,1,103,117
1645,7,9,7,0.2644,1,17,19
1646,15,21,15,0.3671,1,31,31
1647,11,15,9,0.2838,1,23,27
1648,16,21,15,0.7618,1,36,37
1649,17,121,17,0.4969,1,18,123
1650,22,52,15,3.7401,1,69,75
1651,8,19,6,1.095,1,27,32
1652,43,110,29,5.3799,1,129,174
1653,21,20,21,1.0413,1,42,42
1654,14,29,10,1.4443,1,38,50
1655,11,18,11,0.4397,1,25,39
1656,32,46,24,1.9302,1,69,80
1657,50,161,26,8.1695,1,143,212
1658,48,62,33,3.2072,1,106,108
1659,3,5,2,0.09,1,5,7
1660,32,38,28,4.6891,1,69,71
1661,2,2,2,0.1353,1,5,5
1662,6,9,5,0.3023,1,16,18
1663,11,20,7,0.3323,1,31,34
1664,7,9,7,0.2984,1,17,20
1665,14,13,14,0.5036,1,28,28
1666,3,4,2,0.1756,1,8,9
1667,5,12,3,0.5921,1,18,22
1668,76,125,65,9.3391,1,178,238
1669,9,8,9,0.285,1,18,18
1670,27,38,23,1.6425,1,63,68
1671,34,44,30,1.4956,1,75,79
1672,19,24,19,0.9706,1,42,45
1673,9,11,9,0.51,1,19,21
1674,12,23,12,0.3663,1,32,40
1675,106,167,65,18.9656,1,246,305
1676,31,41,30,1.7202,1,72,84
1677,256,255,256,121.2037,1,512,512
1678,44,62,37,4.9859,1,103,112
1679,27,40,25,1.1273,1,56,70
1680,10,19,8,0.4373,1,21,40
1681,9,10,9,0.4697,1,20,20
1682,6,5,6,0.2427,1,12,12
1683,51,50,51,5.1288,1,102,102
1684,14,15,14,0.429,1,28,28
1685,8,9,8,0.2561,1,17,17
1686,7,10,7,0.4286,1,17,19
1687,5,6,5,0.2952,1,12,13
1688,15,14,15,0.8076,1,30,30
1689,16,22,15,0.5123,1,39,44
1690,11,18,7,1.9034,1,25,32
1691,94,134,76,24.297,1,218,257
1692,33,40,30,2.398,1,70,77
1693,35,63,27,2.9692,1,88,106
1694,8,15,8,0.7831,1,24,24
1695,85,184,84,14.254,1,244,270
1696,34,42,32,2.7959,1,73,77
1697,15,19,15,0.5522,1,35,35
1698,5,9,4,0.2226,1,14,15
1699,3,5,3,0.1697,1,7,9
1700,119,154,89,28.8973,1,254,281
1701,10,25,9,0.6027,1,36,36
1702,23,38,20,0.8194,1,52,62
1703,209,4446,201,226.5933,1,685,4784
1704,14,13,8,0.4863,1,28,28
1705,4,6,2,0.129,1,11,11
1706,7,8,7,0.2786,1,16,19
1707,10,12,10,0.3126,1,21,22
1708,5,8,4,0.2735,1,14,15
1709,18,21,18,0.4728,1,36,38
1710,17,48,15,17.2521,1,55,73
1711,7,7,7,0.6114,1,15,15
1712,7,8,7,0.1906,1,16,18
1713,16,20,16,1.2548,1,38,40
1714,9,10,9,0.3603,1,19,22
1715,20,30,13,0.793,1,46,59
1716,3,4,2,0.1409,1,8,8
1717,3,5,2,0.1219,1,9,10
1718,34,39,33,1.4593,1,73,74
1719,10,20,6,0.298,1,29,37
1720,9,22,5,0.3363,1,29,40
1721,15,20,14,0.5111,1,36,40
1722,30,64,18,2.5662,1,80,100
1723,12,17,12,0.4101,1,25,32
1724,2,2,2,0.114,1,5,5
1725,36,57,29,2.4359,1,84,95
1726,27,43,26,1.7388,1,72,79
1727,15,20,14,0.4669,1,35,39
1728,16,21,9,0.4065,1,36,38
1729,4,5,4,0.2502,1,10,12
1730,28,38,27,1.2296,1,66,79
1731,2,3,2,0.1128,1,3,4
1732,15,16,15,0.3446,1,30,31
1733,8,11,8,0.3248,1,20,21
1734,7,8,7,0.2175,1,16,17
1735,35,75,27,2.0905,1,94,139
1736,41,60,22,4.1321,1,99,109
1737,37,48,31,3.4133,1,78,85
1738,28,39,26,1.4163,1,65,68
1739,3,5,2,0.2644,1,7,8
1740,24,27,24,1.0531,1,52,52
1741,19,26,18,0.714,1,42,47
1742,10,9,10,7.1368,1,20,20
1743,37,42,34,2.3775,1,74,83
1744,104,148,84,10.0769,1,206,302
1745,24,60,11,1.3997,1,69,98
1746,25,34,25,1.1182,1,60,60
1747,9,9,9,0.2467,1,19,19
1748,15,27,12,1.4775,1,35,38
1749,3189,8540,3186,17271.6403,1,9602,10705
1750,7,10,7,0.735,1,15,16
1751,6,10,4,0.8344,1,15,19
1752,13,41,13,5.2109,1,46,58
1753,12,13,12,0.4196,1,26,26
1754,11,11,11,0.3292,1,23,23
1755,16,15,16,0.5814,1,32,32
1756,39,39,39,2.4205,1,79,79
1757,29,43,27,3.4081,1,70,71
1758,6,9,6,0.3611,1,15,18
1759,7,9,7,0.2285,1,15,17
1760,8,9,7,0.4938,1,17,19
1761,8,8,8,0.5834,1,17,17
1762,8,9,7,0.9063,1,18,18
1763,9,11,9,1.1273,1,21,23
1764,7,7,7,0.4014,1,15,15
1765,5,4,5,0.208,1,10,10
1766,16,21,13,1.0555,1,35,37
1767,56,108,34,31.2736,1,133,165
1768,5,8,4,0.2605,1,14,18
1769,35,44,34,1.4672,1,77,80
1770,23,33,14,1.545,1,55,57
1771,13,22,12,0.6146,1,34,36
1772,48,59,32,2.5322,1,104,116
1773,12,15,10,0.5293,1,24,26
1774,15,21,12,11.2429,1,37,38
1775,11,14,11,0.5739,1,25,27
1776,29,33,17,1.5608,1,56,60
1777,15,15,11,0.6481,1,30,31
1778,256,255,256,97.1526,1,512,512
1779,11,27,9,0.9351,1,33,39
1780,4,6,3,0.2289,1,8,10
1781,9,14,9,0.2301,1,19,26
1782,6,8,6,0.2009,1,13,15
1783,7,9,7,0.2936,1,17,19
1784,31,65,13,1.6851,1,79,104
1785,10,11,10,0.285,1,22,23
1786,62,95,55,8.8583,1,148,174
1787,12,23,11,0.8932,1,32,36
1788,12,23,11,0.5857,1,32,36
1789,24,32,22,2.2705,1,51,58
1790,4,4,4,0.219,1,9,9
1791,41,78,38,4.5549,1,112,123
1792,9,12,7,0.3884,1,20,26
1793,1,1,1,0.0868,1,3,3
1794,11,13,9,0.3193,1,24,27
1795,34,39,33,1.318,1,72,74
1796,12,12,9,0.2992,1,24,27
1797,18,17,18,0.5309,1,36,36
1798,23,37,19,4.1889,1,65,84
1799,6,7,6,0.2447,1,14,14
1800,14,24,10,0.9055,1,28,44
1801,83,122,56,8.8524,1,185,234
1802,16,16,16,0.6031,1,33,33
1803,22,32,18,0.9844,1,54,61
1804,2,2,2,0.1646,1,5,5
1805,30,58,22,1.2805,1,74,94
1806,5,9,3,0.2901,1,14,15
1807,11,11,11,0.4326,1,22,22
1808,33,44,26,1.543,1,76,83
1809,8,15,7,0.2822,1,23,24
1810,25,36,24,5.9436,1,62,65
1811,17,24,14,2.0877,1,42,42
1812,11,10,11,0.4906,1,22,22
1813,18,19,16,0.5123,1,37,38
1814,37,36,37,4.9978,1,74,74
1815,9,17,6,0.3603,1,17,26
1816,9,14,9,0.2557,1,19,26
1817,6,7,6,0.3331,1,14,14
1818,16,22,15,0.474,1,36,39
1819,9,13,8,0.2423,1,21,30
1820,26,41,10,1.5331,1,52,69
1821,13,20,12,0.4594,1,33,34
1822,10,9,10,0.3651,1,20,20
1823,6,10,5,0.8767,1,15,16
1824,9,12,9,4.0429,1,20,23
1825,21,22,16,0.6007,1,43,44
1826,8,8,8,0.2475,1,17,17
1827,5,7,5,0.2344,1,13,13
1828,23,40,23,1.5272,1,57,67
1829,95,133,72,9.1449,1,191,253
1830,26,38,21,1.5718,1,65,79
1831,8,8,8,0.2332,1,17,17
1832,32,51,30,2.0281,1,83,96
1833,17,20,17,0.654,1,38,38
1834,73,118,38,8.1916,1,167,211
1835,22,26,20,0.7669,1,47,49
1836,23,34,21,1.4565,1,55,58
1837,15,19,14,0.63,1,35,35
1838,8,8,8,0.3718,1,17,17
1839,9,13,8,0.388,1,21,24
1840,9,12,9,0.4421,1,19,22
1841,11,17,11,0.6528,1,25,31
1842,46,54,38,2.501,1,100,103
1843,28,40,25,1.4135,1,67,73
1844,15,20,15,0.525,1,35,38
1845,25,43,19,1.1329,1,58,87
1846,23,38,21,1.633,1,56,62
1847,24,29,24,0.9544,1,52,53
1848,10,9,10,0.3303,1,20,20
1849,9,15,9,0.4125,1,24,27
1850,14,16,14,0.3923,1,31,32
1851,62,80,60,3.9695,1,142,144
1852,27,38,25,1.0136,1,66,67
1853,21,22,16,0.5443,1,43,44
1854,32,56,26,2.145,1,82,106
1855,41,69,24,3.0619,1,92,129
1856,10,12,9,0.4247,1,23,23
1857,7,16,5,1.2051,1,22,30
1858,14,18,13,1.2063,1,33,37
1859,11,10,11,0.4018,1,22,22
1860,8,8,8,0.279,1,17,17
1861,37,41,32,1.5398,1,77,80
1862,11,10,11,0.3765,1,22,22
1863,6,17,3,0.9157,1,24,33
1864,15,22,11,0.324,1,29,37
1865,16,22,15,0.6509,1,36,40
1866,13,16,12,0.4425,1,29,31
1867,37,37,25,1.3946,1,74,75
1868,106,122,51,10.4171,1,216,228
1869,58,64,35,3.4223,1,111,124
1870,7,9,7,0.2127,1,15,16
1871,2,2,2,0.15,1,5,5
1872,3,5,3,0.2396,1,9,11
1873,20,30,19,0.825,1,46,53
1874,15,18,14,0.5561,1,35,38
1875,7,7,7,0.2778,1,15,15
1876,26,42,25,1.4372,1,65,73
1877,37,36,37,1.4368,1,74,74
1878,5,12,3,0.2147,1,15,18
1879,3,5,2,0.1938,1,8,9
1880,3,4,2,0.1235,1,8,8
1881,1,1,1,0.086,1,3,3
1882,9,8,9,0.3055,1,18,18
1883,42,49,40,2.0423,1,89,94
1884,37,39,37,1.4558,1,73,76
1885,2,2,2,0.1207,1,5,5
1886,147,283,80,31.6028,1,430,431
1887,15,19,15,0.4302,1,30,31
1888,26,35,26,1.5173,1,60,62
1889,27,37,14,2.2101,1,64,69
1890,6,6,6,0.1752,1,13,13
1891,8,9,8,0.48,1,18,19
1892,9,12,9,0.3315,1,22,23
1893,25,38,23,0.8411,1,54,78
1894,8,8,8,0.3963,1,17,17
1895,12,19,10,0.388,1,31,33
1896,18,25,16,1.17,1,41,44
1897,36,51,28,2.9108,1,84,111
1898,20,24,20,0.7571,1,43,44
1899,8,14,6,0.2131,1,19,22
1900,19,23,18,0.5794,1,40,43
1901,27,43,25,1.1032,1,71,73
1902,24,33,24,0.9754,1,58,59
1903,25,30,20,1.1826,1,49,57
1904,13,12,13,0.3122,1,26,26
1905,10,13,9,0.2917,1,23,24
1906,2,1,2,0.09,1,4,4
1907,2,1,2,0.0963,1,4,4
1908,4,5,4,0.2439,1,8,9
1909,11,12,11,0.2711,1,24,24
1910,16,15,16,0.7705,1,32,32
1911,3,4,3,0.1069,1,8,8
1912,2,2,2,0.1061,1,5,5
1913,2,2,2,0.1235,1,5,5
1914,2,2,2,0.2021,1,5,5
1915,2,1,2,0.0971,1,4,4
1916,12,11,12,0.4732,1,24,24
1917,15,15,11,0.6367,1,30,31
1918,11,10,11,1.0764,1,22,22
1919,6,5,6,0.2285,1,12,12
1920,2,1,2,0.103,1,4,4
