id,time
0,0.296
1,0.9532
2,1.3444
3,0.0185
4,0.4705
5,0.1164
6,0.5853
7,0.7014
8,0.0359
9,0.4697
10,0.7464
11,0.311
12,0.3809
13,1.1305
14,0.8534
15,0.6394
16,0.0694
17,1.9689
18,0.1109
19,0.3726
20,0.9414
21,0.0805
22,0.054
23,0.1326
24,1.0125
25,0.0919
26,0.1223
27,1.23
28,0.9173
29,0.191
30,0.0296
31,13.8103
32,0.0619
33,0.5281
34,0.0252
35,0.0734
36,3.1835
37,0.086
38,0.0481
39,1.4952
40,0.3619
41,0.2952
42,0.264
43,0.7377
44,0.0825
45,0.3438
46,0.489
47,0.0872
48,5.4264
49,0.0319
50,9.6146
51,1.4297
52,0.0647
53,0.8068
54,0.8139
55,0.4914
56,0.1097
57,1.3113
58,9.3651
59,1.3571
60,0.2782
61,0.311
62,0.0596
63,0.0284
64,2.7173
65,1.5919
66,0.0931
67,0.2747
68,0.0375
69,0.084
70,0.1314
71,0.5435
72,1.0089
73,7.4633
74,3.4247
75,1.6227
76,0.0568
77,0.0809
78,0.0398
79,0.1259
80,1.0504
81,0.0375
82,0.1492
83,0.0544
84,0.2775
85,0.8743
86,0.1602
87,0.0232
88,0.2802
89,0.1121
90,2.1386
91,28.2432
92,17.9918
93,0.1523
94,0.0694
95,0.1811
96,0.0418
97,0.0343
98,1.1273
99,0.225
100,2.1071
101,0.4673
102,0.2415
103,2.4165
104,0.435
105,0.6446
106,3.8893
107,0.504
108,0.4578
109,0.4646
110,0.8735
111,0.075
112,5.2839
113,6.5692
114,0.8171
115,0.5913
116,0.0548
117,0.3836
118,1.0231
119,0.1152
120,3.8123
121,0.1026
122,0.4575
123,0.2242
124,0.1492
125,0.0378
126,0.2431
127,11.1963
128,0.1452
129,2.4438
130,0.0197
131,0.1764
132,5.5208
133,2.1931
134,0.0856
135,2.034
136,0.099
137,0.0907
138,0.6232
139,0.2159
140,0.039
141,3.4685
142,1.0819
143,0.6884
144,0.1219
145,0.3165
146,0.1476
147,0.2443
148,0.1251
149,0.056
150,0.1109
151,0.4314
152,0.2684
153,0.8577
154,0.3232
155,0.0335
156,0.4385
157,1.3634
158,0.6355
159,0.2778
160,1.0673
161,0.1582
162,40.7311
163,0.0481
164,0.0469
165,0.0994
166,21.0798
167,3.5984
168,0.0556
169,0.0197
170,0.0284
171,0.0276
172,0.0351
173,0.0323
174,2.3862
175,0.12
176,0.1456
177,0.0457
178,1.1948
179,0.2246
180,12.3514
181,0.0955
182,0.1484
183,1.4482
184,0.2826
185,0.3003
186,0.0351
187,0.0398
188,0.0588
189,0.0363
190,0.0371
191,1.4135
192,0.1867
193,0.7006
194,0.2921
195,0.0896
196,0.2123
197,0.2202
198,0.0331
199,0.0706
200,0.0485
201,0.684
202,0.8254
203,0.1961
204,0.0836
205,0.1598
206,31.9056
207,0.0572
208,0.1353
209,1.6946
210,3.1654
211,0.4413
212,1.5611
213,0.313
214,0.2344
215,0.4271
216,0.073
217,1.2
218,0.0801
219,0.9694
220,0.1188
221,1.7171
222,0.0406
223,0.2297
224,0.461
225,1.3582
226,0.0702
227,0.3473
228,0.1065
229,0.8704
230,0.105
231,0.0935
232,0.0331
233,0.296
234,0.4875
235,1.2379
236,0.0836
237,21.8077
238,0.8443
239,0.3473
240,1.648
241,0.2834
242,0.508
243,9.6162
244,45.7696
245,28.2783
246,0.2471
247,0.6351
248,0.1338
249,0.219
250,0.0726
251,0.1026
252,21.7915
253,9.7765
254,0.0501
255,0.0228
256,1.2911
257,0.0375
258,0.045
259,0.208
260,0.6959
261,0.0521
262,0.0678
263,2.3135
264,0.1132
265,0.0781
266,0.3173
267,0.7594
268,0.0367
269,0.4077
270,0.1089
271,0.2921
272,0.1989
273,0.326
274,6.0253
275,0.099
276,0.1721
277,0.8009
278,0.0307
279,5.8559
280,0.4681
281,0.1073
282,0.1081
283,0.1938
284,0.4918
285,0.4957
286,0.1247
287,0.0434
288,0.0896
289,0.0398
290,4.1143
291,0.2522
292,1.3732
293,0.1152
294,0.0722
295,0.7748
296,1.1135
297,0.024
298,0.0655
299,0.2396
300,0.0785
301,12.8002
302,1.1932
303,0.2455
304,6.7251
305,0.7606
306,0.5392
307,3.2992
308,1.0867
309,0.4306
310,0.0726
311,3.5988
312,0.0777
313,0.114
314,4.5142
315,0.3276
316,0.0828
317,0.6568
318,0.4965
319,1.1601
320,0.0521
321,0.3986
322,12.8823
323,0.2253
324,0.1314
325,0.0805
326,1.7475
327,1.541
328,0.7476
329,3.2341
330,0.0777
331,3.0008
332,2.9585
333,0.4606
334,0.0327
335,0.0225
336,0.0588
337,0.18
338,0.2632
339,0.0418
340,0.0868
341,0.2352
342,35.1176
343,1.4534
344,0.1563
345,0.1523
346,0.2419
347,0.8092
348,0.0919
349,0.2127
350,2.6123
351,0.2439
352,0.3568
353,0.0382
354,0.0303
355,3.688
356,0.0469
357,0.2648
358,0.1176
359,0.0911
360,0.3517
361,0.5111
362,0.0797
363,0.6714
364,0.765
365,6.2503
366,2.5626
367,0.3919
368,0.0793
369,1.2323
370,0.5826
371,0.3603
372,0.9256
373,0.0418
374,0.0422
375,0.0572
376,0.1571
377,0.2123
378,4.172
379,0.1839
380,0.1878
381,0.2597
382,0.3888
383,1.1577
384,1.5138
385,0.1117
386,0.236
387,0.8447
388,0.9351
389,0.0493
390,0.549
391,0.4006
392,0.0351
393,0.0746
394,0.6284
395,1.2375
396,0.253
397,0.7168
398,0.1681
399,0.9994
400,0.1251
401,0.0315
402,2.4189
403,0.2103
404,0.069
405,0.5486
406,0.1578
407,0.1985
408,0.5707
409,0.0232
410,1.3807
411,0.3907
412,2.4517
413,0.0315
414,0.1432
415,7.4258
416,0.1275
417,0.4259
418,0.1827
419,0.2715
420,0.0359
421,0.1622
422,0.3572
423,0.3244
424,0.2494
425,0.3142
426,0.0872
427,0.1942
428,0.6505
429,0.0548
430,0.2842
431,26.037
432,0.0955
433,1.0709
434,0.7176
435,0.3209
436,0.0777
437,5.2535
438,0.2119
439,0.0994
440,0.1788
441,0.0726
442,0.3146
443,0.0453
444,0.0335
445,0.0623
446,1.2955
447,0.208
448,3.3469
449,0.2506
450,0.0765
451,0.6446
452,0.21
453,0.4784
454,0.0311
455,1.1376
456,0.0694
457,0.0611
458,0.2664
459,0.9493
460,0.0643
461,1.6575
462,0.0856
463,1.4384
464,0.1286
465,0.0876
466,0.0805
467,0.3509
468,0.9904
469,0.5459
470,2.7675
471,0.135
472,0.6521
473,3.4239
474,0.0351
475,0.2151
476,2.79
477,0.0493
478,3.2285
479,0.0351
480,0.0315
481,0.0844
482,0.1456
483,0.0469
484,0.3493
485,0.4211
486,0.4196
487,0.206
488,0.2088
489,0.5952
490,1.1881
491,0.3477
492,0.6434
493,0.3386
494,0.2751
495,0.3465
496,0.3011
497,0.5155
498,0.0315
499,0.101
500,0.225
501,2.6135
502,0.1176
503,5.7947
504,3.5017
505,0.0592
506,24.2204
507,1.23
508,0.42
509,0.54
510,2.6183
511,2.1315
512,0.1464
513,0.1314
514,3.5771
515,0.6734
516,1.3204
517,0.1022
518,0.1172
519,0.0307
520,0.0943
521,0.3414
522,0.2632
523,0.4318
524,0.1172
525,0.5881
526,0.2684
527,0.0596
528,0.4985
529,12.4046
530,9.285
531,0.1472
532,3.7129
533,0.6197
534,0.114
535,6.8641
536,0.1085
537,0.2818
538,2.1398
539,0.1046
540,0.0457
541,0.0331
542,0.8052
543,0.2064
544,0.3398
545,0.4661
546,0.4796
547,0.9161
548,0.0651
549,1.6255
550,8.0897
551,3.2944
552,0.071
553,17.4234
554,1.7289
555,0.0718
556,0.0465
557,0.4271
558,0.6611
559,0.12
560,2.6479
561,0.3797
562,1.1479
563,0.7046
564,0.0406
565,0.2763
566,0.3513
567,0.5068
568,0.1148
569,2.5689
570,0.0753
571,0.0619
572,0.043
573,0.0513
574,0.1725
575,0.1235
576,1.2122
577,0.0868
578,0.2794
579,0.0536
580,0.1989
581,1.2714
582,0.7796
583,7.7001
584,1.9736
585,2.8212
586,3.4377
587,0.1728
588,1.9539
589,0.1034
590,0.0461
591,0.0722
592,0.0398
593,1.6665
594,2.0818
595,0.1614
596,0.1657
597,0.2242
598,28.1101
599,0.0773
600,7.2174
601,0.1776
602,0.0303
603,0.1346
604,0.0189
605,0.1353
606,0.6817
607,0.0757
608,0.3667
609,0.6473
610,0.6489
611,27.1849
612,41.5384
613,1.5825
614,0.1373
615,0.3438
616,0.3635
617,0.4184
618,2.4927
619,0.223
620,0.2376
621,0.7764
622,0.1594
623,0.1448
624,0.1926
625,0.1594
626,0.0769
627,1.9318
628,0.2001
629,0.1038
630,0.223
631,0.2281
632,2.1146
633,0.101
634,0.465
635,1.0859
636,0.5621
637,0.6675
638,0.0319
639,0.1871
640,0.0888
641,3.4476
642,0.585
643,21.5034
644,0.3907
645,0.0359
646,0.0536
647,2.2231
648,1.164
649,15.1169
650,0.4456
651,0.148
652,0.0682
653,0.6781
654,0.2423
655,0.0911
656,0.7571
657,0.0536
658,0.8443
659,2.9838
660,2.5121
661,0.0378
662,0.0517
663,0.761
664,0.5151
665,0.0548
666,0.024
667,0.176
668,0.7251
669,0.2672
670,0.0955
671,0.3493
672,0.0248
673,0.0931
674,0.4105
675,0.251
676,0.3655
677,0.0793
678,0.3185
679,0.3359
680,0.7298
681,0.0939
682,0.0327
683,0.1369
684,1.6097
685,2.9187
686,8.2978
687,0.0276
688,0.5636
689,3.5025
690,0.7128
691,0.1002
692,1.2229
693,0.1085
694,0.1057
695,0.2889
696,0.223
697,0.1618
698,0.0284
699,11.2279
700,8.1059
701,0.1886
702,2.218
703,0.1965
704,0.0461
705,0.0292
706,0.0414
707,2.4963
708,0.206
709,0.3221
710,0.0489
711,0.159
712,0.5498
713,0.1831
714,0.1436
715,1.4486
716,0.4839
717,0.6031
718,0.4953
719,1.0369
720,0.0367
721,1.8169
722,0.1377
723,1.3886
724,0.0307
725,0.2557
726,0.2782
727,2.0202
728,0.8025
729,0.1594
730,0.0663
731,0.0244
732,0.0355
733,0.0311
734,1.779
735,7.1136
736,0.21
737,0.1006
738,0.0769
739,0.0351
740,0.7042
741,2.9905
742,0.15
743,0.4752
744,0.0442
745,0.416
746,0.298
747,1.0452
748,0.06
749,0.058
750,0.4109
751,0.1693
752,0.3071
753,0.2084
754,0.9497
755,0.6422
756,0.1938
757,3.8577
758,4.1921
759,6.0817
760,5.8389
761,0.0951
762,20.8347
763,1.3417
764,0.0738
765,1.0172
766,3.2866
767,0.1401
768,0.0442
769,0.0903
770,0.4231
771,0.0868
772,1.8331
773,0.0757
774,1.8923
775,0.0347
776,1.6058
777,0.3335
778,0.0663
779,0.1646
780,0.1906
781,1.9642
782,5.4513
783,0.4002
784,0.1144
785,0.0465
786,0.3552
787,0.2107
788,2.2855
789,0.1582
790,0.1689
791,0.1381
792,0.6418
793,0.6446
794,0.0639
795,0.1073
796,0.6276
797,0.6939
798,0.0469
799,42.9389
800,25.1322
801,0.0339
802,1.3697
803,0.9292
804,0.0817
805,0.1788
806,1.9859
807,20.5469
808,0.1432
809,0.195
810,0.7555
811,0.6825
812,0.4034
813,0.866
814,0.1918
815,0.0505
816,0.2084
817,0.2486
818,0.0592
819,0.0848
820,0.0398
821,0.1342
822,0.2384
823,0.0236
824,0.0173
825,0.849
826,0.1085
827,0.1207
828,0.0398
829,0.0457
830,0.0268
831,8.2579
832,0.2427
833,3.2569
834,3.8258
835,0.2028
836,0.1728
837,0.6031
838,0.654
839,0.2123
840,0.2427
841,0.0872
842,2.4477
843,0.2028
844,0.3611
845,0.0978
846,0.1827
847,3.2826
848,5.8346
849,0.435
850,0.024
851,0.03
852,40.066
853,0.0532
854,33.9211
855,0.3923
856,0.6457
857,1.0721
858,0.1164
859,0.2076
860,1.1056
861,0.1251
862,0.5972
863,1.9417
864,0.0821
865,0.9355
866,0.1176
867,1.1857
868,0.1835
869,0.3722
870,19.5877
871,0.8423
872,2.1418
873,1.348
874,0.1393
875,0.3603
876,0.2534
877,0.0331
878,0.2463
879,0.026
880,23.4479
881,0.0884
882,0.0509
883,0.0311
884,0.2739
885,0.2344
886,0.5609
887,12.2673
888,1.7025
889,1.2422
890,0.2909
891,4.3077
892,0.0343
893,15.1382
894,0.285
895,0.0975
896,0.0457
897,0.06
898,0.0639
899,0.159
900,0.339
901,0.3667
902,0.0627
903,0.6971
904,0.0501
905,0.1006
906,0.2226
907,0.2261
908,0.2873
909,0.131
910,14.7304
911,0.6442
912,0.553
913,0.1685
914,5.6495
915,0.7503
916,0.0205
917,0.0943
918,44.6635
919,0.3501
920,0.8767
921,11.0649
922,3.7784
923,0.0446
924,0.5285
925,0.1097
926,0.0481
927,0.043
928,0.0698
929,0.0315
930,0.2569
931,0.0647
932,0.2498
933,0.1594
934,0.1796
935,1.6989
936,0.0903
937,0.0738
938,0.0536
939,0.144
940,0.2561
941,0.6015
942,0.401
943,0.5253
944,0.6402
945,0.148
946,1.8252
947,4.4195
948,3.956
949,0.7278
950,0.0394
951,0.2984
952,0.2522
953,0.5992
954,2.6712
955,2.3901
956,0.206
957,0.3911
958,0.0592
959,1.4439
960,0.536
961,0.4263
962,0.6047
963,0.0323
964,0.6051
965,1.5825
966,0.3071
967,0.0422
968,0.7282
969,0.0296
970,0.4851
971,0.2206
972,0.028
973,0.2044
974,0.0465
975,0.0675
976,0.2009
977,0.4926
978,1.3093
979,0.8104
980,0.6106
981,9.8594
982,0.236
983,0.4389
984,1.3409
985,0.3773
986,0.084
987,0.2313
988,0.1318
989,1.3551
990,0.1689
991,10.4408
992,29.9524
993,0.1957
994,0.0564
995,0.1026
996,0.2486
997,3.5084
998,0.0481
999,0.1464
1000,0.099
1001,0.0639
1002,0.3106
1003,0.3757
1004,0.1428
1005,1.9188
1006,0.1342
1007,9.4342
1008,0.0884
1009,2.8133
1010,1.0361
1011,0.1369
1012,0.313
1013,0.2107
1014,0.0888
1015,1.0492
1016,0.2905
1017,0.1334
1018,0.5806
1019,2.351
1020,0.3611
1021,0.2273
1022,0.3367
1023,0.1977
1024,0.2206
1025,0.219
1026,0.3126
1027,0.4073
1028,1.6117
1029,0.5834
1030,0.4515
1031,0.1523
1032,0.2561
1033,1.1996
1034,0.3169
1035,4.5817
1036,15.0549
1037,0.103
1038,7.427
1039,0.3639
1040,1.2173
1041,0.0888
1042,0.7294
1043,0.0781
1044,0.144
1045,0.1196
1046,0.0556
1047,0.0805
1048,0.7575
1049,1.1194
1050,0.2115
1051,0.6157
1052,0.0469
1053,1.3586
1054,0.0686
1055,0.474
1056,0.4531
1057,0.12
1058,0.0536
1059,1.3804
1060,0.1673
1061,0.3228
1062,0.043
1063,1.271
1064,6.2953
1065,1.704
1066,0.1875
1067,0.1342
1068,0.5917
1069,0.0426
1070,0.1859
1071,0.2044
1072,0.2261
1073,0.0197
1074,0.1973
1075,0.1278
1076,0.2076
1077,0.2084
1078,0.1875
1079,0.0659
1080,2.7106
1081,4.202
1082,0.3011
1083,0.0477
1084,0.504
1085,2.2061
1086,0.1859
1087,0.3675
1088,1.4127
1089,0.69
1090,0.0367
1091,2.244
1092,0.0923
1093,1.5375
1094,0.0331
1095,0.2403
1096,0.2782
1097,0.028
1098,0.1527
1099,0.0347
1100,0.0252
1101,0.0248
1102,0.0232
1103,0.1401
1104,0.0331
1105,0.1646
1106,0.0923
1107,0.024
1108,0.0319
1109,0.056
1110,0.1567
1111,0.0793
1112,0.0228
1113,0.0643
1114,0.0371
1115,0.06
1116,0.1594
1117,0.0303
1118,0.0311
1119,0.0781
1120,0.0221
1121,0.0311
1122,0.1555
1123,0.0722
1124,1.4404
1125,0.3817
1126,0.3114
1127,0.1713
1128,0.1472
1129,0.191
1130,0.5763
1131,0.1622
1132,1.2746
1133,0.8569
1134,0.0311
1135,0.4172
1136,0.3138
1137,0.7717
1138,0.5664
1139,0.1089
1140,0.0888
1141,0.0817
1142,0.0588
1143,0.0872
1144,1.4743
1145,0.0288
1146,0.2246
1147,0.0911
1148,0.0963
1149,0.1934
1150,1.89
1151,0.2328
1152,1.7597
1153,0.6986
1154,0.099
1155,5.5812
1156,1.7755
1157,0.1038
1158,18.4209
1159,0.4353
1160,0.0347
1161,0.7421
1162,0.9793
1163,1.0796
1164,28.1978
1165,14.5212
1166,76.5869
1167,0.0975
1168,0.3422
1169,0.1985
1170,0.0497
1171,0.0682
1172,3.9359
1173,0.0671
1174,0.1638
1175,1.2714
1176,0.133
1177,0.039
1178,0.0757
1179,0.0528
1180,0.2585
1181,0.4215
1182,0.0722
1183,0.088
1184,0.3126
1185,0.7835
1186,0.0363
1187,19.6757
1188,0.1448
1189,4.7274
1190,2.9502
1191,1.2355
1192,2.0518
1193,0.6465
1194,0.1831
1195,1.6551
1196,0.4985
1197,0.0213
1198,0.0284
1199,0.1847
1200,0.21
1201,0.0651
1202,9.013
1203,3.418
1204,0.0836
1205,1.6298
1206,0.0793
1207,0.1373
1208,0.0323
1209,0.0639
1210,0.1267
1211,0.3951
1212,0.2222
1213,0.6173
1214,0.0532
1215,1.2588
1216,0.3138
1217,0.0461
1218,0.3094
1219,0.7642
1220,8.8701
1221,0.6852
1222,0.4689
1223,0.219
1224,0.099
1225,1.0109
1226,0.1053
1227,0.0367
1228,57.6927
1229,0.2431
1230,0.1172
1231,0.086
1232,0.4203
1233,0.5893
1234,0.1136
1235,0.06
1236,0.7713
1237,0.5376
1238,1.0065
1239,0.178
1240,0.0801
1241,0.0497
1242,0.6706
1243,0.06
1244,0.1069
1245,0.0761
1246,0.1038
1247,0.1006
1248,0.0667
1249,0.0367
1250,2.2622
1251,0.5084
1252,1.2529
1253,1.1822
1254,0.2155
1255,0.296
1256,0.103
1257,0.2277
1258,0.0805
1259,6.2866
1260,0.5684
1261,3.9355
1262,0.2044
1263,0.3296
1264,0.4136
1265,0.0355
1266,0.0939
1267,0.1073
1268,0.7251
1269,0.0698
1270,0.1259
1271,0.0501
1272,3.7859
1273,0.0876
1274,0.9473
1275,3.3367
1276,0.3485
1277,1.7084
1278,0.0473
1279,0.0327
1280,1.479
1281,2.8827
1282,0.1073
1283,0.0461
1284,0.2139
1285,2.3629
1286,0.0284
1287,0.1006
1288,0.4006
1289,0.0943
1290,0.0236
1291,4.7262
1292,2.9112
1293,0.1425
1294,0.0872
1295,0.0935
1296,0.0284
1297,0.4235
1298,0.0457
1299,0.0694
1300,0.3386
1301,0.6532
1302,0.2628
1303,0.0647
1304,0.0327
1305,0.2976
1306,0.0872
1307,0.4113
1308,0.2538
1309,0.1606
1310,0.0453
1311,0.5439
1312,0.1089
1313,1.5714
1314,0.0927
1315,0.1977
1316,0.0694
1317,0.161
1318,1.05
1319,1.6472
1320,0.0303
1321,0.0367
1322,1.2232
1323,0.0173
1324,0.054
1325,0.0213
1326,0.0603
1327,0.116
1328,0.0742
1329,0.0572
1330,0.7377
1331,0.1128
1332,0.024
1333,0.0536
1334,0.071
1335,0.1515
1336,0.1476
1337,4.0527
1338,0.0978
1339,0.3576
1340,0.6114
1341,0.1298
1342,0.0663
1343,0.3888
1344,0.043
1345,0.7559
1346,0.8475
1347,0.3939
1348,0.5956
1349,4.7483
1350,0.0682
1351,0.1267
1352,9.6237
1353,0.204
1354,0.1436
1355,0.2151
1356,0.1128
1357,0.2542
1358,0.0907
1359,0.3868
1360,2.5208
1361,0.0375
1362,0.0742
1363,0.1539
1364,0.084
1365,0.0489
1366,0.225
1367,0.116
1368,0.3611
1369,11.4699
1370,0.039
1371,0.2301
1372,1.5169
1373,12.765
1374,0.8932
1375,0.0296
1376,0.1105
1377,0.0643
1378,1.8588
1379,0.0596
1380,0.0402
1381,0.4061
1382,0.281
1383,0.0363
1384,0.054
1385,0.1906
1386,0.1452
1387,0.039
1388,0.4255
1389,0.1614
1390,0.1894
1391,0.0477
1392,0.1472
1393,0.0959
1394,0.311
1395,0.414
1396,0.0367
1397,0.0619
1398,0.1626
1399,0.0442
1400,0.0473
1401,0.0465
1402,0.2984
1403,0.0406
1404,0.8798
1405,6.9284
1406,0.0347
1407,0.1752
1408,0.0296
1409,0.0378
1410,0.6698
1411,0.1377
1412,0.0509
1413,4.6081
1414,0.9023
1415,0.4101
1416,0.6552
1417,0.0228
1418,0.0817
1419,0.1981
1420,0.1057
1421,1.4313
1422,3.6931
1423,0.6907
1424,0.2688
1425,0.3228
1426,0.1405
1427,0.1567
1428,0.0611
1429,0.0323
1430,0.0335
1431,0.0355
1432,0.0288
1433,0.0446
1434,0.1101
1435,0.3181
1436,0.1732
1437,0.0201
1438,0.1594
1439,0.5964
1440,0.5715
1441,0.3323
1442,0.5451
1443,0.0884
1444,0.3975
1445,0.7685
1446,0.0497
1447,0.8854
1448,0.2628
1449,0.0943
1450,0.0335
1451,0.7898
1452,0.039
1453,0.3734
1454,1.5272
1455,0.2723
1456,1.7506
1457,1.6259
1458,0.058
1459,0.1093
1460,0.0521
1461,0.0963
1462,0.0371
1463,0.0414
1464,0.024
1465,0.0525
1466,7.035
1467,0.4275
1468,0.2139
1469,0.1803
1470,0.0982
1471,2.4031
1472,5.3755
1473,0.4263
1474,0.0872
1475,0.0465
1476,0.8992
1477,0.1871
1478,0.0813
1479,0.0603
1480,2.111
1481,2.0692
1482,5.1075
1483,0.3375
1484,0.0619
1485,0.6307
1486,0.0536
1487,7.6982
1488,0.131
1489,0.118
1490,0.0967
1491,0.6797
1492,0.1701
1493,0.6161
1494,0.3292
1495,0.6651
1496,0.7942
1497,0.3406
1498,0.5427
1499,3.0896
1500,0.06
1501,0.0264
1502,0.0323
1503,0.0809
1504,6.9296
1505,0.6355
1506,0.7582
1507,0.0564
1508,0.2076
1509,0.1555
1510,0.0382
1511,0.2423
1512,0.0872
1513,0.5542
1514,0.0651
1515,1.6744
1516,11.3057
1517,9.8878
1518,17.3519
1519,6.5803
1520,17.016
1521,0.116
1522,0.0588
1523,0.0292
1524,0.0327
1525,5.0893
1526,0.0398
1527,0.2794
1528,0.1018
1529,0.0426
1530,0.1993
1531,1.5351
1532,0.0438
1533,0.1425
1534,0.4298
1535,0.204
1536,0.0947
1537,4.978
1538,0.1302
1539,0.5076
1540,0.3481
1541,0.6031
1542,0.4271
1543,0.3157
1544,23.5343
1545,0.373
1546,0.5514
1547,0.7034
1548,0.0303
1549,0.6086
1550,0.0398
1551,0.0292
1552,0.7602
1553,2.4402
1554,0.0311
1555,2.0727
1556,0.4393
1557,0.6868
1558,0.6927
1559,0.1827
1560,0.3793
1561,1.65
1562,0.3718
1563,0.1259
1564,0.5317
1565,23.5781
1566,6.122
1567,0.0426
1568,0.2589
1569,0.1697
1570,1.9768
1571,0.0442
1572,0.0414
1573,0.9236
1574,0.2628
1575,0.0817
1576,0.2096
1577,0.0698
1578,0.1452
1579,2.1015
1580,0.0347
1581,1.2023
1582,0.3615
1583,0.0746
1584,0.0303
1585,0.0347
1586,0.0343
1587,0.0402
1588,0.0375
1589,0.0505
1590,0.15
1591,0.0371
1592,0.2538
1593,0.6505
1594,0.93
1595,0.4484
1596,0.3592
1597,0.1946
1598,0.0769
1599,0.0414
1600,3.1468
1601,0.0323
1602,0.1113
1603,0.028
1604,0.1271
1605,0.5309
1606,0.0481
1607,0.0335
1608,0.0371
1609,0.5088
1610,0.028
1611,0.0572
1612,4.376
1613,0.0363
1614,0.2447
1615,14.1683
1616,0.0315
1617,1.9539
1618,0.0742
1619,2.6771
1620,0.0303
1621,0.4259
1622,0.641
1623,0.0536
1624,0.0509
1625,0.6765
1626,3.3134
1627,0.0978
1628,5.9917
1629,0.2238
1630,0.0655
1631,0.0643
1632,0.0422
1633,1.2382
1634,0.0367
1635,0.7685
1636,0.0311
1637,0.1594
1638,0.3173
1639,0.0434
1640,0.0528
1641,0.0501
1642,0.0489
1643,1.7901
1644,1.3823
1645,0.1259
1646,0.1144
1647,0.0651
1648,0.838
1649,0.1061
1650,2.4931
1651,0.3773
1652,4.4364
1653,0.0446
1654,0.3063
1655,0.4997
1656,0.2885
1657,0.1965
1658,0.6446
1659,0.0501
1660,0.1768
1661,0.0268
1662,0.0978
1663,0.071
1664,0.1215
1665,0.1278
1666,0.0315
1667,0.1496
1668,1.6981
1669,0.0485
1670,0.3248
1671,11.0633
1672,0.073
1673,0.1306
1674,0.0678
1675,1.2789
1676,0.2257
1677,0.3761
1678,0.4413
1679,0.9047
1680,0.1428
1681,0.0943
1682,0.0418
1683,0.0911
1684,0.0738
1685,0.0426
1686,0.1507
1687,0.1231
1688,0.088
1689,0.1397
1690,0.4551
1691,14.6112
1692,0.4231
1693,0.1531
1694,0.2581
1695,0.579
1696,2.3621
1697,0.0572
1698,0.0706
1699,0.0402
1700,0.6248
1701,0.0627
1702,0.0761
1703,3.2333
1704,0.1022
1705,0.0303
1706,0.0521
1707,0.0888
1708,0.06
1709,0.8431
1710,1.1538
1711,0.0734
1712,0.0817
1713,1.7013
1714,0.5139
1715,0.5313
1716,0.0414
1717,0.0552
1718,0.4436
1719,0.0923
1720,0.0584
1721,0.448
1722,0.9004
1723,0.1093
1724,0.0327
1725,0.5451
1726,0.1425
1727,0.1626
1728,0.054
1729,0.0532
1730,0.8021
1731,0.0461
1732,0.0639
1733,0.4353
1734,0.0876
1735,2.2539
1736,0.6907
1737,1.8604
1738,0.414
1739,0.1456
1740,0.2072
1741,0.2044
1742,0.0797
1743,0.3142
1744,0.7685
1745,0.598
1746,0.1152
1747,0.0793
1748,0.6765
1749,67.9512
1750,0.4207
1751,0.3959
1752,1.4289
1753,0.9892
1754,0.2494
1755,0.0465
1756,0.1211
1757,1.3448
1758,0.1113
1759,0.2782
1760,0.0347
1761,0.0753
1762,0.1938
1763,0.6252
1764,0.1752
1765,0.039
1766,0.0797
1767,12.5471
1768,0.2561
1769,0.3623
1770,0.1046
1771,0.0619
1772,0.1792
1773,0.0446
1774,0.075
1775,0.1934
1776,0.1081
1777,0.0414
1778,0.6769
1779,0.1026
1780,0.1105
1781,0.1038
1782,0.069
1783,0.1389
1784,0.4456
1785,0.0489
1786,1.3551
1787,0.0821
1788,0.0832
1789,0.0678
1790,0.0296
1791,1.1932
1792,0.1172
1793,0.0185
1794,0.0457
1795,0.1831
1796,0.0931
1797,0.0418
1798,1.6875
1799,0.0327
1800,0.1559
1801,1.7175
1802,0.27
1803,0.2514
1804,0.5214
1805,0.2976
1806,0.0489
1807,0.2463
1808,0.4077
1809,0.0501
1810,6.5743
1811,0.1385
1812,0.054
1813,0.0584
1814,0.069
1815,0.2096
1816,0.101
1817,0.0382
1818,0.0619
1819,0.0971
1820,0.5009
1821,0.1113
1822,0.0367
1823,0.1069
1824,0.249
1825,0.0884
1826,0.0375
1827,0.0615
1828,0.5542
1829,1.3748
1830,0.2664
1831,0.0351
1832,1.0275
1833,0.1535
1834,0.5707
1835,0.1306
1836,0.1977
1837,0.2822
1838,0.0331
1839,0.2293
1840,0.0872
1841,0.4819
1842,1.0172
1843,1.7483
1844,0.0623
1845,0.9805
1846,0.3903
1847,0.5932
1848,0.0513
1849,3.8116
1850,0.1492
1851,2.1244
1852,0.1057
1853,0.071
1854,1.3681
1855,0.3047
1856,0.2178
1857,0.2107
1858,0.2289
1859,0.0848
1860,0.0367
1861,0.2905
1862,6.3304
1863,0.2573
1864,0.0611
1865,0.1184
1866,0.1085
1867,0.0611
1868,0.5692
1869,0.8423
1870,0.0588
1871,0.0371
1872,0.0998
1873,0.1622
1874,0.6643
1875,0.0789
1876,0.15
1877,0.1136
1878,0.0489
1879,0.0363
1880,0.0343
1881,0.0213
1882,0.0351
1883,0.8486
1884,0.0868
1885,0.0268
1886,0.6292
1887,0.0517
1888,2.0147
1889,3.328
1890,0.0438
1891,0.2135
1892,0.0493
1893,0.6765
1894,0.0307
1895,0.1468
1896,0.3359
1897,0.206
1898,0.0513
1899,0.0469
1900,0.0765
1901,0.2392
1902,6.8416
1903,0.1125
1904,0.0761
1905,0.0481
1906,0.0292
1907,0.0193
1908,0.0347
1909,0.0382
1910,0.0505
1911,0.0272
1912,0.0201
1913,0.0193
1914,0.0193
1915,0.0225
1916,0.0382
1917,0.041
1918,0.0517
1919,0.0228
1920,0.0189
