id,time
0,0.2676
1,1.0882
2,1.2225
3,0.0177
4,0.8929
5,0.1239
6,0.9497
7,0.8084
8,0.0584
9,0.8996
10,1.3776
11,0.4428
12,0.3832
13,1.0464
14,0.7855
15,0.613
16,0.1326
17,1.8043
18,0.1057
19,0.3367
20,0.8317
21,0.1089
22,0.0525
23,0.1377
24,0.941
25,0.0935
26,0.0939
27,1.1368
28,0.8044
29,0.1946
30,0.03
31,4.8888
32,0.0734
33,0.4535
34,0.0256
35,0.0817
36,3.626
37,0.099
38,0.0505
39,1.4723
40,0.2936
41,0.2992
42,0.2206
43,0.7002
44,0.0568
45,0.3201
46,0.4713
47,0.0702
48,0.1247
49,0.0347
50,17.7107
51,1.4376
52,0.1207
53,0.4681
54,0.8167
55,0.4997
56,0.1085
57,1.3267
58,1.3657
59,1.2082
60,0.2818
61,0.4121
62,0.0607
63,0.0284
64,2.0119
65,1.8083
66,0.1077
67,0.2163
68,0.0276
69,0.0544
70,0.1247
71,0.5376
72,1.0109
73,6.4429
74,3.3979
75,1.5683
76,0.0532
77,0.0955
78,0.0307
79,0.1247
80,1.0338
81,0.0426
82,0.1436
83,0.0556
84,0.1519
85,0.8565
86,0.1594
87,0.0225
88,0.2727
89,0.0982
90,4.0721
91,25.0308
92,4.1585
93,0.2498
94,0.0702
95,0.1859
96,0.0363
97,0.0367
98,1.1301
99,0.3501
100,1.764
101,0.2628
102,0.24
103,2.8117
104,0.4567
105,0.3603
106,6.9541
107,0.5025
108,0.4559
109,0.4697
110,0.9907
111,0.0746
112,5.0266
113,4.9891
114,0.3635
115,0.5684
116,0.0493
117,0.1796
118,0.9722
119,0.1069
120,5.3502
121,0.0615
122,0.4113
123,0.2265
124,0.1346
125,0.0359
126,0.2368
127,12.1785
128,0.163
129,1.7123
130,0.0225
131,0.178
132,6.041
133,2.1173
134,0.0742
135,1.9038
136,0.0489
137,0.0663
138,0.9915
139,0.2155
140,0.0339
141,5.1379
142,1.179
143,0.7243
144,0.1314
145,0.3363
146,0.1428
147,10.039
148,0.1728
149,0.0572
150,0.1069
151,0.5984
152,0.2806
153,0.8609
154,0.2877
155,0.0331
156,0.4547
157,0.7894
158,0.6671
159,0.3043
160,0.5475
161,0.1503
162,11.689
163,0.0497
164,0.0469
165,0.1026
166,49.6152
167,3.3126
168,0.0536
169,0.0205
170,0.0272
171,0.0284
172,0.0347
173,0.0307
174,2.3956
175,0.1125
176,0.2573
177,0.0371
178,0.6
179,0.2178
180,2.4592
181,0.0513
182,0.1401
183,1.3567
184,0.2688
185,0.1792
186,0.0327
187,0.0375
188,0.039
189,0.0382
190,0.0371
191,1.344
192,0.1831
193,0.5092
194,0.2968
195,0.0943
196,0.1985
197,0.2127
198,0.0434
199,0.073
200,0.0481
201,0.3284
202,0.7823
203,0.1989
204,0.0975
205,0.1484
206,39.1068
207,0.0607
208,0.0828
209,1.7972
210,2.8812
211,0.4448
212,1.3823
213,0.5451
214,0.2632
215,0.6777
216,0.1132
217,10.6405
218,0.2344
219,1.0239
220,0.1069
221,2.9672
222,0.0386
223,0.2289
224,0.7247
225,0.6975
226,0.0734
227,0.3714
228,0.0797
229,0.9138
230,0.0927
231,0.0663
232,0.0323
233,0.2901
234,0.2988
235,1.241
236,0.0761
237,13.8735
238,0.8289
239,0.3568
240,13.9737
241,0.4519
242,0.7263
243,8.9519
244,25.1989
245,27.8165
246,0.2471
247,0.6343
248,0.0789
249,0.2238
250,0.1282
251,0.0635
252,12.4311
253,9.8969
254,0.0315
255,0.0213
256,0.9525
257,0.253
258,0.0501
259,0.1973
260,0.6753
261,0.0493
262,0.1389
263,2.3076
264,0.1125
265,0.1559
266,0.309
267,1.0594
268,0.0359
269,0.4026
270,0.099
271,0.3078
272,0.1953
273,0.3465
274,6.0245
275,0.1077
276,0.2703
277,0.8854
278,0.0323
279,5.3404
280,0.3773
281,0.1132
282,0.1661
283,0.1346
284,0.2632
285,0.2747
286,0.1156
287,0.0189
288,0.0868
289,0.0623
290,2.8772
291,0.2542
292,1.4455
293,0.1105
294,0.105
295,1.3942
296,1.9369
297,0.0252
298,0.0675
299,0.1788
300,0.1046
301,2.0254
302,0.7989
303,0.3177
304,7.4503
305,0.7571
306,0.5419
307,3.0217
308,0.8632
309,0.4306
310,0.0651
311,1.8193
312,0.0544
313,0.1117
314,4.2308
315,0.3126
316,0.0592
317,0.6181
318,0.4638
319,0.8415
320,0.0564
321,0.3975
322,24.2942
323,0.075
324,0.1665
325,0.0903
326,1.0279
327,1.6077
328,0.7784
329,3.4002
330,0.0801
331,3.1287
332,2.5247
333,0.4831
334,0.0331
335,0.0769
336,0.0572
337,0.1863
338,0.5514
339,0.0418
340,0.0793
341,0.2447
342,23.5687
343,1.434
344,0.0939
345,0.1425
346,0.24
347,0.4665
348,0.0635
349,0.1278
350,2.036
351,0.2388
352,0.3469
353,0.0375
354,0.0722
355,6.6458
356,0.0521
357,0.2021
358,0.1113
359,0.1034
360,0.3528
361,0.3217
362,0.0797
363,0.4725
364,0.5171
365,7.1992
366,2.3996
367,0.6943
368,0.099
369,0.7488
370,0.7515
371,0.2538
372,0.9197
373,0.039
374,0.0477
375,0.0773
376,0.1468
377,0.2601
378,3.7113
379,0.3094
380,0.3284
381,0.2597
382,0.5119
383,1.0567
384,3.1591
385,0.1117
386,0.2423
387,0.8755
388,1.1554
389,0.0473
390,0.5802
391,0.7168
392,0.043
393,0.1081
394,0.6347
395,1.2422
396,0.2478
397,0.4586
398,0.2767
399,1.6938
400,0.1326
401,0.0434
402,2.548
403,0.3209
404,0.1022
405,23.4952
406,0.2139
407,0.251
408,0.6094
409,0.0311
410,1.6133
411,0.4255
412,1.9472
413,0.0386
414,0.1886
415,10.1807
416,0.1113
417,0.4938
418,0.2857
419,0.4448
420,0.0465
421,0.234
422,0.8865
423,0.5692
424,3.6647
425,0.5115
426,0.12
427,0.2234
428,0.6773
429,0.0868
430,0.4725
431,41.2475
432,0.1575
433,2.051
434,1.2911
435,0.2486
436,0.0702
437,5.2006
438,0.3217
439,0.135
440,0.2684
441,0.1346
442,0.5857
443,0.075
444,0.0517
445,0.133
446,2.5255
447,1.1076
448,5.595
449,0.2656
450,0.101
451,1.1131
452,0.3556
453,9.3205
454,0.0461
455,1.1297
456,0.1093
457,0.0872
458,0.4578
459,0.9525
460,0.581
461,3.2617
462,0.1377
463,1.5138
464,0.1953
465,0.0832
466,0.1286
467,0.3738
468,0.7815
469,0.9442
470,3.2222
471,0.1432
472,1.0251
473,5.912
474,0.0292
475,0.2135
476,11.0799
477,0.0765
478,5.8385
479,0.0505
480,0.0378
481,0.1176
482,0.219
483,0.0426
484,0.5569
485,0.4444
486,0.4436
487,0.2159
488,0.3236
489,0.6303
490,1.2414
491,0.5743
492,1.1656
493,0.341
494,0.3256
495,0.5573
496,0.4819
497,0.5182
498,0.0465
499,0.1488
500,0.3686
501,4.1976
502,0.2021
503,15.9387
504,3.3359
505,0.084
506,29.7329
507,2.2717
508,0.431
509,0.8554
510,3.5297
511,3.1977
512,0.1496
513,0.1282
514,2.9131
515,0.6643
516,1.3839
517,0.1089
518,0.1144
519,0.0442
520,0.12
521,0.086
522,0.266
523,0.8992
524,0.1353
525,1.0136
526,0.4128
527,0.0848
528,0.5072
529,41.4117
530,0.0801
531,0.1618
532,4.0377
533,0.4298
534,0.1085
535,7.9674
536,0.1768
537,0.2984
538,3.7638
539,0.1113
540,0.0394
541,0.0414
542,1.4775
543,0.206
544,0.3536
545,0.4859
546,0.7768
547,0.9943
548,0.0722
549,2.4142
550,16.2526
551,3.5364
552,0.0548
553,18.1094
554,3.2396
555,0.0797
556,0.0667
557,0.4575
558,0.6828
559,0.1997
560,23.8683
561,0.4685
562,1.1104
563,0.4646
564,0.0485
565,0.2605
566,0.7176
567,19.2099
568,0.1811
569,2.4931
570,0.0911
571,0.0615
572,0.0461
573,0.0702
574,0.1803
575,0.1294
576,0.5475
577,0.1121
578,0.2932
579,0.0453
580,0.1571
581,0.8601
582,0.7969
583,4.3843
584,5.9834
585,1.5931
586,5.3001
587,0.1642
588,3.0726
589,0.1172
590,0.0639
591,0.0623
592,0.06
593,2.1004
594,2.7687
595,0.2731
596,0.1973
597,0.3438
598,38.0686
599,0.0738
600,0.5605
601,0.2309
602,0.0406
603,0.1282
604,0.0221
605,0.2194
606,1.2931
607,0.1026
608,0.6603
609,0.6769
610,0.5064
611,29.1337
612,83.4191
613,2.6202
614,0.1578
615,0.3757
616,0.3923
617,1.1704
618,3.0908
619,0.4061
620,0.238
621,0.4922
622,0.2301
623,0.1993
624,0.1144
625,0.2092
626,0.0789
627,2.5737
628,0.135
629,0.0678
630,0.4811
631,0.161
632,2.1473
633,0.1109
634,0.5569
635,2.8109
636,0.5281
637,1.2592
638,0.0367
639,0.3039
640,0.1168
641,3.5514
642,0.5802
643,27.2512
644,0.4421
645,0.0497
646,0.054
647,4.2781
648,17.2461
649,0.1192
650,0.5238
651,0.2238
652,0.0714
653,1.2209
654,0.3959
655,0.1393
656,0.7788
657,0.0773
658,1.5864
659,4.2663
660,1.1198
661,0.0489
662,0.0805
663,0.4993
664,0.5234
665,0.1318
666,0.0288
667,0.2778
668,1.243
669,0.4152
670,0.0856
671,0.6153
672,0.0355
673,0.1357
674,0.7346
675,0.4547
676,0.3856
677,0.1156
678,0.5435
679,0.5775
680,0.7626
681,0.1492
682,0.0738
683,0.2131
684,1.1336
685,4.9555
686,9.1737
687,0.0225
688,0.8561
689,5.8693
690,1.1246
691,0.144
692,2.0096
693,0.1618
694,0.1492
695,0.4448
696,0.3655
697,0.1701
698,0.03
699,14.3925
700,9.529
701,0.3761
702,2.3684
703,0.1981
704,0.0698
705,0.039
706,0.058
707,2.6273
708,0.2131
709,0.3272
710,0.0639
711,10.5158
712,0.5806
713,0.2782
714,0.206
715,2.5417
716,0.2478
717,0.6221
718,0.5131
719,1.0961
720,0.0473
721,3.1725
722,0.1417
723,1.4538
724,0.0315
725,0.4618
726,0.491
727,2.1169
728,0.793
729,0.2932
730,0.0856
731,0.0343
732,0.0536
733,0.0426
734,10.9895
735,6.2957
736,0.1476
737,0.1496
738,0.1188
739,0.0473
740,1.1415
741,3.9102
742,0.2518
743,0.489
744,0.0663
745,0.7693
746,0.2992
747,1.1625
748,0.0592
749,0.0584
750,0.1752
751,0.2818
752,0.3118
753,0.1961
754,1.2343
755,0.6584
756,0.191
757,2.0226
758,3.8246
759,11.0763
760,5.852
761,0.0939
762,25.4847
763,1.4044
764,0.1085
765,1.6792
766,2.5681
767,0.1456
768,0.0572
769,0.1042
770,0.433
771,0.0548
772,3.1741
773,0.2175
774,3.0102
775,0.0359
776,1.6725
777,0.3489
778,0.0678
779,9.6648
780,0.1744
781,1.3886
782,4.3859
783,0.4223
784,0.1705
785,0.0453
786,0.371
787,0.3568
788,6.2574
789,0.1811
790,0.1803
791,0.1906
792,1.185
793,0.6667
794,0.0635
795,0.1065
796,1.1597
797,0.716
798,0.0473
799,52.417
800,30.8654
801,0.0536
802,2.2318
803,1.5371
804,0.1211
805,0.1914
806,3.2475
807,25.5049
808,0.2569
809,0.3327
810,1.4167
811,0.0544
812,0.3978
813,1.5564
814,0.1235
815,0.0757
816,0.2056
817,0.2325
818,0.0568
819,0.0888
820,0.0378
821,0.1255
822,0.2344
823,0.0244
824,0.024
825,1.4088
826,0.1223
827,0.1642
828,0.0528
829,0.06
830,0.0398
831,13.6785
832,0.2928
833,5.5512
834,6.4824
835,0.2171
836,0.2403
837,1.0669
838,0.658
839,0.2684
840,0.4326
841,0.0876
842,2.4497
843,0.3067
844,0.4689
845,0.1421
846,0.2605
847,5.4462
848,9.8151
849,0.6761
850,0.0284
851,0.03
852,41.9923
853,0.0521
854,29.8592
855,0.3773
856,0.3896
857,1.554
858,0.116
859,0.1957
860,0.6548
861,0.1117
862,0.4776
863,1.4775
864,0.0517
865,1.5564
866,0.1685
867,1.029
868,0.2869
869,0.4567
870,27.3045
871,1.376
872,1.2564
873,1.6693
874,0.6576
875,0.36
876,0.2648
877,0.0402
878,0.4259
879,0.0382
880,37.6936
881,0.0509
882,0.0694
883,0.0453
884,0.283
885,0.3485
886,0.5988
887,5.366
888,3.3351
889,2.07
890,0.4918
891,5.1012
892,0.0465
893,19.2877
894,0.2964
895,0.1302
896,0.0473
897,0.0761
898,0.1006
899,0.2767
900,0.4721
901,0.2806
902,0.0911
903,0.7211
904,0.0643
905,0.1606
906,0.251
907,0.2301
908,0.2846
909,0.1282
910,24.9203
911,1.1107
912,1.0646
913,0.2794
914,9.1397
915,0.7804
916,0.0236
917,0.1046
918,44.1689
919,0.339
920,0.8202
921,4.052
922,7.1175
923,0.0461
924,0.5581
925,0.1152
926,0.0556
927,0.0418
928,0.0825
929,0.0414
930,0.4626
931,0.099
932,0.2557
933,0.165
934,0.191
935,2.7489
936,0.1263
937,0.0836
938,0.0548
939,0.1709
940,0.4196
941,0.9335
942,0.7188
943,0.9189
944,1.1127
945,0.3351
946,12.1721
947,4.4842
948,4.0354
949,1.2588
950,0.0465
951,0.4819
952,0.401
953,0.744
954,5.2946
955,2.5219
956,0.371
957,0.7006
958,0.0856
959,1.4542
960,0.9229
961,1.0085
962,1.1198
963,0.0414
964,0.6651
965,2.7963
966,0.3225
967,0.0592
968,1.1096
969,0.0414
970,0.8806
971,0.238
972,0.0355
973,0.3268
974,0.0651
975,0.1132
976,0.3221
977,1.4226
978,1.348
979,0.8727
980,0.8467
981,0.4847
982,0.3722
983,0.7215
984,2.3498
985,0.369
986,0.1215
987,0.2103
988,0.0817
989,1.2181
990,0.2759
991,5.4734
992,28.6257
993,0.193
994,0.0477
995,0.1065
996,0.2388
997,3.765
998,0.0663
999,0.225
1000,0.1184
1001,0.1014
1002,0.3177
1003,0.5936
1004,0.2419
1005,1.1684
1006,0.2321
1007,11.5315
1008,0.0832
1009,3.5384
1010,1.2576
1011,0.1346
1012,0.5257
1013,0.3276
1014,0.0884
1015,0.5755
1016,0.1914
1017,0.0856
1018,0.5439
1019,1.3859
1020,0.3236
1021,0.249
1022,0.3832
1023,0.1922
1024,0.324
1025,0.1993
1026,0.2119
1027,0.2364
1028,0.866
1029,0.5632
1030,0.4353
1031,0.0915
1032,0.249
1033,3.0276
1034,0.6884
1035,4.185
1036,4.4992
1037,0.0943
1038,14.9981
1039,0.4326
1040,2.1102
1041,0.1357
1042,0.7638
1043,0.1093
1044,0.2139
1045,0.0769
1046,0.071
1047,0.101
1048,0.7961
1049,1.0981
1050,0.2672
1051,4.2584
1052,0.101
1053,2.8875
1054,0.0939
1055,0.8179
1056,0.4685
1057,0.1436
1058,0.0552
1059,2.4525
1060,0.2593
1061,0.3438
1062,0.0532
1063,1.7826
1064,0.9004
1065,1.8769
1066,0.3288
1067,0.1922
1068,0.4306
1069,0.0457
1070,0.3173
1071,0.3292
1072,0.2494
1073,0.0189
1074,0.208
1075,0.1338
1076,0.3461
1077,0.3876
1078,0.1843
1079,0.0501
1080,2.4904
1081,4.4423
1082,0.5143
1083,0.0552
1084,0.8621
1085,2.2661
1086,0.1788
1087,0.3552
1088,1.4905
1089,0.45
1090,0.0446
1091,2.3597
1092,0.1057
1093,1.7305
1094,0.0414
1095,0.4772
1096,0.2889
1097,0.0327
1098,0.2202
1099,0.041
1100,0.0311
1101,0.0311
1102,0.0284
1103,0.1322
1104,0.0446
1105,0.255
1106,0.1227
1107,0.0311
1108,0.0402
1109,0.0532
1110,0.2392
1111,0.1144
1112,0.0292
1113,0.0876
1114,0.0378
1115,0.0714
1116,0.1543
1117,0.0414
1118,0.0418
1119,0.1046
1120,0.0236
1121,0.0319
1122,0.1567
1123,0.0718
1124,1.455
1125,0.2336
1126,0.4251
1127,0.159
1128,0.1425
1129,0.1681
1130,0.609
1131,1.3626
1132,1.3235
1133,0.9142
1134,0.0461
1135,0.7109
1136,0.3307
1137,1.2682
1138,1.6144
1139,0.1646
1140,0.0903
1141,0.0947
1142,0.1843
1143,0.285
1144,2.2472
1145,0.0386
1146,0.4855
1147,0.1646
1148,0.1626
1149,0.328
1150,3.4168
1151,2.3577
1152,1.9101
1153,0.4681
1154,0.1401
1155,5.6412
1156,4.9733
1157,0.1484
1158,15.1149
1159,0.7468
1160,0.0442
1161,0.4472
1162,0.4117
1163,1.0456
1164,46.717
1165,1.8004
1166,102.6567
1167,0.0951
1168,0.6055
1169,0.1594
1170,0.0694
1171,0.0982
1172,7.8738
1173,0.0607
1174,0.1926
1175,2.4083
1176,0.2407
1177,0.1634
1178,0.086
1179,0.0789
1180,0.1026
1181,0.4338
1182,0.0907
1183,0.1188
1184,0.3126
1185,1.6046
1186,0.0477
1187,0.6236
1188,0.1381
1189,6.5045
1190,3.1097
1191,1.9977
1192,3.9963
1193,1.2244
1194,0.298
1195,3.7523
1196,0.8388
1197,0.0272
1198,0.0453
1199,24.1876
1200,0.3157
1201,0.0623
1202,8.7379
1203,3.6126
1204,0.1152
1205,1.618
1206,0.118
1207,0.2017
1208,0.0446
1209,0.0639
1210,0.1247
1211,0.6603
1212,0.2557
1213,0.3556
1214,0.0505
1215,2.2042
1216,0.5131
1217,0.0592
1218,0.3276
1219,0.75
1220,9.7054
1221,0.6382
1222,0.6157
1223,0.2297
1224,0.0919
1225,1.3906
1226,0.1117
1227,0.0367
1228,11.1292
1229,0.2447
1230,0.0896
1231,0.1432
1232,0.7531
1233,1.3436
1234,0.2621
1235,0.0876
1236,1.3871
1237,0.4807
1238,1.5868
1239,0.2518
1240,0.1713
1241,0.0611
1242,1.0839
1243,0.0836
1244,0.1022
1245,0.0746
1246,0.1914
1247,0.1567
1248,0.0986
1249,0.0355
1250,2.9033
1251,0.7946
1252,2.1402
1253,1.1838
1254,0.163
1255,0.4748
1256,0.1034
1257,0.2218
1258,0.1065
1259,1.9164
1260,0.5794
1261,7.967
1262,0.2573
1263,0.3801
1264,0.7322
1265,0.0465
1266,0.1417
1267,0.1721
1268,0.7105
1269,0.1875
1270,0.0505
1271,0.0501
1272,6.3517
1273,0.084
1274,0.8431
1275,1.856
1276,0.3106
1277,0.9063
1278,0.0442
1279,0.0303
1280,0.7622
1281,5.5188
1282,0.0596
1283,0.0615
1284,0.1381
1285,1.0989
1286,0.026
1287,0.1077
1288,0.1969
1289,0.1038
1290,0.024
1291,4.4704
1292,3.4598
1293,0.1551
1294,0.0856
1295,0.1164
1296,0.0347
1297,0.429
1298,0.0623
1299,0.0694
1300,0.5096
1301,1.05
1302,0.2834
1303,0.0809
1304,0.0457
1305,0.2936
1306,0.0868
1307,0.5017
1308,0.249
1309,0.2723
1310,0.0446
1311,0.7401
1312,0.1851
1313,2.8014
1314,0.0943
1315,0.3363
1316,0.0671
1317,0.1555
1318,2.1023
1319,2.5887
1320,0.043
1321,0.0501
1322,1.2276
1323,0.0217
1324,0.0548
1325,0.0276
1326,0.0714
1327,0.1219
1328,0.0797
1329,0.0576
1330,0.735
1331,0.1582
1332,0.0284
1333,0.0753
1334,0.0718
1335,0.1464
1336,0.1503
1337,4.0042
1338,0.0982
1339,0.401
1340,0.6106
1341,0.1357
1342,0.0477
1343,0.9876
1344,0.0438
1345,1.2611
1346,0.5131
1347,0.9979
1348,0.9623
1349,0.0363
1350,0.1125
1351,0.2155
1352,12.4295
1353,0.3264
1354,0.1653
1355,0.386
1356,0.1776
1357,0.2542
1358,0.1732
1359,0.3836
1360,2.1793
1361,0.0485
1362,0.1038
1363,0.1768
1364,0.0769
1365,0.0544
1366,0.2853
1367,0.12
1368,0.3738
1369,1.3306
1370,0.0521
1371,0.2013
1372,1.2011
1373,11.6302
1374,0.8885
1375,0.0414
1376,0.1026
1377,0.0797
1378,2.6585
1379,0.0572
1380,0.0532
1381,0.2763
1382,0.4306
1383,0.054
1384,0.0801
1385,0.2928
1386,0.2972
1387,0.0568
1388,0.4275
1389,0.2561
1390,0.2021
1391,0.0722
1392,0.2246
1393,0.1428
1394,0.2261
1395,0.7338
1396,0.0367
1397,0.0927
1398,0.2451
1399,0.0611
1400,0.0477
1401,0.0667
1402,0.4914
1403,0.0493
1404,1.3164
1405,0.4097
1406,0.0505
1407,0.27
1408,0.0438
1409,0.0528
1410,1.1704
1411,0.0975
1412,0.0809
1413,9.2913
1414,0.9457
1415,0.4326
1416,0.6785
1417,0.0327
1418,0.0773
1419,0.2103
1420,0.1322
1421,2.5527
1422,4.2892
1423,1.6385
1424,0.4413
1425,0.3438
1426,0.2092
1427,0.2281
1428,0.0453
1429,0.0505
1430,0.0343
1431,0.0406
1432,0.0236
1433,0.0453
1434,0.0532
1435,0.5131
1436,0.2988
1437,0.0252
1438,0.3489
1439,0.9659
1440,0.6371
1441,0.339
1442,0.5415
1443,0.0967
1444,0.6363
1445,1.2292
1446,0.0671
1447,1.4151
1448,0.3126
1449,0.0935
1450,0.0442
1451,0.9651
1452,0.0382
1453,0.6252
1454,1.5055
1455,0.4444
1456,3.1429
1457,0.6757
1458,0.0378
1459,0.1582
1460,0.0457
1461,0.0896
1462,0.0355
1463,0.0592
1464,0.0315
1465,0.0623
1466,12.8803
1467,0.7634
1468,0.3367
1469,0.2159
1470,0.1136
1471,10.6244
1472,5.1122
1473,0.7835
1474,0.0975
1475,0.0536
1476,0.8475
1477,0.1867
1478,0.0915
1479,0.0777
1480,2.1071
1481,1.5154
1482,5.4521
1483,0.2684
1484,0.0896
1485,0.3698
1486,0.0438
1487,12.4307
1488,0.1665
1489,0.1646
1490,0.2246
1491,0.6359
1492,0.1736
1493,0.4444
1494,0.2542
1495,0.51
1496,0.5269
1497,0.2901
1498,0.3982
1499,5.8808
1500,0.0615
1501,0.0347
1502,0.045
1503,0.0631
1504,2.385
1505,0.3726
1506,0.8281
1507,0.0852
1508,0.1239
1509,0.1535
1510,0.0386
1511,0.2798
1512,0.1267
1513,0.8932
1514,0.0607
1515,2.1086
1516,7.7416
1517,13.5431
1518,8.9601
1519,11.7604
1520,11.3381
1521,0.1061
1522,0.0876
1523,0.03
1524,0.0355
1525,4.9216
1526,0.0292
1527,0.1875
1528,0.0971
1529,0.0307
1530,0.1365
1531,0.8684
1532,0.0355
1533,0.1417
1534,0.2561
1535,0.1188
1536,0.0682
1537,9.2226
1538,0.0493
1539,0.3
1540,0.3244
1541,0.3615
1542,0.1878
1543,0.1918
1544,16.6678
1545,0.4046
1546,1.0231
1547,1.2556
1548,0.0398
1549,1.0417
1550,0.0544
1551,0.0359
1552,0.838
1553,3.4804
1554,0.0442
1555,1.9792
1556,0.7448
1557,1.3938
1558,1.3148
1559,0.2743
1560,0.7973
1561,3.9027
1562,0.6789
1563,0.1851
1564,0.5538
1565,13.3019
1566,23.9192
1567,0.0572
1568,0.2628
1569,0.2613
1570,1.8817
1571,0.0675
1572,0.1065
1573,0.9604
1574,0.4535
1575,0.0603
1576,0.3753
1577,0.0726
1578,0.2123
1579,3.7464
1580,0.0493
1581,0.9722
1582,0.3955
1583,0.1409
1584,0.0386
1585,0.0568
1586,0.0884
1587,0.0418
1588,0.041
1589,0.0331
1590,0.1563
1591,0.0497
1592,0.2581
1593,0.6453
1594,0.7551
1595,0.7038
1596,0.6272
1597,0.3248
1598,0.0971
1599,0.0564
1600,3.3935
1601,0.0335
1602,0.2309
1603,0.0359
1604,0.1286
1605,0.7488
1606,0.0473
1607,0.0477
1608,0.0513
1609,0.7689
1610,0.0418
1611,0.0876
1612,8.3451
1613,0.0363
1614,0.3978
1615,27.9562
1616,0.0339
1617,3.2783
1618,0.0663
1619,2.8113
1620,0.0611
1621,0.7653
1622,1.0638
1623,0.0777
1624,0.0753
1625,1.1644
1626,3.6181
1627,0.161
1628,9.9245
1629,0.1413
1630,0.0852
1631,0.0556
1632,0.0422
1633,2.3277
1634,0.0394
1635,0.8021
1636,0.0785
1637,0.2403
1638,0.3015
1639,0.0528
1640,0.0635
1641,0.0643
1642,0.0651
1643,1.29
1644,1.4731
1645,0.086
1646,0.1815
1647,0.0903
1648,1.4905
1649,0.1097
1650,2.9439
1651,0.6114
1652,7.9966
1653,0.0667
1654,0.5498
1655,0.5242
1656,0.6367
1657,0.3955
1658,1.2236
1659,0.054
1660,0.2032
1661,0.0335
1662,0.1247
1663,0.1117
1664,0.0789
1665,0.1555
1666,0.0394
1667,0.159
1668,2.8208
1669,0.0453
1670,0.4717
1671,7.8478
1672,0.0821
1673,0.1421
1674,0.0927
1675,1.4857
1676,0.3236
1677,0.4128
1678,0.4646
1679,0.9501
1680,0.2143
1681,0.1507
1682,0.058
1683,0.1622
1684,0.118
1685,0.06
1686,0.2261
1687,0.1882
1688,0.0667
1689,0.2198
1690,1.1305
1691,9.6588
1692,0.416
1693,6.5929
1694,0.4346
1695,0.5731
1696,2.4915
1697,0.0813
1698,0.0911
1699,0.054
1700,0.6213
1701,0.0643
1702,0.116
1703,5.5642
1704,0.1511
1705,0.0386
1706,0.0864
1707,0.1306
1708,0.0813
1709,0.765
1710,2.5089
1711,0.09
1712,0.0785
1713,2.8433
1714,0.8336
1715,0.9288
1716,0.0386
1717,0.0544
1718,0.4353
1719,0.0955
1720,0.0896
1721,1.0436
1722,1.5339
1723,0.1665
1724,0.043
1725,0.5463
1726,0.1421
1727,0.1567
1728,0.0623
1729,0.0509
1730,0.7977
1731,0.0493
1732,0.0876
1733,0.4555
1734,0.1109
1735,2.2243
1736,1.1854
1737,3.5471
1738,0.4073
1739,0.1717
1740,0.2017
1741,0.1981
1742,0.0777
1743,0.3063
1744,0.7618
1745,0.6643
1746,0.1089
1747,0.1113
1748,0.7476
1749,104.6572
1750,0.5534
1751,0.2873
1752,1.6693
1753,1.0752
1754,0.4602
1755,0.0746
1756,0.1168
1757,0.8443
1758,0.12
1759,0.1819
1760,0.0355
1761,0.0505
1762,0.1989
1763,0.2703
1764,0.1385
1765,0.0307
1766,0.0844
1767,13.2482
1768,0.2028
1769,0.339
1770,0.1006
1771,0.0623
1772,0.1772
1773,0.0453
1774,0.0753
1775,0.1965
1776,0.071
1777,0.0418
1778,5.9179
1779,0.0927
1780,0.0446
1781,0.101
1782,0.0738
1783,0.1448
1784,0.2565
1785,0.058
1786,1.3373
1787,0.088
1788,0.0643
1789,0.0722
1790,0.0307
1791,2.3483
1792,0.1093
1793,0.0181
1794,0.0442
1795,0.1732
1796,0.0975
1797,0.0426
1798,0.5628
1799,0.0327
1800,0.1571
1801,1.7064
1802,0.2656
1803,0.7428
1804,0.5048
1805,0.2956
1806,0.0461
1807,0.2396
1808,0.4298
1809,0.0521
1810,6.6935
1811,0.163
1812,0.0469
1813,0.0584
1814,0.0671
1815,0.2143
1816,0.1073
1817,0.0398
1818,0.0694
1819,0.1034
1820,0.4803
1821,0.0686
1822,0.0347
1823,0.1192
1824,0.2589
1825,0.0939
1826,0.0359
1827,0.0355
1828,0.5447
1829,1.8789
1830,0.27
1831,0.0335
1832,0.9789
1833,0.1452
1834,0.5475
1835,0.0828
1836,0.2005
1837,0.2853
1838,0.103
1839,0.2352
1840,0.0872
1841,0.5514
1842,1.0279
1843,1.5967
1844,0.06
1845,0.9572
1846,0.4026
1847,0.5723
1848,0.0315
1849,0.0497
1850,0.1452
1851,2.4908
1852,0.1776
1853,0.0611
1854,1.436
1855,1.0827
1856,0.2151
1857,0.2036
1858,0.2771
1859,0.0884
1860,0.0363
1861,0.2905
1862,0.0359
1863,0.2573
1864,0.0603
1865,0.1263
1866,0.1184
1867,0.0619
1868,0.5625
1869,0.8419
1870,0.0513
1871,0.0319
1872,0.0805
1873,0.3746
1874,0.4539
1875,0.0734
1876,0.1468
1877,0.0888
1878,0.0402
1879,0.0315
1880,0.0272
1881,0.0221
1882,0.028
1883,0.6268
1884,0.0639
1885,0.0209
1886,0.4101
1887,0.0414
1888,3.7255
1889,1.7755
1890,0.0359
1891,0.2119
1892,0.0481
1893,0.7582
1894,0.0311
1895,2.0917
1896,0.3185
1897,0.4472
1898,0.0521
1899,0.0477
1900,0.0718
1901,0.2384
1902,6.0383
1903,0.1073
1904,0.0761
1905,0.0465
1906,0.0185
1907,0.0209
1908,0.0347
1909,0.0371
1910,0.0501
1911,0.028
1912,0.0268
1913,0.0205
1914,0.0197
1915,0.0485
1916,0.0378
1917,0.0394
1918,0.0363
1919,0.0244
1920,0.0201
