id,states,transitions,statesSim,transitionsSim,timeSim,stateMinAfterSim,transitionsMinAfterSim,timeSimAndMin
ex11.mona.aut,2217,6513,644,2719,615.1726,172,712,12100.9794
ex12.mona.aut,377,1089,158,558,49.1549,202,1603,1307.0838
ex13.mona.aut,933,4591,135,944,471.0561,37,214,95437.0284
ex15.mona.aut,10,27,10,27,0.3671,9,31,0.8427
ex16.mona.aut,543,1426,116,574,86.0156,-1,-1,-1
ex17.mona.aut,1,0,1,0,0.0477,1,0,0.0493
ex19.mona.aut,814,2885,250,1416,67.8856,-1,-1,-1
ex7.mona.aut,148,373,42,141,7.1763,180,826,54.2995
horn_trans05.mona.aut,11,25,11,25,0.3848,2,3,4.8288
horn_trans10.mona.aut,21,50,21,50,0.596,2,3,5355.2151
parametric_uabe1_11.mona.aut,2507,7493,762,3273,621.2453,208,772,39187.8058
parametric_uabe3_10.mona.aut,2257,6733,684,2939,645.4318,192,782,28589.8702
set_closed05.mona.aut,24,53,20,49,1.4648,3,5,26.8975
set_closed10.mona.aut,44,98,35,89,2.906,3,5,4324.787
set_obvious05.mona.aut,1,0,1,0,0.0643,1,0,0.0667
set_obvious10.mona.aut,1,0,1,0,0.054,1,0,0.0556
set_singletons05.mona.aut,21,55,17,51,1.2221,313,6289,76.7353
set_singletons10.mona.aut,41,110,32,101,3.1065,-1,-1,-1
strand-new-sorted-list-insert-after-loop.mona.aut,674,5429,266,2737,384.3852,232,3935,2626.3347
strand-new-sorted-list-insert-before-head.mona.aut,219,1699,153,1317,57.8379,55,494,1033.7979
strand-new-sorted-list-insert-before-loop.mona.aut,387,3430,197,2059,79.1077,424,9277,4468.9584
strand-new-sorted-list-insert-error-error.mona.aut,387,3430,197,2059,82.864,424,9277,4370.3672
strand-new-sorted-list-reverse-after-loop.mona.aut,956,20383,664,15908,927.1674,303,7254,5597.8724
strand-new-sorted-list-reverse-before-loop.mona.aut,956,20383,664,15908,989.8244,303,7254,5622.364
strand-new-sorted-list-search-after-loop.mona.aut,431,5629,276,3910,198.2356,153,2628,885.5954
strand-new-sorted-list-search-before-loop.mona.aut,300,2849,138,1603,59.4583,156,2680,854.9684
toss05.mona.aut,65,288,63,285,4.9366,347,3986,88.3343
toss10.mona.aut,1413,16619,1411,16616,623.0757,-1,-1,-1
veanes05.mona.aut,6,11,6,11,0.2968,6,11,0.5376
veanes05_1alts.mona.aut,19,45,10,21,0.5553,9,28,0.8581
veanes05_2alts.mona.aut,31,172,31,172,1.7593,30,207,5.1864
veanes05_3alts.mona.aut,19,50,16,42,0.8838,11,45,1.5465
veanes05_4alts.mona.aut,25,91,25,91,0.744,36,277,5.0798
veanes10.mona.aut,11,21,11,21,11.8678,11,21,12.1259
veanes10_1alts.mona.aut,39,95,15,31,1.0539,14,48,1.7261
veanes10_2alts.mona.aut,780,33596,780,33596,619.5475,779,34871,27495.5702
veanes10_3alts.mona.aut,39,100,21,52,2.4734,16,75,3.7069
veanes10_4alts.mona.aut,588,15179,588,15179,202.9042,971,49833,20496.8282
