id,states,transitions,statesSim,transitionsSim,timeSim,stateMinAfterSim,transitionsMinAfterSim,timeSimAndMin
ex11.mona.aut,2217,6513,1100,3899,501.9069,172,712,13345.2505
ex12.mona.aut,377,1089,287,971,21.4268,202,1603,1594.2233
ex13.mona.aut,933,4591,641,3899,97.6063,-1,-1,-1
ex15.mona.aut,10,27,10,27,0.3209,9,31,0.7563
ex16.mona.aut,543,1426,275,1047,22.6844,-1,-1,-1
ex17.mona.aut,1,0,1,0,0.0497,1,0,0.0513
ex19.mona.aut,814,2885,414,2049,35.4128,-1,-1,-1
ex7.mona.aut,148,373,74,224,4.7041,180,826,84.7243
horn_trans05.mona.aut,11,25,11,25,0.2692,2,3,5.8693
horn_trans10.mona.aut,21,50,21,50,1.2832,2,3,5703.8155
parametric_uabe1_11.mona.aut,2507,7493,1262,4561,450.1132,208,772,43149.3013
parametric_uabe3_10.mona.aut,2257,6733,1140,4119,499.9948,192,782,30712.2163
set_closed05.mona.aut,24,53,20,49,0.8542,3,5,19.7519
set_closed10.mona.aut,44,98,35,89,1.3606,3,5,4049.0415
set_obvious05.mona.aut,1,0,1,0,0.0627,1,0,0.0655
set_obvious10.mona.aut,1,0,1,0,0.041,1,0,0.0434
set_singletons05.mona.aut,21,55,17,51,0.795,313,6289,71.0155
set_singletons10.mona.aut,41,110,32,101,1.7084,-1,-1,-1
strand-new-sorted-list-insert-after-loop.mona.aut,674,5429,387,3526,185.6725,232,3935,2762.0557
strand-new-sorted-list-insert-before-head.mona.aut,219,1699,170,1363,19.5691,55,494,1026.4182
strand-new-sorted-list-insert-before-loop.mona.aut,387,3430,262,2562,34.4847,424,9277,4491.8004
strand-new-sorted-list-insert-error-error.mona.aut,387,3430,262,2562,34.4954,424,9277,4445.3819
strand-new-sorted-list-reverse-after-loop.mona.aut,956,20383,683,15975,339.2248,303,7254,3976.8067
strand-new-sorted-list-reverse-before-loop.mona.aut,956,20383,683,15975,314.824,303,7254,3928.4737
strand-new-sorted-list-search-after-loop.mona.aut,431,5629,291,3963,73.089,153,2628,610.2253
strand-new-sorted-list-search-before-loop.mona.aut,300,2849,194,2061,26.1707,156,2680,925.9217
toss05.mona.aut,65,288,63,285,12.8219,347,3986,83.3262
toss10.mona.aut,1413,16619,1411,16616,256.9324,-1,-1,-1
veanes05.mona.aut,6,11,6,11,0.206,6,11,0.3272
veanes05_1alts.mona.aut,19,45,10,21,0.3469,9,28,0.6394
veanes05_2alts.mona.aut,31,172,31,172,1.2236,30,207,5.8346
veanes05_3alts.mona.aut,19,50,16,42,0.4302,11,45,1.0271
veanes05_4alts.mona.aut,25,91,25,91,1.1309,36,277,7.6389
veanes10.mona.aut,11,21,11,21,0.3828,11,21,1.198
veanes10_1alts.mona.aut,39,95,15,31,0.6742,14,48,1.245
veanes10_2alts.mona.aut,780,33596,780,33596,617.8252,779,34871,28472.744
veanes10_3alts.mona.aut,39,100,21,52,0.7772,16,75,1.7364
veanes10_4alts.mona.aut,588,15179,588,15179,217.537,971,49833,20699.6648
