id,states,transitions,simRelSize,time,goodruns,minterms,mintermizedAutomatonTransitions
ex10.mona-walk.dot_5__242states.dfa,234,650,52212,38.8838,1,50,4092
ex11.mona-walk.dot_0__143states.dfa,139,574,12527,16.4187,1,33,2094
ex11.mona-walk.dot_2__143states.dfa,139,574,12527,20.9468,1,33,2094
ex11.mona-walk.dot_4__281states.dfa,279,1541,41412,57.823,1,34,5805
ex11.mona-walk.dot_5__281states.dfa,277,2007,8314,86.7582,1,34,8752
ex11.mona-walk.dot_6__301states.dfa,293,1214,11277,142.0166,1,51,13562
ex11.mona-walk.dot_7__325states.dfa,309,1508,54920,101.167,1,55,10064
ex12.mona-walk.dot_13__317states.dfa,313,1911,20187,81.5796,1,19,4131
ex12.mona-walk.dot_14__317states.dfa,313,3046,3696,121.4088,1,19,5923
ex12.mona-walk.dot_15__290states.dfa,282,4059,62984,71.9914,1,35,5822
ex12.mona-walk.dot_16__280states.dfa,276,5188,59007,148.9462,1,35,8076
ex12.mona-walk.dot_17__280states.dfa,273,3617,4144,300.6273,1,32,6908
ex14.mona-walk.dot_10__103states.dfa,95,378,7232,23.4913,1,46,1351
ex14.mona-walk.dot_11__202states.dfa,194,989,31955,80.4779,1,46,2741
ex14.mona-walk.dot_12__316states.dfa,308,1762,82683,132.2361,1,46,4728
ex14.mona-walk.dot_13__316states.dfa,308,1762,82683,130.6639,1,46,4728
ex14.mona-walk.dot_14__852states.dfa,844,5573,589680,1079.2313,1,75,17664
ex14.mona-walk.dot_15__852states.dfa,844,9038,519858,1930.3892,1,75,27406
ex14.mona-walk.dot_16__852states.dfa,846,12733,224217,3089.2056,1,75,60816
ex14.mona-walk.dot_17__167states.dfa,153,1365,13041,257.4538,1,90,9006
ex14.mona-walk.dot_21__35states.dfa,22,68,234,19.3173,1,36,385
ex14.mona-walk.dot_22__53states.dfa,38,140,970,25.7449,1,72,974
ex14.mona-walk.dot_24__42states.dfa,28,104,481,61.1751,1,36,468
ex14.mona-walk.dot_3__30states.dfa,22,40,314,1.7064,1,29,179
ex14.mona-walk.dot_4__30states.dfa,22,40,314,1.4818,1,29,179
ex14.mona-walk.dot_5__45states.dfa,37,81,1005,4.3093,1,43,365
ex14.mona-walk.dot_6__65states.dfa,57,150,2505,9.5167,1,44,661
ex14.mona-walk.dot_7__65states.dfa,57,150,2505,10.4219,1,44,661
ex14.mona-walk.dot_8__77states.dfa,69,219,3760,14.1368,1,45,826
ex14.mona-walk.dot_9__103states.dfa,95,378,7232,28.4796,1,46,1351
ex16.mona-walk.dot_56__16states.dfa,8,23,1,136.2644,1,9,70
ex16.mona-walk.dot_58__25states.dfa,11,34,15,69.2412,1,11,108
ex18.mona-walk.dot_106__298states.dfa,290,3207,68934,21495.7695,1,1539,442719
ex18.mona-walk.dot_107__298states.dfa,290,3207,68934,20542.948,1,1284,369024
ex18.mona-walk.dot_109__269states.dfa,265,1308,66048,20343.9195,1,1284,338980
ex18.mona-walk.dot_94__108states.dfa,104,196,9900,28.2017,1,48,297
ex18.mona-walk.dot_95__172states.dfa,168,324,26660,52.2939,1,72,481
ex18.mona-walk.dot_96__300states.dfa,296,580,84756,216.8718,1,120,849
ex18.mona-walk.dot_97__556states.dfa,552,1092,299252,1428.586,1,216,1585
ex19.mona-walk.dot_10__119states.dfa,115,171,10678,14.3393,1,51,1054
ex19.mona-walk.dot_47__135states.dfa,131,250,14038,25.9707,1,37,1988
ex19.mona-walk.dot_49__247states.dfa,243,578,48700,72.4769,1,65,6112
ex19.mona-walk.dot_51__141states.dfa,137,472,14832,77.5903,1,66,3288
ex20.mona-walk.dot_20__20states.dfa,6,12,9,0.1709,1,7,34
ex3.mona-walk.dot_33__579states.dfa,572,1782,201654,4130.6777,1,266,44488
ex3.mona-walk.dot_34__449states.dfa,446,1276,127768,3464.4371,1,260,26882
ex4.mona-walk.dot_20__276states.dfa,269,2586,3104,213.3101,1,29,5729
ex4.mona-walk.dot_21__531states.dfa,524,3606,251427,1039.9472,1,38,12163
ex4.mona-walk.dot_22__139states.dfa,131,499,13779,78.6802,1,76,3444
ex4.mona-walk.dot_23__139states.dfa,131,499,13779,134.7518,1,114,4126
ex4.mona-walk.dot_24__147states.dfa,139,530,16066,235.3614,1,190,5794
ex4.mona-walk.dot_25__151states.dfa,135,414,15595,365.1032,1,240,4835
ex4.mona-walk.dot_26__602states.dfa,586,2686,325351,3396.5707,1,425,24449
ex4.mona-walk.dot_38__134states.dfa,120,442,10791,218.5834,1,80,3188
ex5.mona-walk.dot_3__66states.dfa,64,70,3537,1.539,1,17,117
ex8.mona-walk.dot_18__242states.dfa,234,650,52212,48.1337,1,50,4092
parametric_uabe1_11.mona-walk.dot_0__167states.dfa,163,1123,5864,27.2615,1,32,2535
parametric_uabe1_12.mona-walk.dot_0__181states.dfa,177,1137,10376,29.1451,1,33,2755
parametric_uabe1_13.mona-walk.dot_0__195states.dfa,191,1151,15068,31.9865,1,33,2963
parametric_uabe1_14.mona-walk.dot_0__209states.dfa,205,1165,19940,33.5114,1,33,3171
parametric_uabe2_03.mona-walk.dot_0__142states.dfa,140,517,18528,16.7085,1,17,2124
parametric_uabe2_04.mona-walk.dot_0__702states.dfa,700,3197,482208,273.5608,1,17,9964
parametric_uabe2_05.mona-walk.dot_0__86states.dfa,78,314,3056,7.7704,1,36,1882
parametric_uabe2_06.mona-walk.dot_0__91states.dfa,87,314,1275,11.6392,1,34,2684
parametric_uabe2_07.mona-walk.dot_0__108states.dfa,104,380,1548,14.6428,1,34,3262
parametric_uabe2_08.mona-walk.dot_0__125states.dfa,121,446,1821,18.2263,1,34,3840
parametric_uabe3_06.mona-walk.dot_0__97states.dfa,93,528,3179,8.1667,1,32,1565
parametric_uabe3_07.mona-walk.dot_0__111states.dfa,107,542,5591,12.2037,1,33,1790
parametric_uabe3_08.mona-walk.dot_0__125states.dfa,121,556,8183,20.8939,1,33,1998
parametric_uabe3_09.mona-walk.dot_0__139states.dfa,135,570,10955,14.9539,1,33,2206
parametric_uabe3_10.mona-walk.dot_0__153states.dfa,149,584,13907,16.8072,1,33,2414
parametric_uabe3_11.mona-walk.dot_0__167states.dfa,163,598,17039,34.8566,1,33,2622
parametric_uabe3_12.mona-walk.dot_0__181states.dfa,177,612,20351,20.5951,1,33,2830
parametric_uabe3_13.mona-walk.dot_0__195states.dfa,191,626,23843,23.2777,1,33,3038
parametric_uabe3_14.mona-walk.dot_0__209states.dfa,205,640,27515,26.037,1,33,3246
array_axiom.mona-walk.dot_26__901states.dfa,899,5254,355078,37546.3368,1,526,112326
array_axiom.mona-walk.dot_27__897states.dfa,894,2684,496861,31906.3527,1,516,103170
array_axiom.mona-walk.dot_36__105states.dfa,102,252,6620,12.4796,1,36,1394
ex18.mona-walk.dot_98__1068states.dfa,1064,2116,1121460,5900.8169,1,408,3057
ex18.mona-walk.dot_99__2056states.dfa,2052,4092,-1,-1,0,769,0
strand-old-bubblesort-loop-else.mona-walk.dot_0__1044states.dfa,18,37,237,2.7406,1,25,91
strand-old-bubblesort-loop-if-else.mona-walk.dot_0__1027states.dfa,1,0,0,0.0303,1,1,0
strand-old-bubblesort-loop-if-if.mona-walk.dot_0__2051states.dfa,1,0,0,0.0161,1,1,0
strand-old-sorted-list-insert-after-loop.mona-walk.dot_0__151states.dfa,21,39,317,4.1376,1,27,117
strand-old-sorted-list-insert-before-head.mona-walk.dot_0__114states.dfa,48,254,1254,31.1694,1,57,1472
strand-old-sorted-list-insert-before-loop.mona-walk.dot_0__131states.dfa,1,0,0,0.0134,1,1,0
strand-old-sorted-list-insert-error-before-loop.mona-walk.dot_0__156states.dfa,26,65,467,8.3495,1,37,309
strand-old-sorted-list-insert-in-loop.mona-walk.dot_0__515states.dfa,1,0,0,0.0146,1,1,0
strand-old-sorted-list-reverse-after-loop.mona-walk.dot_0__131states.dfa,1,0,0,0.0126,1,1,0
strand-old-sorted-list-reverse-before-loop.mona-walk.dot_0__212states.dfa,111,1043,5265,2069.9711,1,184,11367
strand-old-sorted-list-reverse-in-loop.mona-walk.dot_0__515states.dfa,1,0,0,0.0153,1,1,0
strand-old-sorted-list-search-after-loop.mona-walk.dot_0__317states.dfa,316,8535,4819,699369.0143,1,520,157832
strand-old-sorted-list-search-before-loop.mona-walk.dot_0__112states.dfa,46,265,927,141.4343,1,69,2243
ex11.mona.aut,2217,6513,-1,-1,0,212,0
ex12.mona.aut,377,1089,97745,1245.4407,1,528,63264
ex13.mona.aut,933,4591,-1,-1,0,0,0
ex15.mona.aut,10,27,38,0.2396,1,7,54
ex16.mona.aut,543,1426,-1,-1,0,203552,0
ex17.mona.aut,1,0,0,0.0126,1,1,0
ex19.mona.aut,814,2885,-1,-1,0,4096,0
ex7.mona.aut,148,373,12265,37.2942,1,68,3442
horn_trans05.mona.aut,11,25,50,0.5857,1,32,560
horn_trans10.mona.aut,21,50,200,47.5858,1,1024,35840
parametric_uabe1_11.mona.aut,2507,7493,-1,-1,0,212,0
parametric_uabe3_10.mona.aut,2257,6733,-1,-1,0,212,0
set_closed05.mona.aut,24,53,230,4.0685,1,88,1124
set_closed10.mona.aut,44,98,640,242.3156,1,1690,33567
set_obvious05.mona.aut,1,0,0,0.0122,1,1,0
set_obvious10.mona.aut,1,0,0,0.0118,1,1,0
set_singletons05.mona.aut,21,55,132,3.6541,1,91,1108
set_singletons10.mona.aut,41,110,422,360.9802,1,2512,61466
strand-new-sorted-list-insert-after-loop.mona.aut,674,5429,-1,-1,0,1017,0
strand-new-sorted-list-insert-before-head.mona.aut,219,1699,33908,107.5562,1,136,11502
strand-new-sorted-list-insert-before-loop.mona.aut,387,3430,111388,1662.2517,1,828,59356
strand-new-sorted-list-insert-error-error.mona.aut,387,3430,111388,1551.5316,1,828,59356
strand-new-sorted-list-reverse-after-loop.mona.aut,956,20383,795827,2048.9721,1,264,42130
strand-new-sorted-list-reverse-before-loop.mona.aut,956,20383,795827,2197.9579,1,264,42130
strand-new-sorted-list-search-after-loop.mona.aut,431,5629,149382,237.8372,1,132,13245
strand-new-sorted-list-search-before-loop.mona.aut,300,2849,65977,622.8042,1,508,27172
toss05.mona.aut,65,288,2390,10.7716,1,54,1423
toss10.mona.aut,1413,16619,-1,-1,0,1790,0
veanes05.mona.aut,6,11,25,0.2186,1,7,11
veanes05_1alts.mona.aut,19,45,118,0.328,1,8,173
veanes05_2alts.mona.aut,31,172,614,1.1214,1,21,301
veanes05_3alts.mona.aut,19,50,136,0.4519,1,10,184
veanes05_4alts.mona.aut,25,91,302,1.0768,1,21,352
veanes10.mona.aut,11,21,100,1.1029,1,12,21
veanes10_1alts.mona.aut,39,95,488,4.1345,1,13,608
veanes10_2alts.mona.aut,780,33596,556496,6282.7854,1,522,45041
veanes10_3alts.mona.aut,39,100,526,1.5844,1,15,659
veanes10_4alts.mona.aut,588,15179,294725,2968.3158,1,522,49691
