id,states,transitions,simRelSize,time,goodruns,minterms,mintermizedAutomatonTransitions
0,14,40,145,5.5666,1,5,84
1,59,127,1266,3.6008,1,9,408
2,17,20,35,1.4206,1,11,67
3,2,1,2,0.0307,1,2,1
4,29,47,101,1.5493,1,9,63
5,3,3,3,0.1614,1,4,4
6,18,21,22,0.9896,1,7,57
7,25,36,146,1.1064,1,9,104
8,3,6,9,0.0331,1,2,10
9,7,9,22,0.8921,1,7,19
10,12,14,13,0.8877,1,8,42
11,8,13,20,0.4393,1,7,52
12,16,19,21,0.9923,1,7,52
13,38,66,102,2.9952,1,9,170
14,44,81,136,2.3455,1,8,217
15,15,16,16,1.106,1,8,56
16,3,3,4,0.0939,1,3,4
17,65,135,365,7.4096,1,13,276
18,44,49,170,10.4921,1,3,70
19,40,52,124,1.62,1,7,136
20,6,10,16,0.9015,1,6,18
21,4,5,4,0.0852,1,4,7
22,4,5,10,0.0773,1,3,9
23,11,13,11,0.2167,1,4,15
24,22,29,37,1.3993,1,10,110
25,11,11,66,0.1192,1,3,22
26,8,9,12,0.1097,1,4,18
27,6,11,15,1.7076,1,6,23
28,18,29,62,1.0354,1,9,72
29,11,11,38,0.2419,1,5,36
30,1,1,1,0.0244,1,2,1
31,33,36,186,6.5005,1,19,194
32,16,16,28,0.2538,1,3,16
33,36,51,96,2.5567,1,8,194
34,3,2,4,0.0398,1,3,2
35,19,24,117,0.208,1,3,32
36,370,804,51961,109.8964,1,11,4047
37,6,8,9,0.1401,1,2,8
38,3,3,4,0.0525,1,3,5
39,28,66,64,1.993,1,10,136
40,14,13,14,0.3655,1,6,42
41,13,26,70,0.5715,1,6,54
42,7,8,13,0.3165,1,5,16
43,9,13,12,0.746,1,10,30
44,4,6,12,0.0473,1,3,6
45,19,23,75,0.4685,1,6,33
46,7,8,13,0.5103,1,7,20
47,7,8,13,0.1148,1,7,20
48,11,12,51,0.2044,1,4,32
49,2,2,3,0.0272,1,2,2
50,102,202,2260,23.8611,1,34,1415
51,101,185,568,17.7628,1,34,868
52,10,9,14,0.1136,1,3,9
53,29,59,134,0.9126,1,7,143
54,17,40,99,0.9706,1,11,91
55,46,66,270,1.8106,1,9,202
56,3,4,4,0.0915,1,4,6
57,55,77,281,4.5237,1,18,299
58,101,185,568,18.0612,1,34,870
59,24,38,41,1.9618,1,12,76
60,27,53,75,0.6651,1,5,98
61,14,34,35,0.3813,1,6,44
62,9,18,19,0.0856,1,5,27
63,7,8,23,0.0319,1,2,10
64,62,100,948,5.3356,1,13,638
65,64,102,979,5.6202,1,16,757
66,15,16,47,0.2025,1,6,26
67,46,69,159,1.1901,1,5,69
68,2,2,3,0.0217,1,2,2
69,3,4,5,0.0457,1,3,8
70,32,31,497,0.4819,1,3,61
71,55,134,241,2.2381,1,7,134
72,132,230,2088,18.1169,1,9,901
73,143,262,2661,36.989,1,23,2265
74,124,238,2601,24.2346,1,21,1972
75,22,50,219,8.4718,1,12,257
76,20,21,84,0.3059,1,3,25
77,6,5,6,0.1425,1,3,9
78,6,5,6,0.0564,1,3,9
79,8,11,22,0.1389,1,5,19
80,30,71,110,2.921,1,10,239
81,16,15,121,0.1113,1,2,15
82,5,5,6,0.1736,1,5,9
83,1,1,1,0.0528,1,2,1
84,18,27,180,0.2447,1,5,87
85,32,50,139,1.4479,1,10,69
86,13,22,57,0.2072,1,6,48
87,2,3,3,0.0146,1,2,5
88,19,30,148,0.3793,1,6,56
89,9,14,35,0.105,1,4,26
90,26,42,144,2.7039,1,17,251
91,68,95,94,22.8936,1,33,203
92,25,33,105,3.1105,1,14,150
93,10,11,11,0.1807,1,4,25
94,3,3,5,0.0434,1,3,4
95,4,5,7,0.1136,1,4,7
96,4,6,9,0.0276,1,3,6
97,5,8,12,0.0363,1,4,8
98,26,47,51,1.1273,1,9,93
99,6,11,13,0.1401,1,4,14
100,28,43,74,1.4854,1,9,176
101,8,13,17,0.2471,1,5,18
102,15,21,52,0.2356,1,5,38
103,33,44,566,1.7901,1,10,275
104,33,43,534,0.7563,1,10,265
105,16,24,59,0.4594,1,7,54
106,40,59,564,4.918,1,20,473
107,29,30,106,0.8996,1,8,64
108,61,85,751,2.859,1,7,355
109,21,23,98,0.7006,1,9,77
110,27,44,68,0.9438,1,7,97
111,20,20,20,0.2056,1,3,22
112,31,36,116,3.6169,1,17,98
113,43,46,87,14.3783,1,24,146
114,30,52,199,0.7827,1,7,116
115,13,20,38,0.6228,1,9,29
116,8,8,9,0.0639,1,3,8
117,13,30,90,0.2218,1,6,68
118,18,33,101,1.1325,1,11,104
119,9,22,58,0.1361,1,4,40
120,49,53,100,7.035,1,25,217
121,5,5,10,0.0718,1,4,11
122,6,7,11,0.3971,1,7,17
123,14,17,40,0.3035,1,9,61
124,10,9,10,0.1701,1,4,10
125,9,8,9,0.0596,1,3,15
126,7,9,13,0.24,1,6,26
127,21,38,44,11.985,1,25,81
128,4,5,7,0.1377,1,4,11
129,95,150,1170,37.2633,1,14,1008
130,1,1,1,0.03,1,1,1
131,13,16,101,0.2056,1,4,44
132,79,248,1854,12.4488,1,29,1871
133,79,248,1854,8.0704,1,29,1865
134,6,9,17,0.0781,1,4,9
135,21,131,155,2.0404,1,11,189
136,3,5,7,0.0603,1,3,8
137,14,16,32,0.1401,1,4,28
138,13,18,28,0.6027,1,9,52
139,7,7,7,0.2178,1,5,9
140,2,3,3,0.028,1,2,5
141,65,69,312,7.3745,1,21,184
142,14,17,19,1.2584,1,11,35
143,14,18,17,1.1198,1,9,57
144,31,30,409,0.4282,1,3,59
145,7,9,12,0.3315,1,6,14
146,13,15,28,0.1977,1,5,31
147,28,39,68,0.7121,1,6,115
148,13,16,15,0.2076,1,7,47
149,19,32,168,0.1594,1,3,32
150,4,7,10,0.0994,1,4,16
151,39,42,339,1.4388,1,9,159
152,28,30,183,0.6623,1,7,75
153,79,148,2843,2.9605,1,4,289
154,74,74,74,2.6167,1,5,74
155,3,5,7,0.0252,1,2,8
156,25,69,300,0.7547,1,7,261
157,13,17,21,0.9576,1,11,77
158,23,32,97,1.0227,1,9,96
159,20,23,85,0.4535,1,7,47
160,10,16,24,0.5648,1,8,47
161,15,16,17,0.2628,1,6,51
162,77,108,978,25.8743,1,26,775
163,13,33,41,0.0939,1,2,33
164,13,12,41,0.1255,1,2,12
165,9,33,53,0.1136,1,3,34
166,747,986,159166,723.0298,1,27,7436
167,76,116,157,12.6379,1,14,680
168,11,11,65,0.0892,1,4,30
169,2,2,3,0.0134,1,2,2
170,9,8,10,0.0453,1,2,8
171,9,8,9,0.0446,1,2,8
172,9,8,9,0.0544,1,3,8
173,6,5,6,0.0371,1,2,5
174,80,104,326,9.1295,1,16,539
175,4,7,7,0.1184,1,4,16
176,4,7,7,0.2865,1,4,16
177,10,12,22,0.0714,1,3,12
178,34,55,287,1.5497,1,10,228
179,7,14,29,0.2202,1,5,44
180,279,489,2375,82.181,1,12,1601
181,8,8,12,0.1113,1,3,8
182,12,17,60,0.2036,1,5,47
183,19,24,117,1.6286,1,12,99
184,48,59,172,1.5904,1,7,159
185,15,29,65,0.2573,1,5,29
186,3,4,5,0.0209,1,3,4
187,14,13,14,0.1006,1,3,13
188,15,14,15,0.1109,1,3,14
189,14,13,14,0.0986,1,3,13
190,14,13,14,0.0982,1,3,13
191,44,59,63,3.8333,1,15,129
192,25,25,26,0.4961,1,6,25
193,18,19,20,0.7472,1,11,52
194,6,8,12,0.2921,1,6,20
195,4,10,7,0.086,1,4,10
196,8,8,9,0.2194,1,5,10
197,71,118,890,1.9432,1,4,118
198,2,3,2,0.0288,1,2,4
199,4,5,5,0.075,1,6,14
200,4,7,7,0.0513,1,4,16
201,11,15,38,0.2889,1,6,23
202,32,34,105,2.1884,1,12,108
203,13,16,15,0.4381,1,8,57
204,10,11,16,0.1571,1,7,35
205,8,8,9,0.1882,1,5,10
206,95,194,406,57.721,1,34,2631
207,3,6,9,0.0698,1,2,10
208,9,38,81,0.0694,1,4,65
209,70,80,1016,6.7267,1,12,622
210,138,186,9867,17.721,1,13,1664
211,23,26,147,0.795,1,9,128
212,44,52,538,2.8208,1,12,317
213,17,34,188,0.4034,1,8,171
214,16,19,70,0.3631,1,9,60
215,26,42,98,1.6654,1,10,180
216,4,6,10,0.1077,1,3,12
217,36,74,169,2.7177,1,15,130
218,3,4,7,0.0825,1,3,6
219,19,30,71,1.2154,1,11,96
220,6,10,22,0.1053,1,4,22
221,49,110,140,3.759,1,13,260
222,12,15,17,0.09,1,3,15
223,18,21,53,0.3911,1,6,33
224,52,69,179,2.6514,1,10,241
225,94,124,171,6.27,1,9,208
226,36,51,112,0.5305,1,3,51
227,18,30,57,0.6063,1,9,127
228,6,7,7,0.0868,1,7,21
229,25,34,61,1.3713,1,11,157
230,5,8,7,0.103,1,4,10
231,5,14,16,0.1275,1,4,14
232,3,5,5,0.039,1,3,9
233,23,25,24,0.716,1,10,84
234,15,17,18,0.4136,1,6,29
235,18,36,77,1.4088,1,11,94
236,13,26,70,0.1278,1,6,54
237,96,121,118,30.6901,1,32,130
238,20,26,29,1.0598,1,11,34
239,12,23,63,0.3781,1,5,75
240,79,101,215,7.7195,1,16,328
241,31,30,164,0.879,1,8,133
242,9,10,15,0.416,1,7,15
243,100,187,1805,16.1621,1,11,340
244,215,401,2254,79.7329,1,27,459
245,27,50,83,28.5451,1,27,271
246,8,11,17,0.2909,1,5,19
247,86,115,917,4.5706,1,8,220
248,3,4,5,0.0817,1,3,9
249,17,18,42,0.354,1,6,28
250,20,26,31,0.403,1,4,45
251,3,2,3,0.0682,1,3,2
252,24,39,44,13.0646,1,26,147
253,65,102,85,32.811,1,34,200
254,5,5,6,0.073,1,3,9
255,4,3,4,0.0232,1,2,3
256,37,61,80,2.1011,1,12,134
257,11,12,19,0.0738,1,3,12
258,9,8,9,0.0532,1,3,8
259,15,26,72,0.2601,1,5,34
260,10,11,20,0.7073,1,9,27
261,5,10,17,0.0418,1,3,18
262,5,10,14,0.0525,1,3,18
263,43,52,209,5.2926,1,21,363
264,15,16,17,0.2293,1,7,26
265,10,9,10,0.1053,1,4,9
266,19,27,31,0.5017,1,7,41
267,13,16,17,0.8932,1,14,28
268,7,6,7,0.0469,1,4,8
269,7,8,13,0.3959,1,7,20
270,11,17,46,0.1207,1,4,17
271,56,94,736,2.2433,1,8,361
272,28,31,84,0.5246,1,6,31
273,11,19,40,0.4235,1,6,32
274,205,3036,7830,47.4878,1,8,9351
275,39,41,119,0.5842,1,3,41
276,13,18,21,0.1496,1,4,18
277,29,45,115,1.1826,1,10,156
278,7,18,43,0.0303,1,1,18
279,44,45,130,5.8081,1,21,104
280,10,11,16,0.3481,1,6,20
281,10,15,25,0.1503,1,4,21
282,6,12,16,0.1543,1,4,15
283,22,28,158,0.3217,1,6,56
284,20,22,23,0.4575,1,5,57
285,20,22,23,0.4768,1,6,67
286,11,13,40,0.1563,1,8,32
287,2,2,3,0.015,1,2,2
288,14,16,17,0.1413,1,3,16
289,5,9,14,0.0371,1,2,13
290,30,31,59,3.7215,1,18,65
291,9,20,45,0.2636,1,5,68
292,17,36,45,1.8351,1,14,121
293,12,11,12,0.2111,1,4,12
294,3,4,6,0.071,1,4,5
295,33,54,198,1.3954,1,10,91
296,21,45,196,1.7759,1,11,170
297,2,3,3,0.0323,1,2,5
298,11,11,11,0.1128,1,3,22
299,7,9,26,0.204,1,4,18
300,7,8,10,0.1089,1,7,25
301,60,134,389,16.3114,1,15,498
302,15,19,87,0.8928,1,10,65
303,15,25,92,0.2897,1,10,71
304,59,257,1204,12.1398,1,32,2071
305,29,41,62,1.3567,1,13,79
306,24,38,151,0.7898,1,7,136
307,29,61,183,4.3705,1,18,281
308,43,156,390,2.3609,1,11,552
309,16,22,23,0.5498,1,7,44
310,5,9,19,0.0627,1,3,9
311,38,70,129,3.0876,1,14,148
312,4,6,8,0.0517,1,4,12
313,29,32,61,0.5119,1,5,32
314,45,46,93,6.0312,1,21,86
315,20,33,34,0.7385,1,8,65
316,24,26,164,0.238,1,3,26
317,19,20,57,0.8952,1,9,60
318,21,22,67,0.6627,1,8,56
319,16,29,44,0.9888,1,9,76
320,3,5,7,0.0418,1,2,5
321,19,27,40,0.6114,1,10,98
322,393,736,10043,336.0526,1,30,5928
323,7,15,14,0.1081,1,4,19
324,5,6,9,0.135,1,4,12
325,15,14,15,0.1547,1,3,14
326,16,26,35,1.1727,1,12,55
327,43,56,95,2.9913,1,11,133
328,45,55,230,2.4896,1,14,271
329,43,70,280,5.1454,1,19,443
330,10,20,41,0.1034,1,5,20
331,30,40,277,4.3879,1,19,241
332,52,84,506,4.4917,1,14,329
333,16,20,80,0.639,1,11,68
334,2,3,3,0.0292,1,2,5
335,2,3,2,0.0157,1,2,4
336,9,15,32,0.0852,1,5,27
337,13,29,115,0.2853,1,6,76
338,35,120,377,0.7942,1,4,132
339,16,16,16,0.1393,1,3,16
340,15,34,93,0.1614,1,5,45
341,11,19,30,5.3325,1,6,31
342,80,114,148,58.4292,1,42,117
343,57,195,1782,3.8589,1,11,758
344,18,27,67,0.2305,1,5,27
345,25,34,61,0.4176,1,5,51
346,10,24,31,0.3217,1,6,44
347,18,21,60,0.705,1,8,24
348,14,18,86,0.1878,1,4,27
349,21,34,126,0.2751,1,3,52
350,40,51,381,2.8717,1,16,223
351,16,22,54,0.5668,1,10,93
352,10,17,35,0.4413,1,6,51
353,3,2,3,0.0225,1,3,3
354,8,8,12,0.0453,1,3,8
355,89,172,1060,11.2757,1,15,817
356,5,6,10,0.0761,1,3,10
357,18,30,101,0.3027,1,6,103
358,11,11,12,0.1342,1,3,11
359,9,11,13,0.1065,1,4,11
360,27,57,128,0.6331,1,8,90
361,64,141,707,2.3775,1,6,193
362,16,21,85,0.1148,1,3,33
363,20,27,138,0.4243,1,7,66
364,23,36,159,0.6825,1,9,112
365,52,78,271,6.5246,1,19,418
366,101,100,1481,9.4737,1,11,593
367,27,31,33,0.8897,1,11,92
368,14,14,45,0.1302,1,5,18
369,16,28,46,1.0954,1,10,39
370,10,21,52,0.4448,1,7,80
371,28,48,56,0.6951,1,6,50
372,54,65,94,4.0069,1,15,309
373,4,3,4,0.0296,1,2,3
374,11,11,12,0.0698,1,3,11
375,19,18,19,0.1744,1,3,18
376,9,10,11,0.2364,1,8,42
377,8,11,38,0.1634,1,5,33
378,32,33,63,3.8925,1,18,67
379,18,32,37,0.3718,1,7,54
380,45,44,45,1.1269,1,4,90
381,30,33,38,0.7184,1,6,54
382,31,30,31,0.7275,1,6,30
383,49,65,181,2.8879,1,11,212
384,18,19,36,1.7534,1,13,54
385,34,34,39,0.5771,1,4,34
386,5,8,8,0.2222,1,5,12
387,13,14,25,1.3271,1,10,32
388,28,72,130,1.194,1,9,116
389,11,10,11,0.071,1,3,10
390,9,10,17,0.3363,1,7,22
391,9,10,17,0.4444,1,8,24
392,2,3,3,0.0327,1,2,5
393,3,5,6,0.069,1,3,10
394,24,26,43,0.9528,1,9,31
395,46,80,415,2.7971,1,13,238
396,7,14,31,0.2407,1,4,24
397,9,13,18,0.4634,1,10,42
398,8,12,18,0.1669,1,6,20
399,19,29,147,1.2327,1,11,140
400,14,26,54,0.2115,1,5,26
401,7,9,10,0.0422,1,3,9
402,28,29,55,3.1575,1,16,59
403,5,6,9,0.2072,1,5,14
404,11,46,56,0.0635,1,1,46
405,12,17,83,0.5818,1,10,100
406,18,25,25,0.3185,1,7,53
407,13,19,36,0.266,1,6,51
408,21,47,95,0.5688,1,7,84
409,6,5,6,0.028,1,2,5
410,13,22,39,1.5446,1,12,89
411,6,8,11,0.3173,1,6,18
412,113,132,1033,17.6669,1,16,291
413,5,5,12,0.0647,1,3,5
414,7,9,14,0.1326,1,4,15
415,558,2116,141113,286.1004,1,19,7017
416,7,8,10,0.1681,1,7,25
417,17,23,56,0.6039,1,10,82
418,7,8,10,0.1946,1,7,25
419,6,9,18,0.2613,1,5,29
420,9,10,38,0.045,1,2,12
421,19,18,64,0.249,1,4,18
422,16,39,66,0.4168,1,7,39
423,20,44,94,0.5332,1,8,56
424,16,32,80,0.3564,1,7,40
425,9,14,26,0.3311,1,6,35
426,9,14,26,0.1168,1,6,35
427,5,7,9,0.2534,1,6,19
428,54,120,375,2.4738,1,9,137
429,18,25,45,0.1815,1,4,25
430,13,24,36,0.3603,1,7,50
431,61,86,75,36.8196,1,41,118
432,36,46,285,0.6146,1,6,56
433,42,61,82,2.576,1,12,194
434,41,62,89,2.0333,1,12,210
435,7,9,8,0.1713,1,7,17
436,19,28,245,0.1259,1,3,62
437,302,769,23933,92.8714,1,19,2692
438,7,10,13,0.3509,1,5,18
439,4,6,8,0.0907,1,4,12
440,31,55,227,0.8147,1,6,98
441,49,50,97,1.0061,1,3,50
442,6,13,15,0.3442,1,6,41
443,12,13,35,0.0923,1,3,17
444,6,9,18,0.0469,1,3,9
445,22,24,82,0.2092,1,3,30
446,17,47,64,1.4822,1,11,93
447,7,9,13,0.2261,1,8,35
448,99,249,1930,15.8925,1,22,1023
449,15,20,22,0.3284,1,7,64
450,4,7,11,0.0734,1,3,7
451,15,31,68,1.1273,1,8,53
452,17,28,73,0.3169,1,8,42
453,8,10,24,0.4488,1,5,18
454,2,3,3,0.0213,1,2,5
455,104,167,1396,11.1525,1,12,848
456,4,7,11,0.0726,1,3,15
457,6,5,8,0.0639,1,4,5
458,17,37,81,0.3848,1,6,37
459,11,28,33,0.9568,1,10,48
460,16,25,40,0.1626,1,4,33
461,20,27,38,12.2905,1,20,116
462,22,28,158,0.2546,1,5,58
463,128,145,1355,19.4444,1,12,1077
464,11,16,30,0.1768,1,4,16
465,4,9,16,0.0734,1,3,19
466,13,37,106,0.1219,1,4,70
467,12,20,70,0.48,1,7,90
468,17,34,124,0.7452,1,9,110
469,11,14,38,0.356,1,8,45
470,34,36,134,2.7904,1,18,136
471,17,22,54,0.2443,1,6,32
472,20,36,37,1.091,1,10,92
473,24,25,25,3.8285,1,19,25
474,2,3,3,0.0363,1,2,5
475,5,7,7,0.2096,1,5,9
476,44,125,173,4.6026,1,16,210
477,11,10,12,0.0982,1,4,26
478,27,30,100,10.1013,1,18,94
479,4,7,6,0.0375,1,3,13
480,4,6,9,0.0264,1,3,6
481,5,7,13,0.0813,1,3,13
482,6,12,17,0.1448,1,5,23
483,2,2,3,0.0252,1,2,3
484,18,27,92,0.6031,1,8,109
485,13,14,15,0.5636,1,10,34
486,11,16,28,0.5021,1,8,66
487,14,35,60,0.2672,1,4,47
488,20,84,210,0.3311,1,5,84
489,47,70,81,2.6289,1,15,191
490,101,139,1268,9.928,1,13,685
491,36,51,105,1.4514,1,10,264
492,14,23,33,0.8068,1,9,47
493,12,15,21,0.4207,1,9,29
494,14,19,53,0.3521,1,8,46
495,31,39,206,0.9244,1,10,136
496,22,29,42,0.9461,1,6,66
497,7,9,19,0.4961,1,7,32
498,6,9,21,0.0339,1,3,9
499,16,18,53,0.1815,1,5,37
500,6,10,16,0.221,1,5,13
501,70,127,241,7.5363,1,13,413
502,22,29,42,0.3675,1,6,66
503,53,54,106,8.4466,1,24,100
504,63,92,250,17.0456,1,22,282
505,20,27,110,0.1827,1,3,27
506,501,718,2938,452.5934,1,36,1382
507,15,16,31,1.4976,1,12,46
508,8,10,16,0.4389,1,7,24
509,76,139,2161,4.4818,1,11,418
510,21,38,58,3.0102,1,25,70
511,22,40,44,2.5492,1,25,79
512,13,20,36,0.4642,1,8,81
513,13,22,105,0.1709,1,4,54
514,25,26,50,3.1093,1,17,58
515,13,20,47,0.7207,1,9,82
516,97,132,614,9.4121,1,11,447
517,7,8,15,0.1334,1,4,14
518,4,5,7,0.1026,1,4,11
519,5,4,5,0.0307,1,3,7
520,3,4,7,0.0844,1,3,6
521,3,5,5,0.0742,1,3,7
522,20,28,61,0.4843,1,6,106
523,16,34,43,0.5514,1,7,74
524,5,4,5,0.0797,1,3,7
525,10,15,44,0.5996,1,8,58
526,24,50,89,0.6169,1,9,137
527,4,5,6,0.0517,1,3,5
528,39,52,70,1.7632,1,14,175
529,89,90,191,32.991,1,34,220
530,21,23,40,0.2625,1,4,23
531,12,14,15,0.2028,1,5,14
532,32,67,96,4.8383,1,20,287
533,7,10,14,0.3876,1,7,22
534,12,22,67,0.1334,1,5,62
535,81,82,161,15.4019,1,27,209
536,23,32,157,0.2743,1,4,50
537,17,40,72,0.4093,1,6,70
538,103,143,1455,11.5015,1,17,407
539,13,36,66,0.2664,1,5,36
540,3,5,7,0.0568,1,2,8
541,5,8,15,0.0382,1,3,8
542,30,81,112,1.5,1,10,103
543,17,27,54,0.399,1,7,41
544,44,70,268,1.5781,1,8,178
545,25,39,105,0.8905,1,11,100
546,14,35,42,0.5778,1,7,35
547,21,59,126,1.2643,1,10,161
548,6,10,20,0.0596,1,4,10
549,19,32,41,1.9156,1,20,133
550,75,76,149,15.3983,1,29,168
551,45,46,89,5.7225,1,23,255
552,11,13,29,0.0821,1,3,13
553,576,1102,10179,568.8578,1,32,1268
554,223,1964,39303,17.8437,1,4,2483
555,13,16,65,0.1432,1,5,23
556,6,9,14,0.0481,1,4,19
557,18,21,36,0.8727,1,10,75
558,17,22,44,0.8388,1,10,83
559,18,23,66,0.5163,1,7,77
560,27,35,38,3.5092,1,20,253
561,14,17,28,0.4215,1,7,45
562,46,70,191,2.8665,1,13,255
563,20,23,41,0.6517,1,8,79
564,11,10,16,0.0682,1,3,10
565,19,26,24,0.4121,1,6,43
566,21,57,301,0.5222,1,6,69
567,7,9,17,0.6714,1,8,28
568,7,8,8,0.1046,1,7,23
569,99,181,1356,11.2101,1,15,752
570,5,10,13,0.0836,1,4,25
571,8,8,29,0.071,1,5,13
572,6,6,6,0.0351,1,3,8
573,4,6,12,0.0461,1,3,6
574,13,29,91,0.2198,1,5,29
575,10,24,68,0.1294,1,3,48
576,70,84,326,4.2647,1,8,309
577,3,4,4,0.0706,1,3,8
578,74,97,927,2.9396,1,5,193
579,4,4,10,0.0406,1,2,4
580,16,20,20,0.2901,1,8,45
581,57,76,155,4.02,1,13,306
582,16,21,33,0.6142,1,9,95
583,88,105,455,13.1854,1,17,755
584,68,128,268,9.045,1,15,524
585,22,61,202,1.7569,1,13,149
586,67,198,840,7.7704,1,23,697
587,5,9,13,0.1867,1,4,21
588,36,67,259,3.3023,1,17,225
589,13,30,69,0.1515,1,5,46
590,4,6,9,0.0406,1,5,8
591,12,24,51,0.1002,1,4,37
592,11,12,39,0.0678,1,3,16
593,39,78,623,6.6927,1,12,448
594,220,276,17386,47.7953,1,11,1966
595,29,68,542,0.4326,1,5,180
596,5,7,10,0.2617,1,6,13
597,20,30,27,0.5802,1,11,107
598,15,28,65,34.6876,1,7,59
599,12,34,105,0.103,1,4,58
600,13,25,102,0.7077,1,8,117
601,8,7,8,0.4314,1,5,7
602,5,5,11,0.0734,1,3,5
603,12,13,14,0.2218,1,7,46
604,2,1,2,0.0276,1,2,1
605,8,18,35,0.234,1,4,39
606,32,41,161,1.5469,1,9,126
607,12,37,59,0.1251,1,5,37
608,24,32,61,1.1506,1,11,100
609,28,58,232,1.2225,1,11,174
610,15,30,66,0.9153,1,11,80
611,103,166,2018,42.4198,1,32,1270
612,107,173,2214,38.5352,1,31,1258
613,16,51,57,1.2086,1,9,76
614,9,10,38,0.1211,1,3,21
615,6,15,23,0.2028,1,5,31
616,9,11,20,0.2798,1,5,23
617,7,9,17,0.4255,1,7,25
618,16,19,33,1.5536,1,11,62
619,9,13,20,0.2561,1,5,27
620,9,11,20,0.1646,1,5,23
621,9,13,25,0.4634,1,8,23
622,8,12,30,0.1555,1,7,26
623,14,16,16,0.2557,1,8,50
624,65,64,2018,1.2904,1,2,64
625,6,6,8,0.1022,1,4,10
626,11,11,12,0.1053,1,4,19
627,19,29,148,1.5465,1,12,172
628,11,18,19,0.1677,1,6,28
629,11,21,22,0.1215,1,6,31
630,15,14,15,0.2893,1,5,14
631,13,20,40,0.178,1,5,20
632,71,113,558,6.0418,1,14,211
633,8,14,22,0.1282,1,4,23
634,10,9,35,0.4867,1,8,11
635,23,31,51,1.3725,1,12,132
636,19,24,40,0.703,1,10,79
637,26,35,41,1.02,1,9,51
638,4,6,12,0.0256,1,3,6
639,13,16,32,0.4219,1,8,53
640,15,17,49,0.2356,1,5,36
641,153,200,881,31.9821,1,17,977
642,65,87,241,4.1814,1,12,393
643,194,472,3684,108.6968,1,44,2053
644,21,24,34,0.6813,1,10,73
645,5,9,14,0.0327,1,3,15
646,22,22,24,0.2305,1,4,22
647,18,23,31,2.6656,1,16,71
648,11,14,15,1.1873,1,12,32
649,9,10,17,0.099,1,4,15
650,12,14,15,0.3722,1,9,26
651,9,26,40,0.1377,1,4,32
652,14,25,101,0.1117,1,4,64
653,8,9,9,0.688,1,9,21
654,19,21,28,0.4176,1,7,53
655,8,7,8,0.0986,1,4,9
656,9,11,10,0.7634,1,11,27
657,12,28,37,0.0939,1,4,28
658,9,11,10,0.8514,1,10,33
659,21,44,75,2.6309,1,16,50
660,12,16,28,1.8063,1,12,36
661,10,10,47,0.0584,1,3,12
662,16,21,26,0.1389,1,3,39
663,8,12,16,0.5151,1,9,28
664,19,20,47,0.7077,1,10,43
665,9,9,10,0.0864,1,4,9
666,2,3,3,0.0153,1,2,5
667,18,22,57,0.2711,1,5,40
668,68,95,270,5.2531,1,13,480
669,14,27,101,0.313,1,7,72
670,6,7,9,0.0607,1,3,9
671,37,110,971,0.7594,1,6,336
672,3,5,7,0.0181,1,2,8
673,11,70,121,0.0935,1,3,70
674,11,17,29,0.4401,1,7,47
675,7,9,18,0.2498,1,7,27
676,29,75,263,0.731,1,8,91
677,13,25,75,0.1184,1,6,48
678,13,16,16,0.433,1,7,50
679,8,9,15,0.3335,1,7,21
680,15,20,19,0.9205,1,9,82
681,33,38,89,0.5013,1,4,38
682,2,3,3,0.0256,1,2,5
683,35,35,37,0.6126,1,4,35
684,72,75,326,6.4362,1,9,545
685,35,47,42,4.6042,1,29,70
686,116,117,351,24.0478,1,28,223
687,1,1,1,0.0296,1,1,1
688,8,9,15,0.6801,1,8,23
689,59,60,119,7.1925,1,23,167
690,20,26,83,0.9272,1,9,78
691,17,29,73,0.2017,1,5,29
692,15,16,17,1.2892,1,11,28
693,4,6,8,0.1077,1,4,12
694,4,8,9,0.0856,1,4,16
695,6,11,18,0.2636,1,6,28
696,9,13,23,0.2321,1,5,21
697,7,12,20,0.1507,1,5,20
698,2,2,3,0.039,1,2,2
699,307,581,5528,226.215,1,32,993
700,324,623,7030,162.6205,1,36,1310
701,11,10,11,0.3292,1,4,27
702,22,23,43,2.475,1,16,53
703,15,17,17,0.2917,1,8,61
704,15,19,79,0.1117,1,3,19
705,3,5,5,0.0221,1,3,7
706,7,14,25,0.0521,1,3,20
707,72,118,325,8.9246,1,16,903
708,45,73,563,0.855,1,3,151
709,27,43,88,0.6757,1,8,57
710,3,6,9,0.0303,1,2,10
711,15,38,184,0.1653,1,4,103
712,23,35,175,0.5715,1,7,117
713,23,30,74,0.5289,1,10,111
714,9,8,30,0.2084,1,4,14
715,26,34,51,2.1939,1,18,145
716,11,16,23,0.2834,1,7,34
717,33,58,78,1.4692,1,13,150
718,92,110,276,7.2616,1,11,358
719,92,110,330,7.7518,1,11,358
720,6,7,15,0.045,1,4,7
721,23,24,46,6.5396,1,15,78
722,14,16,16,0.3884,1,8,50
723,31,51,248,2.1252,1,12,298
724,4,6,9,0.0288,1,2,8
725,42,45,352,1.2525,1,5,173
726,19,27,59,0.4452,1,6,53
727,31,48,86,3.144,1,16,218
728,48,52,116,2.325,1,9,119
729,53,55,199,1.3819,1,4,110
730,9,17,41,0.0694,1,4,26
731,2,3,3,0.0161,1,2,5
732,3,6,9,0.0177,1,2,10
733,3,3,4,0.0268,1,4,5
734,46,118,1075,3.144,1,12,406
735,224,362,532,101.9756,1,29,1027
736,21,21,22,0.4728,1,9,67
737,10,17,29,0.1503,1,5,40
738,9,10,24,0.1065,1,6,24
739,5,6,9,0.0323,1,4,8
740,25,61,97,1.3879,1,11,300
741,177,256,6867,44.6682,1,15,2097
742,5,8,17,0.2534,1,4,9
743,16,37,54,0.9611,1,9,80
744,12,13,15,0.1053,1,4,13
745,130,195,4164,7.5691,1,4,321
746,7,10,12,0.4318,1,6,17
747,13,22,23,1.2157,1,7,49
748,12,21,40,0.1077,1,5,21
749,17,30,111,0.1346,1,3,40
750,6,9,18,0.1472,1,4,23
751,16,17,54,0.2597,1,5,32
752,18,26,27,0.495,1,8,54
753,19,23,57,0.341,1,5,40
754,16,25,60,1.1147,1,13,136
755,19,33,32,0.9082,1,10,93
756,7,15,27,0.1839,1,5,27
757,54,81,169,4.8067,1,14,270
758,29,39,84,4.6354,1,20,240
759,56,78,1110,9.6916,1,24,736
760,81,118,2627,11.6538,1,22,1105
761,17,35,54,0.21,1,5,47
762,508,923,3201,450.0146,1,31,1739
763,51,87,575,3.1965,1,14,394
764,6,8,21,0.0722,1,4,20
765,87,101,524,5.5993,1,10,197
766,25,32,43,2.0459,1,15,93
767,18,18,60,0.4219,1,4,21
768,4,5,5,0.0588,1,5,8
769,9,12,14,0.1065,1,4,12
770,16,31,91,0.5498,1,6,98
771,11,14,27,0.0682,1,3,14
772,22,56,228,2.128,1,14,334
773,13,22,43,0.1188,1,5,22
774,20,30,67,2.1947,1,15,116
775,2,2,3,0.0292,1,2,2
776,55,74,171,4.5292,1,11,175
777,13,16,29,0.4188,1,7,30
778,14,26,48,0.1334,1,5,30
779,12,22,94,0.1843,1,4,46
780,22,25,82,0.3959,1,6,66
781,35,50,314,2.1521,1,13,182
782,39,70,400,6.3008,1,21,402
783,29,37,66,1.1913,1,19,161
784,13,30,63,0.1626,1,6,48
785,8,19,29,0.0509,1,4,19
786,53,149,408,2.0948,1,8,218
787,53,149,408,2.0226,1,8,218
788,23,31,107,2.574,1,15,153
789,18,23,121,0.249,1,7,88
790,6,7,10,0.1602,1,5,11
791,15,18,21,0.2526,1,8,55
792,11,18,53,11.3586,1,9,64
793,12,18,34,0.9213,1,9,41
794,6,8,9,0.0718,1,3,8
795,11,12,13,0.159,1,7,40
796,28,55,214,1.168,1,9,111
797,33,57,365,4.7944,1,12,282
798,9,17,40,0.0675,1,3,23
799,288,465,2320,178.9639,1,31,683
800,546,2608,174082,450.3493,1,24,22364
801,5,8,9,0.0682,1,3,8
802,25,32,141,2.0625,1,16,159
803,46,72,1011,2.0222,1,11,335
804,7,8,10,0.0998,1,7,25
805,6,7,8,0.1867,1,5,7
806,72,120,155,8.5093,1,22,376
807,1501,1500,1125751,582.3322,1,1,1500
808,38,50,281,0.6592,1,4,68
809,11,10,12,0.2735,1,5,31
810,22,28,46,1.2876,1,21,104
811,15,22,80,0.1081,1,3,36
812,9,11,10,0.4148,1,7,21
813,42,47,367,2.7031,1,11,119
814,10,18,91,0.09,1,3,38
815,13,23,91,0.0892,1,3,23
816,19,19,21,0.3367,1,5,19
817,6,8,9,0.1665,1,5,10
818,10,11,12,0.0821,1,4,11
819,9,8,9,0.0789,1,3,8
820,9,8,9,0.0461,1,2,8
821,18,17,18,0.1946,1,3,17
822,10,19,84,0.2206,1,5,71
823,2,2,3,0.0142,1,2,2
824,1,1,1,0.0122,1,2,1
825,29,41,35,1.6377,1,12,145
826,8,11,16,0.146,1,8,43
827,8,8,8,0.1365,1,4,8
828,3,5,7,0.0351,1,2,8
829,4,7,9,0.043,1,4,17
830,4,7,10,0.0236,1,2,9
831,74,99,602,13.1203,1,25,371
832,14,14,15,0.3631,1,6,49
833,22,32,57,3.7326,1,18,196
834,307,306,8988,116.247,1,12,2867
835,19,19,19,0.504,1,7,74
836,15,14,15,0.2656,1,5,47
837,41,42,110,1.9425,1,8,253
838,53,55,184,3.1148,1,8,347
839,26,26,47,0.4863,1,4,74
840,32,32,58,0.9157,1,6,136
841,17,16,17,0.2151,1,4,45
842,134,141,920,25.6643,1,12,1202
843,8,11,18,0.2822,1,5,21
844,63,68,638,2.4572,1,6,102
845,8,9,15,0.1278,1,5,22
846,18,23,61,0.3592,1,7,93
847,74,116,368,10.5493,1,18,541
848,56,79,126,10.228,1,26,341
849,38,41,421,1.1802,1,10,126
850,2,3,3,0.0153,1,2,4
851,2,3,3,0.0157,1,2,4
852,385,1323,2791,449.6376,1,49,2895
853,3,5,7,0.0568,1,3,6
854,577,1105,35473,794.4235,1,37,9511
855,25,279,279,0.3986,1,3,279
856,39,40,131,2.3636,1,8,129
857,55,78,108,5.597,1,25,346
858,19,35,168,0.2475,1,6,98
859,13,13,14,0.3477,1,6,22
860,35,60,131,2.5661,1,10,240
861,12,20,41,0.1267,1,4,20
862,30,45,72,0.8301,1,5,117
863,17,21,28,1.2454,1,11,65
864,5,9,18,0.0402,1,3,17
865,81,96,258,11.7371,1,13,333
866,11,13,18,0.3063,1,8,49
867,13,19,38,1.2619,1,11,78
868,9,26,25,0.2147,1,5,42
869,46,59,101,2.2069,1,12,218
870,178,267,6480,68.8037,1,18,1797
871,28,55,229,3.028,1,12,310
872,21,38,52,2.0301,1,25,72
873,46,65,355,3.2108,1,12,393
874,37,45,392,0.699,1,4,99
875,28,30,296,1.5031,1,7,134
876,9,11,13,0.5577,1,6,21
877,2,2,3,0.0398,1,2,2
878,13,20,30,0.6919,1,7,41
879,4,4,5,0.0426,1,2,4
880,842,4387,38535,1336.7095,1,36,7238
881,5,7,12,0.0872,1,4,7
882,2,2,2,0.0765,1,2,3
883,6,9,26,0.0402,1,2,14
884,39,66,356,1.0342,1,6,106
885,10,14,15,0.3181,1,11,32
886,10,30,38,0.8013,1,8,30
887,45,51,147,7.0681,1,23,152
888,22,26,48,2.7769,1,16,70
889,19,30,67,1.4707,1,12,105
890,8,11,29,0.2751,1,5,34
891,34,50,160,3.7294,1,17,287
892,5,8,13,0.0343,1,3,14
893,75,99,1863,42.567,1,41,1100
894,36,66,413,0.9142,1,8,159
895,4,6,10,0.088,1,3,14
896,9,10,18,0.0532,1,3,10
897,12,15,25,0.0982,1,4,24
898,6,7,11,0.0682,1,3,11
899,11,21,56,0.1969,1,5,77
900,16,32,140,0.354,1,9,148
901,13,23,103,0.2096,1,7,88
902,12,22,43,0.1057,1,5,22
903,64,140,396,5.1923,1,15,532
904,14,13,16,0.1425,1,3,19
905,10,26,57,0.0955,1,3,30
906,17,21,21,0.3181,1,8,71
907,25,31,53,0.5013,1,7,48
908,18,22,22,0.3971,1,6,36
909,7,16,38,0.1034,1,3,32
910,55,71,65,10.0271,1,29,153
911,17,19,21,0.8127,1,10,48
912,33,43,46,1.1554,1,10,50
913,10,21,37,0.1756,1,6,21
914,65,98,158,11.6491,1,27,398
915,76,106,444,4.8059,1,10,198
916,2,2,3,0.0228,1,2,2
917,3,4,5,0.0639,1,3,8
918,201,4009,4968,187.223,1,20,53511
919,72,132,2675,1.6946,1,3,206
920,22,36,43,0.7231,1,7,60
921,52,79,398,7.2564,1,23,579
922,30,40,60,8.1967,1,22,82
923,2,3,3,0.0746,1,2,5
924,11,14,33,0.6071,1,9,40
925,27,41,83,0.821,1,6,56
926,15,16,17,0.1535,1,4,16
927,17,17,23,0.2628,1,3,17
928,5,7,12,0.0986,1,4,7
929,1,1,1,0.0402,1,2,1
930,11,21,61,0.5585,1,4,31
931,8,15,36,0.0718,1,3,16
932,11,33,51,0.3047,1,7,41
933,10,12,20,0.3256,1,7,20
934,6,8,9,0.1914,1,5,12
935,20,35,40,3.234,1,14,201
936,7,8,8,0.1034,1,7,23
937,12,44,58,0.1164,1,5,44
938,10,26,47,0.1196,1,4,26
939,9,11,25,0.1681,1,6,25
940,26,51,205,0.6173,1,8,131
941,48,56,552,2.3265,1,8,259
942,11,14,46,0.5092,1,7,38
943,19,28,101,0.7961,1,10,89
944,30,50,110,1.1707,1,10,60
945,5,10,8,0.2431,1,4,18
946,20,54,67,2.2527,1,16,158
947,36,166,143,11.0049,1,22,327
948,36,131,134,6.5755,1,22,214
949,20,71,69,0.9919,1,14,116
950,10,9,11,0.0611,1,3,9
951,12,13,14,0.3418,1,6,38
952,10,12,25,0.2593,1,6,26
953,6,7,9,0.4322,1,6,11
954,20,29,95,3.0584,1,17,198
955,52,75,142,6.0924,1,17,285
956,59,96,886,1.869,1,6,207
957,28,61,194,0.8431,1,8,156
958,17,18,20,0.1732,1,5,18
959,21,33,100,1.7021,1,12,148
960,28,35,140,1.1451,1,10,206
961,37,66,196,1.2197,1,7,88
962,19,22,40,0.9284,1,9,118
963,6,7,8,0.0359,1,3,7
964,11,16,14,0.5573,1,11,34
965,36,59,63,2.889,1,14,179
966,19,37,94,0.4496,1,6,62
967,5,6,9,0.0702,1,4,12
968,13,21,48,0.821,1,9,99
969,4,5,9,0.0272,1,3,5
970,10,11,10,0.5238,1,8,29
971,36,51,109,1.3215,1,9,236
972,1,1,1,0.0205,1,2,1
973,26,31,33,0.7282,1,11,119
974,6,16,22,0.0434,1,4,16
975,12,25,49,0.1156,1,6,35
976,24,36,37,0.5869,1,8,118
977,13,33,109,0.508,1,8,95
978,71,125,178,6.7555,1,12,498
979,28,39,114,1.3492,1,15,207
980,13,17,49,0.6228,1,12,69
981,14,28,28,0.5561,1,9,60
982,14,26,45,0.2992,1,7,34
983,10,11,12,0.476,1,8,35
984,13,15,29,1.6148,1,13,50
985,70,129,2311,2.1627,1,6,269
986,11,22,47,0.1247,1,7,30
987,37,42,223,0.6106,1,4,60
988,34,34,38,0.5107,1,4,34
989,15,34,106,0.8147,1,9,201
990,35,58,592,0.7006,1,6,128
991,547,1106,135660,240.6348,1,16,3894
992,47,46,829,30.5445,1,45,127
993,23,47,142,0.4168,1,7,47
994,4,6,12,0.0331,1,4,8
995,21,28,42,0.3244,1,7,68
996,17,19,35,0.3438,1,6,31
997,208,554,10200,50.0675,1,21,2475
998,7,11,22,0.0982,1,4,26
999,9,13,23,0.1827,1,5,17
1000,8,31,38,0.1042,1,5,31
1001,28,44,72,0.3461,1,3,44
1002,19,23,32,0.5565,1,10,77
1003,21,42,43,0.7022,1,10,119
1004,14,19,19,0.2048,1,5,19
1005,18,22,43,1.2951,1,12,57
1006,11,14,37,0.1523,1,5,25
1007,306,586,4760,149.6463,1,36,1416
1008,6,11,12,0.0884,1,4,18
1009,13,24,67,1.5485,1,13,106
1010,150,185,234,16.0571,1,10,270
1011,10,10,11,0.2139,1,7,42
1012,127,250,3913,7.307,1,4,372
1013,6,8,9,0.236,1,6,18
1014,21,46,119,0.2348,1,5,73
1015,23,62,60,0.8281,1,9,62
1016,15,15,16,0.2372,1,5,15
1017,23,25,42,0.3071,1,4,25
1018,11,11,12,0.4748,1,6,17
1019,38,47,218,1.903,1,9,133
1020,15,15,16,0.3268,1,6,24
1021,22,25,46,0.3422,1,5,52
1022,14,14,15,0.264,1,5,14
1023,13,13,17,0.1721,1,4,13
1024,12,12,13,0.234,1,5,14
1025,13,15,16,0.1788,1,5,26
1026,15,16,16,0.2759,1,6,16
1027,14,15,15,0.2865,1,6,15
1028,15,19,20,0.9161,1,10,19
1029,15,18,18,0.3876,1,7,18
1030,17,21,47,0.5415,1,9,70
1031,6,5,6,0.0963,1,3,9
1032,8,8,9,0.1559,1,5,10
1033,35,52,410,2.0704,1,9,303
1034,60,86,368,2.6984,1,8,222
1035,28,41,93,13.3409,1,16,176
1036,35,68,115,3.9383,1,20,238
1037,8,11,20,0.071,1,3,11
1038,87,137,253,17.117,1,27,297
1039,22,36,137,0.5277,1,6,128
1040,89,94,283,7.5959,1,13,134
1041,15,18,46,0.1563,1,3,18
1042,47,114,952,1.3476,1,4,261
1043,5,7,12,0.0706,1,4,13
1044,5,8,21,0.1136,1,4,23
1045,5,8,21,0.0382,1,4,23
1046,5,8,21,0.0734,1,4,23
1047,8,14,16,0.1405,1,6,22
1048,42,55,230,2.3352,1,13,190
1049,17,25,51,1.3938,1,20,91
1050,8,12,12,0.2222,1,5,16
1051,15,28,51,0.7436,1,11,142
1052,12,11,12,0.1484,1,4,11
1053,51,90,1071,2.9364,1,11,490
1054,11,11,65,0.1421,1,4,30
1055,30,50,95,1.4636,1,20,385
1056,12,14,18,0.879,1,8,34
1057,4,5,7,0.0742,1,6,15
1058,4,5,5,0.0706,1,5,11
1059,8,12,9,2.3739,1,12,16
1060,61,65,202,2.3392,1,6,117
1061,45,48,108,2.964,1,9,129
1062,3,5,7,0.0315,1,2,8
1063,25,40,85,3.0722,1,17,164
1064,10,19,34,0.9588,1,9,53
1065,46,106,186,5.9751,1,13,254
1066,36,51,85,1.1857,1,8,191
1067,17,17,67,0.3193,1,8,81
1068,14,29,37,0.9481,1,6,43
1069,3,4,4,0.039,1,4,6
1070,65,70,805,1.9089,1,5,94
1071,52,57,505,1.3105,1,5,81
1072,50,55,444,1.2623,1,5,79
1073,1,1,1,0.0165,1,1,1
1074,56,61,625,2.1904,1,5,85
1075,56,61,625,1.3954,1,5,85
1076,56,61,625,1.4731,1,5,85
1077,56,61,625,2.7177,1,5,85
1078,56,61,625,1.4419,1,5,85
1079,12,15,22,0.088,1,3,15
1080,28,35,83,3.6221,1,18,141
1081,64,116,678,10.35,1,24,922
1082,13,31,60,0.3714,1,6,73
1083,2,3,3,0.0323,1,2,5
1084,8,9,15,0.5115,1,8,23
1085,44,57,150,4.0622,1,16,150
1086,6,11,12,0.1839,1,5,19
1087,4,7,10,0.3378,1,6,28
1088,52,72,298,4.5221,1,13,450
1089,48,62,348,3.0075,1,13,408
1090,2,2,3,0.0296,1,2,2
1091,28,33,118,3.015,1,17,125
1092,10,17,33,0.1219,1,5,21
1093,19,21,51,1.8043,1,13,56
1094,5,4,5,0.0311,1,3,7
1095,11,10,11,0.3303,1,6,15
1096,6,5,6,0.4661,1,6,13
1097,6,5,6,0.0288,1,2,5
1098,7,7,8,0.15,1,5,7
1099,5,4,5,0.0296,1,3,7
1100,6,5,6,0.0276,1,2,5
1101,6,5,6,0.0264,1,2,5
1102,5,4,5,0.0442,1,2,4
1103,9,8,9,0.2151,1,5,8
1104,9,8,9,0.0856,1,3,8
1105,7,6,7,0.176,1,5,8
1106,7,7,7,0.1693,1,4,9
1107,7,6,7,0.0532,1,2,6
1108,5,4,5,0.0319,1,3,7
1109,5,5,6,0.0564,1,4,11
1110,8,8,9,0.1736,1,5,11
1111,13,15,35,0.129,1,4,24
1112,6,5,6,0.0276,1,2,5
1113,4,5,9,0.058,1,3,5
1114,6,5,16,0.0418,1,4,9
1115,26,27,52,0.3011,1,4,27
1116,8,9,10,0.1586,1,4,16
1117,5,4,5,0.0296,1,3,7
1118,5,4,5,0.0284,1,3,7
1119,2,2,3,0.0675,1,3,3
1120,2,3,3,0.0209,1,2,5
1121,3,4,7,0.0461,1,3,6
1122,14,25,27,0.309,1,6,25
1123,14,25,27,0.146,1,6,25
1124,35,49,42,2.6297,1,13,142
1125,39,51,44,1.2829,1,11,118
1126,36,51,100,1.2825,1,9,215
1127,21,191,231,0.2186,1,2,191
1128,4,6,9,0.1417,1,4,10
1129,18,17,18,0.2956,1,4,34
1130,64,561,3010,1.9677,1,4,691
1131,44,58,373,0.9382,1,5,132
1132,32,45,126,2.0739,1,16,147
1133,31,39,130,1.4921,1,15,116
1134,11,10,66,0.0532,1,2,10
1135,31,30,174,1.1096,1,9,140
1136,31,30,174,0.8968,1,9,136
1137,34,40,129,1.6867,1,11,186
1138,34,41,167,1.389,1,10,200
1139,13,12,40,0.1709,1,7,32
1140,40,47,40,0.7717,1,4,79
1141,8,8,9,0.0825,1,4,12
1142,17,21,61,0.1369,1,3,27
1143,3,3,6,0.0801,1,3,5
1144,38,40,57,2.5867,1,12,102
1145,4,4,4,0.0489,1,3,4
1146,28,39,64,0.626,1,6,47
1147,28,39,64,0.5238,1,6,47
1148,22,28,158,0.3059,1,6,56
1149,60,65,376,1.7506,1,5,101
1150,155,413,8161,24.8539,1,14,1013
1151,151,150,11326,7.8406,1,2,150
1152,14,21,45,1.8789,1,13,88
1153,11,18,36,0.4432,1,10,71
1154,8,8,9,0.1377,1,5,11
1155,26,44,65,6.1906,1,24,102
1156,95,115,265,10.0496,1,15,311
1157,30,29,30,0.4275,1,3,29
1158,28,45,167,13.8683,1,23,266
1159,24,39,115,0.7571,1,8,67
1160,3,4,5,0.0248,1,3,9
1161,9,12,13,0.4669,1,10,33
1162,42,61,82,1.8793,1,12,194
1163,23,51,154,1.406,1,10,182
1164,126,220,5931,61.329,1,27,2863
1165,68,88,199,5.743,1,16,397
1166,53,92,152,79.7633,1,34,311
1167,12,26,54,0.118,1,4,40
1168,15,19,20,0.4926,1,7,41
1169,4,6,8,1.2671,1,4,13
1170,13,12,13,0.1282,1,4,22
1171,3,5,5,0.1184,1,3,9
1172,107,152,1540,42.2402,1,21,501
1173,11,23,47,0.1132,1,4,32
1174,6,8,14,4.9827,1,5,14
1175,67,94,804,5.1418,1,15,299
1176,14,25,43,0.2486,1,7,41
1177,2,3,3,0.0359,1,2,5
1178,8,9,15,0.1713,1,3,19
1179,10,12,21,0.0888,1,4,18
1180,14,23,45,0.1744,1,5,23
1181,40,52,68,2.0597,1,12,162
1182,9,22,30,0.1247,1,4,33
1183,8,8,9,0.0982,1,6,28
1184,25,34,40,0.975,1,11,106
1185,34,46,51,1.8094,1,11,156
1186,1,1,1,0.0501,1,2,1
1187,39,82,185,3.2613,1,12,255
1188,11,29,40,0.2767,1,5,42
1189,43,58,184,15.3786,1,27,317
1190,33,45,140,6.251,1,22,250
1191,23,32,100,18.8704,1,14,174
1192,27,33,142,4.4723,1,15,123
1193,257,508,64775,34.0616,1,2,761
1194,11,29,47,0.2577,1,5,50
1195,42,66,224,3.78,1,13,347
1196,57,76,155,3.5708,1,13,306
1197,2,2,3,0.015,1,2,2
1198,3,5,5,0.0236,1,3,5
1199,13,18,28,0.2873,1,8,47
1200,9,10,10,0.2478,1,9,25
1201,13,12,14,0.1282,1,5,21
1202,518,6026,58092,462.6758,1,6,7254
1203,36,40,42,4.8098,1,20,40
1204,13,22,36,0.1428,1,6,30
1205,53,88,546,3.7815,1,14,369
1206,14,26,42,0.161,1,6,35
1207,13,14,57,0.1792,1,7,30
1208,3,4,5,0.0225,1,3,9
1209,13,28,97,0.0911,1,3,52
1210,22,26,53,0.3094,1,4,26
1211,32,40,83,1.0042,1,7,101
1212,9,9,16,0.18,1,5,9
1213,10,10,11,0.3521,1,7,12
1214,5,5,9,0.0359,1,4,8
1215,33,44,81,2.1631,1,11,189
1216,21,40,62,0.6785,1,9,81
1217,4,4,4,0.0453,1,5,8
1218,18,33,73,0.4634,1,7,59
1219,29,40,53,1.3646,1,11,73
1220,366,1301,2749,301.035,1,47,2682
1221,15,19,65,0.759,1,10,65
1222,21,31,73,0.6201,1,7,113
1223,57,76,962,1.8351,1,6,282
1224,10,13,19,0.1385,1,7,45
1225,54,89,179,3.5727,1,13,237
1226,27,32,170,0.3939,1,6,45
1227,9,8,9,0.0461,1,2,8
1228,95,136,1504,24.2571,1,33,1480
1229,10,14,49,0.2573,1,7,56
1230,14,18,58,0.4038,1,6,28
1231,4,5,6,0.0911,1,3,8
1232,16,28,148,0.5076,1,9,151
1233,256,255,32641,35.74,1,3,509
1234,6,9,27,0.1353,1,4,27
1235,8,8,8,0.088,1,5,24
1236,17,26,27,0.9726,1,10,68
1237,28,43,175,0.6801,1,6,115
1238,57,81,150,4.3966,1,16,348
1239,5,8,13,0.174,1,5,21
1240,41,50,426,0.6434,1,3,62
1241,13,19,22,0.1073,1,4,19
1242,20,26,29,0.9256,1,10,68
1243,3,6,7,0.0469,1,2,8
1244,15,14,15,0.1898,1,4,28
1245,17,16,17,0.1953,1,3,28
1246,16,15,16,0.2175,1,4,30
1247,17,16,17,0.219,1,4,32
1248,17,16,23,0.1673,1,3,31
1249,11,10,16,0.0675,1,3,10
1250,19,24,113,2.531,1,13,136
1251,18,23,97,0.6371,1,11,113
1252,28,35,188,5.7501,1,17,207
1253,15,17,53,1.588,1,11,63
1254,9,15,25,0.1318,1,6,19
1255,13,50,76,0.4582,1,7,50
1256,5,11,18,0.1006,1,3,23
1257,14,19,17,0.3035,1,6,43
1258,11,20,30,0.1294,1,7,35
1259,18,31,89,2.289,1,12,142
1260,61,72,243,4.1637,1,12,409
1261,26,36,67,5.6672,1,20,85
1262,37,69,462,1.5315,1,6,179
1263,27,36,63,0.7752,1,8,89
1264,15,20,21,0.549,1,8,66
1265,11,11,17,0.118,1,3,11
1266,15,19,20,0.3619,1,6,55
1267,5,8,13,0.0963,1,4,21
1268,14,15,51,0.7586,1,9,78
1269,16,19,19,0.3331,1,5,40
1270,11,11,17,0.071,1,3,11
1271,11,11,17,0.1164,1,3,11
1272,235,427,11266,76.7068,1,16,2902
1273,3,4,5,0.1002,1,3,8
1274,30,45,208,0.9248,1,8,62
1275,30,47,61,2.8539,1,15,135
1276,13,15,17,0.3205,1,11,39
1277,16,20,21,1.0484,1,9,64
1278,3,3,6,0.0256,1,2,3
1279,5,4,6,0.0228,1,2,4
1280,40,72,712,4.7791,1,8,232
1281,23,26,67,3.1804,1,16,27
1282,33,32,439,0.375,1,2,32
1283,4,6,9,0.0485,1,5,8
1284,8,8,9,0.1425,1,5,8
1285,22,30,112,1.3796,1,11,117
1286,2,2,3,0.0142,1,2,2
1287,24,25,310,0.2763,1,4,71
1288,19,27,91,0.3442,1,8,103
1289,22,25,50,0.2459,1,4,25
1290,1,1,1,0.011,1,2,1
1291,48,60,83,7.3168,1,25,176
1292,31,33,62,3.9765,1,18,67
1293,20,25,131,0.264,1,4,57
1294,34,36,112,0.5471,1,5,54
1295,3,5,5,0.114,1,3,7
1296,3,3,6,0.0323,1,3,5
1297,65,122,1267,2.2184,1,6,135
1298,18,18,31,0.1701,1,3,18
1299,27,29,87,0.3675,1,4,42
1300,6,8,11,0.3375,1,6,26
1301,10,13,20,0.6872,1,10,53
1302,9,14,27,0.2751,1,6,23
1303,13,12,13,0.144,1,5,20
1304,6,8,12,0.0363,1,3,8
1305,23,50,138,0.5486,1,7,90
1306,6,10,14,0.0848,1,5,16
1307,16,26,47,0.5143,1,7,38
1308,20,30,66,0.3836,1,6,30
1309,37,69,445,0.7511,1,6,161
1310,18,19,75,0.1385,1,3,23
1311,57,83,184,3.8297,1,13,357
1312,6,12,9,0.2786,1,5,22
1313,16,32,49,1.6709,1,13,130
1314,13,14,14,0.1843,1,7,43
1315,18,22,92,0.3098,1,7,43
1316,37,36,52,0.5175,1,3,36
1317,16,19,20,0.2321,1,4,23
1318,104,148,1279,11.7328,1,13,768
1319,18,111,247,1.6725,1,13,285
1320,4,3,7,0.026,1,3,5
1321,11,10,16,0.0726,1,3,10
1322,50,63,79,4.0409,1,18,200
1323,1,1,1,0.0205,1,2,1
1324,11,21,11,0.1006,1,3,42
1325,3,4,9,0.0142,1,1,4
1326,8,16,57,0.06,1,4,40
1327,21,22,37,4.9966,1,4,41
1328,40,60,88,0.6915,1,3,60
1329,16,17,18,0.1563,1,4,21
1330,15,22,23,0.9347,1,12,58
1331,6,16,23,0.1322,1,4,22
1332,2,2,3,0.0307,1,2,3
1333,6,10,17,0.0678,1,4,10
1334,2,2,3,0.069,1,3,3
1335,10,17,48,0.1551,1,6,42
1336,39,40,77,0.8084,1,5,48
1337,110,163,324,22.067,1,23,477
1338,22,28,158,0.2901,1,6,56
1339,16,56,83,0.3939,1,7,56
1340,21,36,70,0.9978,1,13,105
1341,9,9,20,0.1997,1,4,11
1342,7,12,28,0.0422,1,3,24
1343,15,32,57,0.4567,1,7,32
1344,14,17,51,0.0931,1,3,17
1345,8,11,22,0.7425,1,9,25
1346,44,59,128,2.306,1,13,225
1347,12,15,30,0.4247,1,7,55
1348,30,45,87,1.1502,1,9,105
1349,3,4,4,0.0217,1,2,5
1350,39,42,277,0.7034,1,3,52
1351,21,38,85,0.3477,1,6,73
1352,194,282,8164,59.0047,1,25,2032
1353,31,60,345,0.5451,1,5,116
1354,26,30,45,0.4381,1,6,31
1355,96,110,357,5.2247,1,5,266
1356,5,5,5,0.1117,1,4,8
1357,66,121,1662,2.0838,1,4,242
1358,3,5,5,0.1006,1,3,7
1359,35,48,73,1.3081,1,13,140
1360,18,22,40,1.9827,1,14,56
1361,12,11,12,0.1002,1,3,11
1362,12,11,12,0.1298,1,4,14
1363,19,27,31,0.298,1,6,27
1364,19,29,34,0.2482,1,6,29
1365,21,22,42,0.2092,1,3,22
1366,9,11,19,0.2344,1,9,18
1367,19,27,25,0.285,1,5,27
1368,11,11,13,0.4152,1,7,31
1369,19,25,65,1.5955,1,14,70
1370,13,13,18,0.0931,1,3,13
1371,7,8,14,0.1519,1,6,18
1372,19,31,31,0.9094,1,9,63
1373,65,90,97,19.7511,1,30,301
1374,32,44,46,1.8848,1,14,156
1375,5,9,14,0.0347,1,2,13
1376,10,15,20,0.135,1,4,15
1377,6,8,16,0.0643,1,3,8
1378,26,27,106,2.2065,1,14,53
1379,19,21,26,0.2135,1,5,21
1380,5,9,16,0.0363,1,4,9
1381,15,20,21,0.3371,1,6,21
1382,25,55,248,0.5115,1,8,113
1383,5,9,14,0.0311,1,3,13
1384,4,6,5,0.0943,1,3,12
1385,18,28,79,0.461,1,11,108
1386,6,11,13,0.159,1,5,31
1387,5,9,16,0.0371,1,4,9
1388,12,13,14,0.4957,1,11,22
1389,5,8,14,0.15,1,4,17
1390,5,8,14,0.1867,1,5,24
1391,4,5,7,0.0438,1,5,7
1392,10,12,14,0.1953,1,9,29
1393,7,8,8,0.101,1,8,31
1394,19,31,91,0.3165,1,7,114
1395,16,22,66,0.5392,1,10,39
1396,4,5,9,0.0236,1,3,5
1397,19,27,31,0.1985,1,5,27
1398,13,17,25,0.2301,1,8,46
1399,5,6,6,0.0461,1,5,11
1400,5,7,12,0.0363,1,4,7
1401,7,11,22,0.0536,1,4,26
1402,21,34,105,0.6982,1,8,144
1403,14,15,30,0.1046,1,3,15
1404,104,148,1279,15.3411,1,13,768
1405,68,88,142,4.305,1,13,230
1406,7,8,14,0.0481,1,3,12
1407,9,14,33,0.1831,1,5,36
1408,5,5,5,0.0319,1,3,5
1409,12,12,12,0.09,1,3,12
1410,13,30,90,0.6935,1,8,110
1411,8,8,9,0.1117,1,5,11
1412,33,32,33,0.4057,1,2,32
1413,67,132,1541,9.8005,1,15,1122
1414,67,132,1541,4.813,1,15,1122
1415,23,33,139,1.0618,1,20,224
1416,39,50,59,1.9448,1,13,137
1417,6,5,6,0.0292,1,2,5
1418,7,8,10,0.0998,1,7,25
1419,16,24,69,0.3213,1,8,116
1420,19,20,23,0.2593,1,7,30
1421,41,75,129,6.973,1,17,222
1422,41,57,68,5.9542,1,23,346
1423,59,104,871,2.7872,1,8,277
1424,59,104,871,2.9459,1,8,277
1425,22,26,37,0.5739,1,8,36
1426,2,3,3,0.1302,1,2,5
1427,2,3,3,0.1338,1,2,5
1428,2,3,3,0.0225,1,2,5
1429,2,3,3,0.0228,1,2,5
1430,2,3,3,0.0217,1,2,5
1431,2,3,3,0.0146,1,2,5
1432,2,3,3,0.0153,1,2,5
1433,2,3,3,0.0225,1,2,5
1434,2,3,3,0.0228,1,2,5
1435,39,43,45,1.018,1,6,45
1436,44,77,1117,0.7748,1,5,193
1437,2,2,3,0.015,1,2,2
1438,14,23,44,0.2344,1,6,23
1439,58,95,236,4.3591,1,13,438
1440,58,91,208,3.9844,1,13,402
1441,22,35,109,0.5917,1,7,145
1442,20,33,34,1.0831,1,9,73
1443,15,21,22,0.1882,1,5,29
1444,13,18,19,0.4646,1,6,34
1445,20,32,32,1.0057,1,10,78
1446,13,18,20,0.1073,1,4,18
1447,12,18,31,0.9264,1,10,71
1448,15,21,35,0.3742,1,10,57
1449,11,24,75,0.1113,1,4,24
1450,2,3,3,0.0244,1,2,5
1451,89,107,285,10.5347,1,12,343
1452,7,7,28,0.0398,1,2,8
1453,19,32,79,0.6086,1,13,112
1454,28,57,113,2.1706,1,15,163
1455,7,7,7,0.264,1,6,12
1456,223,1964,39303,19.4397,1,4,2483
1457,19,25,28,0.9856,1,9,82
1458,14,13,14,0.1022,1,3,13
1459,20,20,21,0.2719,1,5,20
1460,10,9,10,0.0615,1,3,9
1461,19,18,19,0.2277,1,5,18
1462,5,8,15,0.0572,1,3,16
1463,7,12,17,0.0521,1,4,12
1464,2,3,3,0.0157,1,2,5
1465,7,18,43,0.0497,1,2,25
1466,63,66,250,11.6396,1,27,196
1467,10,13,45,0.5115,1,8,58
1468,10,13,48,0.3323,1,7,56
1469,10,13,51,0.1555,1,6,53
1470,10,13,52,0.0935,1,5,47
1471,41,44,163,3.7744,1,17,124
1472,70,100,575,19.0915,1,22,700
1473,71,129,791,3.7519,1,10,211
1474,5,6,11,0.0856,1,4,9
1475,10,11,31,0.0631,1,3,15
1476,33,54,185,1.678,1,11,208
1477,27,32,132,0.5198,1,6,60
1478,23,24,115,0.2676,1,5,48
1479,7,12,21,0.0667,1,4,28
1480,33,50,236,2.8859,1,15,142
1481,257,415,2889,70.4806,1,11,2198
1482,264,7965,23733,52.085,1,6,8093
1483,20,24,34,0.3726,1,7,36
1484,13,23,40,0.1172,1,5,23
1485,11,12,15,0.2877,1,6,29
1486,2,2,3,0.0252,1,2,2
1487,264,7965,23733,50.7811,1,5,8091
1488,21,38,85,0.296,1,6,73
1489,26,63,287,0.3686,1,4,84
1490,22,36,78,0.2944,1,5,48
1491,11,14,14,0.4622,1,8,27
1492,5,7,13,0.1057,1,4,18
1493,73,100,174,5.1706,1,9,222
1494,24,31,38,0.8834,1,9,79
1495,26,52,94,1.5363,1,10,153
1496,32,40,188,1.0685,1,8,40
1497,52,70,127,2.5772,1,7,116
1498,17,26,27,0.5798,1,7,50
1499,22,30,26,2.9273,1,15,118
1500,14,13,14,0.1551,1,5,22
1501,2,2,3,0.0228,1,3,3
1502,1,1,1,0.0296,1,2,1
1503,10,16,17,0.1077,1,4,16
1504,65,122,858,3.658,1,9,354
1505,34,56,135,1.0207,1,9,118
1506,61,93,592,4.1337,1,12,579
1507,26,28,136,0.2684,1,3,28
1508,11,19,28,0.1231,1,4,29
1509,8,13,21,0.1555,1,6,16
1510,7,14,28,0.0394,1,3,14
1511,5,6,9,0.1634,1,5,17
1512,8,8,9,0.0994,1,4,8
1513,8,21,30,0.534,1,8,41
1514,2,3,3,0.0347,1,3,4
1515,17,26,39,1.0689,1,10,63
1516,294,377,10010,123.9539,1,26,2477
1517,385,498,17573,240.4496,1,31,3918
1518,329,424,12731,170.8015,1,30,3208
1519,265,342,8403,89.8027,1,25,2214
1520,423,545,20827,270.8133,1,31,4235
1521,4,6,9,0.1267,1,4,11
1522,13,24,157,0.0678,1,2,37
1523,2,3,3,0.0153,1,2,5
1524,2,3,3,0.0221,1,2,5
1525,20,25,60,3.4602,1,20,133
1526,5,5,12,0.0335,1,3,5
1527,10,12,19,0.1961,1,5,13
1528,19,26,61,0.3303,1,6,47
1529,6,8,9,0.0386,1,2,8
1530,14,17,32,0.2447,1,7,62
1531,28,60,173,16.3094,1,11,102
1532,2,2,3,0.0311,1,2,2
1533,53,54,77,1.2288,1,4,54
1534,10,9,11,0.2893,1,6,13
1535,8,8,9,0.1369,1,5,10
1536,23,22,254,0.1827,1,2,22
1537,88,105,1455,13.3769,1,23,457
1538,5,9,19,0.0382,1,3,9
1539,5,9,15,0.2747,1,5,19
1540,9,10,11,0.2265,1,5,15
1541,8,7,8,0.4105,1,7,12
1542,8,7,8,0.3296,1,7,12
1543,18,17,18,0.3473,1,5,44
1544,194,245,762,73.3353,1,33,245
1545,19,32,79,0.6525,1,15,134
1546,55,96,878,2.7513,1,9,344
1547,9,9,10,0.7993,1,9,21
1548,2,2,3,0.0398,1,2,2
1549,20,35,35,0.8139,1,8,53
1550,12,13,14,0.09,1,3,13
1551,8,7,29,0.0343,1,2,7
1552,97,132,543,8.3696,1,11,447
1553,65,107,146,7.6235,1,20,478
1554,3,3,5,0.0347,1,3,4
1555,30,45,107,28.6098,1,12,164
1556,8,12,23,0.5103,1,7,45
1557,12,16,35,0.7093,1,10,69
1558,13,22,53,0.7192,1,9,106
1559,6,10,17,0.1646,1,5,31
1560,8,12,23,0.3576,1,7,45
1561,16,20,47,1.7313,1,14,99
1562,41,54,102,1.8,1,12,188
1563,15,22,56,0.2032,1,5,30
1564,14,20,52,0.594,1,9,80
1565,106,161,1447,29.4869,1,35,1413
1566,404,515,6279,209.5459,1,25,612
1567,15,15,23,0.2025,1,3,15
1568,19,29,30,0.4436,1,8,42
1569,6,7,11,0.1705,1,5,15
1570,15,19,30,1.9389,1,14,61
1571,6,13,31,0.0375,1,3,25
1572,17,16,17,0.1472,1,3,16
1573,21,38,44,1.4048,1,25,81
1574,22,212,233,0.2932,1,2,404
1575,2,3,3,0.0821,1,2,5
1576,4,8,9,0.2088,1,4,15
1577,4,7,7,0.0406,1,4,16
1578,5,7,9,0.1425,1,5,7
1579,19,36,71,2.3277,1,16,92
1580,11,11,17,0.0746,1,3,11
1581,27,51,41,1.11,1,11,77
1582,7,8,8,0.3919,1,7,14
1583,41,50,426,0.6268,1,3,62
1584,4,7,6,0.0292,1,3,7
1585,11,10,16,0.0714,1,3,10
1586,5,7,11,0.0323,1,3,13
1587,9,8,12,0.0469,1,2,8
1588,3,4,3,0.0228,1,3,4
1589,8,11,39,0.0386,1,2,16
1590,5,12,16,0.1239,1,5,12
1591,3,5,6,0.0757,1,3,10
1592,56,109,1341,1.545,1,5,218
1593,29,87,350,1.0764,1,12,382
1594,42,130,616,2.0767,1,13,522
1595,38,127,536,1.6342,1,12,493
1596,32,126,484,0.8443,1,12,476
1597,14,21,48,0.2818,1,6,41
1598,13,16,65,0.3864,1,5,23
1599,5,12,13,0.0446,1,4,12
1600,31,48,213,5.5796,1,19,384
1601,2,1,2,0.0339,1,2,1
1602,3,3,3,0.1042,1,4,4
1603,3,3,6,0.0236,1,3,5
1604,21,23,34,0.3303,1,6,25
1605,83,98,291,6.6308,1,12,334
1606,10,13,14,0.0963,1,4,19
1607,2,2,3,0.0276,1,2,2
1608,9,12,33,0.0528,1,3,12
1609,57,76,174,3.3789,1,13,315
1610,3,4,4,0.0232,1,3,4
1611,15,19,53,0.1235,1,4,29
1612,45,55,60,7.4459,1,27,55
1613,2,3,3,0.0339,1,2,5
1614,32,91,102,0.8755,1,7,139
1615,61,86,75,28.2826,1,41,120
1616,4,4,7,0.0469,1,2,4
1617,29,71,71,2.6779,1,17,163
1618,15,14,15,0.1661,1,6,14
1619,61,118,217,7.7988,1,25,118
1620,2,2,3,0.0351,1,2,2
1621,134,258,7843,7.8864,1,5,628
1622,66,141,390,5.6329,1,16,523
1623,3,4,7,0.054,1,3,6
1624,11,12,16,0.0994,1,5,16
1625,13,28,30,0.7855,1,9,58
1626,44,61,129,12.7848,1,19,169
1627,3,4,6,0.1046,1,3,6
1628,42,46,139,7.3058,1,25,94
1629,7,7,11,0.161,1,4,11
1630,20,34,110,0.1839,1,3,34
1631,17,26,111,0.133,1,3,36
1632,12,16,44,0.0852,1,3,20
1633,66,127,208,6.1413,1,16,517
1634,10,9,10,0.0655,1,3,9
1635,104,148,1402,10.6271,1,13,819
1636,8,7,8,0.0548,1,3,7
1637,3,6,3,0.1547,1,4,11
1638,22,26,40,0.6189,1,12,86
1639,5,8,9,0.0386,1,4,12
1640,8,8,9,0.075,1,5,11
1641,9,12,16,0.0793,1,4,14
1642,4,5,5,0.0453,1,5,10
1643,14,16,17,0.819,1,8,63
1644,38,66,107,2.4351,1,14,238
1645,7,9,11,0.1113,1,7,29
1646,15,21,22,0.1989,1,3,36
1647,11,15,44,0.1053,1,5,35
1648,16,21,38,1.0306,1,9,48
1649,17,121,153,0.1772,1,1,121
1650,22,52,85,1.9815,1,15,52
1651,8,19,27,0.3446,1,6,26
1652,43,110,416,6.6355,1,25,456
1653,21,20,211,0.1559,1,2,20
1654,14,29,40,0.373,1,7,51
1655,11,18,25,0.5396,1,8,71
1656,32,46,219,0.6528,1,6,88
1657,50,161,433,1.3796,1,6,161
1658,48,62,575,2.3822,1,10,312
1659,3,5,7,0.0418,1,3,12
1660,32,38,68,0.673,1,7,84
1661,2,2,3,0.0193,1,3,3
1662,6,9,12,0.1085,1,4,13
1663,11,20,30,0.1255,1,7,35
1664,7,9,11,0.0975,1,7,30
1665,14,13,14,0.2107,1,5,31
1666,3,4,7,0.0209,1,3,6
1667,5,12,17,0.1361,1,5,16
1668,76,125,210,6.9481,1,14,423
1669,9,8,9,0.0631,1,3,8
1670,27,38,75,4.0377,1,11,136
1671,34,44,44,5.6108,1,24,44
1672,19,24,72,0.2076,1,5,38
1673,9,11,20,0.159,1,10,39
1674,12,23,24,0.103,1,4,39
1675,106,167,667,12.5436,1,13,754
1676,31,41,39,0.9521,1,11,139
1677,256,255,32641,20.5986,1,2,255
1678,44,62,113,2.3648,1,14,252
1679,27,40,114,1.5154,1,11,190
1680,10,19,41,0.1547,1,5,59
1681,9,10,12,0.1053,1,4,10
1682,6,5,16,0.0378,1,2,5
1683,51,50,1276,0.7713,1,2,50
1684,14,15,16,0.1586,1,4,37
1685,8,9,19,0.0572,1,4,12
1686,7,10,12,0.1464,1,4,15
1687,5,6,15,0.1057,1,4,14
1688,15,14,15,0.1271,1,4,14
1689,16,22,23,0.2889,1,8,67
1690,11,18,70,0.5589,1,6,57
1691,94,134,186,23.7384,1,34,487
1692,33,40,161,1.1392,1,8,89
1693,35,63,283,0.7452,1,6,127
1694,8,15,15,0.2873,1,8,21
1695,85,184,2061,5.4679,1,9,433
1696,34,42,160,3.7137,1,16,113
1697,15,19,20,0.1796,1,5,19
1698,5,9,10,0.0734,1,4,9
1699,3,5,5,0.0315,1,4,13
1700,119,154,590,13.1649,1,12,469
1701,10,25,41,0.1002,1,5,25
1702,23,38,86,0.2838,1,5,38
1703,209,4446,10240,30.2093,1,4,4574
1704,14,13,39,0.2431,1,4,13
1705,4,6,12,0.03,1,3,6
1706,7,8,9,0.0785,1,5,17
1707,10,12,22,0.1314,1,6,24
1708,5,8,11,0.06,1,6,10
1709,18,21,50,0.9059,1,10,56
1710,17,48,62,1.3069,1,9,120
1711,7,7,7,0.1002,1,7,19
1712,7,8,10,0.1034,1,7,25
1713,16,20,32,1.9204,1,18,89
1714,9,10,10,0.5285,1,8,32
1715,20,30,121,0.9169,1,9,104
1716,3,4,7,0.0525,1,3,4
1717,3,5,7,0.0398,1,4,6
1718,34,39,43,1.2829,1,10,116
1719,10,20,30,0.099,1,5,29
1720,9,22,30,0.0777,1,4,33
1721,15,20,21,0.5727,1,8,66
1722,30,64,77,1.5919,1,16,97
1723,12,17,35,0.1693,1,7,67
1724,2,2,3,0.028,1,2,2
1725,36,57,258,1.2817,1,9,141
1726,27,43,42,0.718,1,8,95
1727,15,20,24,0.5553,1,8,70
1728,16,21,51,0.1488,1,4,21
1729,4,5,5,0.0517,1,5,10
1730,28,38,47,1.764,1,14,129
1731,2,3,3,0.0576,1,2,5
1732,15,16,47,0.1519,1,5,24
1733,8,11,8,0.4515,1,10,23
1734,7,8,8,0.0998,1,7,23
1735,35,75,320,3.9742,1,14,316
1736,41,60,196,1.9756,1,11,177
1737,37,48,174,2.7552,1,15,154
1738,28,39,51,0.9532,1,13,97
1739,3,5,7,0.1385,1,4,13
1740,24,27,33,0.5802,1,11,87
1741,19,26,73,0.4492,1,9,88
1742,10,9,10,0.1188,1,4,11
1743,37,42,219,4.4368,1,6,120
1744,104,148,1405,10.2304,1,12,782
1745,24,60,323,1.1419,1,9,180
1746,25,34,51,0.375,1,6,34
1747,9,9,9,0.1334,1,7,29
1748,15,27,91,0.8273,1,11,124
1749,3189,8540,1663073,20800.5396,1,19,47226
1750,7,10,22,0.7282,1,6,28
1751,6,10,19,0.4275,1,5,16
1752,13,41,46,1.4198,1,11,61
1753,12,13,14,0.8984,1,8,50
1754,11,11,12,0.3457,1,5,25
1755,16,15,44,0.1219,1,2,15
1756,39,39,41,1.1735,1,5,39
1757,29,43,75,1.8213,1,14,130
1758,6,9,12,0.0876,1,6,20
1759,7,9,16,0.1989,1,7,31
1760,8,9,12,0.0505,1,3,14
1761,8,8,9,0.0686,1,5,11
1762,8,9,11,0.2431,1,5,9
1763,9,11,10,0.3544,1,6,17
1764,7,7,8,0.1547,1,5,10
1765,5,4,5,0.0284,1,3,7
1766,16,21,50,0.1973,1,4,24
1767,56,108,116,20.4032,1,35,108
1768,5,8,10,0.0777,1,5,14
1769,35,44,64,1.3464,1,13,115
1770,23,33,172,0.3173,1,6,47
1771,13,22,43,0.2415,1,5,22
1772,48,59,172,1.6504,1,7,159
1773,12,15,55,0.0856,1,3,23
1774,15,21,43,0.195,1,5,29
1775,11,14,15,0.2707,1,10,48
1776,29,33,259,0.358,1,4,50
1777,15,15,23,0.1109,1,3,15
1778,256,255,32641,22.909,1,2,255
1779,11,27,47,0.1476,1,5,27
1780,4,6,10,0.0288,1,3,12
1781,9,14,23,0.133,1,7,57
1782,6,8,15,0.073,1,3,14
1783,7,9,11,0.15,1,5,21
1784,31,65,163,1.014,1,15,101
1785,10,11,18,0.1361,1,5,19
1786,62,95,165,5.8014,1,16,392
1787,12,23,41,0.1365,1,5,27
1788,12,23,40,0.1002,1,5,27
1789,24,32,82,0.2826,1,4,44
1790,4,4,5,0.0248,1,3,4
1791,41,78,86,2.8002,1,16,159
1792,9,12,21,0.2025,1,8,51
1793,1,1,1,0.0288,1,2,1
1794,11,13,21,0.0852,1,4,15
1795,34,39,42,1.0401,1,10,116
1796,12,12,40,0.1365,1,5,26
1797,18,17,18,0.1519,1,3,17
1798,23,37,41,1.1411,1,15,184
1799,6,7,16,0.0386,1,3,7
1800,14,24,88,0.2143,1,4,57
1801,83,122,525,8.8259,1,12,558
1802,16,16,16,0.4077,1,6,20
1803,22,32,40,0.6667,1,13,119
1804,2,2,3,0.4653,1,2,2
1805,30,58,73,1.0685,1,15,122
1806,5,9,15,0.0453,1,4,13
1807,11,11,63,0.2684,1,6,46
1808,33,44,92,1.5513,1,19,196
1809,8,15,25,0.0663,1,5,15
1810,25,36,29,8.0818,1,28,136
1811,17,24,34,0.3446,1,12,60
1812,11,10,15,0.0805,1,4,10
1813,18,19,24,0.1807,1,5,19
1814,37,36,37,0.5802,1,3,36
1815,9,17,44,0.2309,1,5,55
1816,9,14,22,0.1282,1,7,55
1817,6,7,15,0.0402,1,4,7
1818,16,22,50,0.1523,1,5,22
1819,9,13,19,0.1322,1,8,49
1820,26,41,354,0.7618,1,7,165
1821,13,20,40,0.1164,1,5,20
1822,10,9,14,0.06,1,3,9
1823,6,10,16,0.1065,1,4,16
1824,9,12,19,0.2656,1,5,34
1825,21,22,33,0.27,1,5,22
1826,8,8,9,0.0568,1,4,8
1827,5,7,12,0.0363,1,4,7
1828,23,40,50,0.8648,1,9,88
1829,95,133,1335,9.5807,1,12,699
1830,26,38,58,0.7342,1,9,125
1831,8,8,9,0.0485,1,3,8
1832,32,51,64,1.8907,1,14,196
1833,17,20,21,0.3075,1,9,52
1834,73,118,350,4.7941,1,12,341
1835,22,26,72,0.2467,1,4,26
1836,23,34,51,0.5352,1,9,95
1837,15,19,22,0.3982,1,8,58
1838,8,8,12,0.0453,1,3,8
1839,9,13,19,0.2463,1,8,30
1840,9,12,13,0.131,1,7,27
1841,11,17,30,0.7792,1,10,65
1842,46,54,105,3.7168,1,13,390
1843,28,40,67,2.2748,1,16,126
1844,15,20,21,0.1535,1,4,35
1845,25,43,167,1.329,1,12,234
1846,23,38,51,0.7353,1,9,93
1847,24,29,72,1.0654,1,11,105
1848,10,9,10,0.0943,1,3,9
1849,9,15,16,0.075,1,4,18
1850,14,16,33,0.251,1,10,43
1851,62,80,90,6.7693,1,17,194
1852,27,38,49,0.5175,1,8,52
1853,21,22,33,0.2475,1,5,22
1854,32,56,173,2.4896,1,15,261
1855,41,69,377,1.329,1,9,285
1856,10,12,14,0.2542,1,6,12
1857,7,16,22,0.2052,1,7,22
1858,14,18,21,0.3327,1,9,64
1859,11,10,11,0.1251,1,3,11
1860,8,8,9,0.0548,1,4,8
1861,37,41,55,1.0397,1,7,78
1862,11,10,16,0.0702,1,3,10
1863,6,17,27,0.2372,1,6,35
1864,15,22,68,0.1148,1,3,34
1865,16,22,50,0.225,1,5,28
1866,13,16,17,0.2246,1,8,59
1867,37,37,61,0.5561,1,3,37
1868,106,122,3365,9.3659,1,8,637
1869,58,64,313,4.3073,1,12,432
1870,7,9,13,0.0888,1,4,15
1871,2,2,3,0.0327,1,2,2
1872,3,5,5,0.0773,1,3,7
1873,20,30,72,2.2401,1,5,50
1874,15,18,21,0.6588,1,10,75
1875,7,7,8,0.0884,1,7,20
1876,26,42,45,0.4594,1,6,52
1877,37,36,37,0.5415,1,3,36
1878,5,12,17,0.0382,1,4,12
1879,3,5,7,0.0205,1,3,5
1880,3,4,7,0.0327,1,3,4
1881,1,1,1,0.0114,1,2,1
1882,9,8,19,0.0453,1,2,8
1883,42,49,279,3.1946,1,12,352
1884,37,39,173,0.5439,1,3,45
1885,2,2,3,0.0153,1,2,2
1886,147,283,9139,11.0933,1,5,423
1887,15,19,20,0.1121,1,2,19
1888,26,35,45,2.4477,1,15,115
1889,27,37,60,2.025,1,14,50
1890,6,6,12,0.0422,1,4,6
1891,8,9,11,0.2344,1,6,19
1892,9,12,13,0.075,1,4,13
1893,25,38,102,1.1802,1,17,228
1894,8,8,12,0.0521,1,3,8
1895,12,19,26,0.1725,1,6,33
1896,18,25,53,0.6402,1,9,63
1897,36,51,96,1.1865,1,8,198
1898,20,24,90,0.178,1,3,28
1899,8,14,27,0.0678,1,4,23
1900,19,23,75,0.2253,1,6,33
1901,27,43,88,0.9477,1,9,59
1902,24,33,25,6.8404,1,27,83
1903,25,30,133,3.2609,1,5,54
1904,13,12,13,0.146,1,4,21
1905,10,13,19,0.0773,1,4,15
1906,2,1,2,0.013,1,2,1
1907,2,1,2,0.0236,1,2,1
1908,4,5,8,0.0315,1,3,9
1909,11,12,13,0.0789,1,3,12
1910,16,15,82,0.1298,1,3,29
1911,3,4,5,0.0236,1,3,4
1912,2,2,3,0.0161,1,2,2
1913,2,2,3,0.0157,1,2,2
1914,2,2,3,0.0161,1,2,2
1915,2,1,2,0.0157,1,2,1
1916,12,11,12,0.0821,1,3,11
1917,15,15,23,0.1121,1,3,15
1918,11,10,11,0.069,1,3,10
1919,6,5,6,0.0292,1,2,5
1920,2,1,2,0.015,1,2,1
