id,states,transitions,simRelSize,time,goodruns,minterms,mintermizedAutomatonTransitions
0,14,40,145,0.3007,1,5,84
1,59,127,1266,4.6342,1,9,408
2,17,20,35,1.3409,1,11,67
3,2,1,2,0.0284,1,2,1
4,29,47,101,0.9931,1,9,63
5,3,3,3,0.1689,1,4,4
6,18,21,22,1.0642,1,7,57
7,25,36,146,1.4214,1,9,104
8,3,6,9,0.0457,1,2,10
9,7,9,22,1.0693,1,7,19
10,12,14,13,1.5722,1,8,42
11,8,13,20,0.3465,1,7,52
12,16,19,21,0.5553,1,7,52
13,38,66,102,2.5058,1,9,170
14,44,81,136,3.0118,1,8,217
15,15,16,16,0.8305,1,8,56
16,3,3,4,0.1231,1,3,4
17,65,135,365,5.0131,1,13,276
18,44,49,170,0.8613,1,3,70
19,40,52,124,1.344,1,7,136
20,6,10,16,0.9355,1,6,18
21,4,5,4,0.1448,1,4,7
22,4,5,10,0.0596,1,3,9
23,11,13,11,0.2028,1,4,15
24,22,29,37,1.4001,1,10,110
25,11,11,66,0.1523,1,3,22
26,8,9,12,0.1239,1,4,18
27,6,11,15,1.2694,1,6,23
28,18,29,62,1.6823,1,9,72
29,11,11,38,0.2767,1,5,36
30,1,1,1,0.041,1,2,1
31,33,36,186,6.4109,1,19,194
32,16,16,28,0.1965,1,3,16
33,36,51,96,1.3346,1,8,194
34,3,2,4,0.0331,1,3,2
35,19,24,117,0.1721,1,3,32
36,370,804,51961,177.6921,1,11,4047
37,6,8,9,0.5743,1,2,8
38,3,3,4,0.3078,1,3,5
39,28,66,64,3.7598,1,10,136
40,14,13,14,0.42,1,6,42
41,13,26,70,0.6221,1,6,54
42,7,8,13,0.268,1,5,16
43,9,13,12,1.0231,1,10,30
44,4,6,12,0.0639,1,3,6
45,19,23,75,0.4863,1,6,33
46,7,8,13,0.656,1,7,20
47,7,8,13,0.09,1,7,20
48,11,12,51,0.1571,1,4,32
49,2,2,3,0.0461,1,2,2
50,102,202,2260,30.8867,1,34,1415
51,101,185,568,44.0339,1,34,868
52,10,9,14,0.1203,1,3,9
53,29,59,134,0.9457,1,7,143
54,17,40,99,1.0026,1,11,91
55,46,66,270,2.0711,1,9,202
56,3,4,4,0.1101,1,4,6
57,55,77,281,4.558,1,18,299
58,101,185,568,18.1935,1,34,870
59,24,38,41,2.2156,1,12,76
60,27,53,75,0.6584,1,5,98
61,14,34,35,0.3971,1,6,44
62,9,18,19,0.1436,1,5,27
63,7,8,23,0.0426,1,2,10
64,62,100,948,9.3691,1,13,638
65,64,102,979,5.1383,1,16,757
66,15,16,47,0.1981,1,6,26
67,46,69,159,1.1151,1,5,69
68,2,2,3,0.0331,1,2,2
69,3,4,5,0.0623,1,3,8
70,32,31,497,0.4263,1,3,61
71,55,134,241,2.0952,1,7,134
72,132,230,2088,14.899,1,9,901
73,143,262,2661,47.8802,1,23,2265
74,124,238,2601,32.631,1,21,1972
75,22,50,219,1.856,1,12,257
76,20,21,84,0.1871,1,3,25
77,6,5,6,0.1069,1,3,9
78,6,5,6,0.0457,1,3,9
79,8,11,22,0.135,1,5,19
80,30,71,110,1.7755,1,10,239
81,16,15,121,0.1105,1,2,15
82,5,5,6,0.1634,1,5,9
83,1,1,1,0.058,1,2,1
84,18,27,180,0.2431,1,5,87
85,32,50,139,1.6989,1,10,69
86,13,22,57,0.2238,1,6,48
87,2,3,3,0.0252,1,2,5
88,19,30,148,0.4188,1,6,56
89,9,14,35,0.12,1,4,26
90,26,42,144,2.6155,1,17,251
91,68,95,94,34.0489,1,33,203
92,25,33,105,3.2937,1,14,150
93,10,11,11,0.1957,1,4,25
94,3,3,5,0.0525,1,3,4
95,4,5,7,0.1101,1,4,7
96,4,6,9,0.0355,1,3,6
97,5,8,12,0.0469,1,4,8
98,26,47,51,2.1896,1,9,93
99,6,11,13,0.1535,1,4,14
100,28,43,74,1.4254,1,9,176
101,8,13,17,0.2601,1,5,18
102,15,21,52,0.2301,1,5,38
103,33,44,566,2.7923,1,10,275
104,33,43,534,0.7314,1,10,265
105,16,24,59,0.4661,1,7,54
106,40,59,564,4.6255,1,20,473
107,29,30,106,0.9118,1,8,64
108,61,85,751,2.814,1,7,355
109,21,23,98,0.6967,1,9,77
110,27,44,68,0.9489,1,7,97
111,20,20,20,0.193,1,3,22
112,31,36,116,10.6038,1,17,98
113,43,46,87,7.6583,1,24,146
114,30,52,199,0.7934,1,7,116
115,13,20,38,1.3397,1,9,29
116,8,8,9,0.0777,1,3,8
117,13,30,90,0.2238,1,6,68
118,18,33,101,1.4826,1,11,104
119,9,22,58,0.1215,1,4,40
120,49,53,100,7.8493,1,25,217
121,5,5,10,0.0757,1,4,11
122,6,7,11,0.4128,1,7,17
123,14,17,40,0.3272,1,9,61
124,10,9,10,0.1835,1,4,10
125,9,8,9,0.0706,1,3,15
126,7,9,13,0.3292,1,6,26
127,21,38,44,12.6798,1,25,81
128,4,5,7,0.1397,1,4,11
129,95,150,1170,13.7392,1,14,1008
130,1,1,1,0.0319,1,1,1
131,13,16,101,0.298,1,4,44
132,79,248,1854,11.7912,1,29,1871
133,79,248,1854,8.6313,1,29,1865
134,6,9,17,0.09,1,4,9
135,21,131,155,2.0526,1,11,189
136,3,5,7,0.0521,1,3,8
137,14,16,32,0.1539,1,4,28
138,13,18,28,0.5861,1,9,52
139,7,7,7,0.2261,1,5,9
140,2,3,3,0.0394,1,2,5
141,65,69,312,29.7266,1,21,184
142,14,17,19,1.2596,1,11,35
143,14,18,17,0.8253,1,9,57
144,31,30,409,0.4042,1,3,59
145,7,9,12,0.3418,1,6,14
146,13,15,28,0.2135,1,5,31
147,28,39,68,0.8814,1,6,115
148,13,16,15,0.2115,1,7,47
149,19,32,168,0.1602,1,3,32
150,4,7,10,0.1164,1,4,16
151,39,42,339,1.303,1,9,159
152,28,30,183,0.6252,1,7,75
153,79,148,2843,4.0472,1,4,289
154,74,74,74,2.5689,1,5,74
155,3,5,7,0.0521,1,2,8
156,25,69,300,0.6635,1,7,261
157,13,17,21,0.8613,1,11,77
158,23,32,97,0.9327,1,9,96
159,20,23,85,0.5486,1,7,47
160,10,16,24,0.5613,1,8,47
161,15,16,17,0.2711,1,6,51
162,77,108,978,17.9614,1,26,775
163,13,33,41,0.0923,1,2,33
164,13,12,41,0.1002,1,2,12
165,9,33,53,0.1144,1,3,34
166,747,986,159166,710.3417,1,27,7436
167,76,116,157,12.4484,1,14,680
168,11,11,65,0.0967,1,4,30
169,2,2,3,0.0252,1,2,2
170,9,8,10,0.0572,1,2,8
171,9,8,9,0.0568,1,2,8
172,9,8,9,0.0714,1,3,8
173,6,5,6,0.0453,1,2,5
174,80,104,326,10.2138,1,16,539
175,4,7,7,0.116,1,4,16
176,4,7,7,0.1606,1,4,16
177,10,12,22,0.0773,1,3,12
178,34,55,287,1.4467,1,10,228
179,7,14,29,0.2265,1,5,44
180,279,489,2375,82.7684,1,12,1601
181,8,8,12,0.0919,1,3,8
182,12,17,60,0.1969,1,5,47
183,19,24,117,1.5442,1,12,99
184,48,59,172,1.5746,1,7,159
185,15,29,65,0.624,1,5,29
186,3,4,5,0.0315,1,3,4
187,14,13,14,0.1148,1,3,13
188,15,14,15,0.1294,1,3,14
189,14,13,14,0.116,1,3,13
190,14,13,14,0.118,1,3,13
191,44,59,63,3.0288,1,15,129
192,25,25,26,0.566,1,6,25
193,18,19,20,0.7223,1,11,52
194,6,8,12,0.3138,1,6,20
195,4,10,7,0.1117,1,4,10
196,8,8,9,0.2336,1,5,10
197,71,118,890,2.0889,1,4,118
198,2,3,2,0.0367,1,2,4
199,4,5,5,0.118,1,6,14
200,4,7,7,0.0639,1,4,16
201,11,15,38,0.3106,1,6,23
202,32,34,105,1.5213,1,12,108
203,13,16,15,0.3047,1,8,57
204,10,11,16,0.1432,1,7,35
205,8,8,9,0.1807,1,5,10
206,95,194,406,60.8079,1,34,2631
207,3,6,9,0.0481,1,2,10
208,9,38,81,0.1136,1,4,65
209,70,80,1016,6.8151,1,12,622
210,138,186,9867,18.1331,1,13,1664
211,23,26,147,0.7697,1,9,128
212,44,52,538,3.0272,1,12,317
213,17,34,188,0.3915,1,8,171
214,16,19,70,0.3675,1,9,60
215,26,42,98,0.9126,1,10,180
216,4,6,10,0.0852,1,3,12
217,36,74,169,2.1833,1,15,130
218,3,4,7,0.0931,1,3,6
219,19,30,71,1.228,1,11,96
220,6,10,22,0.1227,1,4,22
221,49,110,140,3.9758,1,13,260
222,12,15,17,0.0876,1,3,15
223,18,21,53,0.3655,1,6,33
224,52,69,179,2.4911,1,10,241
225,94,124,171,6.107,1,9,208
226,36,51,112,0.54,1,3,51
227,18,30,57,0.5826,1,9,127
228,6,7,7,0.1117,1,7,21
229,25,34,61,1.4277,1,11,157
230,5,8,7,0.1152,1,4,10
231,5,14,16,0.0896,1,4,14
232,3,5,5,0.0351,1,3,9
233,23,25,24,0.7334,1,10,84
234,15,17,18,0.3978,1,6,29
235,18,36,77,1.3744,1,11,94
236,13,26,70,0.1409,1,6,54
237,96,121,118,31.1745,1,32,130
238,20,26,29,1.0721,1,11,34
239,12,23,63,0.4042,1,5,75
240,79,101,215,7.4416,1,16,328
241,31,30,164,0.8293,1,8,133
242,9,10,15,0.431,1,7,15
243,100,187,1805,15.2073,1,11,340
244,215,401,2254,79.9488,1,27,459
245,27,50,83,45.0073,1,27,271
246,8,11,17,0.1875,1,5,19
247,86,115,917,4.4538,1,8,220
248,3,4,5,0.0828,1,3,9
249,17,18,42,0.3453,1,6,28
250,20,26,31,0.2415,1,4,45
251,3,2,3,0.0746,1,3,2
252,24,39,44,11.8855,1,26,147
253,65,102,85,15.0865,1,34,200
254,5,5,6,0.0556,1,3,9
255,4,3,4,0.0331,1,2,3
256,37,61,80,1.8844,1,12,134
257,11,12,19,0.1278,1,3,12
258,9,8,9,0.0639,1,3,8
259,15,26,72,0.2692,1,5,34
260,10,11,20,0.7338,1,9,27
261,5,10,17,0.056,1,3,18
262,5,10,14,0.0698,1,3,18
263,43,52,209,4.2675,1,21,363
264,15,16,17,0.221,1,7,26
265,10,9,10,0.1294,1,4,9
266,19,27,31,0.4855,1,7,41
267,13,16,17,0.8731,1,14,28
268,7,6,7,0.0615,1,4,8
269,7,8,13,0.4267,1,7,20
270,11,17,46,0.1428,1,4,17
271,56,94,736,2.1217,1,8,361
272,28,31,84,0.718,1,6,31
273,11,19,40,0.3856,1,6,32
274,205,3036,7830,49.1438,1,8,9351
275,39,41,119,0.639,1,3,41
276,13,18,21,0.2111,1,4,18
277,29,45,115,1.1929,1,10,156
278,7,18,43,0.0363,1,1,18
279,44,45,130,5.6637,1,21,104
280,10,11,16,0.2909,1,6,20
281,10,15,25,0.1421,1,4,21
282,6,12,16,0.174,1,4,15
283,22,28,158,0.326,1,6,56
284,20,22,23,0.4634,1,5,57
285,20,22,23,0.4965,1,6,67
286,11,13,40,0.1725,1,8,32
287,2,2,3,0.024,1,2,2
288,14,16,17,0.1511,1,3,16
289,5,9,14,0.056,1,2,13
290,30,31,59,8.0104,1,18,65
291,9,20,45,0.2664,1,5,68
292,17,36,45,1.8051,1,14,121
293,12,11,12,0.1677,1,4,12
294,3,4,6,0.0777,1,4,5
295,33,54,198,1.3318,1,10,91
296,21,45,196,1.286,1,11,170
297,2,3,3,0.0284,1,2,5
298,11,11,11,0.1302,1,3,22
299,7,9,26,0.189,1,4,18
300,7,8,10,0.1089,1,7,25
301,60,134,389,5.4493,1,15,498
302,15,19,87,0.879,1,10,65
303,15,25,92,0.3331,1,10,71
304,59,257,1204,23.4988,1,32,2071
305,29,41,62,1.438,1,13,79
306,24,38,151,0.8648,1,7,136
307,29,61,183,3.778,1,18,281
308,43,156,390,2.4075,1,11,552
309,16,22,23,0.5589,1,7,44
310,5,9,19,0.0801,1,3,9
311,38,70,129,3.8242,1,14,148
312,4,6,8,0.0627,1,4,12
313,29,32,61,0.4867,1,5,32
314,45,46,93,6.1034,1,21,86
315,20,33,34,0.701,1,8,65
316,24,26,164,0.2601,1,3,26
317,19,20,57,0.8585,1,9,60
318,21,22,67,6.5649,1,8,56
319,16,29,44,1.1009,1,9,76
320,3,5,7,0.0548,1,2,5
321,19,27,40,0.6481,1,10,98
322,393,736,10043,321.1461,1,30,5928
323,7,15,14,0.1006,1,4,19
324,5,6,9,0.144,1,4,12
325,15,14,15,0.1689,1,3,14
326,16,26,35,1.1384,1,12,55
327,43,56,95,2.8129,1,11,133
328,45,55,230,2.4868,1,14,271
329,43,70,280,5.6384,1,19,443
330,10,20,41,0.1093,1,5,20
331,30,40,277,4.2868,1,19,241
332,52,84,506,4.3109,1,14,329
333,16,20,80,0.5881,1,11,68
334,2,3,3,0.041,1,2,5
335,2,3,2,0.0252,1,2,4
336,9,15,32,0.0832,1,5,27
337,13,29,115,0.2182,1,6,76
338,35,120,377,0.9607,1,4,132
339,16,16,16,0.1385,1,3,16
340,15,34,93,0.1535,1,5,45
341,11,19,30,0.294,1,6,31
342,80,114,148,50.9967,1,42,117
343,57,195,1782,29.425,1,11,758
344,18,27,67,0.2486,1,5,27
345,25,34,61,0.4594,1,5,51
346,10,24,31,0.3075,1,6,44
347,18,21,60,0.6761,1,8,24
348,14,18,86,0.2064,1,4,27
349,21,34,126,0.283,1,3,52
350,40,51,381,2.6036,1,16,223
351,16,22,54,0.3998,1,10,93
352,10,17,35,0.3773,1,6,51
353,3,2,3,0.0493,1,3,3
354,8,8,12,0.056,1,3,8
355,89,172,1060,11.7308,1,15,817
356,5,6,10,0.0457,1,3,10
357,18,30,101,0.2688,1,6,103
358,11,11,12,0.1148,1,3,11
359,9,11,13,0.1085,1,4,11
360,27,57,128,0.63,1,8,90
361,64,141,707,2.3451,1,6,193
362,16,21,85,0.1314,1,3,33
363,20,27,138,0.4476,1,7,66
364,23,36,159,1.2544,1,9,112
365,52,78,271,5.8579,1,19,418
366,101,100,1481,9.7792,1,11,593
367,27,31,33,0.8818,1,11,92
368,14,14,45,0.1425,1,5,18
369,16,28,46,0.8475,1,10,39
370,10,21,52,0.4263,1,7,80
371,28,48,56,0.9201,1,6,50
372,54,65,94,3.7697,1,15,309
373,4,3,4,0.0406,1,2,3
374,11,11,12,0.0876,1,3,11
375,19,18,19,0.1776,1,3,18
376,9,10,11,0.1835,1,8,42
377,8,11,38,0.1736,1,5,33
378,32,33,63,3.7065,1,18,67
379,18,32,37,0.3489,1,7,54
380,45,44,45,1.0622,1,4,90
381,30,33,38,0.6907,1,6,54
382,31,30,31,0.8222,1,6,30
383,49,65,181,2.4975,1,11,212
384,18,19,36,2.593,1,13,54
385,34,34,39,0.5593,1,4,34
386,5,8,8,0.2463,1,5,12
387,13,14,25,0.911,1,10,32
388,28,72,130,1.2284,1,9,116
389,11,10,11,0.0825,1,3,10
390,9,10,17,0.3643,1,7,22
391,9,10,17,0.4689,1,8,24
392,2,3,3,0.0351,1,2,5
393,3,5,6,0.075,1,3,10
394,24,26,43,0.9086,1,9,31
395,46,80,415,2.6554,1,13,238
396,7,14,31,0.2534,1,4,24
397,9,13,18,0.4669,1,10,42
398,8,12,18,0.2017,1,6,20
399,19,29,147,1.1329,1,11,140
400,14,26,54,0.189,1,5,26
401,7,9,10,0.0528,1,3,9
402,28,29,55,2.8756,1,16,59
403,5,6,9,0.2171,1,5,14
404,11,46,56,0.0678,1,1,46
405,12,17,83,0.6011,1,10,100
406,18,25,25,0.3181,1,7,53
407,13,19,36,0.3477,1,6,51
408,21,47,95,0.5775,1,7,84
409,6,5,6,0.0378,1,2,5
410,13,22,39,1.4617,1,12,89
411,6,8,11,0.2731,1,6,18
412,113,132,1033,12.8732,1,16,291
413,5,5,12,0.0438,1,3,5
414,7,9,14,0.1401,1,4,15
415,558,2116,141113,278.7914,1,19,7017
416,7,8,10,0.1148,1,7,25
417,17,23,56,0.6201,1,10,82
418,7,8,10,0.1989,1,7,25
419,6,9,18,0.2798,1,5,29
420,9,10,38,0.0552,1,2,12
421,19,18,64,0.3055,1,4,18
422,16,39,66,0.4511,1,7,39
423,20,44,94,0.5092,1,8,56
424,16,32,80,0.3552,1,7,40
425,9,14,26,0.3256,1,6,35
426,9,14,26,0.1172,1,6,35
427,5,7,9,0.2044,1,6,19
428,54,120,375,2.2898,1,9,137
429,18,25,45,0.174,1,4,25
430,13,24,36,0.384,1,7,50
431,61,86,75,36.2078,1,41,118
432,36,46,285,0.6272,1,6,56
433,42,61,82,2.4615,1,12,194
434,41,62,89,2.2117,1,12,210
435,7,9,8,0.1906,1,7,17
436,19,28,245,0.1342,1,3,62
437,302,769,23933,96.3628,1,19,2692
438,7,10,13,0.3284,1,5,18
439,4,6,8,0.1022,1,4,12
440,31,55,227,0.6813,1,6,98
441,49,50,97,7.0133,1,3,50
442,6,13,15,0.3217,1,6,41
443,12,13,35,0.0967,1,3,17
444,6,9,18,0.045,1,3,9
445,22,24,82,0.2068,1,3,30
446,17,47,64,1.4119,1,11,93
447,7,9,13,0.3173,1,8,35
448,99,249,1930,13.8774,1,22,1023
449,15,20,22,0.3086,1,7,64
450,4,7,11,0.0836,1,3,7
451,15,31,68,0.718,1,8,53
452,17,28,73,0.339,1,8,42
453,8,10,24,0.4511,1,5,18
454,2,3,3,0.0343,1,2,5
455,104,167,1396,11.0969,1,12,848
456,4,7,11,0.0864,1,3,15
457,6,5,8,0.0836,1,4,5
458,17,37,81,0.4042,1,6,37
459,11,28,33,0.9892,1,10,48
460,16,25,40,4.3666,1,4,33
461,20,27,38,2.3242,1,20,116
462,22,28,158,0.2621,1,5,58
463,128,145,1355,20.7987,1,12,1077
464,11,16,30,0.2297,1,4,16
465,4,9,16,0.0892,1,3,19
466,13,37,106,0.1926,1,4,70
467,12,20,70,0.4061,1,7,90
468,17,34,124,0.7306,1,9,110
469,11,14,38,0.4764,1,8,45
470,34,36,134,2.7868,1,18,136
471,17,22,54,0.3071,1,6,32
472,20,36,37,0.9469,1,10,92
473,24,25,25,3.7575,1,19,25
474,2,3,3,0.0292,1,2,5
475,5,7,7,0.2103,1,5,9
476,44,125,173,5.5243,1,16,210
477,11,10,12,0.1306,1,4,26
478,27,30,100,17.2185,1,18,94
479,4,7,6,0.0596,1,3,13
480,4,6,9,0.0367,1,3,6
481,5,7,13,0.0919,1,3,13
482,6,12,17,0.1444,1,5,23
483,2,2,3,0.0351,1,2,3
484,18,27,92,0.4969,1,8,109
485,13,14,15,0.519,1,10,34
486,11,16,28,0.4748,1,8,66
487,14,35,60,0.4993,1,4,47
488,20,84,210,0.328,1,5,84
489,47,70,81,2.5433,1,15,191
490,101,139,1268,9.2175,1,13,685
491,36,51,105,1.4471,1,10,264
492,14,23,33,0.7125,1,9,47
493,12,15,21,0.5238,1,9,29
494,14,19,53,0.3592,1,8,46
495,31,39,206,0.9094,1,10,136
496,22,29,42,0.5415,1,6,66
497,7,9,19,0.5028,1,7,32
498,6,9,21,0.043,1,3,9
499,16,18,53,0.2092,1,5,37
500,6,10,16,0.2297,1,5,13
501,70,127,241,6.6181,1,13,413
502,22,29,42,0.3698,1,6,66
503,53,54,106,8.3747,1,24,100
504,63,92,250,8.6203,1,22,282
505,20,27,110,0.18,1,3,27
506,501,718,2938,456.1555,1,36,1382
507,15,16,31,1.5671,1,12,46
508,8,10,16,0.4638,1,7,24
509,76,139,2161,4.6077,1,11,418
510,21,38,58,3.1701,1,25,70
511,22,40,44,3.7401,1,25,79
512,13,20,36,0.2514,1,8,81
513,13,22,105,0.176,1,4,54
514,25,26,50,20.811,1,17,58
515,13,20,47,0.7823,1,9,82
516,97,132,614,9.8822,1,11,447
517,7,8,15,0.2167,1,4,14
518,4,5,7,0.1634,1,4,11
519,5,4,5,0.1203,1,3,7
520,3,4,7,0.1444,1,3,6
521,3,5,5,0.8475,1,3,7
522,20,28,61,0.8759,1,6,106
523,16,34,43,1.1506,1,7,74
524,5,4,5,0.1219,1,3,7
525,10,15,44,0.7168,1,8,58
526,24,50,89,0.6813,1,9,137
527,4,5,6,0.0753,1,3,5
528,39,52,70,1.931,1,14,175
529,89,90,191,23.8974,1,34,220
530,21,23,40,0.2565,1,4,23
531,12,14,15,0.2111,1,5,14
532,32,67,96,12.6513,1,20,287
533,7,10,14,0.4294,1,7,22
534,12,22,67,0.1586,1,5,62
535,81,82,161,15.2171,1,27,209
536,23,32,157,0.2711,1,4,50
537,17,40,72,0.4164,1,6,70
538,103,143,1455,11.4205,1,17,407
539,13,36,66,0.1594,1,5,36
540,3,5,7,0.0552,1,2,8
541,5,8,15,0.0497,1,3,8
542,30,81,112,1.3681,1,10,103
543,17,27,54,0.3402,1,7,41
544,44,70,268,1.7948,1,8,178
545,25,39,105,0.8613,1,11,100
546,14,35,42,0.5463,1,7,35
547,21,59,126,1.2047,1,10,161
548,6,10,20,0.0828,1,4,10
549,19,32,41,3.2238,1,20,133
550,75,76,149,15.0798,1,29,168
551,45,46,89,6.4899,1,23,255
552,11,13,29,0.0872,1,3,13
553,576,1102,10179,513.1759,1,32,1268
554,223,1964,39303,19.7704,1,4,2483
555,13,16,65,0.1397,1,5,23
556,6,9,14,0.0678,1,4,19
557,18,21,36,0.8652,1,10,75
558,17,22,44,0.8218,1,10,83
559,18,23,66,0.2881,1,7,77
560,27,35,38,3.6931,1,20,253
561,14,17,28,0.4523,1,7,45
562,46,70,191,3.0051,1,13,255
563,20,23,41,0.7121,1,8,79
564,11,10,16,0.1022,1,3,10
565,19,26,24,0.4567,1,6,43
566,21,57,301,0.4953,1,6,69
567,7,9,17,0.5964,1,8,28
568,7,8,8,0.1235,1,7,23
569,99,181,1356,10.7901,1,15,752
570,5,10,13,0.0832,1,4,25
571,8,8,29,0.0773,1,5,13
572,6,6,6,0.0493,1,3,8
573,4,6,12,0.0576,1,3,6
574,13,29,91,0.238,1,5,29
575,10,24,68,0.1452,1,3,48
576,70,84,326,3.9971,1,8,309
577,3,4,4,0.0903,1,3,8
578,74,97,927,2.4935,1,5,193
579,4,4,10,0.0414,1,2,4
580,16,20,20,0.2857,1,8,45
581,57,76,155,4.3922,1,13,306
582,16,21,33,0.6442,1,9,95
583,88,105,455,13.4203,1,17,755
584,68,128,268,9.9778,1,15,524
585,22,61,202,1.7577,1,13,149
586,67,198,840,8.2922,1,23,697
587,5,9,13,0.1259,1,4,21
588,36,67,259,2.8397,1,17,225
589,13,30,69,0.2317,1,5,46
590,4,6,9,0.0525,1,5,8
591,12,24,51,0.1113,1,4,37
592,11,12,39,0.0801,1,3,16
593,39,78,623,2.5113,1,12,448
594,220,276,17386,41.6619,1,11,1966
595,29,68,542,0.405,1,5,180
596,5,7,10,0.1867,1,6,13
597,20,30,27,0.5336,1,11,107
598,15,28,65,25.4515,1,7,59
599,12,34,105,0.1109,1,4,58
600,13,25,102,0.5944,1,8,117
601,8,7,8,0.2167,1,5,7
602,5,5,11,0.0406,1,3,5
603,12,13,14,0.2194,1,7,46
604,2,1,2,0.0236,1,2,1
605,8,18,35,0.1428,1,4,39
606,32,41,161,1.258,1,9,126
607,12,37,59,0.116,1,5,37
608,24,32,61,0.7598,1,11,100
609,28,58,232,1.1182,1,11,174
610,15,30,66,0.81,1,11,80
611,103,166,2018,34.6257,1,32,1270
612,107,173,2214,47.007,1,31,1258
613,16,51,57,1.0476,1,9,76
614,9,10,38,0.0955,1,3,21
615,6,15,23,0.2151,1,5,31
616,9,11,20,0.2403,1,5,23
617,7,9,17,0.4247,1,7,25
618,16,19,33,1.4104,1,11,62
619,9,13,20,0.2309,1,5,27
620,9,11,20,0.1807,1,5,23
621,9,13,25,0.4567,1,8,23
622,8,12,30,0.1725,1,7,26
623,14,16,16,0.2451,1,8,50
624,65,64,2018,1.1609,1,2,64
625,6,6,8,0.1239,1,4,10
626,11,11,12,0.1053,1,4,19
627,19,29,148,1.4411,1,12,172
628,11,18,19,0.1701,1,6,28
629,11,21,22,0.1207,1,6,31
630,15,14,15,0.3035,1,5,14
631,13,20,40,0.1784,1,5,20
632,71,113,558,15.527,1,14,211
633,8,14,22,0.131,1,4,23
634,10,9,35,0.4882,1,8,11
635,23,31,51,1.3594,1,12,132
636,19,24,40,0.7223,1,10,79
637,26,35,41,1.08,1,9,51
638,4,6,12,0.0343,1,3,6
639,13,16,32,0.2692,1,8,53
640,15,17,49,0.1728,1,5,36
641,153,200,881,32.9453,1,17,977
642,65,87,241,4.8916,1,12,393
643,194,472,3684,108.6988,1,44,2053
644,21,24,34,0.7255,1,10,73
645,5,9,14,0.0422,1,3,15
646,22,22,24,0.2561,1,4,22
647,18,23,31,2.6076,1,16,71
648,11,14,15,1.2923,1,12,32
649,9,10,17,0.1093,1,4,15
650,12,14,15,0.4148,1,9,26
651,9,26,40,0.1673,1,4,32
652,14,25,101,0.129,1,4,64
653,8,9,9,0.7381,1,9,21
654,19,21,28,0.4717,1,7,53
655,8,7,8,0.1219,1,4,9
656,9,11,10,1.1088,1,11,27
657,12,28,37,0.1105,1,4,28
658,9,11,10,0.9268,1,10,33
659,21,44,75,3.1547,1,16,50
660,12,16,28,1.1972,1,12,36
661,10,10,47,0.069,1,3,12
662,16,21,26,0.1492,1,3,39
663,8,12,16,0.5305,1,9,28
664,19,20,47,0.7669,1,10,43
665,9,9,10,0.0915,1,4,9
666,2,3,3,0.0292,1,2,5
667,18,22,57,0.3055,1,5,40
668,68,95,270,12.1678,1,13,480
669,14,27,101,0.3232,1,7,72
670,6,7,9,0.0746,1,3,9
671,37,110,971,0.7764,1,6,336
672,3,5,7,0.0284,1,2,8
673,11,70,121,0.1026,1,3,70
674,11,17,29,0.4788,1,7,47
675,7,9,18,0.2818,1,7,27
676,29,75,263,0.8088,1,8,91
677,13,25,75,0.1413,1,6,48
678,13,16,16,0.4065,1,7,50
679,8,9,15,0.3635,1,7,21
680,15,20,19,0.8992,1,9,82
681,33,38,89,0.4843,1,4,38
682,2,3,3,0.0371,1,2,5
683,35,35,37,0.594,1,4,35
684,72,75,326,6.0466,1,9,545
685,35,47,42,3.9955,1,29,70
686,116,117,351,31.152,1,28,223
687,1,1,1,0.0292,1,1,1
688,8,9,15,0.5546,1,8,23
689,59,60,119,7.4566,1,23,167
690,20,26,83,0.8877,1,9,78
691,17,29,73,0.4894,1,5,29
692,15,16,17,1.3081,1,11,28
693,4,6,8,0.1152,1,4,12
694,4,8,9,0.1831,1,4,16
695,6,11,18,0.2996,1,6,28
696,9,13,23,0.2573,1,5,21
697,7,12,20,0.4622,1,5,20
698,2,2,3,0.0331,1,2,2
699,307,581,5528,144.8601,1,32,993
700,324,623,7030,167.0843,1,36,1310
701,11,10,11,0.326,1,4,27
702,22,23,43,2.6929,1,16,53
703,15,17,17,0.2921,1,8,61
704,15,19,79,0.1125,1,3,19
705,3,5,5,0.0335,1,3,7
706,7,14,25,0.0619,1,3,20
707,72,118,325,9.9979,1,16,903
708,45,73,563,0.8502,1,3,151
709,27,43,88,0.7192,1,8,57
710,3,6,9,0.0438,1,2,10
711,15,38,184,0.2028,1,4,103
712,23,35,175,0.6146,1,7,117
713,23,30,74,0.5715,1,10,111
714,9,8,30,0.174,1,4,14
715,26,34,51,2.1304,1,18,145
716,11,16,23,0.3248,1,7,34
717,33,58,78,6.1539,1,13,150
718,92,110,276,8.7754,1,11,358
719,92,110,330,7.9978,1,11,358
720,6,7,15,0.0592,1,4,7
721,23,24,46,3.1535,1,15,78
722,14,16,16,0.2822,1,8,50
723,31,51,248,2.025,1,12,298
724,4,6,9,0.0367,1,2,8
725,42,45,352,1.1996,1,5,173
726,19,27,59,0.6402,1,6,53
727,31,48,86,2.9025,1,16,218
728,48,52,116,2.6171,1,9,119
729,53,55,199,1.4479,1,4,110
730,9,17,41,0.0844,1,4,26
731,2,3,3,0.0513,1,2,5
732,3,6,9,0.0307,1,2,10
733,3,3,4,0.0378,1,4,5
734,46,118,1075,2.7742,1,12,406
735,224,362,532,80.9467,1,29,1027
736,21,21,22,0.463,1,9,67
737,10,17,29,0.1385,1,5,40
738,9,10,24,0.114,1,6,24
739,5,6,9,0.0461,1,4,8
740,25,61,97,9.0979,1,11,300
741,177,256,6867,43.947,1,15,2097
742,5,8,17,0.2459,1,4,9
743,16,37,54,0.6635,1,9,80
744,12,13,15,0.099,1,4,13
745,130,195,4164,7.0875,1,4,321
746,7,10,12,0.2893,1,6,17
747,13,22,23,1.2319,1,7,49
748,12,21,40,0.1192,1,5,21
749,17,30,111,0.1448,1,3,40
750,6,9,18,0.1555,1,4,23
751,16,17,54,0.2771,1,5,32
752,18,26,27,4.3906,1,8,54
753,19,23,57,0.3426,1,5,40
754,16,25,60,1.0705,1,13,136
755,19,33,32,0.9181,1,10,93
756,7,15,27,0.1914,1,5,27
757,54,81,169,5.126,1,14,270
758,29,39,84,10.2237,1,20,240
759,56,78,1110,9.0099,1,24,736
760,81,118,2627,11.5161,1,22,1105
761,17,35,54,0.2115,1,5,47
762,508,923,3201,403.8668,1,31,1739
763,51,87,575,35.3563,1,14,394
764,6,8,21,0.1484,1,4,20
765,87,101,524,5.8646,1,10,197
766,25,32,43,2.0333,1,15,93
767,18,18,60,0.2415,1,4,21
768,4,5,5,0.0619,1,5,8
769,9,12,14,0.1247,1,4,12
770,16,31,91,0.5652,1,6,98
771,11,14,27,0.1306,1,3,14
772,22,56,228,2.9108,1,14,334
773,13,22,43,0.1267,1,5,22
774,20,30,67,2.1225,1,15,116
775,2,2,3,0.0414,1,2,2
776,55,74,171,3.7168,1,11,175
777,13,16,29,0.4271,1,7,30
778,14,26,48,0.1492,1,5,30
779,12,22,94,0.1721,1,4,46
780,22,25,82,0.4689,1,6,66
781,35,50,314,2.0684,1,13,182
782,39,70,400,123.5035,1,21,402
783,29,37,66,1.29,1,19,161
784,13,30,63,0.2143,1,6,48
785,8,19,29,0.0675,1,4,19
786,53,149,408,2.2136,1,8,218
787,53,149,408,1.9685,1,8,218
788,23,31,107,3.2198,1,15,153
789,18,23,121,0.4247,1,7,88
790,6,7,10,0.1946,1,5,11
791,15,18,21,0.27,1,8,55
792,11,18,53,0.7606,1,9,64
793,12,18,34,0.7294,1,9,41
794,6,8,9,0.0876,1,3,8
795,11,12,13,0.1638,1,7,40
796,28,55,214,1.0334,1,9,111
797,33,57,365,1.766,1,12,282
798,9,17,40,0.0611,1,3,23
799,288,465,2320,145.0535,1,31,683
800,546,2608,174082,436.6696,1,24,22364
801,5,8,9,0.06,1,3,8
802,25,32,141,1.9054,1,16,159
803,46,72,1011,1.9657,1,11,335
804,7,8,10,0.1184,1,7,25
805,6,7,8,0.2103,1,5,7
806,72,120,155,9.5408,1,22,376
807,1501,1500,1125751,581.6884,1,1,1500
808,38,50,281,0.8222,1,4,68
809,11,10,12,0.3205,1,5,31
810,22,28,46,1.241,1,21,104
811,15,22,80,0.1164,1,3,36
812,9,11,10,0.4381,1,7,21
813,42,47,367,1.8544,1,11,119
814,10,18,91,0.099,1,3,38
815,13,23,91,0.0892,1,3,23
816,19,19,21,0.3513,1,5,19
817,6,8,9,0.2605,1,5,10
818,10,11,12,0.0907,1,4,11
819,9,8,9,0.0915,1,3,8
820,9,8,9,0.0548,1,2,8
821,18,17,18,0.1977,1,3,17
822,10,19,84,0.2325,1,5,71
823,2,2,3,0.0248,1,2,2
824,1,1,1,0.0193,1,2,1
825,29,41,35,1.6014,1,12,145
826,8,11,16,0.1535,1,8,43
827,8,8,8,0.1484,1,4,8
828,3,5,7,0.0434,1,2,8
829,4,7,9,0.0489,1,4,17
830,4,7,10,0.0331,1,2,9
831,74,99,602,14.3977,1,25,371
832,14,14,15,0.3465,1,6,49
833,22,32,57,3.5514,1,18,196
834,307,306,8988,120.1581,1,12,2867
835,19,19,19,0.504,1,7,74
836,15,14,15,0.2842,1,5,47
837,41,42,110,1.9961,1,8,253
838,53,55,184,3.2869,1,8,347
839,26,26,47,0.4823,1,4,74
840,32,32,58,0.9051,1,6,136
841,17,16,17,0.2321,1,4,45
842,134,141,920,25.6402,1,12,1202
843,8,11,18,0.2321,1,5,21
844,63,68,638,2.1035,1,6,102
845,8,9,15,0.135,1,5,22
846,18,23,61,0.3544,1,7,93
847,74,116,368,9.6896,1,18,541
848,56,79,126,9.3126,1,26,341
849,38,41,421,1.2118,1,10,126
850,2,3,3,0.0256,1,2,4
851,2,3,3,0.039,1,2,4
852,385,1323,2791,385.1842,1,49,2895
853,3,5,7,0.0785,1,3,6
854,577,1105,35473,794.8151,1,37,9511
855,25,279,279,0.4097,1,3,279
856,39,40,131,1.2911,1,8,129
857,55,78,108,4.9985,1,25,346
858,19,35,168,0.2364,1,6,98
859,13,13,14,0.2364,1,6,22
860,35,60,131,1.4743,1,10,240
861,12,20,41,0.1622,1,4,20
862,30,45,72,0.778,1,5,117
863,17,21,28,1.4739,1,11,65
864,5,9,18,0.0426,1,3,17
865,81,96,258,7.3172,1,13,333
866,11,13,18,0.2759,1,8,49
867,13,19,38,1.0567,1,11,78
868,9,26,25,0.2107,1,5,42
869,46,59,101,2.0794,1,12,218
870,178,267,6480,36.5062,1,18,1797
871,28,55,229,1.2596,1,12,310
872,21,38,52,1.6204,1,25,72
873,46,65,355,5.233,1,12,393
874,37,45,392,0.6339,1,4,99
875,28,30,296,0.8703,1,7,134
876,9,11,13,0.2782,1,6,21
877,2,2,3,0.0367,1,2,2
878,13,20,30,0.3307,1,7,41
879,4,4,5,0.0339,1,2,4
880,842,4387,38535,1214.2666,1,36,7238
881,5,7,12,0.0821,1,4,7
882,2,2,2,0.0544,1,2,3
883,6,9,26,0.0418,1,2,14
884,39,66,356,0.9907,1,6,106
885,10,14,15,0.3086,1,11,32
886,10,30,38,0.7993,1,8,30
887,45,51,147,6.8949,1,23,152
888,22,26,48,31.7745,1,16,70
889,19,30,67,1.4451,1,12,105
890,8,11,29,0.3094,1,5,34
891,34,50,160,3.9608,1,17,287
892,5,8,13,0.0422,1,3,14
893,75,99,1863,22.4203,1,41,1100
894,36,66,413,0.8396,1,8,159
895,4,6,10,0.1353,1,3,14
896,9,10,18,0.0643,1,3,10
897,12,15,25,0.1046,1,4,24
898,6,7,11,0.0793,1,3,11
899,11,21,56,0.1938,1,5,77
900,16,32,140,0.7105,1,9,148
901,13,23,103,0.2111,1,7,88
902,12,22,43,0.1148,1,5,22
903,64,140,396,12.4101,1,15,532
904,14,13,16,0.1251,1,3,19
905,10,26,57,0.1251,1,3,30
906,17,21,21,0.3517,1,8,71
907,25,31,53,0.5561,1,7,48
908,18,22,22,0.4235,1,6,36
909,7,16,38,0.1353,1,3,32
910,55,71,65,9.2341,1,29,153
911,17,19,21,0.8609,1,10,48
912,33,43,46,1.1944,1,10,50
913,10,21,37,0.2048,1,6,21
914,65,98,158,11.3732,1,27,398
915,76,106,444,4.7854,1,10,198
916,2,2,3,0.0359,1,2,2
917,3,4,5,0.0797,1,3,8
918,201,4009,4968,185.5509,1,20,53511
919,72,132,2675,1.7179,1,3,206
920,22,36,43,0.7065,1,7,60
921,52,79,398,6.1883,1,23,579
922,30,40,60,4.8979,1,22,82
923,2,3,3,0.0639,1,2,5
924,11,14,33,5.25,1,9,40
925,27,41,83,0.4353,1,6,56
926,15,16,17,0.1409,1,4,16
927,17,17,23,0.1713,1,3,17
928,5,7,12,0.069,1,4,7
929,1,1,1,0.0335,1,2,1
930,11,21,61,0.3007,1,4,31
931,8,15,36,0.086,1,3,16
932,11,33,51,0.3011,1,7,41
933,10,12,20,0.2009,1,7,20
934,6,8,9,0.1942,1,5,12
935,20,35,40,1.6839,1,14,201
936,7,8,8,0.1243,1,7,23
937,12,44,58,0.12,1,5,44
938,10,26,47,0.0832,1,4,26
939,9,11,25,0.1803,1,6,25
940,26,51,205,0.6284,1,8,131
941,48,56,552,1.9413,1,8,259
942,11,14,46,0.4239,1,7,38
943,19,28,101,0.6734,1,10,89
944,30,50,110,1.1257,1,10,60
945,5,10,8,0.2159,1,4,18
946,20,54,67,2.145,1,16,158
947,36,166,143,5.7205,1,22,327
948,36,131,134,5.2042,1,22,214
949,20,71,69,0.945,1,14,116
950,10,9,11,0.0836,1,3,9
951,12,13,14,0.3592,1,6,38
952,10,12,25,0.279,1,6,26
953,6,7,9,0.4571,1,6,11
954,20,29,95,3.4985,1,17,198
955,52,75,142,5.0289,1,17,285
956,59,96,886,1.7569,1,6,207
957,28,61,194,0.8648,1,8,156
958,17,18,20,0.1981,1,5,18
959,21,33,100,1.6472,1,12,148
960,28,35,140,1.2118,1,10,206
961,37,66,196,1.1336,1,7,88
962,19,22,40,0.8802,1,9,118
963,6,7,8,0.0477,1,3,7
964,11,16,14,0.579,1,11,34
965,36,59,63,12.6636,1,14,179
966,19,37,94,0.6157,1,6,62
967,5,6,9,0.0548,1,4,12
968,13,21,48,0.6603,1,9,99
969,4,5,9,0.0375,1,3,5
970,10,11,10,0.5202,1,8,29
971,36,51,109,1.2426,1,9,236
972,1,1,1,0.0327,1,2,1
973,26,31,33,0.7385,1,11,119
974,6,16,22,0.0627,1,4,16
975,12,25,49,0.1255,1,6,35
976,24,36,37,0.5992,1,8,118
977,13,33,109,0.7725,1,8,95
978,71,125,178,6.1279,1,12,498
979,28,39,114,1.4246,1,15,207
980,13,17,49,0.6769,1,12,69
981,14,28,28,0.5936,1,9,60
982,14,26,45,0.3327,1,7,34
983,10,11,12,0.5017,1,8,35
984,13,15,29,1.4364,1,13,50
985,70,129,2311,2.4201,1,6,269
986,11,22,47,0.1271,1,7,30
987,37,42,223,0.6825,1,4,60
988,34,34,38,0.5325,1,4,34
989,15,34,106,0.8289,1,9,201
990,35,58,592,0.5502,1,6,128
991,547,1106,135660,243.0644,1,16,3894
992,47,46,829,32.2406,1,45,127
993,23,47,142,0.4618,1,7,47
994,4,6,12,0.0517,1,4,8
995,21,28,42,0.3363,1,7,68
996,17,19,35,0.3777,1,6,31
997,208,554,10200,50.1168,1,21,2475
998,7,11,22,0.0777,1,4,26
999,9,13,23,0.1835,1,5,17
1000,8,31,38,0.1132,1,5,31
1001,28,44,72,0.3513,1,3,44
1002,19,23,32,0.5909,1,10,77
1003,21,42,43,0.6832,1,10,119
1004,14,19,19,0.2246,1,5,19
1005,18,22,43,1.3188,1,12,57
1006,11,14,37,0.1788,1,5,25
1007,306,586,4760,154.7708,1,36,1416
1008,6,11,12,0.0825,1,4,18
1009,13,24,67,1.5126,1,13,106
1010,150,185,234,16.7673,1,10,270
1011,10,10,11,0.2455,1,7,42
1012,127,250,3913,20.526,1,4,372
1013,6,8,9,0.3011,1,6,18
1014,21,46,119,0.2463,1,5,73
1015,23,62,60,0.8502,1,9,62
1016,15,15,16,0.2581,1,5,15
1017,23,25,42,0.2794,1,4,25
1018,11,11,12,0.405,1,6,17
1019,38,47,218,1.6551,1,9,133
1020,15,15,16,0.3063,1,6,24
1021,22,25,46,0.3363,1,5,52
1022,14,14,15,0.2723,1,5,14
1023,13,13,17,0.1938,1,4,13
1024,12,12,13,0.2688,1,5,14
1025,13,15,16,0.2025,1,5,26
1026,15,16,16,0.3153,1,6,16
1027,14,15,15,0.3213,1,6,15
1028,15,19,20,0.9588,1,10,19
1029,15,18,18,0.4271,1,7,18
1030,17,21,47,0.6221,1,9,70
1031,6,5,6,0.1152,1,3,9
1032,8,8,9,0.1768,1,5,10
1033,35,52,410,1.7419,1,9,303
1034,60,86,368,2.4821,1,8,222
1035,28,41,93,3.431,1,16,176
1036,35,68,115,10.6634,1,20,238
1037,8,11,20,0.0903,1,3,11
1038,87,137,253,17.3937,1,27,297
1039,22,36,137,0.5348,1,6,128
1040,89,94,283,6.5534,1,13,134
1041,15,18,46,0.1578,1,3,18
1042,47,114,952,1.2777,1,4,261
1043,5,7,12,0.0825,1,4,13
1044,5,8,21,0.1397,1,4,23
1045,5,8,21,0.0521,1,4,23
1046,5,8,21,0.0525,1,4,23
1047,8,14,16,0.0951,1,6,22
1048,42,55,230,2.0036,1,13,190
1049,17,25,51,1.2951,1,20,91
1050,8,12,12,0.2344,1,5,16
1051,15,28,51,0.7109,1,11,142
1052,12,11,12,0.1073,1,4,11
1053,51,90,1071,2.7817,1,11,490
1054,11,11,65,0.0994,1,4,30
1055,30,50,95,1.3855,1,20,385
1056,12,14,18,0.5147,1,8,34
1057,4,5,7,0.1275,1,6,15
1058,4,5,5,0.0592,1,5,11
1059,8,12,9,1.3906,1,12,16
1060,61,65,202,2.0569,1,6,117
1061,45,48,108,1.5947,1,9,129
1062,3,5,7,0.0398,1,2,8
1063,25,40,85,1.7119,1,17,164
1064,10,19,34,0.9548,1,9,53
1065,46,106,186,3.4642,1,13,254
1066,36,51,85,1.1111,1,8,191
1067,17,17,67,0.283,1,8,81
1068,14,29,37,0.6619,1,6,43
1069,3,4,4,0.0394,1,4,6
1070,65,70,805,1.7893,1,5,94
1071,52,57,505,7.8829,1,5,81
1072,50,55,444,1.1881,1,5,79
1073,1,1,1,0.0205,1,1,1
1074,56,61,625,1.3875,1,5,85
1075,56,61,625,1.528,1,5,85
1076,56,61,625,1.3855,1,5,85
1077,56,61,625,1.3906,1,5,85
1078,56,61,625,1.363,1,5,85
1079,12,15,22,0.099,1,3,15
1080,28,35,83,3.3398,1,18,141
1081,64,116,678,9.8751,1,24,922
1082,13,31,60,0.3596,1,6,73
1083,2,3,3,0.043,1,2,5
1084,8,9,15,0.534,1,8,23
1085,44,57,150,3.7575,1,16,150
1086,6,11,12,0.1906,1,5,19
1087,4,7,10,0.3402,1,6,28
1088,52,72,298,4.2616,1,13,450
1089,48,62,348,2.7288,1,13,408
1090,2,2,3,0.0398,1,2,2
1091,28,33,118,2.8658,1,17,125
1092,10,17,33,0.1472,1,5,21
1093,19,21,51,1.753,1,13,56
1094,5,4,5,0.0422,1,3,7
1095,11,10,11,0.3,1,6,15
1096,6,5,6,0.2992,1,6,13
1097,6,5,6,0.0386,1,2,5
1098,7,7,8,0.1693,1,5,7
1099,5,4,5,0.0414,1,3,7
1100,6,5,6,0.0386,1,2,5
1101,6,5,6,0.0378,1,2,5
1102,5,4,5,0.0453,1,2,4
1103,9,8,9,0.1689,1,5,8
1104,9,8,9,0.1278,1,3,8
1105,7,6,7,0.1882,1,5,8
1106,7,7,7,0.2103,1,4,9
1107,7,6,7,0.0619,1,2,6
1108,5,4,5,0.0442,1,3,7
1109,5,5,6,0.0678,1,4,11
1110,8,8,9,0.1898,1,5,11
1111,13,15,35,0.1373,1,4,24
1112,6,5,6,0.0386,1,2,5
1113,4,5,9,0.0734,1,3,5
1114,6,5,16,0.0528,1,4,9
1115,26,27,52,0.3126,1,4,27
1116,8,9,10,0.1717,1,4,16
1117,5,4,5,0.0418,1,3,7
1118,5,4,5,0.0426,1,3,7
1119,2,2,3,0.0793,1,3,3
1120,2,3,3,0.026,1,2,5
1121,3,4,7,0.0323,1,3,6
1122,14,25,27,0.2384,1,6,25
1123,14,25,27,0.1563,1,6,25
1124,35,49,42,2.3909,1,13,142
1125,39,51,44,1.3042,1,11,118
1126,36,51,100,1.2971,1,9,215
1127,21,191,231,0.2218,1,2,191
1128,4,6,9,0.1484,1,4,10
1129,18,17,18,0.3114,1,4,34
1130,64,561,3010,1.3342,1,4,691
1131,44,58,373,1.0065,1,5,132
1132,32,45,126,2.6629,1,16,147
1133,31,39,130,1.5596,1,15,116
1134,11,10,66,0.0627,1,2,10
1135,31,30,174,1.005,1,9,140
1136,31,30,174,0.9157,1,9,136
1137,34,40,129,1.6282,1,11,186
1138,34,41,167,1.4036,1,10,200
1139,13,12,40,0.1839,1,7,32
1140,40,47,40,0.7764,1,4,79
1141,8,8,9,0.1073,1,4,12
1142,17,21,61,0.1373,1,3,27
1143,3,3,6,0.1042,1,3,5
1144,38,40,57,1.8852,1,12,102
1145,4,4,4,0.0363,1,3,4
1146,28,39,64,1.3551,1,6,47
1147,28,39,64,0.4567,1,6,47
1148,22,28,158,0.2948,1,6,56
1149,60,65,376,1.6527,1,5,101
1150,155,413,8161,26.9594,1,14,1013
1151,151,150,11326,7.2205,1,2,150
1152,14,21,45,1.8785,1,13,88
1153,11,18,36,0.5246,1,10,71
1154,8,8,9,0.1259,1,5,11
1155,26,44,65,6.3276,1,24,102
1156,95,115,265,10.5557,1,15,311
1157,30,29,30,0.4338,1,3,29
1158,28,45,167,20.734,1,23,266
1159,24,39,115,0.7346,1,8,67
1160,3,4,5,0.0375,1,3,9
1161,9,12,13,0.504,1,10,33
1162,42,61,82,1.7889,1,12,194
1163,23,51,154,1.3421,1,10,182
1164,126,220,5931,69.9066,1,27,2863
1165,68,88,199,5.471,1,16,397
1166,53,92,152,78.0572,1,34,311
1167,12,26,54,0.1073,1,4,40
1168,15,19,20,0.4717,1,7,41
1169,4,6,8,0.1346,1,4,13
1170,13,12,13,0.1942,1,4,22
1171,3,5,5,0.0702,1,3,9
1172,107,152,1540,15.7236,1,21,501
1173,11,23,47,0.101,1,4,32
1174,6,8,14,0.2526,1,5,14
1175,67,94,804,4.3898,1,15,299
1176,14,25,43,0.2265,1,7,41
1177,2,3,3,0.0398,1,2,5
1178,8,9,15,0.1006,1,3,19
1179,10,12,21,0.0986,1,4,18
1180,14,23,45,0.2013,1,5,23
1181,40,52,68,1.8532,1,12,162
1182,9,22,30,0.0828,1,4,33
1183,8,8,9,0.1184,1,6,28
1184,25,34,40,0.7417,1,11,106
1185,34,46,51,1.6144,1,11,156
1186,1,1,1,0.0343,1,2,1
1187,39,82,185,1.6152,1,12,255
1188,11,29,40,0.1728,1,5,42
1189,43,58,184,7.9089,1,27,317
1190,33,45,140,4.4341,1,22,250
1191,23,32,100,1.704,1,14,174
1192,27,33,142,3.0967,1,15,123
1193,257,508,64775,13.6713,1,2,761
1194,11,29,47,0.2388,1,5,50
1195,42,66,224,3.2901,1,13,347
1196,57,76,155,3.3702,1,13,306
1197,2,2,3,0.0244,1,2,2
1198,3,5,5,0.0339,1,3,5
1199,13,18,28,0.3378,1,8,47
1200,9,10,10,0.2553,1,9,25
1201,13,12,14,0.1634,1,5,21
1202,518,6026,58092,211.9929,1,6,7254
1203,36,40,42,4.8059,1,20,40
1204,13,22,36,0.1646,1,6,30
1205,53,88,546,3.7894,1,14,369
1206,14,26,42,0.1728,1,6,35
1207,13,14,57,0.2013,1,7,30
1208,3,4,5,0.0386,1,3,9
1209,13,28,97,0.1057,1,3,52
1210,22,26,53,0.3153,1,4,26
1211,32,40,83,1.0294,1,7,101
1212,9,9,16,0.2084,1,5,9
1213,10,10,11,0.3986,1,7,12
1214,5,5,9,0.0517,1,4,8
1215,33,44,81,2.2906,1,11,189
1216,21,40,62,0.6146,1,9,81
1217,4,4,4,0.0556,1,5,8
1218,18,33,73,0.4776,1,7,59
1219,29,40,53,4.8821,1,11,73
1220,366,1301,2749,302.0802,1,47,2682
1221,15,19,65,1.0705,1,10,65
1222,21,31,73,0.6596,1,7,113
1223,57,76,962,2.0439,1,6,282
1224,10,13,19,0.1598,1,7,45
1225,54,89,179,3.4046,1,13,237
1226,27,32,170,0.4196,1,6,45
1227,9,8,9,0.0556,1,2,8
1228,95,136,1504,24.4513,1,33,1480
1229,10,14,49,0.266,1,7,56
1230,14,18,58,0.1535,1,6,28
1231,4,5,6,0.0919,1,3,8
1232,16,28,148,0.4867,1,9,151
1233,256,255,32641,32.007,1,3,509
1234,6,9,27,0.1863,1,4,27
1235,8,8,8,0.1042,1,5,24
1236,17,26,27,1.2706,1,10,68
1237,28,43,175,0.7014,1,6,115
1238,57,81,150,4.6666,1,16,348
1239,5,8,13,0.1803,1,5,21
1240,41,50,426,0.5889,1,3,62
1241,13,19,22,0.1128,1,4,19
1242,20,26,29,0.8932,1,10,68
1243,3,6,7,0.069,1,2,8
1244,15,14,15,0.3765,1,4,28
1245,17,16,17,0.1969,1,3,28
1246,16,15,16,0.2206,1,4,30
1247,17,16,17,0.236,1,4,32
1248,17,16,23,0.1819,1,3,31
1249,11,10,16,0.0793,1,3,10
1250,19,24,113,1.8169,1,13,136
1251,18,23,97,0.645,1,11,113
1252,28,35,188,1.7139,1,17,207
1253,15,17,53,1.4336,1,11,63
1254,9,15,25,0.1464,1,6,19
1255,13,50,76,0.3319,1,7,50
1256,5,11,18,0.0682,1,3,23
1257,14,19,17,0.3003,1,6,43
1258,11,20,30,6.6351,1,7,35
1259,18,31,89,1.2011,1,12,142
1260,61,72,243,4.2256,1,12,409
1261,26,36,67,4.3839,1,20,85
1262,37,69,462,0.8305,1,6,179
1263,27,36,63,0.7543,1,8,89
1264,15,20,21,0.6951,1,8,66
1265,11,11,17,0.0864,1,3,11
1266,15,19,20,0.5814,1,6,55
1267,5,8,13,2.6672,1,4,21
1268,14,15,51,0.5123,1,9,78
1269,16,19,19,0.1831,1,5,40
1270,11,11,17,0.0844,1,3,11
1271,11,11,17,0.0872,1,3,11
1272,235,427,11266,66.8206,1,16,2902
1273,3,4,5,0.1034,1,3,8
1274,30,45,208,0.881,1,8,62
1275,30,47,61,2.7746,1,15,135
1276,13,15,17,0.4405,1,11,39
1277,16,20,21,1.033,1,9,64
1278,3,3,6,0.0525,1,2,3
1279,5,4,6,0.0347,1,2,4
1280,40,72,712,1.6448,1,8,232
1281,23,26,67,3.0339,1,16,27
1282,33,32,439,0.3284,1,2,32
1283,4,6,9,0.0639,1,5,8
1284,8,8,9,0.1488,1,5,8
1285,22,30,112,1.3263,1,11,117
1286,2,2,3,0.0244,1,2,2
1287,24,25,310,0.2715,1,4,71
1288,19,27,91,0.356,1,8,103
1289,22,25,50,0.2632,1,4,25
1290,1,1,1,0.03,1,2,1
1291,48,60,83,7.5738,1,25,176
1292,31,33,62,12.2696,1,18,67
1293,20,25,131,0.3082,1,4,57
1294,34,36,112,0.5542,1,5,54
1295,3,5,5,0.1065,1,3,7
1296,3,3,6,0.0315,1,3,5
1297,65,122,1267,2.2255,1,6,135
1298,18,18,31,0.15,1,3,18
1299,27,29,87,0.3367,1,4,42
1300,6,8,11,0.3513,1,6,26
1301,10,13,20,0.6769,1,10,53
1302,9,14,27,0.2834,1,6,23
1303,13,12,13,0.1551,1,5,20
1304,6,8,12,0.0473,1,3,8
1305,23,50,138,0.5368,1,7,90
1306,6,10,14,0.1085,1,5,16
1307,16,26,47,0.5092,1,7,38
1308,20,30,66,0.4156,1,6,30
1309,37,69,445,0.7646,1,6,161
1310,18,19,75,0.1472,1,3,23
1311,57,83,184,4.3109,1,13,357
1312,6,12,9,0.1346,1,5,22
1313,16,32,49,1.6831,1,13,130
1314,13,14,14,0.1981,1,7,43
1315,18,22,92,0.3363,1,7,43
1316,37,36,52,0.5285,1,3,36
1317,16,19,20,0.2538,1,4,23
1318,104,148,1279,11.6116,1,13,768
1319,18,111,247,2.3317,1,13,285
1320,4,3,7,0.0371,1,3,5
1321,11,10,16,0.0809,1,3,10
1322,50,63,79,3.5625,1,18,200
1323,1,1,1,0.0201,1,2,1
1324,11,21,11,0.1014,1,3,42
1325,3,4,9,0.0244,1,1,4
1326,8,16,57,0.0781,1,4,40
1327,21,22,37,0.3003,1,4,41
1328,40,60,88,0.6493,1,3,60
1329,16,17,18,0.1551,1,4,21
1330,15,22,23,0.8376,1,12,58
1331,6,16,23,0.1144,1,4,22
1332,2,2,3,0.0694,1,2,3
1333,6,10,17,0.075,1,4,10
1334,2,2,3,0.0757,1,3,3
1335,10,17,48,0.1594,1,6,42
1336,39,40,77,1.9863,1,5,48
1337,110,163,324,22.7839,1,23,477
1338,22,28,158,0.2913,1,6,56
1339,16,56,83,0.3892,1,7,56
1340,21,36,70,0.9998,1,13,105
1341,9,9,20,0.1464,1,4,11
1342,7,12,28,0.0501,1,3,24
1343,15,32,57,0.4673,1,7,32
1344,14,17,51,0.1006,1,3,17
1345,8,11,22,0.7496,1,9,25
1346,44,59,128,2.2188,1,13,225
1347,12,15,30,0.4594,1,7,55
1348,30,45,87,1.5635,1,9,105
1349,3,4,4,0.0331,1,2,5
1350,39,42,277,0.5478,1,3,52
1351,21,38,85,0.3177,1,6,73
1352,194,282,8164,59.973,1,25,2032
1353,31,60,345,0.5297,1,5,116
1354,26,30,45,0.4393,1,6,31
1355,96,110,357,5.8973,1,5,266
1356,5,5,5,0.1239,1,4,8
1357,66,121,1662,2.0309,1,4,242
1358,3,5,5,0.101,1,3,7
1359,35,48,73,1.3251,1,13,140
1360,18,22,40,1.665,1,14,56
1361,12,11,12,0.1089,1,3,11
1362,12,11,12,0.1401,1,4,14
1363,19,27,31,0.2968,1,6,27
1364,19,29,34,0.4298,1,6,29
1365,21,22,42,0.2684,1,3,22
1366,9,11,19,0.2309,1,9,18
1367,19,27,25,0.2814,1,5,27
1368,11,11,13,0.4164,1,7,31
1369,19,25,65,6.5629,1,14,70
1370,13,13,18,0.1085,1,3,13
1371,7,8,14,0.1855,1,6,18
1372,19,31,31,0.9765,1,9,63
1373,65,90,97,17.0444,1,30,301
1374,32,44,46,1.7167,1,14,156
1375,5,9,14,0.0564,1,2,13
1376,10,15,20,0.1547,1,4,15
1377,6,8,16,0.0876,1,3,8
1378,26,27,106,2.2523,1,14,53
1379,19,21,26,0.221,1,5,21
1380,5,9,16,0.0497,1,4,9
1381,15,20,21,0.3742,1,6,21
1382,25,55,248,0.54,1,8,113
1383,5,9,14,0.0568,1,3,13
1384,4,6,5,0.0603,1,3,12
1385,18,28,79,0.3978,1,11,108
1386,6,11,13,0.1646,1,5,31
1387,5,9,16,0.0722,1,4,9
1388,12,13,14,0.493,1,11,22
1389,5,8,14,0.1669,1,4,17
1390,5,8,14,0.1902,1,5,24
1391,4,5,7,0.0631,1,5,7
1392,10,12,14,0.2127,1,9,29
1393,7,8,8,0.133,1,8,31
1394,19,31,91,0.315,1,7,114
1395,16,22,66,0.598,1,10,39
1396,4,5,9,0.0359,1,3,5
1397,19,27,31,0.2107,1,5,27
1398,13,17,25,0.3276,1,8,46
1399,5,6,6,0.058,1,5,11
1400,5,7,12,0.0568,1,4,7
1401,7,11,22,0.0722,1,4,26
1402,21,34,105,0.5336,1,8,144
1403,14,15,30,0.1117,1,3,15
1404,104,148,1279,10.9674,1,13,768
1405,68,88,142,4.0192,1,13,230
1406,7,8,14,0.0675,1,3,12
1407,9,14,33,0.2025,1,5,36
1408,5,5,5,0.0426,1,3,5
1409,12,12,12,0.1002,1,3,12
1410,13,30,90,0.6785,1,8,110
1411,8,8,9,0.1346,1,5,11
1412,33,32,33,0.405,1,2,32
1413,67,132,1541,10.1053,1,15,1122
1414,67,132,1541,5.2646,1,15,1122
1415,23,33,139,0.8553,1,20,224
1416,39,50,59,1.856,1,13,137
1417,6,5,6,0.0378,1,2,5
1418,7,8,10,0.118,1,7,25
1419,16,24,69,0.3623,1,8,116
1420,19,20,23,0.2731,1,7,30
1421,41,75,129,3.1058,1,17,222
1422,41,57,68,5.8342,1,23,346
1423,59,104,871,2.8093,1,8,277
1424,59,104,871,2.7643,1,8,277
1425,22,26,37,0.459,1,8,36
1426,2,3,3,0.1385,1,2,5
1427,2,3,3,0.3142,1,2,5
1428,2,3,3,0.0382,1,2,5
1429,2,3,3,0.0386,1,2,5
1430,2,3,3,0.0371,1,2,5
1431,2,3,3,0.0394,1,2,5
1432,2,3,3,0.0307,1,2,5
1433,2,3,3,0.0371,1,2,5
1434,2,3,3,0.0359,1,2,5
1435,39,43,45,0.9722,1,6,45
1436,44,77,1117,0.7357,1,5,193
1437,2,2,3,0.024,1,2,2
1438,14,23,44,0.2419,1,6,23
1439,58,95,236,3.8119,1,13,438
1440,58,91,208,3.6154,1,13,402
1441,22,35,109,0.564,1,7,145
1442,20,33,34,0.7744,1,9,73
1443,15,21,22,0.1839,1,5,29
1444,13,18,19,0.6453,1,6,34
1445,20,32,32,0.9998,1,10,78
1446,13,18,20,0.1164,1,4,18
1447,12,18,31,0.9268,1,10,71
1448,15,21,35,0.3915,1,10,57
1449,11,24,75,0.1306,1,4,24
1450,2,3,3,0.0378,1,2,5
1451,89,107,285,7.8245,1,12,343
1452,7,7,28,0.0406,1,2,8
1453,19,32,79,0.5853,1,13,112
1454,28,57,113,2.2247,1,15,163
1455,7,7,7,0.296,1,6,12
1456,223,1964,39303,21.413,1,4,2483
1457,19,25,28,1.0057,1,9,82
1458,14,13,14,0.1373,1,3,13
1459,20,20,21,0.4409,1,5,20
1460,10,9,10,0.0746,1,3,9
1461,19,18,19,0.2561,1,5,18
1462,5,8,15,0.0426,1,3,16
1463,7,12,17,0.1069,1,4,12
1464,2,3,3,0.0347,1,2,5
1465,7,18,43,0.0856,1,2,25
1466,63,66,250,13.5158,1,27,196
1467,10,13,45,0.5317,1,8,58
1468,10,13,48,0.24,1,7,56
1469,10,13,51,0.2131,1,6,53
1470,10,13,52,0.1077,1,5,47
1471,41,44,163,4.5777,1,17,124
1472,70,100,575,11.2382,1,22,700
1473,71,129,791,3.4429,1,10,211
1474,5,6,11,0.266,1,4,9
1475,10,11,31,0.0777,1,3,15
1476,33,54,185,2.1994,1,11,208
1477,27,32,132,0.5557,1,6,60
1478,23,24,115,0.2992,1,5,48
1479,7,12,21,0.0746,1,4,28
1480,33,50,236,2.9455,1,15,142
1481,257,415,2889,75.1259,1,11,2198
1482,264,7965,23733,51.1419,1,6,8093
1483,20,24,34,0.54,1,7,36
1484,13,23,40,0.1417,1,5,23
1485,11,12,15,0.4073,1,6,29
1486,2,2,3,0.0422,1,2,2
1487,264,7965,23733,47.637,1,5,8091
1488,21,38,85,0.3134,1,6,73
1489,26,63,287,0.5988,1,4,84
1490,22,36,78,0.2869,1,5,48
1491,11,14,14,0.6375,1,8,27
1492,5,7,13,0.1638,1,4,18
1493,73,100,174,4.151,1,9,222
1494,24,31,38,0.9118,1,9,79
1495,26,52,94,1.0622,1,10,153
1496,32,40,188,1.1688,1,8,40
1497,52,70,127,2.124,1,7,116
1498,17,26,27,0.643,1,7,50
1499,22,30,26,3.1227,1,15,118
1500,14,13,14,0.1602,1,5,22
1501,2,2,3,0.0426,1,3,3
1502,1,1,1,0.0347,1,2,1
1503,10,16,17,0.114,1,4,16
1504,65,122,858,3.7113,1,9,354
1505,34,56,135,1.1139,1,9,118
1506,61,93,592,3.8546,1,12,579
1507,26,28,136,0.2759,1,3,28
1508,11,19,28,0.131,1,4,29
1509,8,13,21,0.1646,1,6,16
1510,7,14,28,0.058,1,3,14
1511,5,6,9,0.2005,1,5,17
1512,8,8,9,0.1223,1,4,8
1513,8,21,30,0.5826,1,8,41
1514,2,3,3,0.0477,1,3,4
1515,17,26,39,1.0922,1,10,63
1516,294,377,10010,114.3128,1,26,2477
1517,385,498,17573,248.9369,1,31,3918
1518,329,424,12731,172.5897,1,30,3208
1519,265,342,8403,99.5657,1,25,2214
1520,423,545,20827,294.1112,1,31,4235
1521,4,6,9,0.1105,1,4,11
1522,13,24,157,0.0714,1,2,37
1523,2,3,3,0.0268,1,2,5
1524,2,3,3,0.0272,1,2,5
1525,20,25,60,3.0209,1,20,133
1526,5,5,12,0.0394,1,3,5
1527,10,12,19,0.2261,1,5,13
1528,19,26,61,0.2396,1,6,47
1529,6,8,9,0.0446,1,2,8
1530,14,17,32,0.2447,1,7,62
1531,28,60,173,1.2726,1,11,102
1532,2,2,3,0.0347,1,2,2
1533,53,54,77,1.1601,1,4,54
1534,10,9,11,0.2775,1,6,13
1535,8,8,9,0.1444,1,5,10
1536,23,22,254,0.2976,1,2,22
1537,88,105,1455,21.4915,1,23,457
1538,5,9,19,0.0548,1,3,9
1539,5,9,15,0.2834,1,5,19
1540,9,10,11,0.2976,1,5,15
1541,8,7,8,0.3817,1,7,12
1542,8,7,8,0.3019,1,7,12
1543,18,17,18,0.3355,1,5,44
1544,194,245,762,62.1125,1,33,245
1545,19,32,79,0.6694,1,15,134
1546,55,96,878,2.6822,1,9,344
1547,9,9,10,23.7285,1,9,21
1548,2,2,3,0.0394,1,2,2
1549,20,35,35,0.8111,1,8,53
1550,12,13,14,0.0986,1,3,13
1551,8,7,29,0.0453,1,2,7
1552,97,132,543,8.7316,1,11,447
1553,65,107,146,8.1182,1,20,478
1554,3,3,5,0.0367,1,3,4
1555,30,45,107,1.7388,1,12,164
1556,8,12,23,0.4334,1,7,45
1557,12,16,35,0.7255,1,10,69
1558,13,22,53,0.9734,1,9,106
1559,6,10,17,0.1902,1,5,31
1560,8,12,23,0.3825,1,7,45
1561,16,20,47,1.7917,1,14,99
1562,41,54,102,1.6804,1,12,188
1563,15,22,56,0.206,1,5,30
1564,14,20,52,0.7298,1,9,80
1565,106,161,1447,28.8352,1,35,1413
1566,404,515,6279,225.4898,1,25,612
1567,15,15,23,0.1381,1,3,15
1568,19,29,30,0.5036,1,8,42
1569,6,7,11,0.1878,1,5,15
1570,15,19,30,2.0238,1,14,61
1571,6,13,31,0.0477,1,3,25
1572,17,16,17,0.1492,1,3,16
1573,21,38,44,1.41,1,25,81
1574,22,212,233,0.3122,1,2,404
1575,2,3,3,0.0457,1,2,5
1576,4,8,9,0.2147,1,4,15
1577,4,7,7,0.0588,1,4,16
1578,5,7,9,0.1472,1,5,7
1579,19,36,71,2.3202,1,16,92
1580,11,11,17,0.0753,1,3,11
1581,27,51,41,1.0432,1,11,77
1582,7,8,8,0.3809,1,7,14
1583,41,50,426,0.6296,1,3,62
1584,4,7,6,0.0505,1,3,7
1585,11,10,16,0.1109,1,3,10
1586,5,7,11,0.0453,1,3,13
1587,9,8,12,0.0568,1,2,8
1588,3,4,3,0.0319,1,3,4
1589,8,11,39,0.0489,1,2,16
1590,5,12,16,0.116,1,5,12
1591,3,5,6,0.0414,1,3,10
1592,56,109,1341,1.4577,1,5,218
1593,29,87,350,1.0219,1,12,382
1594,42,130,616,3.2743,1,13,522
1595,38,127,536,1.4032,1,12,493
1596,32,126,484,1.4684,1,12,476
1597,14,21,48,0.4211,1,6,41
1598,13,16,65,0.1227,1,5,23
1599,5,12,13,0.0521,1,4,12
1600,31,48,213,4.7439,1,19,384
1601,2,1,2,0.0375,1,2,1
1602,3,3,3,0.1334,1,4,4
1603,3,3,6,0.0347,1,3,5
1604,21,23,34,0.3576,1,6,25
1605,83,98,291,6.6233,1,12,334
1606,10,13,14,0.0963,1,4,19
1607,2,2,3,0.0359,1,2,2
1608,9,12,33,0.0722,1,3,12
1609,57,76,174,3.3872,1,13,315
1610,3,4,4,0.0355,1,3,4
1611,15,19,53,0.1361,1,4,29
1612,45,55,60,7.2367,1,27,55
1613,2,3,3,0.0426,1,2,5
1614,32,91,102,0.8376,1,7,139
1615,61,86,75,19.1318,1,41,120
1616,4,4,7,0.0292,1,2,4
1617,29,71,71,2.6794,1,17,163
1618,15,14,15,0.1823,1,6,14
1619,61,118,217,6.5092,1,25,118
1620,2,2,3,0.0363,1,2,2
1621,134,258,7843,7.7053,1,5,628
1622,66,141,390,5.282,1,16,523
1623,3,4,7,0.058,1,3,6
1624,11,12,16,0.1006,1,5,16
1625,13,28,30,0.7776,1,9,58
1626,44,61,129,6.0406,1,19,169
1627,3,4,6,0.1061,1,3,6
1628,42,46,139,7.5628,1,25,94
1629,7,7,11,0.1496,1,4,11
1630,20,34,110,0.1807,1,3,34
1631,17,26,111,0.1417,1,3,36
1632,12,16,44,0.09,1,3,20
1633,66,127,208,11.9033,1,16,517
1634,10,9,10,0.0746,1,3,9
1635,104,148,1402,9.6509,1,13,819
1636,8,7,8,0.0568,1,3,7
1637,3,6,3,0.161,1,4,11
1638,22,26,40,0.6343,1,12,86
1639,5,8,9,0.0769,1,4,12
1640,8,8,9,0.0872,1,5,11
1641,9,12,16,0.086,1,4,14
1642,4,5,5,0.0588,1,5,10
1643,14,16,17,1.0207,1,8,63
1644,38,66,107,2.0984,1,14,238
1645,7,9,11,0.1176,1,7,29
1646,15,21,22,0.1977,1,3,36
1647,11,15,44,0.1132,1,5,35
1648,16,21,38,0.9757,1,9,48
1649,17,121,153,0.159,1,1,121
1650,22,52,85,10.1538,1,15,52
1651,8,19,27,0.3821,1,6,26
1652,43,110,416,6.5542,1,25,456
1653,21,20,211,0.159,1,2,20
1654,14,29,40,0.3963,1,7,51
1655,11,18,25,0.5427,1,8,71
1656,32,46,219,0.6655,1,6,88
1657,50,161,433,1.2955,1,6,161
1658,48,62,575,2.3763,1,10,312
1659,3,5,7,0.0525,1,3,12
1660,32,38,68,0.686,1,7,84
1661,2,2,3,0.0359,1,3,3
1662,6,9,12,0.1132,1,4,13
1663,11,20,30,0.1527,1,7,35
1664,7,9,11,0.1156,1,7,30
1665,14,13,14,0.3035,1,5,31
1666,3,4,7,0.0347,1,3,6
1667,5,12,17,0.1575,1,5,16
1668,76,125,210,7.0295,1,14,423
1669,9,8,9,0.0761,1,3,8
1670,27,38,75,1.2829,1,11,136
1671,34,44,44,9.4993,1,24,44
1672,19,24,72,0.2127,1,5,38
1673,9,11,20,0.163,1,10,39
1674,12,23,24,0.1132,1,4,39
1675,106,167,667,11.3357,1,13,754
1676,31,41,39,0.9572,1,11,139
1677,256,255,32641,17.6779,1,2,255
1678,44,62,113,4.6772,1,14,252
1679,27,40,114,1.5284,1,11,190
1680,10,19,41,0.1736,1,5,59
1681,9,10,12,0.1278,1,4,10
1682,6,5,16,0.0584,1,2,5
1683,51,50,1276,0.7831,1,2,50
1684,14,15,16,0.1898,1,4,37
1685,8,9,19,0.0671,1,4,12
1686,7,10,12,0.1634,1,4,15
1687,5,6,15,0.1267,1,4,14
1688,15,14,15,0.1409,1,4,14
1689,16,22,23,0.3205,1,8,67
1690,11,18,70,0.5017,1,6,57
1691,94,134,186,24.5018,1,34,487
1692,33,40,161,1.4621,1,8,89
1693,35,63,283,0.7622,1,6,127
1694,8,15,15,0.3031,1,8,21
1695,85,184,2061,5.7391,1,9,433
1696,34,42,160,3.3698,1,16,113
1697,15,19,20,0.1586,1,5,19
1698,5,9,10,0.0821,1,4,9
1699,3,5,5,0.0442,1,4,13
1700,119,154,590,13.0023,1,12,469
1701,10,25,41,0.193,1,5,25
1702,23,38,86,0.2952,1,5,38
1703,209,4446,10240,32.5683,1,4,4574
1704,14,13,39,0.2147,1,4,13
1705,4,6,12,0.0493,1,3,6
1706,7,8,9,0.0765,1,5,17
1707,10,12,22,0.1306,1,6,24
1708,5,8,11,0.0757,1,6,10
1709,18,21,50,0.8719,1,10,56
1710,17,48,62,1.2611,1,9,120
1711,7,7,7,0.1097,1,7,19
1712,7,8,10,0.1144,1,7,25
1713,16,20,32,1.8489,1,18,89
1714,9,10,10,0.5498,1,8,32
1715,20,30,121,0.6793,1,9,104
1716,3,4,7,0.0331,1,3,4
1717,3,5,7,0.0434,1,4,6
1718,34,39,43,1.3602,1,10,116
1719,10,20,30,0.1002,1,5,29
1720,9,22,30,0.0813,1,4,33
1721,15,20,21,0.5664,1,8,66
1722,30,64,77,1.5757,1,16,97
1723,12,17,35,0.1863,1,7,67
1724,2,2,3,0.0363,1,2,2
1725,36,57,258,1.258,1,9,141
1726,27,43,42,0.6043,1,8,95
1727,15,20,24,0.3003,1,8,70
1728,16,21,51,0.1535,1,4,21
1729,4,5,5,0.0643,1,5,10
1730,28,38,47,1.4873,1,14,129
1731,2,3,3,0.0375,1,2,5
1732,15,16,47,0.1657,1,5,24
1733,8,11,8,0.4709,1,10,23
1734,7,8,8,0.1117,1,7,23
1735,35,75,320,3.0876,1,14,316
1736,41,60,196,1.9713,1,11,177
1737,37,48,174,2.9561,1,15,154
1738,28,39,51,1.0448,1,13,97
1739,3,5,7,0.1511,1,4,13
1740,24,27,33,0.6517,1,11,87
1741,19,26,73,0.4196,1,9,88
1742,10,9,10,0.1239,1,4,11
1743,37,42,219,0.9718,1,6,120
1744,104,148,1405,9.9624,1,12,782
1745,24,60,323,0.8494,1,9,180
1746,25,34,51,0.3809,1,6,34
1747,9,9,9,0.1361,1,7,29
1748,15,27,91,0.7993,1,11,124
1749,3189,8540,1663073,20629.1459,1,19,47226
1750,7,10,22,0.9686,1,6,28
1751,6,10,19,0.4239,1,5,16
1752,13,41,46,2.2409,1,11,61
1753,12,13,14,0.8928,1,8,50
1754,11,11,12,0.3884,1,5,25
1755,16,15,44,0.1322,1,2,15
1756,39,39,41,0.7571,1,5,39
1757,29,43,75,1.9961,1,14,130
1758,6,9,12,0.1038,1,6,20
1759,7,9,16,0.225,1,7,31
1760,8,9,12,0.069,1,3,14
1761,8,8,9,0.0947,1,5,11
1762,8,9,11,0.2676,1,5,9
1763,9,11,10,0.3607,1,6,17
1764,7,7,8,0.1728,1,5,10
1765,5,4,5,0.0438,1,3,7
1766,16,21,50,0.1882,1,4,24
1767,56,108,116,21.7737,1,35,108
1768,5,8,10,0.0963,1,5,14
1769,35,44,64,1.3511,1,13,115
1770,23,33,172,0.328,1,6,47
1771,13,22,43,0.1314,1,5,22
1772,48,59,172,1.5734,1,7,159
1773,12,15,55,0.0884,1,3,23
1774,15,21,43,0.1728,1,5,29
1775,11,14,15,0.2869,1,10,48
1776,29,33,259,0.3671,1,4,50
1777,15,15,23,0.1251,1,3,15
1778,256,255,32641,22.8751,1,2,255
1779,11,27,47,0.1559,1,5,27
1780,4,6,10,0.0406,1,3,12
1781,9,14,23,0.1393,1,7,57
1782,6,8,15,0.0852,1,3,14
1783,7,9,11,0.1768,1,5,21
1784,31,65,163,1.1238,1,15,101
1785,10,11,18,0.1014,1,5,19
1786,62,95,165,5.5748,1,16,392
1787,12,23,41,0.1361,1,5,27
1788,12,23,40,0.1196,1,5,27
1789,24,32,82,0.2771,1,4,44
1790,4,4,5,0.0406,1,3,4
1791,41,78,86,3.0114,1,16,159
1792,9,12,21,0.161,1,8,51
1793,1,1,1,0.0201,1,2,1
1794,11,13,21,0.088,1,4,15
1795,34,39,42,1.17,1,10,116
1796,12,12,40,0.1555,1,5,26
1797,18,17,18,0.1646,1,3,17
1798,23,37,41,1.0279,1,15,184
1799,6,7,16,0.0663,1,3,7
1800,14,24,88,0.2131,1,4,57
1801,83,122,525,7.9788,1,12,558
1802,16,16,16,0.3919,1,6,20
1803,22,32,40,0.624,1,13,119
1804,2,2,3,0.4606,1,2,2
1805,30,58,73,1.0227,1,15,122
1806,5,9,15,0.0568,1,4,13
1807,11,11,63,0.2794,1,6,46
1808,33,44,92,1.485,1,19,196
1809,8,15,25,0.0777,1,5,15
1810,25,36,29,7.2671,1,28,136
1811,17,24,34,0.3382,1,12,60
1812,11,10,15,0.1634,1,4,10
1813,18,19,24,0.1918,1,5,19
1814,37,36,37,0.5352,1,3,36
1815,9,17,44,0.2321,1,5,55
1816,9,14,22,0.1346,1,7,55
1817,6,7,15,0.0548,1,4,7
1818,16,22,50,0.1736,1,5,22
1819,9,13,19,0.1768,1,8,49
1820,26,41,354,0.7393,1,7,165
1821,13,20,40,0.133,1,5,20
1822,10,9,14,0.073,1,3,9
1823,6,10,16,0.1239,1,4,16
1824,9,12,19,0.2869,1,5,34
1825,21,22,33,0.2692,1,5,22
1826,8,8,9,0.0746,1,4,8
1827,5,7,12,0.056,1,4,7
1828,23,40,50,0.8632,1,9,88
1829,95,133,1335,8.5393,1,12,699
1830,26,38,58,0.7847,1,9,125
1831,8,8,9,0.0576,1,3,8
1832,32,51,64,1.9314,1,14,196
1833,17,20,21,0.3284,1,9,52
1834,73,118,350,4.693,1,12,341
1835,22,26,72,0.2534,1,4,26
1836,23,34,51,0.5443,1,9,95
1837,15,19,22,0.6288,1,8,58
1838,8,8,12,0.0572,1,3,8
1839,9,13,19,0.2755,1,8,30
1840,9,12,13,0.1389,1,7,27
1841,11,17,30,0.5163,1,10,65
1842,46,54,105,3.7444,1,13,390
1843,28,40,67,2.1868,1,16,126
1844,15,20,21,0.1559,1,4,35
1845,25,43,167,1.2955,1,12,234
1846,23,38,51,0.7294,1,9,93
1847,24,29,72,1.2789,1,11,105
1848,10,9,10,0.0722,1,3,9
1849,9,15,16,0.1022,1,4,18
1850,14,16,33,0.2609,1,10,43
1851,62,80,90,6.8952,1,17,194
1852,27,38,49,0.5352,1,8,52
1853,21,22,33,0.2439,1,5,22
1854,32,56,173,2.2065,1,15,261
1855,41,69,377,1.3314,1,9,285
1856,10,12,14,0.2648,1,6,12
1857,7,16,22,0.2246,1,7,22
1858,14,18,21,0.3513,1,9,64
1859,11,10,11,0.1377,1,3,11
1860,8,8,9,0.0682,1,4,8
1861,37,41,55,1.005,1,7,78
1862,11,10,16,0.0817,1,3,10
1863,6,17,27,0.2905,1,6,35
1864,15,22,68,0.1259,1,3,34
1865,16,22,50,0.4464,1,5,28
1866,13,16,17,0.2123,1,8,59
1867,37,37,61,0.5644,1,3,37
1868,106,122,3365,11.627,1,8,637
1869,58,64,313,4.901,1,12,432
1870,7,9,13,0.0639,1,4,15
1871,2,2,3,0.0639,1,2,2
1872,3,5,5,0.0852,1,3,7
1873,20,30,72,0.4203,1,5,50
1874,15,18,21,0.6244,1,10,75
1875,7,7,8,0.1128,1,7,20
1876,26,42,45,0.4713,1,6,52
1877,37,36,37,0.5546,1,3,36
1878,5,12,17,0.0477,1,4,12
1879,3,5,7,0.0339,1,3,5
1880,3,4,7,0.0477,1,3,4
1881,1,1,1,0.0221,1,2,1
1882,9,8,19,0.0536,1,2,8
1883,42,49,279,2.4319,1,12,352
1884,37,39,173,0.5159,1,3,45
1885,2,2,3,0.0256,1,2,2
1886,147,283,9139,10.7909,1,5,423
1887,15,19,20,0.1819,1,2,19
1888,26,35,45,2.5768,1,15,115
1889,27,37,60,2.0822,1,14,50
1890,6,6,12,0.0528,1,4,6
1891,8,9,11,0.2352,1,6,19
1892,9,12,13,0.0903,1,4,13
1893,25,38,102,1.1443,1,17,228
1894,8,8,12,1.8848,1,3,8
1895,12,19,26,0.1709,1,6,33
1896,18,25,53,0.51,1,9,63
1897,36,51,96,1.1206,1,8,198
1898,20,24,90,0.1756,1,3,28
1899,8,14,27,0.0773,1,4,23
1900,19,23,75,0.2202,1,6,33
1901,27,43,88,0.7101,1,9,59
1902,24,33,25,8.0503,1,27,83
1903,25,30,133,0.3457,1,5,54
1904,13,12,13,0.146,1,4,21
1905,10,13,19,0.0923,1,4,15
1906,2,1,2,0.0244,1,2,1
1907,2,1,2,0.0236,1,2,1
1908,4,5,8,0.0406,1,3,9
1909,11,12,13,0.0907,1,3,12
1910,16,15,82,0.1389,1,3,29
1911,3,4,5,0.0331,1,3,4
1912,2,2,3,0.0248,1,2,2
1913,2,2,3,0.0232,1,2,2
1914,2,2,3,0.024,1,2,2
1915,2,1,2,0.0244,1,2,1
1916,12,11,12,0.0923,1,3,11
1917,15,15,23,0.1235,1,3,15
1918,11,10,11,0.0825,1,3,10
1919,6,5,6,0.039,1,2,5
1920,2,1,2,0.026,1,2,1
