id,states,transitions,simRelSize,time,goodruns,minterms,mintermizedAutomatonTransitions
0,14,40,7,7.5864,1,5,84
1,59,127,928,2.1426,1,9,408
2,17,20,180,1.1301,1,11,67
3,2,1,1,0.0236,1,2,1
4,29,47,382,0.6982,1,9,63
5,3,3,4,0.1065,1,4,4
6,18,21,149,0.6394,1,7,57
7,25,36,259,0.8332,1,9,104
8,3,6,0,0.0378,1,2,10
9,7,9,12,0.4689,1,7,19
10,12,14,77,0.7736,1,8,42
11,8,13,18,0.4097,1,7,52
12,16,19,91,0.4306,1,7,52
13,38,66,482,1.4668,1,9,170
14,44,81,899,1.2146,1,8,217
15,15,16,72,8.3696,1,8,56
16,3,3,2,0.0726,1,3,4
17,65,135,2920,2.7797,1,13,276
18,44,49,440,0.6185,1,3,70
19,40,52,821,0.6706,1,7,136
20,6,10,9,0.943,1,6,18
21,4,5,6,0.1026,1,4,7
22,4,5,0,0.0631,1,3,9
23,11,13,26,0.165,1,4,15
24,22,29,199,1.2067,1,10,110
25,11,11,8,0.1278,1,3,22
26,8,9,14,0.12,1,4,18
27,6,11,7,1.4854,1,6,23
28,18,29,105,0.9505,1,9,72
29,11,11,22,0.225,1,5,36
30,1,1,0,0.0347,1,2,1
31,33,36,615,4.1798,1,19,194
32,16,16,55,0.1788,1,3,16
33,36,51,498,0.8869,1,8,194
34,3,2,3,0.0422,1,3,2
35,19,24,100,0.1705,1,3,32
36,370,804,30101,129.8262,1,11,4047
37,6,8,8,0.0852,1,2,8
38,3,3,2,0.0773,1,3,5
39,28,66,372,2.8665,1,10,136
40,14,13,62,0.611,1,6,42
41,13,26,33,0.5088,1,6,54
42,7,8,23,0.2336,1,5,16
43,9,13,53,1.1143,1,10,30
44,4,6,0,0.0631,1,3,6
45,19,23,118,0.4081,1,6,33
46,7,8,25,0.4855,1,7,20
47,7,8,25,0.0848,1,7,20
48,11,12,22,0.144,1,4,32
49,2,2,0,0.0402,1,2,2
50,102,202,5571,17.9878,1,34,1415
51,101,185,6177,7.3575,1,34,868
52,10,9,22,0.0971,1,3,9
53,29,59,377,0.7018,1,7,143
54,17,40,71,1.0089,1,11,91
55,46,66,918,1.1009,1,9,202
56,3,4,2,0.1132,1,4,6
57,55,77,1634,2.4963,1,18,299
58,101,185,6175,7.3674,1,34,870
59,24,38,359,1.3571,1,12,76
60,27,53,280,0.4428,1,5,98
61,14,34,90,0.3528,1,6,44
62,9,18,20,0.0817,1,5,27
63,7,8,5,0.0394,1,2,10
64,62,100,1371,3.8688,1,13,638
65,64,102,1534,3.2041,1,16,757
66,15,16,79,0.1728,1,6,26
67,46,69,1386,0.6331,1,5,69
68,2,2,0,0.0335,1,2,2
69,3,4,1,0.1377,1,3,8
70,32,31,31,0.3082,1,3,61
71,55,134,1316,1.1936,1,7,134
72,132,230,6585,5.987,1,9,901
73,143,262,10022,18.4335,1,23,2265
74,124,238,6433,10.5671,1,21,1972
75,22,50,92,1.8576,1,12,257
76,20,21,108,0.114,1,3,25
77,6,5,8,0.1042,1,3,9
78,6,5,8,0.041,1,3,9
79,8,11,13,0.1393,1,5,19
80,30,71,180,1.3669,1,10,239
81,16,15,15,0.0896,1,2,15
82,5,5,11,0.178,1,5,9
83,1,1,0,0.0607,1,2,1
84,18,27,50,0.2246,1,5,87
85,32,50,608,1.3298,1,10,69
86,13,22,49,0.1926,1,6,48
87,2,3,0,0.028,1,2,5
88,19,30,103,0.3532,1,6,56
89,9,14,18,0.1132,1,4,26
90,26,42,288,2.3759,1,17,251
91,68,95,4104,36.2793,1,33,203
92,25,33,356,2.9723,1,14,150
93,10,11,10,0.1642,1,4,25
94,3,3,2,0.0517,1,3,4
95,4,5,4,0.1744,1,4,7
96,4,6,1,0.0363,1,3,6
97,5,8,5,0.0457,1,4,8
98,26,47,296,0.7851,1,9,93
99,6,11,8,0.1342,1,4,14
100,28,43,359,1.0914,1,9,176
101,8,13,31,0.2518,1,5,18
102,15,21,43,0.1796,1,5,38
103,33,44,111,1.7763,1,10,275
104,33,43,133,0.6225,1,10,265
105,16,24,89,0.388,1,7,54
106,40,59,473,5.276,1,20,473
107,29,30,432,1.2481,1,8,64
108,61,85,893,1.3669,1,7,355
109,21,23,178,0.5546,1,9,77
110,27,44,211,0.701,1,7,97
111,20,20,127,0.1275,1,3,22
112,31,36,746,3.5451,1,17,98
113,43,46,1519,5.426,1,24,146
114,30,52,245,0.5182,1,7,116
115,13,20,88,0.7815,1,9,29
116,8,8,29,0.0714,1,3,8
117,13,30,21,0.2171,1,6,68
118,18,33,140,1.419,1,11,104
119,9,22,3,0.1176,1,4,40
120,49,53,1880,5.4939,1,25,217
121,5,5,5,0.0706,1,4,11
122,6,7,16,0.4922,1,7,17
123,14,17,104,0.2557,1,9,61
124,10,9,37,0.1732,1,4,10
125,9,8,14,0.0734,1,3,15
126,7,9,14,0.2396,1,6,26
127,21,38,358,32.8979,1,25,81
128,4,5,4,0.2048,1,4,11
129,95,150,3717,4.3946,1,14,1008
130,1,1,0,0.0228,1,1,1
131,13,16,1,0.1993,1,4,44
132,79,248,2694,9.2929,1,29,1871
133,79,248,2694,5.147,1,29,1865
134,6,9,7,0.0931,1,4,9
135,21,131,184,1.9452,1,11,189
136,3,5,0,0.0627,1,3,8
137,14,16,55,0.1527,1,4,28
138,13,18,71,0.5518,1,9,52
139,7,7,28,7.1917,1,5,9
140,2,3,0,0.0434,1,2,5
141,65,69,3306,5.1296,1,21,184
142,14,17,137,1.1352,1,11,35
143,14,18,111,0.7436,1,9,57
144,31,30,31,0.2925,1,3,59
145,7,9,23,0.3323,1,6,14
146,13,15,51,0.208,1,5,31
147,28,39,275,0.39,1,6,115
148,13,16,81,0.1468,1,7,47
149,19,32,50,0.1389,1,3,32
150,4,7,1,0.1168,1,4,16
151,39,42,478,0.8743,1,9,159
152,28,30,259,0.4815,1,7,75
153,79,148,1020,2.2997,1,4,289
154,74,74,1304,1.2165,1,5,74
155,3,5,0,0.0371,1,2,8
156,25,69,87,0.8139,1,7,261
157,13,17,93,0.8005,1,11,77
158,23,32,192,1.1629,1,9,96
159,20,23,140,0.4006,1,7,47
160,10,16,48,0.5498,1,8,47
161,15,16,63,0.1946,1,6,51
162,77,108,3488,15.171,1,26,775
163,13,33,12,0.0994,1,2,33
164,13,12,12,0.088,1,2,12
165,9,33,0,0.1196,1,3,34
166,747,986,261603,329.6177,1,27,7436
167,76,116,3345,7.3843,1,14,680
168,11,11,15,0.1456,1,4,30
169,2,2,0,0.0272,1,2,2
170,9,8,8,0.0469,1,2,8
171,9,8,8,0.0742,1,2,8
172,9,8,32,0.0544,1,3,8
173,6,5,5,0.0418,1,2,5
174,80,104,2565,35.7239,1,16,539
175,4,7,1,0.2857,1,4,16
176,4,7,1,0.2273,1,4,16
177,10,12,39,0.058,1,3,12
178,34,55,359,1.2935,1,10,228
179,7,14,4,0.2526,1,5,44
180,279,489,38802,30.2871,1,12,1601
181,8,8,13,0.0773,1,3,8
182,12,17,31,0.178,1,5,47
183,19,24,151,1.5236,1,12,99
184,48,59,1195,0.896,1,7,159
185,15,29,33,0.2411,1,5,29
186,3,4,2,0.0323,1,3,4
187,14,13,57,0.0765,1,3,13
188,15,14,80,0.086,1,3,14
189,14,13,57,0.0753,1,3,13
190,14,13,57,0.0836,1,3,13
191,44,59,1142,1.9018,1,15,129
192,25,25,411,0.3169,1,6,25
193,18,19,209,0.5857,1,11,52
194,6,8,15,0.313,1,6,20
195,4,10,5,0.1117,1,4,10
196,8,8,36,0.2234,1,5,10
197,71,118,465,1.3421,1,4,118
198,2,3,1,0.0378,1,2,4
199,4,5,7,0.0801,1,6,14
200,4,7,1,0.056,1,4,16
201,11,15,63,0.2952,1,6,23
202,32,34,638,1.0326,1,12,108
203,13,16,77,0.2332,1,8,57
204,10,11,38,0.1164,1,7,35
205,8,8,36,0.1685,1,5,10
206,95,194,5207,35.3793,1,34,2631
207,3,6,0,0.0643,1,2,10
208,9,38,0,0.0781,1,4,65
209,70,80,592,14.3243,1,12,622
210,138,186,865,13.4108,1,13,1664
211,23,26,113,0.6,1,9,128
212,44,52,380,2.0996,1,12,317
213,17,34,14,0.3832,1,8,171
214,16,19,84,0.3955,1,9,60
215,26,42,217,0.6173,1,10,180
216,4,6,1,0.0892,1,3,12
217,36,74,984,1.6038,1,15,130
218,3,4,0,0.0963,1,3,6
219,19,30,128,1.1396,1,11,96
220,6,10,3,0.1302,1,4,22
221,49,110,1312,2.3562,1,13,260
222,12,15,21,0.073,1,3,15
223,18,21,133,0.4413,1,6,33
224,52,69,1647,1.0507,1,10,241
225,94,124,6288,2.6933,1,9,208
226,36,51,502,0.2834,1,3,51
227,18,30,149,0.4503,1,9,127
228,6,7,14,0.1065,1,7,21
229,25,34,252,1.1407,1,11,157
230,5,8,7,0.1152,1,4,10
231,5,14,8,0.0734,1,4,14
232,3,5,1,0.0378,1,3,9
233,23,25,332,0.4215,1,10,84
234,15,17,76,0.3426,1,6,29
235,18,36,180,1.288,1,11,94
236,13,26,33,1.5379,1,6,54
237,96,121,8577,22.9584,1,32,130
238,20,26,290,0.9702,1,11,34
239,12,23,8,0.388,1,5,75
240,79,101,4421,3.2747,1,16,328
241,31,30,276,0.5526,1,8,133
242,9,10,45,0.4239,1,7,15
243,100,187,7133,10.3307,1,11,340
244,215,401,41539,38.1444,1,27,459
245,27,50,595,29.32,1,27,271
246,8,11,32,0.1784,1,5,19
247,86,115,4625,2.0988,1,8,220
248,3,4,1,0.1425,1,3,9
249,17,18,181,0.2873,1,6,28
250,20,26,90,0.1369,1,4,45
251,3,2,4,0.0734,1,3,2
252,24,39,444,11.8481,1,26,147
253,65,102,3831,10.3954,1,34,200
254,5,5,4,0.0706,1,3,9
255,4,3,3,0.0331,1,2,3
256,37,61,858,1.4111,1,12,134
257,11,12,19,0.0615,1,3,12
258,9,8,32,0.0592,1,3,8
259,15,26,72,0.4503,1,5,34
260,10,11,62,1.2375,1,9,27
261,5,10,0,0.2202,1,3,18
262,5,10,2,0.0828,1,3,18
263,43,52,1038,16.5309,1,21,363
264,15,16,99,0.1685,1,7,26
265,10,9,39,0.1026,1,4,9
266,19,27,208,0.3746,1,7,41
267,13,16,133,0.8451,1,14,28
268,7,6,26,0.054,1,4,8
269,7,8,25,0.7815,1,7,20
270,11,17,19,0.1334,1,4,17
271,56,94,1171,1.074,1,8,361
272,28,31,233,0.3947,1,6,31
273,11,19,45,0.358,1,6,32
274,205,3036,18482,11.0357,1,8,9351
275,39,41,111,0.3264,1,3,41
276,13,18,95,0.1503,1,4,18
277,29,45,345,1.1013,1,10,156
278,7,18,0,0.0426,1,1,18
279,44,45,1584,10.0058,1,21,104
280,10,11,46,0.2814,1,6,20
281,10,15,45,0.1642,1,4,21
282,6,12,11,0.1172,1,4,15
283,22,28,183,0.2356,1,6,56
284,20,22,93,0.6264,1,5,57
285,20,22,114,0.3509,1,6,67
286,11,13,68,0.1831,1,8,32
287,2,2,0,0.0252,1,2,2
288,14,16,43,0.1156,1,3,16
289,5,9,4,0.0635,1,2,13
290,30,31,748,3.0233,1,18,65
291,9,20,0,0.2715,1,5,68
292,17,36,125,1.5023,1,14,121
293,12,11,40,0.146,1,4,12
294,3,4,3,0.0761,1,4,5
295,33,54,504,1.0448,1,10,91
296,21,45,89,1.2122,1,11,170
297,2,3,0,0.0284,1,2,5
298,11,11,19,0.1006,1,3,22
299,7,9,4,0.2246,1,4,18
300,7,8,21,0.0951,1,7,25
301,60,134,1325,13.4321,1,15,498
302,15,19,87,0.9513,1,10,65
303,15,25,83,0.3007,1,10,71
304,59,257,1219,10.4495,1,32,2071
305,29,41,582,1.0014,1,13,79
306,24,38,185,0.6848,1,7,136
307,29,61,398,3.9355,1,18,281
308,43,156,655,1.2398,1,11,552
309,16,22,126,0.4732,1,7,44
310,5,9,0,0.0844,1,3,9
311,38,70,1049,2.3179,1,14,148
312,4,6,0,0.0797,1,4,12
313,29,32,228,0.3071,1,5,32
314,45,46,1753,12.3079,1,21,86
315,20,33,219,0.3848,1,8,65
316,24,26,125,0.1586,1,3,26
317,19,20,186,0.6809,1,9,60
318,21,22,223,0.5478,1,8,56
319,16,29,118,0.8704,1,9,76
320,3,5,2,0.1298,1,2,5
321,19,27,164,0.4606,1,10,98
322,393,736,80730,136.6086,1,30,5928
323,7,15,15,0.0896,1,4,19
324,5,6,9,0.1346,1,4,12
325,15,14,62,0.1263,1,3,14
326,16,26,130,1.1494,1,12,55
327,43,56,1241,1.963,1,11,133
328,45,55,1042,2.01,1,14,271
329,43,70,1061,4.4495,1,19,443
330,10,20,31,0.1065,1,5,20
331,30,40,391,3.8206,1,19,241
332,52,84,1324,3.1626,1,14,329
333,16,20,113,0.5577,1,11,68
334,2,3,0,0.041,1,2,5
335,2,3,1,0.0307,1,2,4
336,9,15,21,0.0753,1,5,27
337,13,29,3,0.2601,1,6,76
338,35,120,316,0.5214,1,4,132
339,16,16,54,0.0978,1,3,16
340,15,34,26,0.1792,1,5,45
341,11,19,52,0.2632,1,6,31
342,80,114,6033,37.9917,1,42,117
343,57,195,451,2.8914,1,11,758
344,18,27,99,0.1681,1,5,27
345,25,34,301,0.2506,1,5,51
346,10,24,13,0.2601,1,6,44
347,18,21,229,0.609,1,8,24
348,14,18,72,0.0947,1,4,27
349,21,34,42,0.2439,1,3,52
350,40,51,816,1.8185,1,16,223
351,16,22,127,0.2842,1,10,93
352,10,17,25,0.3489,1,6,51
353,3,2,2,0.0351,1,3,3
354,8,8,13,0.0489,1,3,8
355,89,172,3709,5.8843,1,15,817
356,5,6,7,0.0434,1,3,10
357,18,30,83,0.234,1,6,103
358,11,11,35,0.1014,1,3,11
359,9,11,40,0.1267,1,4,11
360,27,57,303,0.3746,1,8,90
361,64,141,942,6.2862,1,6,193
362,16,21,53,0.0907,1,3,33
363,20,27,153,0.3501,1,7,66
364,23,36,238,0.6817,1,9,112
365,52,78,1835,4.9618,1,19,418
366,101,100,2637,5.0289,1,11,593
367,27,31,472,0.5597,1,11,92
368,14,14,66,0.1081,1,5,18
369,16,28,102,0.8277,1,10,39
370,10,21,15,0.418,1,7,80
371,28,48,355,0.3911,1,6,50
372,54,65,1807,1.6038,1,15,309
373,4,3,3,0.0402,1,2,3
374,11,11,55,0.0596,1,3,11
375,19,18,178,0.1136,1,3,18
376,9,10,28,0.161,1,8,42
377,8,11,8,0.174,1,5,33
378,32,33,860,3.1823,1,18,67
379,18,32,167,0.2589,1,7,54
380,45,44,663,0.5443,1,4,90
381,30,33,432,16.5909,1,6,54
382,31,30,250,0.4523,1,6,30
383,49,65,978,1.2513,1,11,212
384,18,19,229,1.5418,1,13,54
385,34,34,533,0.3082,1,4,34
386,5,8,9,0.2494,1,5,12
387,13,14,115,1.1664,1,10,32
388,28,72,297,0.8107,1,9,116
389,11,10,58,0.0619,1,3,10
390,9,10,47,0.3481,1,7,22
391,9,10,49,0.4251,1,8,24
392,2,3,0,0.0355,1,2,5
393,3,5,0,0.1136,1,3,10
394,24,26,335,0.7582,1,9,31
395,46,80,1114,1.7727,1,13,238
396,7,14,2,0.2565,1,4,24
397,9,13,39,0.4464,1,10,42
398,8,12,22,0.1886,1,6,20
399,19,29,126,1.0622,1,11,140
400,14,26,49,0.1784,1,5,26
401,7,9,11,0.0548,1,3,9
402,28,29,644,3.4117,1,16,59
403,5,6,9,0.223,1,5,14
404,11,46,10,0.0619,1,1,46
405,12,17,15,0.5636,1,10,100
406,18,25,135,0.1981,1,7,53
407,13,19,15,0.2423,1,6,51
408,21,47,139,0.4314,1,7,84
409,6,5,5,0.0347,1,2,5
410,13,22,83,1.438,1,12,89
411,6,8,16,0.2771,1,6,18
412,113,132,5649,5.3992,1,16,291
413,5,5,6,0.039,1,3,5
414,7,9,15,0.1401,1,4,15
415,558,2116,109672,180.7137,1,19,7017
416,7,8,21,0.1405,1,7,25
417,17,23,167,0.5163,1,10,82
418,7,8,21,0.1938,1,7,25
419,6,9,6,0.281,1,5,29
420,9,10,7,0.0647,1,2,12
421,19,18,115,0.2202,1,4,18
422,16,39,93,0.5786,1,7,39
423,20,44,160,0.4125,1,8,56
424,16,32,101,0.3055,1,7,40
425,9,14,31,0.3288,1,6,35
426,9,14,31,0.1022,1,6,35
427,5,7,9,0.2076,1,6,19
428,54,120,1151,1.5059,1,9,137
429,18,25,113,0.1211,1,4,25
430,13,24,48,0.3461,1,7,50
431,61,86,3493,23.5627,1,41,118
432,36,46,500,0.3532,1,6,56
433,42,61,1181,1.6946,1,12,194
434,41,62,995,1.138,1,12,210
435,7,9,22,0.1843,1,7,17
436,19,28,3,0.1409,1,3,62
437,302,769,46662,42.5102,1,19,2692
438,7,10,21,0.3071,1,5,18
439,4,6,2,0.1128,1,4,12
440,31,55,228,0.3813,1,6,98
441,49,50,232,0.448,1,3,50
442,6,13,5,0.3102,1,6,41
443,12,13,42,0.0773,1,3,17
444,6,9,5,0.0453,1,3,9
445,22,24,121,0.1381,1,3,30
446,17,47,186,11.1754,1,11,93
447,7,9,21,0.2186,1,8,35
448,99,249,5441,7.2332,1,22,1023
449,15,20,95,0.2032,1,7,64
450,4,7,1,0.0817,1,3,7
451,15,31,84,0.7101,1,8,53
452,17,28,92,0.2861,1,8,42
453,8,10,18,0.5526,1,5,18
454,2,3,0,0.0351,1,2,5
455,104,167,5365,4.3366,1,12,848
456,4,7,0,0.0785,1,3,15
457,6,5,15,0.0761,1,4,5
458,17,37,98,0.3414,1,6,37
459,11,28,43,0.9386,1,10,48
460,16,25,99,0.1267,1,4,33
461,20,27,278,1.8011,1,20,116
462,22,28,177,0.1752,1,5,58
463,128,145,3141,7.7637,1,12,1077
464,11,16,28,0.1496,1,4,16
465,4,9,0,0.088,1,3,19
466,13,37,8,0.1109,1,4,70
467,12,20,23,0.3907,1,7,90
468,17,34,74,0.7318,1,9,110
469,11,14,48,0.3536,1,8,45
470,34,36,803,2.2523,1,18,136
471,17,22,91,0.2107,1,6,32
472,20,36,164,0.7563,1,10,92
473,24,25,513,3.6173,1,19,25
474,2,3,0,0.03,1,2,5
475,5,7,12,0.2257,1,5,9
476,44,125,881,3.78,1,16,210
477,11,10,23,0.0813,1,4,26
478,27,30,520,3.3016,1,18,94
479,4,7,5,0.0619,1,3,13
480,4,6,2,0.0378,1,3,6
481,5,7,5,0.0947,1,3,13
482,6,12,11,0.1563,1,5,23
483,2,2,0,0.0351,1,2,3
484,18,27,107,0.4144,1,8,109
485,13,14,121,0.4594,1,10,34
486,11,16,39,0.4535,1,8,66
487,14,35,36,0.2443,1,4,47
488,20,84,132,0.2502,1,5,84
489,47,70,1241,1.2742,1,15,191
490,101,139,5483,3.9122,1,13,685
491,36,51,409,0.6631,1,10,264
492,14,23,127,0.6631,1,9,47
493,12,15,68,0.4121,1,9,29
494,14,19,56,0.3193,1,8,46
495,31,39,236,5.1691,1,10,136
496,22,29,198,0.7401,1,6,66
497,7,9,16,0.51,1,7,32
498,6,9,3,0.043,1,3,9
499,16,18,89,0.2171,1,5,37
500,6,10,7,0.2277,1,5,13
501,70,127,2084,3.9943,1,13,413
502,22,29,198,0.2289,1,6,66
503,53,54,2467,7.0741,1,24,100
504,63,92,2642,4.6275,1,22,282
505,20,27,126,0.1472,1,3,27
506,501,718,229284,125.8994,1,36,1382
507,15,16,148,1.2611,1,12,46
508,8,10,31,0.4401,1,7,24
509,76,139,1363,2.4927,1,11,418
510,21,38,344,2.9337,1,25,70
511,22,40,399,9.2388,1,25,79
512,13,20,71,0.1843,1,8,81
513,13,22,0,0.1685,1,4,54
514,25,26,509,2.6648,1,17,58
515,13,20,54,0.6864,1,9,82
516,97,132,5055,3.568,1,11,447
517,7,8,21,0.1207,1,4,14
518,4,5,4,0.1263,1,4,11
519,5,4,6,0.0422,1,3,7
520,3,4,0,0.1097,1,3,6
521,3,5,2,0.2561,1,3,7
522,20,28,150,0.3386,1,6,106
523,16,34,138,0.4657,1,7,74
524,5,4,6,0.1373,1,3,7
525,10,15,22,0.5936,1,8,58
526,24,50,169,0.4302,1,9,137
527,4,5,3,0.0663,1,3,5
528,39,52,891,0.9197,1,14,175
529,89,90,7121,14.9629,1,34,220
530,21,23,76,0.1559,1,4,23
531,12,14,48,0.1867,1,5,14
532,32,67,412,10.333,1,20,287
533,7,10,25,0.5565,1,7,22
534,12,22,28,0.1606,1,5,62
535,81,82,5709,9.0695,1,27,209
536,23,32,153,0.2096,1,4,50
537,17,40,81,0.508,1,6,70
538,103,143,5156,6.5992,1,17,407
539,13,36,27,0.144,1,5,36
540,3,5,0,0.058,1,2,8
541,5,8,2,0.0422,1,3,8
542,30,81,449,1.0784,1,10,103
543,17,27,109,0.3532,1,7,41
544,44,70,803,0.8159,1,8,178
545,25,39,329,0.6611,1,11,100
546,14,35,61,0.5605,1,7,35
547,21,59,127,1.2817,1,10,161
548,6,10,8,0.0967,1,4,10
549,19,32,242,9.2996,1,20,133
550,75,76,4801,61.3223,1,29,168
551,45,46,1465,5.9206,1,23,255
552,11,13,4,0.0675,1,3,13
553,576,1102,306441,135.0865,1,32,1268
554,223,1964,650,17.6997,1,4,2483
555,13,16,63,0.1492,1,5,23
556,6,9,8,0.0548,1,4,19
557,18,21,163,0.3844,1,10,75
558,17,22,122,0.72,1,10,83
559,18,23,123,0.1886,1,7,77
560,27,35,535,2.8062,1,20,253
561,14,17,47,0.4361,1,7,45
562,46,70,957,1.8252,1,13,255
563,20,23,177,0.566,1,8,79
564,11,10,19,0.0655,1,3,10
565,19,26,122,0.3311,1,6,43
566,21,57,16,0.4582,1,6,69
567,7,9,21,0.5159,1,8,28
568,7,8,24,0.1148,1,7,23
569,99,181,3518,6.0659,1,15,752
570,5,10,3,0.0927,1,4,25
571,8,8,25,0.0828,1,5,13
572,6,6,15,0.045,1,3,8
573,4,6,0,0.0714,1,3,6
574,13,29,20,0.2226,1,5,29
575,10,24,1,0.1472,1,3,48
576,70,84,1362,1.6973,1,8,309
577,3,4,2,0.0825,1,3,8
578,74,97,2655,1.5296,1,5,193
579,4,4,0,0.0422,1,2,4
580,16,20,148,0.2364,1,8,45
581,57,76,1991,1.631,1,13,306
582,16,21,90,1.5221,1,9,95
583,88,105,2644,6.9892,1,17,755
584,68,128,2027,4.4538,1,15,524
585,22,61,172,1.6713,1,13,149
586,67,198,1923,5.1008,1,23,697
587,5,9,3,0.1377,1,4,21
588,36,67,683,2.295,1,17,225
589,13,30,42,0.1397,1,5,46
590,4,6,4,0.0675,1,5,8
591,12,24,31,0.09,1,4,37
592,11,12,25,0.0722,1,3,16
593,39,78,297,2.6984,1,12,448
594,220,276,11371,22.6537,1,11,1966
595,29,68,51,0.3781,1,5,180
596,5,7,9,0.1839,1,6,13
597,20,30,177,0.3264,1,11,107
598,15,28,99,26.7242,1,7,59
599,12,34,4,0.1085,1,4,58
600,13,25,16,0.8514,1,8,117
601,8,7,37,0.2147,1,5,7
602,5,5,4,0.0406,1,3,5
603,12,13,63,0.1669,1,7,46
604,2,1,1,0.0252,1,2,1
605,8,18,8,0.174,1,4,39
606,32,41,399,0.9106,1,9,126
607,12,37,39,0.0935,1,5,37
608,24,32,377,0.5577,1,11,100
609,28,58,230,1.0954,1,11,174
610,15,30,89,0.5518,1,11,80
611,103,166,6115,35.2052,1,32,1270
612,107,173,6637,27.1525,1,31,1258
613,16,51,137,0.8561,1,9,76
614,9,10,7,0.1235,1,3,21
615,6,15,4,0.2171,1,5,31
616,9,11,38,0.234,1,5,23
617,7,9,17,0.5372,1,7,25
618,16,19,161,1.3954,1,11,62
619,9,13,33,0.223,1,5,27
620,9,11,38,0.2103,1,5,23
621,9,13,39,0.4685,1,8,23
622,8,12,13,0.1725,1,7,26
623,14,16,103,0.2246,1,8,50
624,65,64,64,0.8048,1,2,64
625,6,6,11,0.1207,1,4,10
626,11,11,41,0.131,1,4,19
627,19,29,88,1.5193,1,12,172
628,11,18,70,0.1365,1,6,28
629,11,21,71,0.1211,1,6,31
630,15,14,150,0.2964,1,5,14
631,13,20,51,0.1519,1,5,20
632,71,113,3746,3.3237,1,14,211
633,8,14,3,0.118,1,4,23
634,10,9,43,0.7401,1,8,11
635,23,31,328,1.0946,1,12,132
636,19,24,225,0.5846,1,10,79
637,26,35,332,0.7855,1,9,51
638,4,6,0,0.0367,1,3,6
639,13,16,74,0.2285,1,8,53
640,15,17,77,0.1117,1,5,36
641,153,200,12706,12.1682,1,17,977
642,65,87,2281,1.8158,1,12,393
643,194,472,29021,49.58,1,44,2053
644,21,24,187,0.4926,1,10,73
645,5,9,3,0.0426,1,3,15
646,22,22,189,0.1381,1,4,22
647,18,23,222,2.6889,1,16,71
648,11,14,84,1.1972,1,12,32
649,9,10,30,0.1053,1,4,15
650,12,14,86,0.3525,1,9,26
651,9,26,23,0.1515,1,4,32
652,14,25,17,0.1061,1,4,64
653,8,9,39,0.6844,1,9,21
654,19,21,200,0.3347,1,7,53
655,8,7,32,0.1081,1,4,9
656,9,11,52,0.7989,1,11,27
657,12,28,24,0.0844,1,4,28
658,9,11,47,0.8747,1,10,33
659,21,44,251,2.456,1,16,50
660,12,16,73,1.1171,1,12,36
661,10,10,16,0.0623,1,3,12
662,16,21,33,0.0975,1,3,39
663,8,12,27,0.5202,1,9,28
664,19,20,135,0.6517,1,10,43
665,9,9,42,0.0868,1,4,9
666,2,3,0,0.0323,1,2,5
667,18,22,115,0.2388,1,5,40
668,68,95,2453,2.1225,1,13,480
669,14,27,43,0.3063,1,7,72
670,6,7,12,0.0813,1,3,9
671,37,110,65,0.7002,1,6,336
672,3,5,0,0.0292,1,2,8
673,11,70,0,0.12,1,3,70
674,11,17,42,0.4298,1,7,47
675,7,9,20,0.2672,1,7,27
676,29,75,176,0.7626,1,8,91
677,13,25,28,0.1109,1,6,48
678,13,16,62,0.3497,1,7,50
679,8,9,34,0.3497,1,7,21
680,15,20,106,0.7851,1,9,82
681,33,38,352,0.2964,1,4,38
682,2,3,0,0.0394,1,2,5
683,35,35,99,0.3371,1,4,35
684,72,75,364,2.7094,1,9,545
685,35,47,1097,3.0169,1,29,70
686,116,117,11896,12.1563,1,28,223
687,1,1,0,0.0323,1,1,1
688,8,9,36,0.5553,1,8,23
689,59,60,2953,4.9725,1,23,167
690,20,26,198,0.7653,1,9,78
691,17,29,92,0.1677,1,5,29
692,15,16,153,1.2939,1,11,28
693,4,6,3,0.118,1,4,12
694,4,8,2,0.1223,1,4,16
695,6,11,9,0.2988,1,6,28
696,9,13,32,0.2518,1,5,21
697,7,12,17,0.1827,1,5,20
698,2,2,0,0.0398,1,2,2
699,307,581,84753,52.4794,1,32,993
700,324,623,91889,56.332,1,36,1310
701,11,10,24,0.2581,1,4,27
702,22,23,380,2.3601,1,16,53
703,15,17,94,0.1946,1,8,61
704,15,19,72,0.0892,1,3,19
705,3,5,2,0.0339,1,3,7
706,7,14,8,0.1046,1,3,20
707,72,118,3241,3.986,1,16,903
708,45,73,514,0.6726,1,3,151
709,27,43,328,0.5332,1,8,57
710,3,6,0,0.0856,1,2,10
711,15,38,3,0.1922,1,4,103
712,23,35,147,0.4997,1,7,117
713,23,30,273,0.3094,1,10,111
714,9,8,16,0.1642,1,4,14
715,26,34,461,2.1983,1,18,145
716,11,16,49,0.4448,1,7,34
717,33,58,491,1.0255,1,13,150
718,92,110,5255,5.3143,1,11,358
719,92,110,5404,3.1725,1,11,358
720,6,7,8,0.0493,1,4,7
721,23,24,383,2.0498,1,15,78
722,14,16,103,0.1792,1,8,50
723,31,51,349,1.751,1,12,298
724,4,6,2,0.0375,1,2,8
725,42,45,151,0.6789,1,5,173
726,19,27,149,0.3801,1,6,53
727,31,48,518,2.4308,1,16,218
728,48,52,914,1.3894,1,9,119
729,53,55,150,0.7132,1,4,110
730,9,17,16,0.0781,1,4,26
731,2,3,0,0.028,1,2,5
732,3,6,0,0.0296,1,2,10
733,3,3,3,0.0394,1,4,5
734,46,118,202,2.6171,1,12,406
735,224,362,38323,33.2753,1,29,1027
736,21,21,246,0.2901,1,9,67
737,10,17,34,0.1444,1,5,40
738,9,10,28,0.0982,1,6,24
739,5,6,9,0.0967,1,4,8
740,25,61,192,0.8005,1,11,300
741,177,256,7581,16.5202,1,15,2097
742,5,8,4,0.1634,1,4,9
743,16,37,105,0.5336,1,9,80
744,12,13,61,0.1428,1,4,13
745,130,195,4417,5.4801,1,4,321
746,7,10,28,0.3852,1,6,17
747,13,22,84,1.1025,1,7,49
748,12,21,27,0.0959,1,5,21
749,17,30,66,0.1069,1,3,40
750,6,9,5,0.159,1,4,23
751,16,17,73,0.2253,1,5,32
752,18,26,132,0.4428,1,8,54
753,19,23,138,0.283,1,5,40
754,16,25,107,0.9805,1,13,136
755,19,33,133,0.7263,1,10,93
756,7,15,10,0.1985,1,5,27
757,54,81,1877,2.8839,1,14,270
758,29,39,525,6.4058,1,20,240
759,56,78,1109,7.4376,1,24,736
760,81,118,1893,9.6675,1,22,1105
761,17,35,120,0.1527,1,5,47
762,508,923,223588,109.2425,1,31,1739
763,51,87,1088,2.1244,1,14,394
764,6,8,0,0.0825,1,4,20
765,87,101,3449,3.3647,1,10,197
766,25,32,318,1.7486,1,15,93
767,18,18,128,0.2352,1,4,21
768,4,5,8,0.0635,1,5,8
769,9,12,37,0.1089,1,4,12
770,16,31,36,0.4748,1,6,98
771,11,14,40,0.0647,1,3,14
772,22,56,198,1.9014,1,14,334
773,13,22,48,0.1117,1,5,22
774,20,30,225,2.0364,1,15,116
775,2,2,0,0.0426,1,2,2
776,55,74,1880,2.6068,1,11,175
777,13,16,53,0.3793,1,7,30
778,14,26,44,0.1689,1,5,30
779,12,22,11,0.1807,1,4,46
780,22,25,184,0.2861,1,6,66
781,35,50,501,1.9811,1,13,182
782,39,70,621,5.3349,1,21,402
783,29,37,565,0.6359,1,19,161
784,13,30,56,0.1535,1,6,48
785,8,19,18,0.0572,1,4,19
786,53,149,1443,1.0701,1,8,218
787,53,149,1443,1.496,1,8,218
788,23,31,282,2.6925,1,15,153
789,18,23,80,0.2001,1,7,88
790,6,7,11,0.1815,1,5,11
791,15,18,117,0.2147,1,8,55
792,11,18,37,0.6967,1,9,64
793,12,18,85,0.8147,1,9,41
794,6,8,8,0.0757,1,3,8
795,11,12,53,0.1377,1,7,40
796,28,55,247,0.8317,1,9,111
797,33,57,339,1.4404,1,12,282
798,9,17,13,0.0556,1,3,23
799,288,465,75127,55.7838,1,31,683
800,546,2608,10030,364.2182,1,24,22364
801,5,8,7,0.0643,1,3,8
802,25,32,314,1.5726,1,16,159
803,46,72,478,1.708,1,11,335
804,7,8,21,0.0955,1,7,25
805,6,7,19,0.1953,1,5,7
806,72,120,3814,3.7279,1,22,376
807,1501,1500,1500,396.3962,1,1,1500
808,38,50,268,0.3817,1,4,68
809,11,10,28,0.2261,1,5,31
810,22,28,367,0.9071,1,21,104
811,15,22,59,0.1038,1,3,36
812,9,11,42,0.4196,1,7,21
813,42,47,1031,1.3302,1,11,119
814,10,18,0,0.0967,1,3,38
815,13,23,48,0.0694,1,3,23
816,19,19,199,0.2802,1,5,19
817,6,8,14,0.2222,1,5,10
818,10,11,52,0.0892,1,4,11
819,9,8,32,0.084,1,3,8
820,9,8,8,0.0461,1,2,8
821,18,17,77,0.1361,1,3,17
822,10,19,0,0.2506,1,5,71
823,2,2,0,0.0288,1,2,2
824,1,1,0,0.0213,1,2,1
825,29,41,436,1.0681,1,12,145
826,8,11,22,0.8127,1,8,43
827,8,8,39,0.1353,1,4,8
828,3,5,0,0.0461,1,2,8
829,4,7,1,0.0513,1,4,17
830,4,7,1,0.0442,1,2,9
831,74,99,3873,12.0067,1,25,371
832,14,14,32,0.2964,1,6,49
833,22,32,290,4.1376,1,18,196
834,307,306,14098,51.1132,1,12,2867
835,19,19,117,0.3572,1,7,74
836,15,14,47,0.206,1,5,47
837,41,42,240,1.0464,1,8,253
838,53,55,305,1.5564,1,8,347
839,26,26,67,0.2881,1,4,74
840,32,32,161,0.4772,1,6,136
841,17,16,42,0.1492,1,4,45
842,134,141,3759,8.8508,1,12,1202
843,8,11,24,0.2143,1,5,21
844,63,68,1186,1.0168,1,6,102
845,8,9,25,0.1302,1,5,22
846,18,23,110,0.2336,1,7,93
847,74,116,3764,9.0995,1,18,541
848,56,79,2478,6.7492,1,26,341
849,38,41,588,0.819,1,10,126
850,2,3,1,0.0248,1,2,4
851,2,3,1,0.0236,1,2,4
852,385,1323,127547,113.2239,1,49,2895
853,3,5,0,0.0678,1,3,6
854,577,1105,180864,217.3917,1,37,9511
855,25,279,25,0.4286,1,3,279
856,39,40,459,4.4273,1,8,129
857,55,78,2041,4.3966,1,25,346
858,19,35,58,17.8627,1,6,98
859,13,13,83,0.225,1,6,22
860,35,60,663,1.1439,1,10,240
861,12,20,37,0.1278,1,4,20
862,30,45,471,0.5786,1,5,117
863,17,21,192,1.5079,1,11,65
864,5,9,1,0.054,1,3,17
865,81,96,4458,3.5941,1,13,333
866,11,13,56,0.1492,1,8,49
867,13,19,88,1.2059,1,11,78
868,9,26,23,0.2194,1,5,42
869,46,59,1182,1.9401,1,12,218
870,178,267,15745,19.5538,1,18,1797
871,28,55,272,1.0054,1,12,310
872,21,38,350,1.4909,1,25,72
873,46,65,848,2.0289,1,12,393
874,37,45,282,0.4231,1,4,99
875,28,30,118,0.6426,1,7,134
876,9,11,41,0.4132,1,6,21
877,2,2,0,0.0422,1,2,2
878,13,20,69,0.3714,1,7,41
879,4,4,6,0.0497,1,2,4
880,842,4387,605832,327.4396,1,36,7238
881,5,7,5,0.084,1,4,7
882,2,2,1,0.0706,1,2,3
883,6,9,1,0.0382,1,2,14
884,39,66,359,0.6896,1,6,106
885,10,14,66,0.2585,1,11,32
886,10,30,36,0.6157,1,8,30
887,45,51,1627,7.3378,1,23,152
888,22,26,375,1.9219,1,16,70
889,19,30,171,1.2848,1,12,105
890,8,11,10,0.3134,1,5,34
891,34,50,670,3.1456,1,17,287
892,5,8,3,0.0418,1,3,14
893,75,99,2436,19.9023,1,41,1100
894,36,66,381,0.5881,1,8,159
895,4,6,1,0.099,1,3,14
896,9,10,27,0.056,1,3,10
897,12,15,60,0.1061,1,4,24
898,6,7,10,0.075,1,3,11
899,11,21,12,0.1792,1,5,77
900,16,32,40,0.3584,1,9,148
901,13,23,19,0.2044,1,7,88
902,12,22,21,0.1192,1,5,22
903,64,140,1495,2.2938,1,15,532
904,14,13,88,0.084,1,3,19
905,10,26,12,0.1077,1,3,30
906,17,21,148,0.4148,1,8,71
907,25,31,305,0.3675,1,7,48
908,18,22,126,0.369,1,6,36
909,7,16,0,0.1334,1,3,32
910,55,71,2652,7.2028,1,29,153
911,17,19,185,0.7164,1,10,48
912,33,43,474,1.065,1,10,50
913,10,21,32,0.178,1,6,21
914,65,98,3148,14.3097,1,27,398
915,76,106,2591,2.4398,1,10,198
916,2,2,0,0.0264,1,2,2
917,3,4,1,0.0777,1,3,8
918,201,4009,21475,35.5009,1,20,53511
919,72,132,460,2.3096,1,3,206
920,22,36,188,0.6596,1,7,60
921,52,79,1589,6.2159,1,23,579
922,30,40,754,8.0499,1,22,82
923,2,3,0,0.075,1,2,5
924,11,14,60,0.6675,1,9,40
925,27,41,231,0.2775,1,6,56
926,15,16,52,0.0935,1,4,16
927,17,17,46,0.0975,1,3,17
928,5,7,5,0.0682,1,4,7
929,1,1,0,0.0355,1,2,1
930,11,21,14,0.2932,1,4,31
931,8,15,0,0.1409,1,3,16
932,11,33,43,0.2861,1,7,41
933,10,12,63,0.1819,1,7,20
934,6,8,10,0.1882,1,5,12
935,20,35,230,1.4767,1,14,201
936,7,8,24,0.1053,1,7,23
937,12,44,33,0.1188,1,5,44
938,10,26,7,0.0809,1,4,26
939,9,11,32,0.2625,1,6,25
940,26,51,175,0.4515,1,8,131
941,48,56,715,1.2055,1,8,259
942,11,14,37,0.4377,1,7,38
943,19,28,163,0.6256,1,10,89
944,30,50,304,0.9213,1,10,60
945,5,10,7,0.1614,1,4,18
946,20,54,213,2.4568,1,16,158
947,36,166,709,5.6163,1,22,327
948,36,131,877,4.7629,1,22,214
949,20,71,216,0.8332,1,14,116
950,10,9,24,0.1247,1,3,9
951,12,13,41,0.3205,1,6,38
952,10,12,50,0.3678,1,6,26
953,6,7,18,0.4646,1,6,11
954,20,29,188,11.5717,1,17,198
955,52,75,1367,3.2684,1,17,285
956,59,96,1392,1.0622,1,6,207
957,28,61,257,0.5621,1,8,156
958,17,18,120,0.1164,1,5,18
959,21,33,168,1.5067,1,12,148
960,28,35,143,0.7705,1,10,206
961,37,66,827,0.7421,1,7,88
962,19,22,173,0.7235,1,9,118
963,6,7,13,0.0442,1,3,7
964,11,16,86,0.5459,1,11,34
965,36,59,768,9.3541,1,14,179
966,19,37,84,0.4207,1,6,62
967,5,6,9,0.0564,1,4,12
968,13,21,50,0.6742,1,9,99
969,4,5,1,0.0426,1,3,5
970,10,11,69,0.5455,1,8,29
971,36,51,377,0.6019,1,9,236
972,1,1,0,0.0382,1,2,1
973,26,31,374,0.4196,1,11,119
974,6,16,13,0.0592,1,4,16
975,12,25,37,0.1164,1,6,35
976,24,36,110,0.4882,1,8,118
977,13,33,13,0.5822,1,8,95
978,71,125,2975,3.0612,1,12,498
979,28,39,524,1.044,1,15,207
980,13,17,91,0.6667,1,12,69
981,14,28,84,0.5794,1,9,60
982,14,26,97,0.3031,1,7,34
983,10,11,46,0.5076,1,8,35
984,13,15,111,1.5086,1,13,50
985,70,129,673,2.0155,1,6,269
986,11,22,42,0.1243,1,7,30
987,37,42,586,0.3757,1,4,60
988,34,34,543,0.2909,1,4,34
989,15,34,32,0.8352,1,9,201
990,35,58,165,0.4752,1,6,128
991,547,1106,25845,109.4723,1,16,3894
992,47,46,930,26.7412,1,45,127
993,23,47,176,0.3382,1,7,47
994,4,6,0,0.0461,1,4,8
995,21,28,218,0.1906,1,7,68
996,17,19,126,0.4594,1,6,31
997,208,554,18559,21.5997,1,21,2475
998,7,11,7,0.0951,1,4,26
999,9,13,44,0.1827,1,5,17
1000,8,31,23,0.1132,1,5,31
1001,28,44,352,0.3007,1,3,44
1002,19,23,164,0.4093,1,10,77
1003,21,42,215,0.4768,1,10,119
1004,14,19,64,0.1914,1,5,19
1005,18,22,228,1.5959,1,12,57
1006,11,14,38,0.2581,1,5,25
1007,306,586,82480,52.5698,1,36,1416
1008,6,11,8,0.0734,1,4,18
1009,13,24,48,1.5533,1,13,106
1010,150,185,10785,5.7099,1,10,270
1011,10,10,30,0.1622,1,7,42
1012,127,250,798,4.1779,1,4,372
1013,6,8,10,0.2368,1,6,18
1014,21,46,183,0.2107,1,5,73
1015,23,62,227,0.7492,1,9,62
1016,15,15,75,12.2882,1,5,15
1017,23,25,84,0.1855,1,4,25
1018,11,11,52,0.4965,1,6,17
1019,38,47,584,1.1143,1,9,133
1020,15,15,88,0.264,1,6,24
1021,22,25,130,0.2431,1,5,52
1022,14,14,99,0.2415,1,5,14
1023,13,13,42,0.1614,1,4,13
1024,12,12,54,0.2368,1,5,14
1025,13,15,44,0.1721,1,5,26
1026,15,16,75,0.2696,1,6,16
1027,14,15,69,0.3402,1,6,15
1028,15,19,128,0.9473,1,10,19
1029,15,18,111,0.3963,1,7,18
1030,17,21,155,0.4922,1,9,70
1031,6,5,8,0.1077,1,3,9
1032,8,8,36,0.1744,1,5,10
1033,35,52,283,3.4725,1,9,303
1034,60,86,1750,1.215,1,8,222
1035,28,41,528,3.0998,1,16,176
1036,35,68,839,3.0991,1,20,238
1037,8,11,22,0.1673,1,3,11
1038,87,137,6371,10.8829,1,27,297
1039,22,36,115,0.4294,1,6,128
1040,89,94,6357,3.0158,1,13,134
1041,15,18,78,0.1306,1,3,18
1042,47,114,90,1.0286,1,4,261
1043,5,7,9,0.1278,1,4,13
1044,5,8,0,0.1409,1,4,23
1045,5,8,0,0.056,1,4,23
1046,5,8,0,0.056,1,4,23
1047,8,14,25,0.0892,1,6,22
1048,42,55,1031,1.2667,1,13,190
1049,17,25,122,1.2292,1,20,91
1050,8,12,25,0.2321,1,5,16
1051,15,28,100,0.7725,1,11,142
1052,12,11,75,0.0785,1,4,11
1053,51,90,580,2.3565,1,11,490
1054,11,11,15,0.0828,1,4,30
1055,30,50,521,0.6631,1,20,385
1056,12,14,64,0.4851,1,8,34
1057,4,5,5,0.0978,1,6,15
1058,4,5,7,0.0615,1,5,11
1059,8,12,45,1.4321,1,12,16
1060,61,65,1038,0.8944,1,6,117
1061,45,48,805,0.7752,1,9,129
1062,3,5,0,0.1243,1,2,8
1063,25,40,399,1.3567,1,17,164
1064,10,19,38,0.9079,1,9,53
1065,46,106,1366,2.2421,1,13,254
1066,36,51,484,0.4906,1,8,191
1067,17,17,71,0.21,1,8,81
1068,14,29,65,0.615,1,6,43
1069,3,4,2,0.0418,1,4,6
1070,65,70,1036,1.1996,1,5,94
1071,52,57,721,0.7693,1,5,81
1072,50,55,687,0.6947,1,5,79
1073,1,1,0,0.0244,1,1,1
1074,56,61,789,0.8107,1,5,85
1075,56,61,789,0.7026,1,5,85
1076,56,61,789,0.8573,1,5,85
1077,56,61,789,0.7879,1,5,85
1078,56,61,789,6.8025,1,5,85
1079,12,15,59,0.0678,1,3,15
1080,28,35,540,2.7201,1,18,141
1081,64,116,1766,9.9655,1,24,922
1082,13,31,55,0.3406,1,6,73
1083,2,3,0,0.0465,1,2,5
1084,8,9,36,0.5372,1,8,23
1085,44,57,1454,2.9901,1,16,150
1086,6,11,11,0.193,1,5,19
1087,4,7,1,0.3947,1,6,28
1088,52,72,793,2.3317,1,13,450
1089,48,62,609,1.2927,1,13,408
1090,2,2,0,0.041,1,2,2
1091,28,33,556,2.7931,1,17,125
1092,10,17,33,0.1227,1,5,21
1093,19,21,264,1.7092,1,13,56
1094,5,4,6,0.043,1,3,7
1095,11,10,72,0.2703,1,6,15
1096,6,5,16,0.2976,1,6,13
1097,6,5,5,0.0363,1,2,5
1098,7,7,27,0.1878,1,5,7
1099,5,4,6,0.0414,1,3,7
1100,6,5,5,0.0367,1,2,5
1101,6,5,5,0.0359,1,2,5
1102,5,4,4,0.0327,1,2,4
1103,9,8,44,0.2131,1,5,8
1104,9,8,22,0.0718,1,3,8
1105,7,6,24,0.1823,1,5,8
1106,7,7,18,0.1089,1,4,9
1107,7,6,6,0.039,1,2,6
1108,5,4,6,0.0406,1,3,7
1109,5,5,8,0.0678,1,4,11
1110,8,8,31,0.1796,1,5,11
1111,13,15,70,0.1176,1,4,24
1112,6,5,5,0.045,1,2,5
1113,4,5,1,0.0765,1,3,5
1114,6,5,8,0.0513,1,4,9
1115,26,27,161,0.1922,1,4,27
1116,8,9,21,0.1626,1,4,16
1117,5,4,6,0.0406,1,3,7
1118,5,4,6,0.0532,1,3,7
1119,2,2,1,0.0975,1,3,3
1120,2,3,0,0.0292,1,2,5
1121,3,4,0,0.0378,1,3,6
1122,14,25,80,0.2001,1,6,25
1123,14,25,80,0.114,1,6,25
1124,35,49,844,1.8754,1,13,142
1125,39,51,973,0.5861,1,11,118
1126,36,51,476,0.6296,1,9,215
1127,21,191,20,0.1744,1,2,191
1128,4,6,0,0.1492,1,4,10
1129,18,17,126,0.2273,1,4,34
1130,64,561,31,1.3393,1,4,691
1131,44,58,873,0.6059,1,5,132
1132,32,45,682,1.5327,1,16,147
1133,31,39,650,1.5019,1,15,116
1134,11,10,10,0.0525,1,2,10
1135,31,30,270,0.7156,1,9,140
1136,31,30,288,0.6102,1,9,136
1137,34,40,373,1.0689,1,11,186
1138,34,41,345,0.8652,1,10,200
1139,13,12,47,0.1626,1,7,32
1140,40,47,487,0.354,1,4,79
1141,8,8,15,0.0967,1,4,12
1142,17,21,54,0.1211,1,3,27
1143,3,3,0,0.105,1,3,5
1144,38,40,909,1.318,1,12,102
1145,4,4,5,0.0363,1,3,4
1146,28,39,489,0.3836,1,6,47
1147,28,39,489,0.2451,1,6,47
1148,22,28,183,0.1973,1,6,56
1149,60,65,751,0.8064,1,5,101
1150,155,413,5711,9.5799,1,14,1013
1151,151,150,150,5.578,1,2,150
1152,14,21,110,2.0313,1,13,88
1153,11,18,46,0.4847,1,10,71
1154,8,8,36,0.1152,1,5,11
1155,26,44,561,6.0035,1,24,102
1156,95,115,6943,3.8179,1,15,311
1157,30,29,229,0.2865,1,3,29
1158,28,45,537,18.7039,1,23,266
1159,24,39,230,0.6497,1,8,67
1160,3,4,1,0.0382,1,3,9
1161,9,12,44,0.4602,1,10,33
1162,42,61,1181,0.7736,1,12,194
1163,23,51,147,1.1554,1,10,182
1164,126,220,3993,50.5045,1,27,2863
1165,68,88,2219,2.9222,1,16,397
1166,53,92,2399,79.8747,1,34,311
1167,12,26,31,0.0915,1,4,40
1168,15,19,84,0.4022,1,7,41
1169,4,6,2,0.1132,1,4,13
1170,13,12,44,0.1464,1,4,22
1171,3,5,1,0.075,1,3,9
1172,107,152,7980,8.8125,1,21,501
1173,11,23,27,0.0903,1,4,32
1174,6,8,10,0.1689,1,5,14
1175,67,94,2720,2.5515,1,15,299
1176,14,25,65,0.1882,1,7,41
1177,2,3,0,0.0493,1,2,5
1178,8,9,11,0.105,1,3,19
1179,10,12,37,0.0742,1,4,18
1180,14,23,47,0.1353,1,5,23
1181,40,52,1103,0.7748,1,12,162
1182,9,22,20,0.0698,1,4,33
1183,8,8,17,0.101,1,6,28
1184,25,34,359,0.4492,1,11,106
1185,34,46,679,1.2979,1,11,156
1186,1,1,0,0.0347,1,2,1
1187,39,82,645,0.8482,1,12,255
1188,11,29,29,0.1586,1,5,42
1189,43,58,1377,6.8609,1,27,317
1190,33,45,736,3.3087,1,22,250
1191,23,32,290,1.4036,1,14,174
1192,27,33,426,2.5519,1,15,123
1193,257,508,4,14.451,1,2,761
1194,11,29,24,0.206,1,5,50
1195,42,66,737,2.9542,1,13,347
1196,57,76,1991,1.303,1,13,306
1197,2,2,0,0.026,1,2,2
1198,3,5,2,0.06,1,3,5
1199,13,18,71,0.2451,1,8,47
1200,9,10,55,0.2305,1,9,25
1201,13,12,59,0.1109,1,5,21
1202,518,6026,3096,127.0094,1,6,7254
1203,36,40,1165,3.7752,1,20,40
1204,13,22,52,0.1192,1,6,30
1205,53,88,1315,2.5022,1,14,369
1206,14,26,60,0.135,1,6,35
1207,13,14,61,0.2092,1,7,30
1208,3,4,1,0.0564,1,3,9
1209,13,28,10,0.0967,1,3,52
1210,22,26,220,0.2328,1,4,26
1211,32,40,362,0.626,1,7,101
1212,9,9,37,0.1977,1,5,9
1213,10,10,73,0.3781,1,7,12
1214,5,5,7,0.0675,1,4,8
1215,33,44,545,1.5102,1,11,189
1216,21,40,155,0.4677,1,9,81
1217,4,4,6,0.0548,1,5,8
1218,18,33,128,0.405,1,7,59
1219,29,40,451,1.0298,1,11,73
1220,366,1301,114369,75.006,1,47,2682
1221,15,19,94,0.675,1,10,65
1222,21,31,149,0.478,1,7,113
1223,57,76,574,1.0507,1,6,282
1224,10,13,32,0.1168,1,7,45
1225,54,89,1595,1.7944,1,13,237
1226,27,32,154,0.2384,1,6,45
1227,9,8,8,0.0457,1,2,8
1228,95,136,5088,16.6635,1,33,1480
1229,10,14,16,0.2731,1,7,56
1230,14,18,67,0.1326,1,6,28
1231,4,5,4,0.0935,1,3,8
1232,16,28,27,0.5601,1,9,151
1233,256,255,255,15.5791,1,3,509
1234,6,9,0,0.1211,1,4,27
1235,8,8,22,0.0773,1,5,24
1236,17,26,130,0.8648,1,10,68
1237,28,43,20,0.5459,1,6,115
1238,57,81,2167,1.8761,1,16,348
1239,5,8,4,0.1953,1,5,21
1240,41,50,236,0.3536,1,3,62
1241,13,19,95,0.084,1,4,19
1242,20,26,203,0.7673,1,10,68
1243,3,6,0,0.0682,1,2,8
1244,15,14,59,0.1539,1,4,28
1245,17,16,54,0.1306,1,3,28
1246,16,15,64,0.1586,1,4,30
1247,17,16,69,0.1598,1,4,32
1248,17,16,27,0.1196,1,3,31
1249,11,10,19,0.0639,1,3,10
1250,19,24,148,1.8304,1,13,136
1251,18,23,125,0.5897,1,11,113
1252,28,35,424,1.4968,1,17,207
1253,15,17,118,1.2663,1,11,63
1254,9,15,31,0.129,1,6,19
1255,13,50,37,0.3256,1,7,50
1256,5,11,1,0.0722,1,3,23
1257,14,19,79,0.2478,1,6,43
1258,11,20,44,0.1006,1,7,35
1259,18,31,129,1.1625,1,12,142
1260,61,72,1352,2.1106,1,12,409
1261,26,36,510,4.1838,1,20,85
1262,37,69,305,0.5573,1,6,179
1263,27,36,395,0.493,1,8,89
1264,15,20,110,0.4796,1,8,66
1265,11,11,11,0.0623,1,3,11
1266,15,19,80,0.1365,1,6,55
1267,5,8,3,0.1152,1,4,21
1268,14,15,68,0.4642,1,9,78
1269,16,19,94,0.1172,1,5,40
1270,11,11,10,0.114,1,3,11
1271,11,11,10,0.0635,1,3,11
1272,235,427,25708,25.7725,1,16,2902
1273,3,4,1,0.0647,1,3,8
1274,30,45,400,0.7401,1,8,62
1275,30,47,540,2.4387,1,15,135
1276,13,15,122,0.2656,1,11,39
1277,16,20,109,1.059,1,9,64
1278,3,3,0,0.0418,1,2,3
1279,5,4,4,0.0343,1,2,4
1280,40,72,150,1.2461,1,8,232
1281,23,26,324,3.0217,1,16,27
1282,33,32,32,0.2514,1,2,32
1283,4,6,4,0.0552,1,5,8
1284,8,8,33,0.1338,1,5,8
1285,22,30,247,1.2201,1,11,117
1286,2,2,0,0.0789,1,2,2
1287,24,25,35,0.221,1,4,71
1288,19,27,135,0.2719,1,8,103
1289,22,25,215,0.2028,1,4,25
1290,1,1,0,0.0228,1,2,1
1291,48,60,1684,5.8421,1,25,176
1292,31,33,809,3.3394,1,18,67
1293,20,25,73,0.234,1,4,57
1294,34,36,255,0.3043,1,5,54
1295,3,5,2,0.1038,1,3,7
1296,3,3,0,0.0359,1,3,5
1297,65,122,1809,1.4167,1,6,135
1298,18,18,74,0.1302,1,3,18
1299,27,29,154,0.2009,1,4,42
1300,6,8,13,0.3521,1,6,26
1301,10,13,50,0.6923,1,10,53
1302,9,14,40,0.3146,1,6,23
1303,13,12,69,0.103,1,5,20
1304,6,8,11,0.0442,1,3,8
1305,23,50,185,0.4547,1,7,90
1306,6,10,13,0.0978,1,5,16
1307,16,26,107,0.4748,1,7,38
1308,20,30,215,0.3442,1,6,30
1309,37,69,332,0.4886,1,6,161
1310,18,19,126,0.1042,1,3,23
1311,57,83,1959,1.4242,1,13,357
1312,6,12,12,0.174,1,5,22
1313,16,32,126,1.7909,1,13,130
1314,13,14,83,0.1338,1,7,43
1315,18,22,127,0.4732,1,7,43
1316,37,36,385,0.309,1,3,36
1317,16,19,92,0.2131,1,4,23
1318,104,148,5755,4.5004,1,13,768
1319,18,111,32,1.7415,1,13,285
1320,4,3,3,0.0382,1,3,5
1321,11,10,19,0.0647,1,3,10
1322,50,63,1802,2.2073,1,18,200
1323,1,1,0,0.0232,1,2,1
1324,11,21,10,0.0738,1,3,42
1325,3,4,0,0.0256,1,1,4
1326,8,16,0,0.0726,1,4,40
1327,21,22,56,0.2064,1,4,41
1328,40,60,550,0.3505,1,3,60
1329,16,17,88,0.1456,1,4,21
1330,15,22,156,0.7807,1,12,58
1331,6,16,4,0.189,1,4,22
1332,2,2,0,0.028,1,2,3
1333,6,10,7,0.0659,1,4,10
1334,2,2,0,0.0832,1,3,3
1335,10,17,17,0.1626,1,6,42
1336,39,40,365,0.4338,1,5,48
1337,110,163,9680,7.8367,1,23,477
1338,22,28,183,0.2092,1,6,56
1339,16,56,95,0.3876,1,7,56
1340,21,36,189,0.7752,1,13,105
1341,9,9,21,0.1456,1,4,11
1342,7,12,4,0.0521,1,3,24
1343,15,32,59,0.4551,1,7,32
1344,14,17,65,0.0872,1,3,17
1345,8,11,24,0.7898,1,9,25
1346,44,59,1158,1.0961,1,13,225
1347,12,15,33,0.4034,1,7,55
1348,30,45,479,0.8281,1,9,105
1349,3,4,2,0.0343,1,2,5
1350,39,42,283,0.3363,1,3,52
1351,21,38,167,0.2376,1,6,73
1352,194,282,13550,27.6732,1,25,2032
1353,31,60,257,0.3828,1,5,116
1354,26,30,183,0.2782,1,6,31
1355,96,110,2618,2.0656,1,5,266
1356,5,5,11,0.1286,1,4,8
1357,66,121,129,1.211,1,4,242
1358,3,5,2,0.0982,1,3,7
1359,35,48,823,0.6852,1,13,140
1360,18,22,243,1.6006,1,14,56
1361,12,11,59,0.0682,1,3,11
1362,12,11,70,0.1377,1,4,14
1363,19,27,154,0.2127,1,6,27
1364,19,29,151,0.2226,1,6,29
1365,21,22,58,0.1275,1,3,22
1366,9,11,51,0.219,1,9,18
1367,19,27,122,0.2368,1,5,27
1368,11,11,51,0.3955,1,7,31
1369,19,25,236,1.5643,1,14,70
1370,13,13,34,0.0793,1,3,13
1371,7,8,23,0.1878,1,6,18
1372,19,31,219,0.8546,1,9,63
1373,65,90,3541,16.221,1,30,301
1374,32,44,666,1.1779,1,14,156
1375,5,9,4,0.0375,1,2,13
1376,10,15,25,0.1527,1,4,15
1377,6,8,8,0.0773,1,3,8
1378,26,27,462,1.9543,1,14,53
1379,19,21,138,0.1302,1,5,21
1380,5,9,5,0.0501,1,4,9
1381,15,20,64,0.3232,1,6,21
1382,25,55,141,0.4326,1,8,113
1383,5,9,4,0.0635,1,3,13
1384,4,6,5,0.0592,1,3,12
1385,18,28,121,5.1237,1,11,108
1386,6,11,8,0.1638,1,5,31
1387,5,9,5,0.0505,1,4,9
1388,12,13,112,0.4657,1,11,22
1389,5,8,3,0.1748,1,4,17
1390,5,8,3,0.2013,1,5,24
1391,4,5,5,0.0576,1,5,7
1392,10,12,67,0.1768,1,9,29
1393,7,8,21,0.1105,1,8,31
1394,19,31,122,0.2186,1,7,114
1395,16,22,102,0.519,1,10,39
1396,4,5,1,0.0367,1,3,5
1397,19,27,98,0.1318,1,5,27
1398,13,17,74,0.2103,1,8,46
1399,5,6,10,0.0556,1,5,11
1400,5,7,5,0.0473,1,4,7
1401,7,11,7,0.0939,1,4,26
1402,21,34,160,0.418,1,8,144
1403,14,15,60,0.0805,1,3,15
1404,104,148,5755,3.8822,1,13,768
1405,68,88,3209,1.7447,1,13,230
1406,7,8,17,0.0493,1,3,12
1407,9,14,19,0.2005,1,5,36
1408,5,5,7,0.0414,1,3,5
1409,12,12,38,0.0686,1,3,12
1410,13,30,25,0.686,1,8,110
1411,8,8,36,0.1152,1,5,11
1412,33,32,32,0.2325,1,2,32
1413,67,132,968,8.1012,1,15,1122
1414,67,132,968,3,1,15,1122
1415,23,33,235,0.6919,1,20,224
1416,39,50,1039,1.0642,1,13,137
1417,6,5,5,0.0414,1,2,5
1418,7,8,21,0.0971,1,7,25
1419,16,24,85,0.3359,1,8,116
1420,19,20,185,0.1728,1,7,30
1421,41,75,827,2.4047,1,17,222
1422,41,57,1206,4.8817,1,23,346
1423,59,104,974,1.8611,1,8,277
1424,59,104,974,1.1901,1,8,277
1425,22,26,175,0.3611,1,8,36
1426,2,3,0,0.1476,1,2,5
1427,2,3,0,0.2214,1,2,5
1428,2,3,0,0.0363,1,2,5
1429,2,3,0,0.0398,1,2,5
1430,2,3,0,0.0446,1,2,5
1431,2,3,0,0.0319,1,2,5
1432,2,3,0,0.0307,1,2,5
1433,2,3,0,0.0398,1,2,5
1434,2,3,0,0.039,1,2,5
1435,39,43,243,0.5952,1,6,45
1436,44,77,156,0.6738,1,5,193
1437,2,2,0,0.0276,1,2,2
1438,14,23,67,0.2214,1,6,23
1439,58,95,1885,1.5189,1,13,438
1440,58,91,1960,1.4656,1,13,402
1441,22,35,93,0.4393,1,7,145
1442,20,33,210,0.6438,1,9,73
1443,15,21,89,1.3294,1,5,29
1444,13,18,76,0.4997,1,6,34
1445,20,32,217,1.0843,1,10,78
1446,13,18,41,0.114,1,4,18
1447,12,18,55,1.7052,1,10,71
1448,15,21,146,0.4275,1,10,57
1449,11,24,22,0.255,1,4,24
1450,2,3,0,0.0521,1,2,5
1451,89,107,4717,122.6925,1,12,343
1452,7,7,0,0.0615,1,2,8
1453,19,32,207,0.6051,1,13,112
1454,28,57,481,2.7087,1,15,163
1455,7,7,31,0.4906,1,6,12
1456,223,1964,650,22.9801,1,4,2483
1457,19,25,124,1.05,1,9,82
1458,14,13,57,0.0769,1,3,13
1459,20,20,161,0.2005,1,5,20
1460,10,9,25,0.0856,1,3,9
1461,19,18,140,0.2028,1,5,18
1462,5,8,2,0.0442,1,3,16
1463,7,12,23,0.0619,1,4,12
1464,2,3,0,0.0303,1,2,5
1465,7,18,0,0.0675,1,2,25
1466,63,66,3213,12.8744,1,27,196
1467,10,13,20,0.5017,1,8,58
1468,10,13,15,0.2411,1,7,56
1469,10,13,13,0.1693,1,6,53
1470,10,13,12,0.0994,1,5,47
1471,41,44,1229,3.5968,1,17,124
1472,70,100,2618,6.8317,1,22,700
1473,71,129,2345,2.214,1,10,211
1474,5,6,9,0.0793,1,4,9
1475,10,11,22,0.0742,1,3,15
1476,33,54,590,1.1123,1,11,208
1477,27,32,266,0.3682,1,6,60
1478,23,24,184,0.2139,1,5,48
1479,7,12,8,0.0659,1,4,28
1480,33,50,621,2.7967,1,15,142
1481,257,415,25984,26.0985,1,11,2198
1482,264,7965,18431,17.8706,1,6,8093
1483,20,24,183,0.4405,1,7,36
1484,13,23,38,0.1164,1,5,23
1485,11,12,31,0.2601,1,6,29
1486,2,2,0,0.0517,1,2,2
1487,264,7965,18183,14.3764,1,5,8091
1488,21,38,167,0.2147,1,6,73
1489,26,63,67,0.2459,1,4,84
1490,22,36,250,0.1807,1,5,48
1491,11,14,72,0.4243,1,8,27
1492,5,7,4,0.1282,1,4,18
1493,73,100,1639,1.7419,1,9,222
1494,24,31,236,0.3888,1,9,79
1495,26,52,183,0.701,1,10,153
1496,32,40,392,0.8186,1,8,40
1497,52,70,748,0.8411,1,7,116
1498,17,26,130,0.4515,1,7,50
1499,22,30,286,2.475,1,15,118
1500,14,13,85,0.1006,1,5,22
1501,2,2,0,0.0355,1,3,3
1502,1,1,0,0.0394,1,2,1
1503,10,16,50,0.086,1,4,16
1504,65,122,1667,2.0629,1,9,354
1505,34,56,518,0.6872,1,9,118
1506,61,93,1673,2.0719,1,12,579
1507,26,28,210,0.191,1,3,28
1508,11,19,5,0.1164,1,4,29
1509,8,13,22,0.1614,1,6,16
1510,7,14,10,0.0497,1,3,14
1511,5,6,9,0.1843,1,5,17
1512,8,8,34,0.1061,1,4,8
1513,8,21,21,0.5396,1,8,41
1514,2,3,1,0.0513,1,3,4
1515,17,26,119,1.3732,1,10,63
1516,294,377,57815,45.8821,1,26,2477
1517,385,498,98306,101.9671,1,31,3918
1518,329,424,72100,59.7367,1,30,3208
1519,265,342,46318,37.1998,1,25,2214
1520,423,545,119036,86.7894,1,31,4235
1521,4,6,4,0.0927,1,4,11
1522,13,24,0,0.0769,1,2,37
1523,2,3,0,0.0276,1,2,5
1524,2,3,0,0.0335,1,2,5
1525,20,25,254,2.8606,1,20,133
1526,5,5,6,0.0588,1,3,5
1527,10,12,45,0.1973,1,5,13
1528,19,26,149,0.1784,1,6,47
1529,6,8,8,0.0426,1,2,8
1530,14,17,60,0.1792,1,7,62
1531,28,60,284,1.104,1,11,102
1532,2,2,0,0.0868,1,2,2
1533,53,54,622,0.9702,1,4,54
1534,10,9,42,0.2692,1,6,13
1535,8,8,36,0.1405,1,5,10
1536,23,22,22,0.1488,1,2,22
1537,88,105,4849,8.297,1,23,457
1538,5,9,0,0.0469,1,3,9
1539,5,9,1,0.298,1,5,19
1540,9,10,39,0.2305,1,5,15
1541,8,7,39,0.3698,1,7,12
1542,8,7,39,0.2021,1,7,12
1543,18,17,108,0.2707,1,5,44
1544,194,245,34610,34.6668,1,33,245
1545,19,32,209,0.4685,1,15,134
1546,55,96,1130,1.5438,1,9,344
1547,9,9,45,0.926,1,9,21
1548,2,2,0,0.0367,1,2,2
1549,20,35,222,0.701,1,8,53
1550,12,13,29,0.0675,1,3,13
1551,8,7,7,0.0473,1,2,7
1552,97,132,4353,3.4247,1,11,447
1553,65,107,2320,4.967,1,20,478
1554,3,3,2,0.2246,1,3,4
1555,30,45,394,1.3239,1,12,164
1556,8,12,21,0.4452,1,7,45
1557,12,16,71,1.2225,1,10,69
1558,13,22,57,0.8182,1,9,106
1559,6,10,7,0.2107,1,5,31
1560,8,12,21,0.3896,1,7,45
1561,16,20,154,1.899,1,14,99
1562,41,54,1036,0.8123,1,12,188
1563,15,22,56,0.2261,1,5,30
1564,14,20,78,0.5972,1,9,80
1565,106,161,7124,16.9599,1,35,1413
1566,404,515,145084,59.2598,1,25,612
1567,15,15,40,0.1168,1,3,15
1568,19,29,107,0.3327,1,8,42
1569,6,7,14,0.1835,1,5,15
1570,15,19,145,1.839,1,14,61
1571,6,13,0,0.0497,1,3,25
1572,17,16,142,0.1152,1,3,16
1573,21,38,358,1.1198,1,25,81
1574,22,212,20,0.2246,1,2,404
1575,2,3,0,0.06,1,2,5
1576,4,8,2,0.2246,1,4,15
1577,4,7,4,0.0603,1,4,16
1578,5,7,10,0.1578,1,5,7
1579,19,36,235,12.932,1,16,92
1580,11,11,10,0.0884,1,3,11
1581,27,51,328,0.7638,1,11,77
1582,7,8,30,0.3757,1,7,14
1583,41,50,236,0.3564,1,3,62
1584,4,7,2,0.0382,1,3,7
1585,11,10,19,0.0631,1,3,10
1586,5,7,6,0.0446,1,3,13
1587,9,8,8,0.0465,1,2,8
1588,3,4,4,0.0442,1,3,4
1589,8,11,3,1.8343,1,2,16
1590,5,12,9,0.116,1,5,12
1591,3,5,0,0.0438,1,3,10
1592,56,109,530,1.0464,1,5,218
1593,29,87,209,0.8672,1,12,382
1594,42,130,581,1.303,1,13,522
1595,38,127,413,0.9651,1,12,493
1596,32,126,235,0.6331,1,12,476
1597,14,21,95,0.2384,1,6,41
1598,13,16,63,0.1022,1,5,23
1599,5,12,8,0.0485,1,4,12
1600,31,48,427,3.4504,1,19,384
1601,2,1,1,0.0406,1,2,1
1602,3,3,4,0.133,1,4,4
1603,3,3,0,0.0355,1,3,5
1604,21,23,158,0.2052,1,6,25
1605,83,98,4467,3.8972,1,12,334
1606,10,13,32,0.0777,1,4,19
1607,2,2,0,0.0398,1,2,2
1608,9,12,20,0.0572,1,3,12
1609,57,76,1976,1.4092,1,13,315
1610,3,4,3,0.0355,1,3,4
1611,15,19,45,0.0935,1,4,29
1612,45,55,1832,6.2799,1,27,55
1613,2,3,0,0.0434,1,2,5
1614,32,91,520,0.4875,1,7,139
1615,61,86,3486,21.4438,1,41,120
1616,4,4,3,0.0465,1,2,4
1617,29,71,436,2.4102,1,17,163
1618,15,14,106,0.1239,1,6,14
1619,61,118,3394,3.8435,1,25,118
1620,2,2,0,0.0367,1,2,2
1621,134,258,2003,4.2971,1,5,628
1622,66,141,1902,2.1426,1,16,523
1623,3,4,0,0.0596,1,3,6
1624,11,12,50,0.0805,1,5,16
1625,13,28,89,0.7168,1,9,58
1626,44,61,1250,4.3587,1,19,169
1627,3,4,0,0.1168,1,3,6
1628,42,46,1494,11.8224,1,25,94
1629,7,7,17,0.2269,1,4,11
1630,20,34,116,0.1314,1,3,34
1631,17,26,66,0.1018,1,3,36
1632,12,16,31,0.0702,1,3,20
1633,66,127,2409,2.4292,1,16,517
1634,10,9,25,0.06,1,3,9
1635,104,148,5518,4.5181,1,13,819
1636,8,7,19,0.0493,1,3,7
1637,3,6,2,0.1594,1,4,11
1638,22,26,267,0.4318,1,12,86
1639,5,8,7,0.0493,1,4,12
1640,8,8,36,0.1231,1,5,11
1641,9,12,27,0.0955,1,4,14
1642,4,5,7,0.0592,1,5,10
1643,14,16,74,0.7219,1,8,63
1644,38,66,800,1.1443,1,14,238
1645,7,9,14,0.1046,1,7,29
1646,15,21,68,0.1456,1,3,36
1647,11,15,33,0.1188,1,5,35
1648,16,21,172,1.1194,1,9,48
1649,17,121,16,0.1081,1,1,121
1650,22,52,276,1.8343,1,15,52
1651,8,19,19,0.5167,1,6,26
1652,43,110,906,5.4628,1,25,456
1653,21,20,20,10.1471,1,2,20
1654,14,29,110,0.3406,1,7,51
1655,11,18,53,0.5321,1,8,71
1656,32,46,415,0.4421,1,6,88
1657,50,161,859,0.7855,1,6,161
1658,48,62,332,1.6156,1,10,312
1659,3,5,0,0.0564,1,3,12
1660,32,38,484,0.3213,1,7,84
1661,2,2,0,0.0311,1,3,3
1662,6,9,11,0.105,1,4,13
1663,11,20,44,0.0951,1,7,35
1664,7,9,18,0.1022,1,7,30
1665,14,13,62,0.1744,1,5,31
1666,3,4,0,0.0351,1,3,6
1667,5,12,8,0.1957,1,5,16
1668,76,125,2743,3.0434,1,14,423
1669,9,8,32,0.0536,1,3,8
1670,27,38,304,0.5017,1,11,136
1671,34,44,1027,4.618,1,24,44
1672,19,24,75,0.1322,1,5,38
1673,9,11,42,0.2028,1,10,39
1674,12,23,27,0.0821,1,4,39
1675,106,167,5860,4.046,1,13,754
1676,31,41,533,0.4251,1,11,139
1677,256,255,255,13.3465,1,2,255
1678,44,62,1222,0.9509,1,14,252
1679,27,40,271,1.1719,1,11,190
1680,10,19,16,0.1543,1,5,59
1681,9,10,44,0.1113,1,4,10
1682,6,5,5,0.0481,1,2,5
1683,51,50,50,0.5167,1,2,50
1684,14,15,52,0.1053,1,4,37
1685,8,9,27,0.0576,1,4,12
1686,7,10,8,0.1503,1,4,15
1687,5,6,2,0.1353,1,4,14
1688,15,14,84,0.144,1,4,14
1689,16,22,120,0.1957,1,8,67
1690,11,18,9,0.5028,1,6,57
1691,94,134,6956,15.5223,1,34,487
1692,33,40,477,0.866,1,8,89
1693,35,63,353,0.5001,1,6,127
1694,8,15,23,0.2814,1,8,21
1695,85,184,2107,2.4872,1,9,433
1696,34,42,833,2.8184,1,16,113
1697,15,19,62,0.0963,1,5,19
1698,5,9,9,0.0931,1,4,9
1699,3,5,1,0.0457,1,4,13
1700,119,154,9203,4.0823,1,12,469
1701,10,25,38,0.0817,1,5,25
1702,23,38,156,0.1875,1,5,38
1703,209,4446,19038,11.7865,1,4,4574
1704,14,13,65,0.2135,1,4,13
1705,4,6,0,0.0394,1,3,6
1706,7,8,20,0.0655,1,5,17
1707,10,12,57,0.1053,1,6,24
1708,5,8,8,0.0671,1,6,10
1709,18,21,212,0.8029,1,10,56
1710,17,48,140,1.2142,1,9,120
1711,7,7,23,0.0923,1,7,19
1712,7,8,21,0.0967,1,7,25
1713,16,20,169,2.2855,1,18,89
1714,9,10,49,0.5475,1,8,32
1715,20,30,183,0.7022,1,9,104
1716,3,4,2,0.0327,1,3,4
1717,3,5,2,0.0473,1,4,6
1718,34,39,648,0.7073,1,10,116
1719,10,20,32,0.0903,1,5,29
1720,9,22,20,0.075,1,4,33
1721,15,20,110,0.4981,1,8,66
1722,30,64,672,1.1498,1,16,97
1723,12,17,56,0.1357,1,7,67
1724,2,2,0,0.0576,1,2,2
1725,36,57,536,0.9465,1,9,141
1726,27,43,358,0.3643,1,8,95
1727,15,20,98,0.2328,1,8,70
1728,16,21,105,0.1286,1,4,21
1729,4,5,7,0.0667,1,5,10
1730,28,38,464,6.8672,1,14,129
1731,2,3,0,0.0596,1,2,5
1732,15,16,77,0.1721,1,5,24
1733,8,11,46,0.5364,1,10,23
1734,7,8,24,0.1152,1,7,23
1735,35,75,533,2.6084,1,14,316
1736,41,60,973,1.0547,1,11,177
1737,37,48,973,2.5713,1,15,154
1738,28,39,376,0.6501,1,13,97
1739,3,5,0,0.161,1,4,13
1740,24,27,272,0.3765,1,11,87
1741,19,26,180,0.2921,1,9,88
1742,10,9,47,0.105,1,4,11
1743,37,42,468,0.5403,1,6,120
1744,104,148,5503,6.8392,1,12,782
1745,24,60,71,1.2146,1,9,180
1746,25,34,300,0.2628,1,6,34
1747,9,9,35,0.1452,1,7,29
1748,15,27,72,0.7602,1,11,124
1749,3189,8540,4670982,4183.7291,1,19,47226
1750,7,10,16,0.9043,1,6,28
1751,6,10,12,0.4314,1,5,16
1752,13,41,104,1.3886,1,11,61
1753,12,13,55,1.031,1,8,50
1754,11,11,42,0.3536,1,5,25
1755,16,15,15,0.1136,1,2,15
1756,39,39,371,0.3896,1,5,39
1757,29,43,568,1.2244,1,14,130
1758,6,9,16,0.0848,1,6,20
1759,7,9,20,0.2064,1,7,31
1760,8,9,15,0.0497,1,3,14
1761,8,8,36,0.069,1,5,11
1762,8,9,31,0.2577,1,5,9
1763,9,11,39,0.5032,1,6,17
1764,7,7,24,0.1539,1,5,10
1765,5,4,6,0.0896,1,3,7
1766,16,21,142,0.1389,1,4,24
1767,56,108,2927,18.5563,1,35,108
1768,5,8,4,0.0943,1,5,14
1769,35,44,831,0.6596,1,13,115
1770,23,33,190,0.225,1,6,47
1771,13,22,53,0.1073,1,5,22
1772,48,59,1195,0.8893,1,7,159
1773,12,15,35,0.0746,1,3,23
1774,15,21,82,0.1306,1,5,29
1775,11,14,66,0.2285,1,10,48
1776,29,33,155,0.2348,1,4,50
1777,15,15,40,0.0856,1,3,15
1778,256,255,255,12.6127,1,2,255
1779,11,27,40,0.1286,1,5,27
1780,4,6,1,0.0406,1,3,12
1781,9,14,26,0.1314,1,7,57
1782,6,8,8,0.0994,1,3,14
1783,7,9,18,0.161,1,5,21
1784,31,65,718,0.5423,1,15,101
1785,10,11,32,5.4671,1,5,19
1786,62,95,2528,2.441,1,16,392
1787,12,23,37,0.2471,1,5,27
1788,12,23,42,0.1634,1,5,27
1789,24,32,191,0.315,1,4,44
1790,4,4,4,0.0489,1,3,4
1791,41,78,975,3.4002,1,16,159
1792,9,12,23,0.2001,1,8,51
1793,1,1,0,0.026,1,2,1
1794,11,13,50,0.0738,1,4,15
1795,34,39,652,0.4843,1,10,116
1796,12,12,48,0.2021,1,5,26
1797,18,17,137,0.1535,1,3,17
1798,23,37,201,1.5781,1,15,184
1799,6,7,12,0.0722,1,3,7
1800,14,24,28,0.1965,1,4,57
1801,83,122,3602,3.4062,1,12,558
1802,16,16,153,0.3059,1,6,20
1803,22,32,188,0.3927,1,13,119
1804,2,2,0,0.5261,1,2,2
1805,30,58,626,0.566,1,15,122
1806,5,9,1,0.0655,1,4,13
1807,11,11,21,0.3402,1,6,46
1808,33,44,603,0.8123,1,19,196
1809,8,15,17,0.0781,1,5,15
1810,25,36,503,6.5045,1,28,136
1811,17,24,181,0.2064,1,12,60
1812,11,10,35,0.073,1,4,10
1813,18,19,119,0.1361,1,5,19
1814,37,36,292,0.2759,1,3,36
1815,9,17,4,0.2218,1,5,55
1816,9,14,27,0.1231,1,7,55
1817,6,7,8,0.0521,1,4,7
1818,16,22,95,0.1144,1,5,22
1819,9,13,30,0.1231,1,8,49
1820,26,41,93,0.6726,1,7,165
1821,13,20,51,0.1006,1,5,20
1822,10,9,17,0.0607,1,3,9
1823,6,10,9,0.1259,1,4,16
1824,9,12,23,0.2739,1,5,34
1825,21,22,171,0.1665,1,5,22
1826,8,8,34,0.0655,1,4,8
1827,5,7,5,0.0465,1,4,7
1828,23,40,186,0.6722,1,9,88
1829,95,133,4553,3.9979,1,12,699
1830,26,38,344,0.4125,1,9,125
1831,8,8,13,0.0493,1,3,8
1832,32,51,645,1.2485,1,14,196
1833,17,20,164,0.2182,1,9,52
1834,73,118,3615,1.8627,1,12,341
1835,22,26,164,0.1788,1,4,26
1836,23,34,259,0.343,1,9,95
1837,15,19,118,0.356,1,8,58
1838,8,8,21,0.0643,1,3,8
1839,9,13,31,0.2632,1,8,30
1840,9,12,30,0.1077,1,7,27
1841,11,17,67,0.6378,1,10,65
1842,46,54,532,1.6405,1,13,390
1843,28,40,579,1.7218,1,16,126
1844,15,20,54,0.0971,1,4,35
1845,25,43,219,1.1048,1,12,234
1846,23,38,226,0.5782,1,9,93
1847,24,29,336,0.6678,1,11,105
1848,10,9,45,0.0552,1,3,9
1849,9,15,29,0.0769,1,4,18
1850,14,16,90,0.193,1,10,43
1851,62,80,3043,4.3298,1,17,194
1852,27,38,418,0.264,1,8,52
1853,21,22,171,0.1417,1,5,22
1854,32,56,611,1.6721,1,15,261
1855,41,69,718,0.7057,1,9,285
1856,10,12,49,0.2396,1,6,12
1857,7,16,14,0.2214,1,7,22
1858,14,18,95,0.268,1,9,64
1859,11,10,10,0.1073,1,3,11
1860,8,8,33,0.0572,1,4,8
1861,37,41,658,0.5277,1,7,78
1862,11,10,19,0.0639,1,3,10
1863,6,17,8,0.2826,1,6,35
1864,15,22,62,0.0868,1,3,34
1865,16,22,76,0.2755,1,5,28
1866,13,16,76,0.1543,1,8,59
1867,37,37,106,0.3509,1,3,37
1868,106,122,1709,3.7598,1,8,637
1869,58,64,1065,2.0183,1,12,432
1870,7,9,18,0.0785,1,4,15
1871,2,2,0,0.0386,1,2,2
1872,3,5,2,0.0963,1,3,7
1873,20,30,99,0.1902,1,5,50
1874,15,18,105,0.5313,1,10,75
1875,7,7,21,0.0915,1,7,20
1876,26,42,250,0.5877,1,6,52
1877,37,36,292,0.296,1,3,36
1878,5,12,8,0.0453,1,4,12
1879,3,5,2,0.0331,1,3,5
1880,3,4,2,0.0307,1,3,4
1881,1,1,0,0.0315,1,2,1
1882,9,8,8,0.0477,1,2,8
1883,42,49,405,1.2611,1,12,352
1884,37,39,282,0.2846,1,3,45
1885,2,2,0,0.1405,1,2,2
1886,147,283,1809,5.6289,1,5,423
1887,15,19,54,0.0809,1,2,19
1888,26,35,449,2.3597,1,15,115
1889,27,37,581,1.7593,1,14,50
1890,6,6,12,0.1306,1,4,6
1891,8,9,24,0.234,1,6,19
1892,9,12,42,0.0702,1,4,13
1893,25,38,344,0.8494,1,17,228
1894,8,8,13,0.058,1,3,8
1895,12,19,58,0.1409,1,6,33
1896,18,25,122,0.3848,1,9,63
1897,36,51,476,0.4776,1,8,198
1898,20,24,63,0.1144,1,3,28
1899,8,14,15,0.073,1,4,23
1900,19,23,118,0.1409,1,6,33
1901,27,43,330,0.4496,1,9,59
1902,24,33,479,7.9366,1,27,83
1903,25,30,211,0.2218,1,5,54
1904,13,12,60,0.1113,1,4,21
1905,10,13,32,0.0773,1,4,15
1906,2,1,1,0.026,1,2,1
1907,2,1,1,0.026,1,2,1
1908,4,5,2,0.041,1,3,9
1909,11,12,50,0.071,1,3,12
1910,16,15,17,0.1034,1,3,29
1911,3,4,2,0.0327,1,3,4
1912,2,2,0,0.026,1,2,2
1913,2,2,0,0.0264,1,2,2
1914,2,2,0,0.0655,1,2,2
1915,2,1,1,0.0359,1,2,1
1916,12,11,47,0.0678,1,3,11
1917,15,15,40,0.0923,1,3,15
1918,11,10,28,0.0963,1,3,10
1919,6,5,5,0.0359,1,2,5
1920,2,1,1,0.0268,1,2,1
