id,states,transitions,simRelSize,time,goodruns,minterms,mintermizedAutomatonTransitions
ex10.mona-walk.dot_5__242states.dfa,234,650,1392,180.4517,1,50,4092
ex11.mona-walk.dot_0__143states.dfa,139,574,2559,44.7527,1,33,2094
ex11.mona-walk.dot_2__143states.dfa,139,574,2559,48.7249,1,33,2094
ex11.mona-walk.dot_4__281states.dfa,279,1541,11383,194.8123,1,34,5805
ex11.mona-walk.dot_5__281states.dfa,277,2007,12711,234.4046,1,34,8752
ex11.mona-walk.dot_6__301states.dfa,293,1214,16319,401.7873,1,51,13562
ex11.mona-walk.dot_7__325states.dfa,309,1508,18803,297.731,1,55,10064
ex12.mona-walk.dot_13__317states.dfa,313,1911,6509,234.6864,1,19,4131
ex12.mona-walk.dot_14__317states.dfa,313,3046,6509,262.928,1,19,5923
ex12.mona-walk.dot_15__290states.dfa,282,4059,11371,204.7858,1,35,5822
ex12.mona-walk.dot_16__280states.dfa,276,5188,11891,291.7803,1,35,8076
ex12.mona-walk.dot_17__280states.dfa,273,3617,11110,470.5619,1,32,6908
ex14.mona-walk.dot_10__103states.dfa,95,378,368,65.9348,1,46,1351
ex14.mona-walk.dot_11__202states.dfa,194,989,924,155.1477,1,46,2741
ex14.mona-walk.dot_12__316states.dfa,308,1762,1576,343.1587,1,46,4728
ex14.mona-walk.dot_13__316states.dfa,308,1762,1576,331.5017,1,46,4728
ex14.mona-walk.dot_14__852states.dfa,844,5573,13824,3858.2626,1,75,17664
ex14.mona-walk.dot_15__852states.dfa,844,9038,15860,5023.792,1,75,27406
ex14.mona-walk.dot_16__852states.dfa,846,12733,12352,6802.6554,1,75,60816
ex14.mona-walk.dot_17__167states.dfa,153,1365,1348,348.5797,1,90,9006
ex14.mona-walk.dot_21__35states.dfa,22,68,91,45.4044,1,36,385
ex14.mona-walk.dot_22__53states.dfa,38,140,211,30.068,1,72,974
ex14.mona-walk.dot_24__42states.dfa,28,104,154,27.3684,1,36,468
ex14.mona-walk.dot_3__30states.dfa,22,40,55,1.9804,1,29,179
ex14.mona-walk.dot_4__30states.dfa,22,40,55,2.0633,1,29,179
ex14.mona-walk.dot_5__45states.dfa,37,81,103,15.8258,1,43,365
ex14.mona-walk.dot_6__65states.dfa,57,150,202,15.0454,1,44,661
ex14.mona-walk.dot_7__65states.dfa,57,150,202,14.685,1,44,661
ex14.mona-walk.dot_8__77states.dfa,69,219,242,21.8365,1,45,826
ex14.mona-walk.dot_9__103states.dfa,95,378,368,45.8951,1,46,1351
ex16.mona-walk.dot_56__16states.dfa,8,23,29,140.2242,1,9,70
ex16.mona-walk.dot_58__25states.dfa,11,34,51,45.7178,1,11,108
ex18.mona-walk.dot_106__298states.dfa,290,3207,1621,25470.1269,1,1539,442719
ex18.mona-walk.dot_107__298states.dfa,290,3207,1621,24139.4395,1,1284,369024
ex18.mona-walk.dot_109__269states.dfa,265,1308,1315,22939.7936,1,1284,338980
ex18.mona-walk.dot_94__108states.dfa,104,196,207,44.8806,1,48,297
ex18.mona-walk.dot_95__172states.dfa,168,324,335,109.6359,1,72,481
ex18.mona-walk.dot_96__300states.dfa,296,580,591,531.4772,1,120,849
ex18.mona-walk.dot_97__556states.dfa,552,1092,1103,3577.0108,1,216,1585
ex19.mona-walk.dot_10__119states.dfa,115,171,965,39.0906,1,51,1054
ex19.mona-walk.dot_47__135states.dfa,131,250,1202,49.6921,1,37,1988
ex19.mona-walk.dot_49__247states.dfa,243,578,7658,249.3396,1,65,6112
ex19.mona-walk.dot_51__141states.dfa,137,472,1624,108.248,1,66,3288
ex20.mona-walk.dot_20__20states.dfa,6,12,18,0.161,1,7,34
ex3.mona-walk.dot_33__579states.dfa,572,1782,5769,8401.8497,1,266,44488
ex3.mona-walk.dot_34__449states.dfa,446,1276,2563,5373.9799,1,260,26882
ex4.mona-walk.dot_20__276states.dfa,269,2586,7639,349.3486,1,29,5729
ex4.mona-walk.dot_21__531states.dfa,524,3606,14710,1628.4062,1,38,12163
ex4.mona-walk.dot_22__139states.dfa,131,499,1004,160.2738,1,76,3444
ex4.mona-walk.dot_23__139states.dfa,131,499,1004,219.3465,1,114,4126
ex4.mona-walk.dot_24__147states.dfa,139,530,1030,402.3333,1,190,5794
ex4.mona-walk.dot_25__151states.dfa,135,414,1095,460.8347,1,240,4835
ex4.mona-walk.dot_26__602states.dfa,586,2686,3783,9567.4233,1,425,24449
ex4.mona-walk.dot_38__134states.dfa,120,442,972,165.2906,1,80,3188
ex5.mona-walk.dot_3__66states.dfa,64,70,304,4.3997,1,17,117
ex8.mona-walk.dot_18__242states.dfa,234,650,1392,195.7612,1,50,4092
parametric_uabe1_11.mona-walk.dot_0__167states.dfa,163,1123,2931,66.3504,1,32,2535
parametric_uabe1_12.mona-walk.dot_0__181states.dfa,177,1137,3159,85.6425,1,33,2755
parametric_uabe1_13.mona-walk.dot_0__195states.dfa,191,1151,3478,92.0621,1,33,2963
parametric_uabe1_14.mona-walk.dot_0__209states.dfa,205,1165,3888,101.1309,1,33,3171
parametric_uabe2_03.mona-walk.dot_0__142states.dfa,140,517,417,45.2947,1,17,2124
parametric_uabe2_04.mona-walk.dot_0__702states.dfa,700,3197,2097,724.8219,1,17,9964
parametric_uabe2_05.mona-walk.dot_0__86states.dfa,78,314,1719,15.7552,1,36,1882
parametric_uabe2_06.mona-walk.dot_0__91states.dfa,87,314,2005,23.9492,1,34,2684
parametric_uabe2_07.mona-walk.dot_0__108states.dfa,104,380,2774,33.5188,1,34,3262
parametric_uabe2_08.mona-walk.dot_0__125states.dfa,121,446,3666,42.2631,1,34,3840
parametric_uabe3_06.mona-walk.dot_0__97states.dfa,93,528,1956,22.3327,1,32,1565
parametric_uabe3_07.mona-walk.dot_0__111states.dfa,107,542,2329,28.5183,1,33,1790
parametric_uabe3_08.mona-walk.dot_0__125states.dfa,121,556,2793,38.5174,1,33,1998
parametric_uabe3_09.mona-walk.dot_0__139states.dfa,135,570,3348,40.7366,1,33,2206
parametric_uabe3_10.mona-walk.dot_0__153states.dfa,149,584,3994,48.2205,1,33,2414
parametric_uabe3_11.mona-walk.dot_0__167states.dfa,163,598,4731,57.0409,1,33,2622
parametric_uabe3_12.mona-walk.dot_0__181states.dfa,177,612,5559,66.3303,1,33,2830
parametric_uabe3_13.mona-walk.dot_0__195states.dfa,191,626,6478,84.7157,1,33,3038
parametric_uabe3_14.mona-walk.dot_0__209states.dfa,205,640,7488,98.179,1,33,3246
array_axiom.mona-walk.dot_26__901states.dfa,899,5254,7827,50967.0179,1,526,112326
array_axiom.mona-walk.dot_27__897states.dfa,894,2684,5763,48158.3945,1,516,103170
array_axiom.mona-walk.dot_36__105states.dfa,102,252,347,27.8476,1,36,1394
ex18.mona-walk.dot_98__1068states.dfa,1064,2116,2127,21722.2324,1,408,3057
ex18.mona-walk.dot_99__2056states.dfa,2052,4092,-1,-1,0,769,0
strand-old-bubblesort-loop-else.mona-walk.dot_0__1044states.dfa,18,37,32,3.0248,1,25,91
strand-old-bubblesort-loop-if-else.mona-walk.dot_0__1027states.dfa,1,0,1,0.0153,1,1,0
strand-old-bubblesort-loop-if-if.mona-walk.dot_0__2051states.dfa,1,0,1,0.0157,1,1,0
strand-old-sorted-list-insert-after-loop.mona-walk.dot_0__151states.dfa,21,39,36,4.2394,1,27,117
strand-old-sorted-list-insert-before-head.mona-walk.dot_0__114states.dfa,48,254,333,46.5176,1,57,1472
strand-old-sorted-list-insert-before-loop.mona-walk.dot_0__131states.dfa,1,0,1,0.0126,1,1,0
strand-old-sorted-list-insert-error-before-loop.mona-walk.dot_0__156states.dfa,26,65,45,25.6947,1,37,309
strand-old-sorted-list-insert-in-loop.mona-walk.dot_0__515states.dfa,1,0,1,0.0153,1,1,0
strand-old-sorted-list-reverse-after-loop.mona-walk.dot_0__131states.dfa,1,0,1,0.0142,1,1,0
strand-old-sorted-list-reverse-before-loop.mona-walk.dot_0__212states.dfa,111,1043,1221,2205.2263,1,184,11367
strand-old-sorted-list-reverse-in-loop.mona-walk.dot_0__515states.dfa,1,0,1,0.0146,1,1,0
strand-old-sorted-list-search-after-loop.mona-walk.dot_0__317states.dfa,316,8535,8280,656155.8516,1,520,157832
strand-old-sorted-list-search-before-loop.mona-walk.dot_0__112states.dfa,46,265,343,124.0992,1,69,2243
ex11.mona.aut,2217,6513,-1,-1,0,212,0
ex12.mona.aut,377,1089,1686,5237.4023,1,528,63264
ex13.mona.aut,933,4591,-1,-1,0,0,0
ex15.mona.aut,10,27,21,0.2763,1,7,54
ex16.mona.aut,543,1426,-1,-1,0,203552,0
ex17.mona.aut,1,0,1,0.013,1,1,0
ex19.mona.aut,814,2885,-1,-1,0,4096,0
ex7.mona.aut,148,373,1398,84.2155,1,68,3442
horn_trans05.mona.aut,11,25,16,1.2493,1,32,560
horn_trans10.mona.aut,21,50,31,72.4981,1,1024,35840
parametric_uabe1_11.mona.aut,2507,7493,-1,-1,0,212,0
parametric_uabe3_10.mona.aut,2257,6733,-1,-1,0,212,0
set_closed05.mona.aut,24,53,61,5.6692,1,88,1124
set_closed10.mona.aut,44,98,166,328.5668,1,1690,33567
set_obvious05.mona.aut,1,0,1,0.0122,1,1,0
set_obvious10.mona.aut,1,0,1,0.011,1,1,0
set_singletons05.mona.aut,21,55,46,4.0792,1,91,1108
set_singletons10.mona.aut,41,110,141,439.1786,1,2512,61466
strand-new-sorted-list-insert-after-loop.mona.aut,674,5429,4312,21653.6509,1,1017,55116
strand-new-sorted-list-insert-before-head.mona.aut,219,1699,1350,383.7714,1,136,11502
strand-new-sorted-list-insert-before-loop.mona.aut,387,3430,1793,7343.8491,1,828,59356
strand-new-sorted-list-insert-error-error.mona.aut,387,3430,1793,7027.6258,1,828,59356
strand-new-sorted-list-reverse-after-loop.mona.aut,956,20383,10195,15900.0975,1,264,42130
strand-new-sorted-list-reverse-before-loop.mona.aut,956,20383,10195,14464.6424,1,264,42130
strand-new-sorted-list-search-after-loop.mona.aut,431,5629,3765,1354.2533,1,132,13245
strand-new-sorted-list-search-before-loop.mona.aut,300,2849,1369,2629.9693,1,508,27172
toss05.mona.aut,65,288,108,20.0172,1,54,1423
toss10.mona.aut,1413,16619,-1,-1,0,1790,0
veanes05.mona.aut,6,11,6,0.1563,1,7,11
veanes05_1alts.mona.aut,19,45,89,0.4867,1,8,173
veanes05_2alts.mona.aut,31,172,41,2.4465,1,21,301
veanes05_3alts.mona.aut,19,50,67,0.6232,1,10,184
veanes05_4alts.mona.aut,25,91,44,1.526,1,21,352
veanes10.mona.aut,11,21,11,0.5589,1,12,21
veanes10_1alts.mona.aut,39,95,374,2.1959,1,13,608
veanes10_2alts.mona.aut,780,33596,795,21284.5866,1,522,45041
veanes10_3alts.mona.aut,39,100,317,5.3747,1,15,659
veanes10_4alts.mona.aut,588,15179,617,11709.6853,1,522,49691
