id,states,transitions,simRelSize,time,goodruns,minterms,mintermizedAutomatonTransitions
0,14,40,160,0.6335,1,43,68
1,59,127,1326,5.4943,1,158,196
2,17,20,53,0.7551,1,35,37
3,2,1,5,0.0406,1,4,4
4,29,47,131,1.8043,1,77,79
5,3,3,7,0.1855,1,7,8
6,18,21,41,0.6122,1,37,40
7,25,36,172,1.2777,1,57,65
8,3,6,9,0.0303,1,5,9
9,7,9,30,0.4634,1,17,17
10,12,14,26,0.5735,1,27,30
11,8,13,29,0.281,1,17,24
12,16,19,38,0.6157,1,36,36
13,38,66,141,2.529,1,93,105
14,44,81,181,11.8891,1,114,154
15,15,16,32,0.4886,1,32,32
16,3,3,8,0.099,1,7,8
17,65,135,431,7.6614,1,165,221
18,44,49,215,1.4755,1,89,94
19,40,52,165,1.4179,1,89,101
20,6,10,23,2.3664,1,16,16
21,4,5,9,0.1993,1,10,10
22,4,5,15,0.1176,1,10,11
23,11,13,23,0.3923,1,25,25
24,22,29,60,1.0602,1,52,59
25,11,11,78,0.189,1,22,22
26,8,9,21,0.1902,1,18,21
27,6,11,22,0.5396,1,16,19
28,18,29,81,1.4873,1,47,53
29,11,11,50,0.3252,1,23,25
30,1,1,3,0.0659,1,3,3
31,33,36,220,1.6523,1,68,71
32,16,16,45,0.386,1,33,33
33,36,51,133,1.8998,1,83,107
34,3,2,8,0.0544,1,6,6
35,19,24,137,0.4148,1,38,41
36,370,804,52332,104.6328,1,886,1260
37,6,8,16,0.1922,1,13,13
38,3,3,8,0.0686,1,7,8
39,28,66,93,5.1995,1,86,100
40,14,13,29,0.2747,1,28,28
41,13,26,84,1.1435,1,36,43
42,7,8,21,0.1803,1,14,15
43,9,13,22,0.5218,1,23,25
44,4,6,17,0.1188,1,11,11
45,19,23,95,0.4894,1,40,43
46,7,8,21,0.1926,1,14,15
47,7,8,21,0.1057,1,14,15
48,11,12,63,0.191,1,22,23
49,2,2,6,0.0793,1,5,5
50,102,202,2363,11.6377,1,261,410
51,101,185,670,12.9964,1,259,345
52,10,9,25,0.3071,1,20,20
53,29,59,164,1.6105,1,85,121
54,17,40,117,2.0285,1,56,59
55,46,66,317,1.8935,1,108,129
56,3,4,8,0.2001,1,8,8
57,55,77,337,2.7087,1,128,150
58,101,185,670,9.769,1,259,345
59,24,38,66,2.2089,1,63,63
60,27,53,103,1.3654,1,73,75
61,14,34,50,2.2436,1,43,59
62,9,18,29,0.3777,1,24,32
63,7,8,31,0.0919,1,14,15
64,62,100,1011,4.127,1,118,240
65,64,102,1044,3.1267,1,123,257
66,15,16,63,0.2463,1,30,31
67,46,69,206,3.2988,1,114,116
68,2,2,6,0.0797,1,5,5
69,3,4,9,0.0521,1,6,7
70,32,31,530,0.7993,1,64,64
71,55,134,297,5.7781,1,168,190
72,132,230,2221,16.5778,1,325,390
73,143,262,2805,26.725,1,388,484
74,124,238,2726,18.5784,1,347,441
75,22,50,242,1.5706,1,47,87
76,20,21,105,0.3544,1,40,41
77,6,5,13,0.1286,1,12,12
78,6,5,13,0.0825,1,12,12
79,8,11,31,0.1369,1,18,21
80,30,71,141,2.6727,1,97,139
81,16,15,138,0.6402,1,32,32
82,5,5,12,0.09,1,11,11
83,1,1,3,0.133,1,3,3
84,18,27,199,0.3536,1,34,47
85,32,50,172,1.8536,1,83,92
86,13,22,71,0.2842,1,33,38
87,2,3,3,0.0296,1,3,4
88,19,30,168,0.3596,1,46,57
89,9,14,45,0.1523,1,21,26
90,26,42,171,3.1666,1,74,97
91,68,95,163,8.6578,1,158,168
92,25,33,131,0.855,1,49,61
93,10,11,22,0.3627,1,22,23
94,3,3,9,0.101,1,7,8
95,4,5,12,0.0757,1,10,11
96,4,6,14,0.1409,1,10,11
97,5,8,18,0.1243,1,13,14
98,26,47,78,1.8517,1,73,75
99,6,11,20,0.2617,1,15,18
100,28,43,103,0.8794,1,63,84
101,8,13,26,0.2028,1,19,22
102,15,21,68,0.3868,1,35,41
103,33,44,600,0.7543,1,62,74
104,33,43,568,0.6517,1,62,72
105,16,24,76,0.7863,1,39,42
106,40,59,605,2.4047,1,85,97
107,29,30,136,0.7207,1,57,59
108,61,85,813,2.7927,1,124,148
109,21,23,120,1.6247,1,43,54
110,27,44,96,1.605,1,66,72
111,20,20,41,0.3655,1,40,41
112,31,36,148,1.2185,1,66,70
113,43,46,131,1.8083,1,88,89
114,30,52,230,1.7226,1,76,98
115,13,20,52,0.913,1,34,34
116,8,8,18,0.1298,1,17,17
117,13,30,104,0.3525,1,38,51
118,18,33,120,0.8786,1,49,51
119,9,22,68,0.1207,1,26,39
120,49,53,150,2.3668,1,101,102
121,5,5,16,0.2139,1,11,12
122,6,7,18,0.33,1,14,15
123,14,17,55,0.3438,1,30,31
124,10,9,21,0.1792,1,20,20
125,9,8,19,0.1377,1,18,18
126,7,9,21,0.3177,1,17,22
127,21,38,66,14.4364,1,60,60
128,4,5,12,0.1551,1,8,9
129,95,150,1266,7.0839,1,189,279
130,1,1,1,0.0228,1,1,1
131,13,16,115,0.1602,1,25,28
132,79,248,1934,10.9406,1,300,762
133,79,248,1934,12.2278,1,300,759
134,6,9,24,0.2052,1,15,16
135,21,131,177,5.2906,1,102,162
136,3,5,11,0.1128,1,9,11
137,14,16,47,0.2514,1,29,31
138,13,18,42,0.6793,1,33,36
139,7,7,15,0.1567,1,15,15
140,2,3,3,0.045,1,3,4
141,65,69,378,4.5789,1,134,135
142,14,17,34,0.4294,1,30,33
143,14,18,32,0.7227,1,34,37
144,31,30,441,0.7673,1,62,62
145,7,9,20,0.3513,1,17,18
146,13,15,42,0.315,1,28,30
147,28,39,97,0.7559,1,64,84
148,13,16,29,0.2707,1,31,34
149,19,32,188,0.474,1,52,52
150,4,7,15,0.1638,1,9,11
151,39,42,379,1.5635,1,80,88
152,28,30,212,6.2949,1,59,63
153,79,148,2923,6.0537,1,174,231
154,74,74,149,3.973,1,149,149
155,3,5,7,0.0339,1,5,7
156,25,69,326,1.1048,1,64,110
157,13,17,35,0.5092,1,30,37
158,23,32,121,1.23,1,54,78
159,20,23,106,1.5157,1,44,48
160,10,16,35,0.5005,1,23,33
161,15,16,33,0.2597,1,32,32
162,77,108,1056,17.3626,1,158,205
163,13,33,55,0.2597,1,26,47
164,13,12,55,0.2443,1,26,26
165,9,33,63,0.2281,1,28,44
166,747,986,159914,588.9332,1,1484,2095
167,76,116,234,9.6221,1,165,240
168,11,11,77,0.1559,1,22,22
169,2,2,6,0.0457,1,5,5
170,9,8,20,0.131,1,18,18
171,9,8,19,0.1282,1,18,18
172,9,8,19,0.1322,1,18,18
173,6,5,13,0.1894,1,12,12
174,80,104,407,5.7971,1,180,198
175,4,7,12,0.1535,1,9,10
176,4,7,12,0.148,1,9,10
177,10,12,33,0.1642,1,21,23
178,34,55,322,1.3867,1,90,90
179,7,14,37,0.3919,1,19,28
180,279,489,2655,72.1106,1,664,786
181,8,8,21,0.3675,1,17,17
182,12,17,73,0.3075,1,25,30
183,19,24,137,39.7321,1,38,40
184,48,59,221,1.8623,1,104,116
185,15,29,81,0.8427,1,41,45
186,3,4,9,0.0682,1,8,8
187,14,13,29,0.3848,1,28,28
188,15,14,31,0.2427,1,30,30
189,14,13,29,0.2127,1,28,28
190,14,13,29,0.2644,1,28,28
191,44,59,108,2.3652,1,103,104
192,25,25,52,0.5419,1,51,51
193,18,19,39,0.4428,1,38,39
194,6,8,19,0.7776,1,13,15
195,4,10,12,0.3765,1,14,15
196,8,8,18,0.1796,1,17,17
197,71,118,962,6.1634,1,153,190
198,2,3,5,0.0848,1,5,6
199,4,5,10,0.0876,1,11,13
200,4,7,12,0.1894,1,9,10
201,11,15,50,0.3477,1,25,27
202,32,34,138,0.8881,1,67,67
203,13,16,29,0.2976,1,31,34
204,10,11,27,0.174,1,22,24
205,8,8,18,0.1192,1,17,17
206,95,194,502,25.1425,1,213,1053
207,3,6,9,0.0777,1,5,9
208,9,38,81,0.1606,1,20,49
209,70,80,1087,4.346,1,149,153
210,138,186,10006,11.0562,1,276,334
211,23,26,171,0.7938,1,50,52
212,44,52,583,2.1623,1,97,103
213,17,34,206,2.0175,1,38,63
214,16,19,87,0.3967,1,36,39
215,26,42,125,1.4873,1,63,69
216,4,6,15,0.1018,1,8,10
217,36,74,206,1.8742,1,89,121
218,3,4,11,0.1294,1,8,9
219,19,30,91,1.5402,1,49,49
220,6,10,29,6.2708,1,13,16
221,49,110,190,5.8472,1,154,160
222,12,15,30,0.2088,1,25,28
223,18,21,72,1.5908,1,39,41
224,52,69,232,2.1868,1,118,132
225,94,124,266,9.0979,1,196,219
226,36,51,149,1.1921,1,85,88
227,18,30,76,0.54,1,42,59
228,6,7,14,0.1294,1,14,15
229,25,34,87,0.8305,1,57,64
230,5,8,13,0.298,1,14,15
231,5,14,22,0.1788,1,17,20
232,3,5,9,0.0509,1,6,8
233,23,25,48,0.5257,1,49,49
234,15,17,34,0.568,1,33,34
235,18,36,96,0.7421,1,43,55
236,13,26,84,0.2696,1,36,43
237,96,121,215,19.594,1,210,219
238,20,26,50,0.5348,1,44,47
239,12,23,76,6.5207,1,24,39
240,79,101,295,5.2006,1,175,205
241,31,30,196,0.7882,1,58,66
242,9,10,25,0.266,1,20,22
243,100,187,1906,34.3241,1,288,288
244,215,401,2470,190.1278,1,616,617
245,27,50,111,22.8029,1,78,78
246,8,11,26,0.3532,1,18,19
247,86,115,1004,6.0928,1,183,201
248,3,4,9,0.088,1,6,7
249,17,18,60,0.3225,1,34,35
250,20,26,52,0.6639,1,45,47
251,3,2,7,0.0844,1,6,6
252,24,39,69,9.0312,1,64,64
253,65,102,151,10.9106,1,162,187
254,5,5,12,0.1448,1,11,12
255,4,3,9,0.0635,1,8,8
256,37,61,118,2.0151,1,79,99
257,11,12,31,0.165,1,23,24
258,9,8,19,0.1543,1,18,18
259,15,26,88,0.7792,1,39,42
260,10,11,31,0.1796,1,20,21
261,5,10,17,0.1381,1,10,13
262,5,10,20,0.114,1,12,16
263,43,52,253,2.0936,1,95,105
264,15,16,33,0.3438,1,32,32
265,10,9,21,0.1503,1,20,20
266,19,27,51,0.8925,1,45,49
267,13,16,31,0.7038,1,30,30
268,7,6,15,0.0986,1,14,14
269,7,8,21,0.1046,1,14,15
270,11,17,58,0.2463,1,25,29
271,56,94,793,2.5239,1,126,164
272,28,31,113,0.9051,1,60,60
273,11,19,52,0.3761,1,30,34
274,205,3036,8036,80.7167,1,598,4641
275,39,41,159,1.3417,1,78,81
276,13,18,35,0.3181,1,30,32
277,29,45,145,1.333,1,71,83
278,7,18,43,0.0426,1,7,18
279,44,45,175,1.7143,1,88,89
280,10,11,27,0.3947,1,22,24
281,10,15,36,0.2182,1,23,25
282,6,12,23,0.2972,1,18,22
283,22,28,181,1.8915,1,50,51
284,20,22,44,0.6971,1,43,43
285,20,22,44,0.6947,1,43,43
286,11,13,52,0.1993,1,23,23
287,2,2,6,0.056,1,5,5
288,14,16,32,0.4247,1,31,31
289,5,9,20,0.1085,1,10,14
290,30,31,90,0.9888,1,60,61
291,9,20,45,0.4014,1,17,40
292,17,36,63,2.8531,1,54,56
293,12,11,25,0.3288,1,24,24
294,3,4,10,0.2427,1,8,9
295,33,54,232,2.6412,1,80,90
296,21,45,218,2.4383,1,57,78
297,2,3,3,0.0402,1,3,4
298,11,11,23,0.2522,1,22,23
299,7,9,34,0.3197,1,15,16
300,7,8,18,0.2613,1,16,18
301,60,134,450,14.3799,1,182,223
302,15,19,103,0.5167,1,29,33
303,15,25,108,0.9544,1,35,39
304,59,257,1264,17.1774,1,277,630
305,29,41,92,2.2709,1,66,72
306,24,38,176,0.8554,1,47,66
307,29,61,213,2.0471,1,78,92
308,43,156,434,3.0568,1,126,247
309,16,22,40,0.6678,1,38,39
310,5,9,25,0.1957,1,14,15
311,38,70,168,3.8226,1,102,108
312,4,6,13,0.1148,1,11,13
313,29,32,91,0.7061,1,60,62
314,45,46,139,1.5785,1,90,91
315,20,33,55,0.999,1,51,54
316,24,26,189,0.5325,1,50,51
317,19,20,77,0.3536,1,38,39
318,21,22,89,0.4855,1,42,43
319,16,29,61,0.8372,1,37,41
320,3,5,11,0.0777,1,7,8
321,19,27,60,0.7823,1,43,49
322,393,736,10437,209.7827,1,1113,1214
323,7,15,22,0.328,1,21,25
324,5,6,15,0.0765,1,10,11
325,15,14,31,0.2917,1,30,30
326,16,26,52,1.3156,1,43,43
327,43,56,139,2.9092,1,97,100
328,45,55,276,2.2879,1,96,98
329,43,70,324,13.6157,1,94,154
330,10,20,52,0.5076,1,30,31
331,30,40,308,2.7809,1,60,64
332,52,84,559,5.2535,1,123,163
333,16,20,97,0.3663,1,31,33
334,2,3,3,0.0521,1,3,4
335,2,3,5,0.041,1,5,6
336,9,15,42,0.2569,1,22,25
337,13,29,129,0.2873,1,35,50
338,35,120,413,2.2125,1,120,162
339,16,16,33,0.2731,1,33,33
340,15,34,109,0.4582,1,50,59
341,11,19,42,0.5889,1,29,31
342,80,114,229,11.4521,1,175,195
343,57,195,1840,3.9039,1,227,419
344,18,27,86,0.5972,1,43,46
345,25,34,87,0.7934,1,58,59
346,10,24,42,0.69,1,33,40
347,18,21,79,0.6702,1,39,43
348,14,18,101,0.3244,1,33,33
349,21,34,148,0.6386,1,56,70
350,40,51,422,1.6365,1,80,84
351,16,22,71,0.3761,1,33,41
352,10,17,46,0.2238,1,21,29
353,3,2,7,0.0592,1,6,6
354,8,8,21,0.1267,1,17,17
355,89,172,1150,10.3544,1,208,282
356,5,6,16,0.0742,1,10,11
357,18,30,120,0.3568,1,37,54
358,11,11,24,0.2988,1,23,23
359,9,11,23,0.1575,1,20,21
360,27,57,156,1.4021,1,79,84
361,64,141,772,10.5869,1,205,220
362,16,21,102,0.2384,1,31,37
363,20,27,159,0.5451,1,45,49
364,23,36,183,0.5628,1,54,66
365,52,78,324,2.9183,1,113,175
366,101,100,1583,13.6031,1,194,206
367,27,31,61,0.7673,1,59,59
368,14,14,60,0.2186,1,28,28
369,16,28,63,0.7164,1,35,45
370,10,21,63,0.5269,1,27,47
371,28,48,85,1.1885,1,72,77
372,54,65,149,2.5219,1,117,120
373,4,3,9,0.0864,1,8,8
374,11,11,24,0.1776,1,23,23
375,19,18,39,0.3505,1,38,38
376,9,10,21,0.1811,1,20,20
377,8,11,47,0.2455,1,16,18
378,32,33,96,0.8482,1,64,65
379,18,32,56,0.7172,1,50,55
380,45,44,91,1.5229,1,90,90
381,30,33,69,0.7871,1,60,64
382,31,30,63,0.8076,1,62,62
383,49,65,231,2.4939,1,109,116
384,18,19,55,1.3164,1,36,37
385,34,34,74,0.9529,1,68,69
386,5,8,14,0.2771,1,14,16
387,13,14,39,0.2648,1,26,27
388,28,72,159,2.9313,1,94,106
389,11,10,23,0.1717,1,22,22
390,9,10,27,0.1646,1,18,19
391,9,10,27,0.144,1,18,19
392,2,3,3,0.0434,1,3,4
393,3,5,6,0.0406,1,5,6
394,24,26,68,0.6414,1,49,51
395,46,80,462,2.906,1,110,134
396,7,14,39,0.4342,1,21,24
397,9,13,28,0.373,1,23,26
398,8,12,27,0.1721,1,21,21
399,19,29,167,0.4634,1,46,56
400,14,26,69,0.3548,1,38,41
401,7,9,18,0.1361,1,15,17
402,28,29,84,0.7093,1,56,57
403,5,6,15,0.2151,1,10,11
404,11,46,68,0.1069,1,12,48
405,12,17,96,0.4634,1,21,25
406,18,25,44,0.418,1,44,44
407,13,19,50,0.3931,1,33,38
408,21,47,117,1.2923,1,64,73
409,6,5,13,0.0813,1,12,12
410,13,22,53,1.2513,1,34,40
411,6,8,18,0.2593,1,13,14
412,113,132,1147,13.0982,1,236,259
413,5,5,18,0.0825,1,11,11
414,7,9,22,0.2703,1,15,16
415,558,2116,141672,268.0009,1,1790,3209
416,7,8,18,0.2163,1,16,18
417,17,23,74,0.9576,1,39,45
418,7,8,18,0.1934,1,16,18
419,6,9,25,0.1965,1,12,14
420,9,10,48,0.1243,1,18,19
421,19,18,84,0.4203,1,38,38
422,16,39,83,1.0713,1,48,56
423,20,44,115,2.8287,1,63,66
424,16,32,97,0.4567,1,49,50
425,9,14,36,0.4871,1,20,22
426,9,14,36,0.1614,1,20,22
427,5,7,15,0.1819,1,11,12
428,54,120,430,5.1841,1,166,177
429,18,25,64,0.3872,1,41,44
430,13,24,50,0.8506,1,40,47
431,61,86,137,3.2794,1,132,148
432,36,46,322,1.1625,1,75,81
433,42,61,125,2.0293,1,97,113
434,41,62,131,3.0012,1,97,125
435,7,9,16,0.3722,1,17,17
436,19,28,265,1.2023,1,37,46
437,302,769,24236,73.3619,1,716,1024
438,7,10,21,0.3757,1,16,17
439,4,6,13,0.0971,1,9,10
440,31,55,259,1.1747,1,77,89
441,49,50,147,9.3154,1,98,100
442,6,13,22,0.489,1,18,27
443,12,13,48,0.1807,1,24,25
444,6,9,25,0.1006,1,14,16
445,22,24,105,0.4705,1,43,46
446,17,47,82,2.1536,1,58,73
447,7,9,21,0.1835,1,16,22
448,99,249,2030,14.3243,1,299,484
449,15,20,38,0.3422,1,35,39
450,4,7,16,0.2372,1,12,12
451,15,31,84,1.1968,1,42,47
452,17,28,91,0.7685,1,45,47
453,8,10,33,0.2786,1,19,20
454,2,3,3,0.045,1,3,4
455,104,167,1501,8.9925,1,223,348
456,4,7,11,0.0473,1,7,9
457,6,5,15,0.0888,1,12,12
458,17,37,99,0.9904,1,47,55
459,11,28,45,1.783,1,39,44
460,16,25,57,0.3572,1,42,42
461,20,27,59,0.896,1,44,49
462,22,28,181,0.5131,1,46,53
463,128,145,1484,15.857,1,259,293
464,11,16,42,0.324,1,26,28
465,4,9,16,0.1053,1,8,15
466,13,37,120,0.461,1,37,60
467,12,20,83,0.2834,1,23,36
468,17,34,142,0.8921,1,47,57
469,11,14,50,0.5565,1,23,25
470,34,36,169,1.0804,1,69,70
471,17,22,72,0.4322,1,36,40
472,20,36,58,1.6717,1,56,61
473,24,25,50,0.7965,1,50,50
474,2,3,3,0.0343,1,3,4
475,5,7,13,0.2467,1,12,13
476,44,125,218,8.372,1,174,189
477,11,10,24,0.1705,1,22,22
478,27,30,128,0.9797,1,56,57
479,4,7,11,0.1136,1,10,15
480,4,6,14,0.1026,1,10,11
481,5,7,19,0.1211,1,10,11
482,6,12,24,0.4819,1,19,28
483,2,2,6,0.1061,1,4,4
484,18,27,111,0.4338,1,39,49
485,13,14,29,0.5119,1,28,28
486,11,16,40,0.4823,1,26,30
487,14,35,75,0.8127,1,43,60
488,20,84,231,1.6847,1,77,105
489,47,70,129,3.9292,1,116,118
490,101,139,1370,15.3344,1,202,254
491,36,51,142,1.2292,1,83,107
492,14,23,48,0.6888,1,34,40
493,12,15,34,0.4472,1,28,29
494,14,19,68,0.5885,1,33,37
495,31,39,238,1.2023,1,67,75
496,22,29,65,0.7259,1,52,53
497,7,9,27,0.1393,1,14,16
498,6,9,28,0.103,1,16,16
499,16,18,70,0.2759,1,33,35
500,6,10,23,0.3556,1,16,17
501,70,127,312,7.3749,1,189,203
502,22,29,65,0.568,1,52,53
503,53,54,160,2.3546,1,106,107
504,63,92,314,4.3452,1,146,157
505,20,27,131,0.4705,1,47,48
506,501,718,3440,271.1465,1,1137,1288
507,15,16,47,0.3797,1,32,33
508,8,10,25,0.1531,1,17,18
509,76,139,2238,5.0538,1,215,217
510,21,38,80,2.7402,1,60,60
511,22,40,67,2.1868,1,62,63
512,13,20,50,0.2814,1,29,38
513,13,22,119,0.3197,1,32,44
514,25,26,76,0.6722,1,50,51
515,13,20,61,0.2703,1,26,33
516,97,132,712,8.6862,1,218,243
517,7,8,23,0.1128,1,14,15
518,4,5,12,0.0765,1,8,9
519,5,4,11,0.0714,1,10,10
520,3,4,11,0.1507,1,8,9
521,3,5,9,0.1673,1,9,11
522,20,28,82,0.4961,1,41,53
523,16,34,60,0.7823,1,46,57
524,5,4,11,0.1255,1,10,10
525,10,15,55,0.4113,1,22,25
526,24,50,114,1.0113,1,72,92
527,4,5,11,0.251,1,10,10
528,39,52,110,1.4001,1,89,103
529,89,90,281,6.838,1,178,179
530,21,23,62,0.5135,1,43,45
531,12,14,28,5.6151,1,27,27
532,32,67,129,5.306,1,95,104
533,7,10,22,0.2652,1,16,18
534,12,22,80,0.2175,1,29,39
535,81,82,243,5.9238,1,162,163
536,23,32,181,0.478,1,49,57
537,17,40,90,1.301,1,50,63
538,103,143,1559,11.7348,1,228,290
539,13,36,80,0.5782,1,41,50
540,3,5,7,0.0619,1,5,7
541,5,8,21,0.118,1,14,14
542,30,81,143,2.694,1,100,115
543,17,27,72,0.6718,1,43,45
544,44,70,313,2.2358,1,115,119
545,25,39,131,0.8289,1,61,66
546,14,35,57,1.406,1,48,50
547,21,59,148,3.2392,1,82,113
548,6,10,27,0.6197,1,17,17
549,19,32,61,1.001,1,48,58
550,75,76,225,4.9958,1,150,151
551,45,46,135,6.8293,1,90,91
552,11,13,41,0.1859,1,25,25
553,576,1102,10756,446.7816,1,1207,1679
554,223,1964,39527,27.5208,1,636,2357
555,13,16,79,0.4977,1,30,30
556,6,9,21,0.1764,1,14,20
557,18,21,55,0.4136,1,38,46
558,17,22,62,0.4736,1,37,48
559,18,23,85,0.3663,1,38,51
560,27,35,66,0.9714,1,57,69
561,14,17,43,0.2747,1,30,32
562,46,70,238,3.028,1,105,118
563,20,23,62,0.5557,1,42,44
564,11,10,28,0.3047,1,22,22
565,19,26,44,0.5072,1,46,47
566,21,57,323,1.2564,1,79,79
567,7,9,25,0.2443,1,15,16
568,7,8,16,0.1693,1,16,17
569,99,181,1456,19.9659,1,264,309
570,5,10,19,0.1989,1,11,15
571,8,8,38,0.1764,1,17,18
572,6,6,13,0.0828,1,12,13
573,4,6,17,0.1614,1,11,11
574,13,29,105,0.669,1,43,43
575,10,24,79,0.1065,1,20,37
576,70,84,397,3.7164,1,149,155
577,3,4,8,0.0923,1,7,8
578,74,97,1002,3.5885,1,142,187
579,4,4,15,0.1057,1,9,9
580,16,20,37,0.3248,1,35,37
581,57,76,213,2.7288,1,126,137
582,16,21,50,1.1763,1,38,38
583,88,105,544,8.3262,1,186,198
584,68,128,337,8.4667,1,177,198
585,22,61,225,1.8983,1,69,85
586,67,198,908,8.3716,1,257,351
587,5,9,19,0.1314,1,12,16
588,36,67,296,3.5948,1,99,110
589,13,30,83,0.4578,1,35,45
590,4,6,14,0.1294,1,11,12
591,12,24,64,0.3276,1,35,44
592,11,12,51,0.3011,1,22,23
593,39,78,663,7.7538,1,103,150
594,220,276,17607,37.8764,1,421,496
595,29,68,572,0.5672,1,69,112
596,5,7,16,0.1878,1,13,13
597,20,30,48,1.4218,1,51,53
598,15,28,81,0.776,1,37,44
599,12,34,118,0.2143,1,36,58
600,13,25,116,0.506,1,26,49
601,8,7,17,0.1196,1,16,16
602,5,5,17,0.0836,1,11,11
603,12,13,27,0.1993,1,26,26
604,2,1,5,0.0414,1,4,4
605,8,18,44,0.3378,1,23,37
606,32,41,194,1.1723,1,71,79
607,12,37,72,0.435,1,38,50
608,24,32,86,0.6947,1,55,57
609,28,58,261,1.5339,1,82,97
610,15,30,82,0.373,1,44,48
611,103,166,2122,27.2721,1,232,430
612,107,173,2322,22.7425,1,241,450
613,16,51,74,1.8477,1,56,67
614,9,10,48,0.1235,1,18,19
615,6,15,30,0.5305,1,20,25
616,9,11,30,0.2755,1,19,20
617,7,9,25,0.2226,1,15,16
618,16,19,50,0.4875,1,34,35
619,9,13,30,0.5502,1,21,22
620,9,11,30,0.1428,1,19,20
621,9,13,35,0.4397,1,22,23
622,8,12,39,0.4322,1,20,21
623,14,16,31,0.2802,1,31,31
624,65,64,2084,2.8606,1,130,130
625,6,6,15,0.0931,1,13,14
626,11,11,24,0.1847,1,23,23
627,19,29,168,0.5518,1,36,52
628,11,18,31,0.3438,1,28,31
629,11,21,34,0.2277,1,29,34
630,15,14,31,0.2707,1,30,30
631,13,20,54,0.285,1,33,34
632,71,113,630,4.7629,1,151,195
633,8,14,31,0.1772,1,21,23
634,10,9,46,0.596,1,20,20
635,23,31,75,0.87,1,47,60
636,19,24,60,0.5447,1,39,46
637,26,35,68,1.2738,1,61,62
638,4,6,17,0.0832,1,11,11
639,13,16,46,0.2763,1,27,34
640,15,17,65,0.2514,1,31,34
641,153,200,1035,22.6008,1,339,370
642,65,87,307,3.4618,1,141,167
643,194,472,3879,53.6064,1,522,952
644,21,24,56,0.4906,1,46,46
645,5,9,20,0.1902,1,11,14
646,22,22,47,0.4598,1,44,45
647,18,23,50,0.7192,1,42,44
648,11,14,27,0.4815,1,26,29
649,9,10,27,0.2786,1,19,20
650,12,14,28,0.2636,1,27,27
651,9,26,50,0.551,1,29,41
652,14,25,116,0.3785,1,30,41
653,8,9,18,0.3272,1,18,20
654,19,21,48,0.5135,1,40,41
655,8,7,17,0.1259,1,16,16
656,9,11,20,0.6963,1,21,23
657,12,28,50,0.2948,1,34,41
658,9,11,20,0.3757,1,20,23
659,21,44,97,7.3093,1,66,66
660,12,16,41,0.8585,1,29,30
661,10,10,58,0.1484,1,20,20
662,16,21,43,0.2763,1,32,38
663,8,12,25,0.6193,1,21,23
664,19,20,67,0.9552,1,40,40
665,9,9,20,0.1488,1,19,19
666,2,3,3,0.03,1,3,4
667,18,22,76,0.4267,1,38,40
668,68,95,339,4.5083,1,152,182
669,14,27,116,0.4353,1,36,43
670,6,7,16,0.1571,1,13,14
671,37,110,1009,0.8471,1,97,176
672,3,5,7,0.0371,1,5,7
673,11,70,133,0.3761,1,34,82
674,11,17,41,0.5952,1,27,30
675,7,9,26,0.1038,1,14,16
676,29,75,293,8.4146,1,95,109
677,13,25,89,0.2538,1,36,42
678,13,16,30,0.4428,1,30,30
679,8,9,24,0.12,1,16,17
680,15,20,35,1.0823,1,36,39
681,33,38,123,1.2493,1,67,72
682,2,3,3,0.0434,1,3,4
683,35,35,73,2.4023,1,71,71
684,72,75,399,4.0598,1,147,148
685,35,47,78,1.209,1,79,85
686,116,117,468,10.8328,1,232,233
687,1,1,1,0.0327,1,1,1
688,8,9,24,0.1563,1,16,17
689,59,60,179,2.6826,1,118,119
690,20,26,104,0.6193,1,43,48
691,17,29,91,0.429,1,45,47
692,15,16,33,0.3722,1,32,32
693,4,6,13,0.2376,1,9,10
694,4,8,14,0.2285,1,11,13
695,6,11,25,0.2984,1,16,18
696,9,13,33,0.2842,1,21,22
697,7,12,28,0.2806,1,18,19
698,2,2,6,0.0694,1,5,5
699,307,581,5836,100.4679,1,648,938
700,324,623,7355,93.3716,1,691,982
701,11,10,23,12.9075,1,22,22
702,22,23,66,0.4567,1,44,45
703,15,17,33,0.296,1,33,33
704,15,19,95,0.2688,1,34,35
705,3,5,9,0.0698,1,8,10
706,7,14,33,0.1247,1,17,22
707,72,118,398,9.3809,1,173,333
708,45,73,609,1.4648,1,93,133
709,27,43,116,1.0369,1,71,73
710,3,6,9,0.0422,1,5,9
711,15,38,200,0.2017,1,41,74
712,23,35,199,0.6351,1,49,57
713,23,30,98,0.5601,1,52,53
714,9,8,40,0.2001,1,18,18
715,26,34,78,2.0771,1,60,64
716,11,16,35,0.4432,1,28,30
717,33,58,112,1.9452,1,86,92
718,92,110,369,9.3505,1,192,205
719,92,110,423,7.4155,1,195,214
720,6,7,22,0.1105,1,14,14
721,23,24,70,0.5025,1,46,47
722,14,16,31,0.2723,1,31,31
723,31,51,280,1.2004,1,63,102
724,4,6,14,0.0663,1,8,9
725,42,45,395,1.3042,1,84,88
726,19,27,79,0.5664,1,46,53
727,31,48,118,1.483,1,69,96
728,48,52,165,3.0023,1,99,101
729,53,55,253,2.049,1,106,109
730,9,17,51,0.1871,1,25,31
731,2,3,3,0.0339,1,3,4
732,3,6,9,0.0327,1,5,9
733,3,3,8,0.0611,1,7,8
734,46,118,1122,3.7358,1,145,209
735,224,362,757,49.792,1,523,590
736,21,21,44,0.4428,1,43,43
737,10,17,40,0.4042,1,26,31
738,9,10,34,0.159,1,20,24
739,5,6,15,0.2344,1,12,14
740,25,61,123,1.7001,1,83,155
741,177,256,7045,34.3151,1,385,509
742,5,8,23,0.3856,1,14,14
743,16,37,71,1.2532,1,52,65
744,12,13,28,0.2159,1,26,26
745,130,195,4295,21.6834,1,324,326
746,7,10,20,0.3923,1,18,20
747,13,22,37,1.1621,1,36,40
748,12,21,53,0.2668,1,32,34
749,17,30,129,0.3335,1,39,46
750,6,9,25,0.2261,1,13,15
751,16,17,71,0.401,1,34,36
752,18,26,46,0.6153,1,45,45
753,19,23,77,0.4168,1,41,43
754,16,25,77,0.9019,1,38,47
755,19,33,52,1.3717,1,53,55
756,7,15,35,0.3765,1,22,31
757,54,81,224,4.0141,1,132,151
758,29,39,114,1.1155,1,60,72
759,56,78,1167,3.5056,1,107,147
760,81,118,2709,6.2925,1,153,242
761,17,35,72,0.39,1,42,53
762,508,923,3710,437.847,1,1327,1696
763,51,87,627,3.0335,1,123,178
764,6,8,28,0.1097,1,15,17
765,87,101,612,8.8295,1,185,195
766,25,32,69,1.258,1,58,61
767,18,18,79,0.3442,1,36,36
768,4,5,10,0.0746,1,9,11
769,9,12,24,0.1657,1,22,22
770,16,31,108,0.4543,1,32,49
771,11,14,39,0.1863,1,26,26
772,22,56,251,0.7128,1,56,97
773,13,22,57,0.2988,1,34,36
774,20,30,88,1.2335,1,46,49
775,2,2,6,0.086,1,5,5
776,55,74,227,2.5038,1,120,130
777,13,16,43,0.4338,1,30,31
778,14,26,63,0.3146,1,39,43
779,12,22,107,0.2818,1,27,36
780,22,25,105,0.5625,1,43,54
781,35,50,350,1.0219,1,74,90
782,39,70,440,2.3609,1,100,123
783,29,37,96,0.8036,1,65,66
784,13,30,77,0.5289,1,38,46
785,8,19,38,0.1843,1,22,28
786,53,149,462,5.55,1,175,211
787,53,149,462,3.4216,1,175,211
788,23,31,131,0.9339,1,52,56
789,18,23,140,0.3225,1,37,38
790,6,7,17,0.1322,1,14,14
791,15,18,37,0.2996,1,34,34
792,11,18,65,0.3896,1,25,33
793,12,18,47,0.6671,1,26,30
794,6,8,16,0.193,1,15,15
795,11,12,25,0.2494,1,24,26
796,28,55,243,6.506,1,76,82
797,33,57,399,2.2113,1,72,94
798,9,17,50,0.1653,1,21,26
799,288,465,2609,90.779,1,624,772
800,546,2608,174629,552.3475,1,3151,5191
801,5,8,15,0.1413,1,11,14
802,25,32,167,1.8829,1,53,56
803,46,72,1058,2.8642,1,101,114
804,7,8,18,0.1657,1,16,18
805,6,7,15,0.4969,1,14,14
806,72,120,228,6.8001,1,171,207
807,1501,1500,1127253,997.0907,1,1502,1502
808,38,50,320,1.3669,1,81,91
809,11,10,24,0.3221,1,22,22
810,22,28,69,1.2059,1,49,52
811,15,22,96,0.2376,1,30,37
812,9,11,20,0.6142,1,21,21
813,42,47,410,1.4364,1,79,84
814,10,18,91,0.0702,1,18,26
815,13,23,105,0.2672,1,32,37
816,19,19,41,0.448,1,39,39
817,6,8,16,0.2885,1,15,15
818,10,11,23,0.1705,1,22,22
819,9,8,19,0.1736,1,18,18
820,9,8,19,0.2478,1,18,18
821,18,17,37,0.3939,1,36,36
822,10,19,95,0.2447,1,20,33
823,2,2,6,0.0655,1,5,5
824,1,1,3,0.0378,1,3,3
825,29,41,65,1.1475,1,71,73
826,8,11,25,0.1776,1,20,24
827,8,8,17,0.1507,1,16,17
828,3,5,7,0.0627,1,5,7
829,4,7,14,0.0876,1,9,11
830,4,7,15,0.0552,1,8,10
831,74,99,677,4.8316,1,163,184
832,14,14,30,0.3351,1,29,30
833,22,32,80,1.3275,1,48,64
834,307,306,9296,85.5503,1,598,614
835,19,19,39,0.4476,1,38,39
836,15,14,31,0.7563,1,30,30
837,41,42,152,1.2896,1,82,84
838,53,55,238,2.2736,1,106,109
839,26,26,74,1.095,1,52,53
840,32,32,91,0.8542,1,64,65
841,17,16,35,0.2976,1,34,34
842,134,141,1055,14.3464,1,268,276
843,8,11,27,0.2064,1,19,22
844,63,68,702,3.236,1,125,131
845,8,9,24,0.1294,1,16,17
846,18,23,80,0.3371,1,37,44
847,74,116,443,4.6133,1,156,248
848,56,79,183,4.847,1,126,155
849,38,41,460,1.1936,1,75,86
850,2,3,6,0.0422,1,5,6
851,2,3,6,0.0426,1,5,6
852,385,1323,3177,295.7424,1,1318,1909
853,3,5,11,0.1046,1,9,9
854,577,1105,36051,391.1434,1,1446,1710
855,25,279,305,2.2618,1,74,305
856,39,40,171,1.2789,1,77,81
857,55,78,164,3.465,1,129,134
858,19,35,188,0.3434,1,45,61
859,13,13,28,0.2388,1,27,27
860,35,60,167,1.2667,1,74,108
861,12,20,54,0.2692,1,32,33
862,30,45,103,1.106,1,69,70
863,17,21,46,0.6276,1,37,40
864,5,9,24,0.0667,1,11,15
865,81,96,340,6.9249,1,170,178
866,11,13,30,0.2281,1,25,28
867,13,19,52,0.2534,1,26,32
868,9,26,35,0.7543,1,34,50
869,46,59,148,2.064,1,97,108
870,178,267,6659,21.4308,1,327,445
871,28,55,258,1.2521,1,70,104
872,21,38,74,1.4881,1,60,60
873,46,65,402,2.636,1,101,120
874,37,45,430,2.0443,1,72,82
875,28,30,325,0.7184,1,55,56
876,9,11,23,0.1713,1,21,24
877,2,2,6,0.0781,1,5,5
878,13,20,44,0.4377,1,32,34
879,4,4,10,0.0623,1,8,8
880,842,4387,39378,908.2917,1,2477,6970
881,5,7,18,0.1428,1,13,13
882,2,2,5,0.0836,1,4,5
883,6,9,33,0.1022,1,11,14
884,39,66,396,1.6693,1,98,112
885,10,14,26,0.3635,1,24,28
886,10,30,49,0.9461,1,33,41
887,45,51,193,2.5093,1,94,99
888,22,26,71,0.8518,1,47,49
889,19,30,87,1.3594,1,49,55
890,8,11,38,0.2703,1,17,20
891,34,50,195,1.5805,1,73,109
892,5,8,19,0.0876,1,11,13
893,75,99,1939,8.3724,1,142,151
894,36,66,450,1.2967,1,85,112
895,4,6,15,0.075,1,8,10
896,9,10,28,0.1496,1,20,20
897,12,15,38,0.2092,1,26,28
898,6,7,18,0.0939,1,12,13
899,11,21,68,0.1997,1,19,34
900,16,32,157,0.6311,1,40,67
901,13,23,117,0.3015,1,28,39
902,12,22,56,0.281,1,33,35
903,64,140,461,5.7592,1,192,233
904,14,13,31,0.2242,1,28,28
905,10,26,68,0.3,1,24,36
906,17,21,39,0.4006,1,39,42
907,25,31,79,0.6552,1,56,57
908,18,22,41,0.7278,1,41,41
909,7,16,46,0.1077,1,15,27
910,55,71,121,7.2561,1,120,127
911,17,19,39,0.5305,1,37,37
912,33,43,80,1.3657,1,74,78
913,10,21,48,0.266,1,32,32
914,65,98,224,7.9397,1,157,189
915,76,106,521,6.122,1,176,183
916,2,2,6,0.0457,1,5,5
917,3,4,9,0.0698,1,6,7
918,201,4009,5170,116.0794,1,665,7884
919,72,132,2748,4.8947,1,166,201
920,22,36,66,2.2192,1,56,61
921,52,79,451,7.9938,1,117,142
922,30,40,91,3.9347,1,68,70
923,2,3,3,0.0856,1,3,4
924,11,14,45,0.894,1,24,25
925,27,41,111,2.0601,1,61,70
926,15,16,33,0.2818,1,31,32
927,17,17,41,0.2992,1,34,35
928,5,7,18,0.1014,1,13,13
929,1,1,3,0.0631,1,3,3
930,11,21,73,0.5325,1,33,33
931,8,15,45,0.1665,1,24,24
932,11,33,63,2.2768,1,37,46
933,10,12,31,0.1693,1,21,23
934,6,8,16,0.2009,1,15,16
935,20,35,61,1.1198,1,53,62
936,7,8,16,0.1263,1,16,17
937,12,44,71,0.4196,1,40,57
938,10,26,58,0.2881,1,28,37
939,9,11,35,0.1251,1,18,19
940,26,51,232,2.1434,1,70,81
941,48,56,601,1.9215,1,93,104
942,11,14,58,0.4069,1,23,25
943,19,28,121,0.3805,1,37,47
944,30,50,141,2.0333,1,79,81
945,5,10,14,0.1535,1,14,17
946,20,54,88,6.4235,1,69,109
947,36,166,180,23.5241,1,188,256
948,36,131,171,13.5127,1,165,176
949,20,71,90,1.6594,1,65,109
950,10,9,22,0.1476,1,20,20
951,12,13,27,0.3252,1,26,26
952,10,12,36,0.18,1,20,21
953,6,7,16,0.2301,1,14,14
954,20,29,116,0.8431,1,46,53
955,52,75,195,3.1444,1,108,152
956,59,96,946,3.1926,1,144,159
957,28,61,223,1.6208,1,73,101
958,17,18,38,0.3311,1,36,36
959,21,33,122,1.1838,1,44,53
960,28,35,169,0.793,1,59,73
961,37,66,234,2.0988,1,102,111
962,19,22,60,0.4476,1,40,41
963,6,7,15,0.0884,1,12,14
964,11,16,26,0.3746,1,29,31
965,36,59,100,2.9131,1,96,99
966,19,37,114,0.8407,1,50,58
967,5,6,15,0.0746,1,10,11
968,13,21,62,0.549,1,30,40
969,4,5,14,0.073,1,10,10
970,10,11,21,0.1977,1,21,24
971,36,51,146,1.2193,1,84,108
972,1,1,3,0.0651,1,3,3
973,26,31,60,0.7057,1,58,58
974,6,16,29,0.1464,1,16,23
975,12,25,62,0.39,1,37,40
976,24,36,62,1.2315,1,61,61
977,13,33,123,0.3686,1,37,55
978,71,125,250,9.9095,1,181,221
979,28,39,143,0.7484,1,62,72
980,13,17,63,0.2901,1,27,29
981,14,28,43,0.825,1,39,46
982,14,26,60,0.3019,1,29,41
983,10,11,23,0.2921,1,22,22
984,13,15,43,0.3153,1,27,29
985,70,129,2382,3.3497,1,158,196
986,11,22,59,0.3138,1,34,35
987,37,42,261,3.3312,1,73,79
988,34,34,73,0.9643,1,68,69
989,15,34,122,1.2,1,39,68
990,35,58,628,1.4186,1,80,103
991,547,1106,136208,511.8153,1,1639,2189
992,47,46,877,18.184,1,94,94
993,23,47,166,1.1826,1,66,71
994,4,6,17,0.0825,1,11,11
995,21,28,64,0.4792,1,47,52
996,17,19,53,0.3173,1,36,38
997,208,554,10409,44.0584,1,610,1276
998,7,11,30,0.1432,1,16,19
999,9,13,33,0.189,1,22,22
1000,8,31,47,1.0405,1,31,40
1001,28,44,101,0.7985,1,63,73
1002,19,23,52,6.6537,1,43,43
1003,21,42,65,1.2532,1,62,84
1004,14,19,34,0.4551,1,34,34
1005,18,22,62,0.675,1,38,40
1006,11,14,49,0.386,1,25,27
1007,306,586,5067,89.1002,1,651,909
1008,6,11,19,0.2913,1,19,21
1009,13,24,81,0.9896,1,37,45
1010,150,185,385,27.104,1,333,342
1011,10,10,22,0.2893,1,21,21
1012,127,250,4041,17.9918,1,377,500
1013,6,8,16,0.2707,1,15,16
1014,21,46,141,0.6939,1,56,82
1015,23,62,84,2.5065,1,79,86
1016,15,15,32,0.3592,1,31,31
1017,23,25,66,0.5814,1,47,49
1018,11,11,24,11.0163,1,23,23
1019,38,47,257,3.8084,1,76,92
1020,15,15,32,0.3375,1,31,32
1021,22,25,69,0.5435,1,45,52
1022,14,14,30,0.3347,1,29,29
1023,13,13,31,0.3051,1,27,27
1024,12,12,26,0.1953,1,25,25
1025,13,15,30,0.3177,1,29,31
1026,15,16,32,0.433,1,32,32
1027,14,15,30,0.4353,1,30,30
1028,15,19,36,1.3484,1,35,35
1029,15,18,34,0.6256,1,33,34
1030,17,21,65,0.6714,1,36,40
1031,6,5,13,0.1342,1,12,12
1032,8,8,18,0.1626,1,17,17
1033,35,52,446,1.4293,1,67,105
1034,60,86,429,3.0765,1,139,147
1035,28,41,122,1.9906,1,68,78
1036,35,68,151,3.6876,1,98,106
1037,8,11,29,0.2617,1,18,20
1038,87,137,341,10.1827,1,220,233
1039,22,36,160,0.4448,1,44,58
1040,89,94,373,6.3596,1,180,183
1041,15,18,62,0.4089,1,31,34
1042,47,114,1000,1.7889,1,110,170
1043,5,7,18,0.1152,1,11,13
1044,5,8,21,0.0446,1,8,11
1045,5,8,21,0.043,1,8,11
1046,5,8,21,0.045,1,8,11
1047,8,14,25,0.1886,1,20,23
1048,42,55,273,1.5856,1,91,99
1049,17,25,69,0.8234,1,43,46
1050,8,12,21,0.3311,1,20,21
1051,15,28,67,0.521,1,36,53
1052,12,11,25,0.1863,1,24,24
1053,51,90,1123,4.8312,1,102,231
1054,11,11,77,0.1586,1,22,22
1055,30,50,126,1.5438,1,67,91
1056,12,14,31,0.2076,1,25,27
1057,4,5,12,0.1168,1,10,12
1058,4,5,10,0.0856,1,10,11
1059,8,12,18,1.1273,1,21,22
1060,61,65,264,6.5732,1,123,127
1061,45,48,154,2.1375,1,91,94
1062,3,5,7,0.0528,1,5,7
1063,25,40,111,1.1104,1,64,76
1064,10,19,45,0.6631,1,27,30
1065,46,106,233,4.5998,1,137,158
1066,36,51,122,1.1542,1,84,108
1067,17,17,85,0.3418,1,35,37
1068,14,29,52,0.8925,1,37,46
1069,3,4,8,0.0848,1,8,8
1070,65,70,871,6.0979,1,129,135
1071,52,57,558,1.8351,1,103,109
1072,50,55,495,1.7108,1,99,105
1073,1,1,1,0.0225,1,1,1
1074,56,61,682,2.0972,1,111,117
1075,56,61,682,2.2563,1,111,117
1076,56,61,682,2.1059,1,111,117
1077,56,61,682,2.1517,1,111,117
1078,56,61,682,2.5827,1,111,117
1079,12,15,35,0.2194,1,28,28
1080,28,35,112,1.166,1,62,64
1081,64,116,743,6.0106,1,159,218
1082,13,31,74,0.6015,1,35,48
1083,2,3,3,0.0592,1,3,4
1084,8,9,24,0.1247,1,16,17
1085,44,57,195,2.8744,1,97,107
1086,6,11,19,0.5471,1,18,20
1087,4,7,15,0.1318,1,9,11
1088,52,72,351,2.6644,1,121,127
1089,48,62,397,2.9467,1,107,113
1090,2,2,6,0.12,1,5,5
1091,28,33,147,0.9513,1,60,63
1092,10,17,44,0.21,1,28,28
1093,19,21,71,0.5644,1,38,39
1094,5,4,11,0.1156,1,10,10
1095,11,10,23,0.176,1,22,22
1096,6,5,13,0.1681,1,12,12
1097,6,5,13,0.1318,1,12,12
1098,7,7,16,0.2001,1,15,15
1099,5,4,11,0.116,1,10,10
1100,6,5,13,0.1038,1,12,12
1101,6,5,13,0.1357,1,12,12
1102,5,4,11,0.1125,1,10,10
1103,9,8,19,0.208,1,18,18
1104,9,8,19,0.1961,1,18,18
1105,7,6,15,0.1452,1,14,14
1106,7,7,15,0.1484,1,14,15
1107,7,6,15,0.1578,1,14,14
1108,5,4,11,0.1168,1,10,10
1109,5,5,12,0.1255,1,11,12
1110,8,8,18,0.1428,1,17,18
1111,13,15,49,0.1985,1,25,28
1112,6,5,13,0.1476,1,12,12
1113,4,5,14,0.1942,1,10,10
1114,6,5,23,0.1582,1,12,13
1115,26,27,79,2.5748,1,52,54
1116,8,9,19,0.2411,1,18,20
1117,5,4,11,0.1184,1,10,10
1118,5,4,11,0.0765,1,10,10
1119,2,2,6,0.1038,1,5,5
1120,2,3,3,0.0315,1,3,4
1121,3,4,11,0.06,1,8,9
1122,14,25,42,0.519,1,37,40
1123,14,25,42,0.3438,1,37,40
1124,35,49,78,1.4617,1,83,85
1125,39,51,84,1.425,1,90,91
1126,36,51,137,1.2351,1,84,108
1127,21,191,253,1.0247,1,42,213
1128,4,6,14,0.7101,1,11,12
1129,18,17,37,0.3359,1,36,36
1130,64,561,3075,2.128,1,158,655
1131,44,58,418,1.4313,1,86,114
1132,32,45,159,1.9361,1,76,87
1133,31,39,162,1.3855,1,69,74
1134,11,10,78,0.1657,1,22,22
1135,31,30,206,1.0022,1,59,64
1136,31,30,206,0.8581,1,59,64
1137,34,40,164,1.0875,1,70,75
1138,34,41,202,1.2169,1,71,79
1139,13,12,54,0.2261,1,25,27
1140,40,47,81,1.8793,1,88,96
1141,8,8,18,0.1353,1,17,17
1142,17,21,79,0.3019,1,35,39
1143,3,3,10,0.1144,1,7,7
1144,38,40,96,1.1601,1,78,79
1145,4,4,9,0.0896,1,9,9
1146,28,39,93,1.9618,1,67,68
1147,28,39,93,0.7847,1,67,68
1148,22,28,181,0.5218,1,50,51
1149,60,65,437,3.1097,1,117,125
1150,155,413,8317,37.7189,1,569,572
1151,151,150,11478,20.5639,1,302,302
1152,14,21,60,0.6303,1,31,37
1153,11,18,48,0.2561,1,25,31
1154,8,8,18,0.1353,1,17,17
1155,26,44,92,2.8918,1,54,72
1156,95,115,361,7.7368,1,206,210
1157,30,29,61,0.7981,1,60,60
1158,28,45,196,12.2724,1,74,74
1159,24,39,140,0.855,1,59,64
1160,3,4,9,0.0513,1,6,7
1161,9,12,23,0.2553,1,22,24
1162,42,61,125,2.8006,1,97,113
1163,23,51,178,1.3393,1,66,79
1164,126,220,6058,52.9397,1,254,941
1165,68,88,268,4.0484,1,146,158
1166,53,92,206,10.7404,1,139,154
1167,12,26,67,0.285,1,36,48
1168,15,19,36,0.3978,1,35,35
1169,4,6,13,0.2076,1,10,11
1170,13,12,27,0.2084,1,26,26
1171,3,5,9,0.0986,1,7,8
1172,107,152,1648,17.9669,1,241,280
1173,11,23,59,0.3777,1,33,41
1174,6,8,21,0.146,1,15,18
1175,67,94,872,3.596,1,151,172
1176,14,25,58,0.7409,1,38,40
1177,2,3,3,0.0489,1,3,4
1178,8,9,24,0.1665,1,16,17
1179,10,12,32,0.1661,1,22,23
1180,14,23,60,0.328,1,37,38
1181,40,52,109,1.4305,1,87,94
1182,9,22,40,0.2711,1,29,40
1183,8,8,18,0.1338,1,17,17
1184,25,34,66,0.7172,1,56,62
1185,34,46,86,1.0732,1,75,83
1186,1,1,3,0.084,1,3,3
1187,39,82,225,8.1462,1,117,143
1188,11,29,52,0.6244,1,36,51
1189,43,58,228,2.0865,1,93,111
1190,33,45,174,1.2821,1,70,88
1191,23,32,124,0.4819,1,47,65
1192,27,33,170,1.1589,1,55,59
1193,257,508,65033,9.6608,1,513,764
1194,11,29,59,0.5111,1,40,55
1195,42,66,267,2.3648,1,102,127
1196,57,76,213,2.9305,1,126,137
1197,2,2,6,0.0422,1,5,5
1198,3,5,9,0.1026,1,8,9
1199,13,18,42,0.2921,1,32,35
1200,9,10,20,0.3544,1,20,21
1201,13,12,28,0.2072,1,26,26
1202,518,6026,58611,999.8373,1,2241,7745
1203,36,40,79,2.4754,1,76,77
1204,13,22,50,0.6276,1,34,36
1205,53,88,600,3.6612,1,126,177
1206,14,26,57,0.6694,1,39,43
1207,13,14,71,0.5621,1,28,28
1208,3,4,9,0.0521,1,6,7
1209,13,28,111,0.2147,1,28,45
1210,22,26,76,0.6276,1,48,49
1211,32,40,116,1.6136,1,73,76
1212,9,9,26,0.4421,1,19,19
1213,10,10,22,0.1622,1,20,21
1214,5,5,15,0.1425,1,11,12
1215,33,44,115,1.0409,1,75,80
1216,21,40,84,1.7814,1,62,71
1217,4,4,9,0.0817,1,9,9
1218,18,33,92,1.05,1,45,54
1219,29,40,83,2.0783,1,69,75
1220,366,1301,3116,195.083,1,1278,1868
1221,15,19,81,0.4278,1,30,32
1222,21,31,95,0.4973,1,44,54
1223,57,76,1020,2.9352,1,115,131
1224,10,13,30,0.1815,1,24,28
1225,54,89,234,5.1833,1,137,162
1226,27,32,198,0.7275,1,58,58
1227,9,8,19,0.1271,1,18,18
1228,95,136,1600,8.0013,1,185,343
1229,10,14,60,0.1152,1,18,23
1230,14,18,73,0.4275,1,32,34
1231,4,5,11,0.1389,1,9,10
1232,16,28,165,0.2542,1,32,51
1233,256,255,32898,55.2911,1,512,512
1234,6,9,34,0.1172,1,12,14
1235,8,8,17,0.1298,1,17,17
1236,17,26,45,1.134,1,44,44
1237,28,43,204,1.2327,1,86,101
1238,57,81,208,3.2802,1,135,153
1239,5,8,19,0.3252,1,13,15
1240,41,50,468,1.2856,1,85,91
1241,13,19,36,0.2996,1,31,33
1242,20,26,50,0.6884,1,44,47
1243,3,6,7,0.0536,1,5,7
1244,15,14,31,0.3086,1,30,30
1245,17,16,35,0.3722,1,34,34
1246,16,15,33,0.3355,1,32,32
1247,17,16,35,0.4973,1,34,34
1248,17,16,41,0.3359,1,34,34
1249,11,10,28,0.1886,1,22,22
1250,19,24,133,0.6142,1,38,44
1251,18,23,116,0.4105,1,36,41
1252,28,35,217,1.1629,1,58,66
1253,15,17,69,0.3473,1,30,32
1254,9,15,35,0.3118,1,25,25
1255,13,50,90,1.5836,1,52,64
1256,5,11,24,0.1705,1,13,21
1257,14,19,32,0.2889,1,31,36
1258,11,20,42,0.3063,1,31,34
1259,18,31,108,0.8206,1,47,67
1260,61,72,305,2.9131,1,129,160
1261,26,36,94,2.5543,1,63,63
1262,37,69,500,1.2892,1,93,106
1263,27,36,91,0.7117,1,60,64
1264,15,20,37,0.8861,1,36,40
1265,11,11,29,0.1752,1,23,23
1266,15,19,36,0.3059,1,32,36
1267,5,8,19,0.1515,1,11,14
1268,14,15,66,0.2869,1,28,29
1269,16,19,36,0.2909,1,33,36
1270,11,11,29,0.1748,1,23,23
1271,11,11,29,0.1717,1,23,23
1272,235,427,11502,56.6344,1,640,847
1273,3,4,9,0.1492,1,6,7
1274,30,45,239,1.7625,1,71,79
1275,30,47,92,1.2777,1,78,83
1276,13,15,31,0.2609,1,29,30
1277,16,20,38,0.8206,1,37,37
1278,3,3,10,0.0963,1,7,7
1279,5,4,12,0.0718,1,10,10
1280,40,72,753,1.7029,1,110,112
1281,23,26,91,1.8552,1,50,50
1282,33,32,473,0.8281,1,66,66
1283,4,6,14,0.0872,1,11,12
1284,8,8,18,0.1322,1,17,17
1285,22,30,135,0.6564,1,46,55
1286,2,2,6,0.043,1,5,5
1287,24,25,335,0.476,1,48,48
1288,19,27,111,0.4594,1,40,47
1289,22,25,73,0.5182,1,47,48
1290,1,1,3,0.0477,1,3,3
1291,48,60,132,6.2885,1,106,109
1292,31,33,94,1.5019,1,63,64
1293,20,25,152,0.3647,1,39,45
1294,34,36,147,0.8715,1,67,70
1295,3,5,9,0.1847,1,9,11
1296,3,3,10,0.0536,1,7,7
1297,65,122,1333,12.2033,1,169,189
1298,18,18,50,0.3189,1,36,37
1299,27,29,115,0.5853,1,53,56
1300,6,8,18,0.2384,1,13,15
1301,10,13,31,0.5076,1,22,23
1302,9,14,37,0.4776,1,22,23
1303,13,12,27,0.2163,1,26,26
1304,6,8,19,0.1117,1,14,15
1305,23,50,162,1.1948,1,65,74
1306,6,10,21,0.2017,1,14,19
1307,16,26,64,0.9256,1,43,44
1308,20,30,87,0.609,1,47,51
1309,37,69,483,1.2544,1,93,106
1310,18,19,94,0.2936,1,36,37
1311,57,83,242,2.8926,1,131,155
1312,6,12,16,0.3371,1,18,22
1313,16,32,66,1.6559,1,45,55
1314,13,14,28,0.2648,1,28,29
1315,18,22,111,0.4168,1,38,42
1316,37,36,90,4.2126,1,73,74
1317,16,19,37,0.5419,1,36,36
1318,104,148,1384,9.5665,1,206,302
1319,18,111,266,11.0432,1,127,205
1320,4,3,12,0.0651,1,8,8
1321,11,10,28,0.1701,1,22,22
1322,50,63,130,2.1465,1,110,118
1323,1,1,3,0.0359,1,3,3
1324,11,21,23,0.2036,1,33,43
1325,3,4,9,0.0489,1,3,4
1326,8,16,57,0.0757,1,16,24
1327,21,22,59,0.5206,1,43,44
1328,40,60,129,1.5094,1,101,101
1329,16,17,35,0.3023,1,34,34
1330,15,22,39,0.4097,1,35,46
1331,6,16,30,0.3817,1,20,22
1332,2,2,6,0.041,1,4,4
1333,6,10,24,0.1144,1,15,17
1334,2,2,6,0.0781,1,5,5
1335,10,17,59,0.2996,1,25,29
1336,39,40,117,1.1865,1,78,79
1337,110,163,435,29.4945,1,260,273
1338,22,28,181,0.6978,1,50,51
1339,16,56,100,3.0994,1,61,73
1340,21,36,92,1.7021,1,58,59
1341,9,9,30,0.3746,1,19,19
1342,7,12,36,0.1057,1,14,20
1343,15,32,73,1.9934,1,44,48
1344,14,17,66,0.4701,1,31,32
1345,8,11,31,0.7255,1,20,23
1346,44,59,173,1.8035,1,100,104
1347,12,15,43,0.6682,1,26,29
1348,30,45,118,0.9497,1,76,79
1349,3,4,8,0.054,1,7,8
1350,39,42,317,1.1502,1,77,81
1351,21,38,107,2.4473,1,58,70
1352,194,282,8359,38.6698,1,400,788
1353,31,60,377,0.8285,1,74,99
1354,26,30,72,0.6485,1,57,57
1355,96,110,454,11.3069,1,200,207
1356,5,5,11,0.0753,1,10,11
1357,66,121,1729,5.9633,1,244,300
1358,3,5,9,0.1843,1,9,11
1359,35,48,109,1.1806,1,81,89
1360,18,22,59,0.583,1,39,40
1361,12,11,25,0.1898,1,24,24
1362,12,11,25,0.1882,1,24,24
1363,19,27,51,0.4417,1,45,47
1364,19,29,54,0.5238,1,46,49
1365,21,22,64,0.3919,1,42,44
1366,9,11,29,0.1681,1,21,21
1367,19,27,45,0.5261,1,45,47
1368,11,11,25,0.176,1,23,23
1369,19,25,85,1.0863,1,42,43
1370,13,13,32,0.2234,1,26,27
1371,7,8,22,0.1235,1,14,15
1372,19,31,51,1.2773,1,50,53
1373,65,90,163,7.423,1,145,181
1374,32,44,79,1.3705,1,79,88
1375,5,9,20,0.075,1,10,14
1376,10,15,31,0.2048,1,21,26
1377,6,8,23,0.2289,1,15,15
1378,26,27,133,1.5118,1,52,53
1379,19,21,46,0.3702,1,40,41
1380,5,9,22,0.1334,1,15,15
1381,15,20,37,0.5656,1,35,36
1382,25,55,274,0.8617,1,75,92
1383,5,9,20,0.1057,1,14,18
1384,4,6,10,0.0797,1,10,12
1385,18,28,98,0.6544,1,47,57
1386,6,11,20,0.2293,1,13,20
1387,5,9,22,0.1172,1,15,15
1388,12,13,27,0.2013,1,25,27
1389,5,8,20,0.2865,1,11,13
1390,5,8,20,0.3086,1,11,13
1391,4,5,12,0.0868,1,10,10
1392,10,12,25,0.2707,1,22,25
1393,7,8,16,0.1894,1,17,20
1394,19,31,111,0.3805,1,39,56
1395,16,22,83,0.8731,1,35,39
1396,4,5,14,0.1263,1,10,10
1397,19,27,51,0.3888,1,41,47
1398,13,17,39,0.2384,1,28,33
1399,5,6,12,0.0848,1,11,14
1400,5,7,18,0.1018,1,13,13
1401,7,11,30,0.1172,1,16,19
1402,21,34,127,0.5739,1,48,69
1403,14,15,45,0.2388,1,29,30
1404,104,148,1384,9.9553,1,206,302
1405,68,88,211,3.5577,1,147,157
1406,7,8,22,0.1069,1,14,15
1407,9,14,43,0.4665,1,20,24
1408,5,5,11,0.0769,1,11,11
1409,12,12,25,0.21,1,25,25
1410,13,30,104,0.718,1,37,62
1411,8,8,18,0.1338,1,17,17
1412,33,32,67,0.8404,1,66,66
1413,67,132,1609,12.842,1,126,507
1414,67,132,1609,3.1101,1,126,507
1415,23,33,163,0.645,1,50,58
1416,39,50,99,1.314,1,84,90
1417,6,5,13,0.0856,1,12,12
1418,7,8,18,0.1286,1,16,18
1419,16,24,86,0.36,1,36,48
1420,19,20,43,0.3678,1,40,40
1421,41,75,171,3.4172,1,116,123
1422,41,57,110,3.2187,1,94,104
1423,59,104,931,4.0058,1,147,177
1424,59,104,931,3.4744,1,147,177
1425,22,26,60,0.4859,1,47,50
1426,2,3,3,0.2171,1,3,4
1427,2,3,3,0.3568,1,3,4
1428,2,3,3,0.0453,1,3,4
1429,2,3,3,0.0453,1,3,4
1430,2,3,3,0.0489,1,3,4
1431,2,3,3,0.0339,1,3,4
1432,2,3,3,0.0414,1,3,4
1433,2,3,3,0.0481,1,3,4
1434,2,3,3,0.0469,1,3,4
1435,39,43,85,5.8117,1,83,83
1436,44,77,1162,0.9221,1,92,127
1437,2,2,6,0.0446,1,5,5
1438,14,23,59,0.3315,1,36,38
1439,58,95,295,4.2383,1,138,185
1440,58,91,267,3.8901,1,137,171
1441,22,35,132,0.5253,1,46,66
1442,20,33,55,0.5356,1,51,54
1443,15,21,38,0.6785,1,36,37
1444,13,18,33,0.3232,1,31,32
1445,20,32,53,0.6813,1,51,53
1446,13,18,34,0.339,1,31,32
1447,12,18,44,1.9342,1,34,40
1448,15,21,51,0.4484,1,35,44
1449,11,24,87,0.5269,1,36,36
1450,2,3,3,0.0485,1,3,4
1451,89,107,375,7.2107,1,191,227
1452,7,7,36,0.0919,1,14,14
1453,19,32,99,0.4752,1,52,62
1454,28,57,142,1.2982,1,80,86
1455,7,7,15,0.1061,1,14,15
1456,223,1964,39527,19.4717,1,636,2357
1457,19,25,48,0.735,1,43,45
1458,14,13,29,0.2285,1,28,28
1459,20,20,42,0.3872,1,41,41
1460,10,9,21,0.1539,1,20,20
1461,19,18,39,0.3521,1,38,38
1462,5,8,21,0.0781,1,10,13
1463,7,12,25,0.1768,1,20,20
1464,2,3,3,0.0331,1,3,4
1465,7,18,43,0.073,1,12,23
1466,63,66,314,8.1012,1,125,129
1467,10,13,56,0.1484,1,19,23
1468,10,13,59,0.1436,1,19,23
1469,10,13,62,0.1421,1,19,23
1470,10,13,63,0.1282,1,19,23
1471,41,44,205,1.2722,1,81,85
1472,70,100,646,4.5939,1,169,170
1473,71,129,863,6.9466,1,188,201
1474,5,6,17,0.0963,1,11,11
1475,10,11,42,0.1575,1,20,21
1476,33,54,219,1.5986,1,75,91
1477,27,32,160,0.849,1,56,62
1478,23,24,139,0.566,1,47,50
1479,7,12,29,0.1215,1,16,21
1480,33,50,270,1.8292,1,80,84
1481,257,415,3147,62.0838,1,570,673
1482,264,7965,23998,691.6022,1,657,8230
1483,20,24,55,1.1617,1,45,45
1484,13,23,54,0.3217,1,35,37
1485,11,12,27,0.2076,1,24,24
1486,2,2,6,0.071,1,5,5
1487,264,7965,23998,672.9906,1,657,8230
1488,21,38,107,0.6367,1,58,70
1489,26,63,314,1.228,1,90,104
1490,22,36,101,0.508,1,49,58
1491,11,14,26,0.2715,1,26,26
1492,5,7,19,0.069,1,10,12
1493,73,100,248,5.2425,1,167,174
1494,24,31,63,0.8344,1,56,56
1495,26,52,121,2.5685,1,76,96
1496,32,40,221,1.2059,1,68,73
1497,52,70,180,2.5677,1,118,123
1498,17,26,45,1.005,1,44,44
1499,22,30,49,1.106,1,45,53
1500,14,13,29,0.2317,1,28,28
1501,2,2,6,0.0497,1,5,5
1502,1,1,3,0.0844,1,3,3
1503,10,16,28,0.3702,1,26,27
1504,65,122,924,7.3058,1,179,200
1505,34,56,170,1.2592,1,82,92
1506,61,93,654,2.7213,1,123,179
1507,26,28,163,0.5723,1,53,55
1508,11,19,40,0.2577,1,30,38
1509,8,13,30,0.6852,1,22,22
1510,7,14,36,0.1373,1,18,22
1511,5,6,15,0.1057,1,10,11
1512,8,8,18,0.1302,1,17,17
1513,8,21,39,1.3014,1,29,31
1514,2,3,6,0.0627,1,6,7
1515,17,26,57,0.943,1,44,44
1516,294,377,10305,66.6825,1,561,671
1517,385,498,17959,128.8019,1,733,883
1518,329,424,13061,153.3657,1,627,753
1519,265,342,8669,59.7454,1,505,607
1520,423,545,21251,153.6736,1,806,968
1521,4,6,14,0.0998,1,11,13
1522,13,24,157,0.0864,1,24,35
1523,2,3,3,0.0311,1,3,4
1524,2,3,3,0.0311,1,3,4
1525,20,25,81,1.0204,1,43,45
1526,5,5,18,0.0832,1,11,11
1527,10,12,30,0.5467,1,22,24
1528,19,26,81,0.45,1,46,52
1529,6,8,16,0.09,1,13,13
1530,14,17,47,0.3,1,30,32
1531,28,60,202,2.4509,1,89,97
1532,2,2,6,0.0856,1,5,5
1533,53,54,131,3.3525,1,106,108
1534,10,9,22,0.2778,1,20,20
1535,8,8,18,0.1385,1,17,17
1536,23,22,278,0.519,1,46,46
1537,88,105,1544,12.6679,1,176,179
1538,5,9,25,0.2064,1,14,15
1539,5,9,21,0.4192,1,17,21
1540,9,10,21,0.1965,1,20,20
1541,8,7,17,0.193,1,16,16
1542,8,7,17,0.1203,1,16,16
1543,18,17,37,0.4022,1,36,36
1544,194,245,957,34.3549,1,408,440
1545,19,32,99,0.4827,1,52,62
1546,55,96,934,2.8444,1,141,150
1547,9,9,20,0.1752,1,19,19
1548,2,2,6,0.0761,1,5,5
1549,20,35,56,0.9872,1,54,57
1550,12,13,27,0.2056,1,26,26
1551,8,7,38,0.1097,1,16,16
1552,97,132,641,8.9803,1,210,237
1553,65,107,212,6.6359,1,164,223
1554,3,3,9,0.0892,1,7,7
1555,30,45,138,1.4936,1,72,78
1556,8,12,32,0.2869,1,18,23
1557,12,16,48,0.2684,1,26,31
1558,13,22,67,0.3292,1,28,41
1559,6,10,24,0.1997,1,14,19
1560,8,12,32,0.2206,1,18,23
1561,16,20,64,0.4563,1,34,39
1562,41,54,144,1.5576,1,89,98
1563,15,22,72,0.6394,1,35,39
1564,14,20,67,0.7914,1,29,37
1565,106,161,1554,17.342,1,235,386
1566,404,515,6684,152.3576,1,856,939
1567,15,15,39,0.2656,1,30,31
1568,19,29,50,0.8988,1,49,51
1569,6,7,18,0.0896,1,12,13
1570,15,19,46,0.5471,1,34,34
1571,6,13,31,0.0667,1,13,20
1572,17,16,35,0.3422,1,34,34
1573,21,38,66,1.0823,1,60,60
1574,22,212,256,0.5206,1,43,404
1575,2,3,3,0.0884,1,3,4
1576,4,8,14,0.2778,1,11,12
1577,4,7,12,0.2553,1,10,12
1578,5,7,15,0.6517,1,13,13
1579,19,36,91,15.1354,1,58,71
1580,11,11,29,0.2905,1,23,23
1581,27,51,69,4.0105,1,77,80
1582,7,8,16,0.1973,1,15,16
1583,41,50,468,14.9547,1,85,91
1584,4,7,11,0.1046,1,11,12
1585,11,10,28,0.2944,1,22,22
1586,5,7,17,0.1586,1,10,12
1587,9,8,22,0.2388,1,18,18
1588,3,4,7,0.1093,1,8,8
1589,8,11,48,0.0982,1,15,18
1590,5,12,22,0.7152,1,17,18
1591,3,5,6,0.041,1,5,6
1592,56,109,1398,2.6009,1,148,170
1593,29,87,380,3.1531,1,92,152
1594,42,130,659,2.9948,1,128,225
1595,38,127,575,1.498,1,121,218
1596,32,126,517,1.4313,1,108,208
1597,14,21,63,0.4839,1,36,38
1598,13,16,79,0.2806,1,30,30
1599,5,12,19,0.1314,1,15,18
1600,31,48,245,1.4546,1,65,93
1601,2,1,5,0.1006,1,4,4
1602,3,3,7,0.2064,1,7,8
1603,3,3,10,0.0678,1,7,7
1604,21,23,56,1.1672,1,44,45
1605,83,98,375,6.8447,1,173,182
1606,10,13,25,0.1989,1,21,24
1607,2,2,6,0.1006,1,5,5
1608,9,12,43,0.1673,1,22,22
1609,57,76,232,2.6637,1,126,137
1610,3,4,8,0.0939,1,8,8
1611,15,19,69,0.2818,1,33,36
1612,45,55,106,2.4829,1,101,101
1613,2,3,3,0.054,1,3,4
1614,32,91,135,2.1213,1,115,148
1615,61,86,137,3.2652,1,132,148
1616,4,4,12,0.0643,1,8,9
1617,29,71,101,5.2156,1,98,114
1618,15,14,31,0.2557,1,30,30
1619,61,118,279,5.3439,1,140,180
1620,2,2,6,0.0746,1,5,5
1621,134,258,7978,21.0759,1,393,516
1622,66,141,457,4.7388,1,195,235
1623,3,4,11,0.0596,1,8,9
1624,11,12,28,0.1796,1,24,26
1625,13,28,44,0.6327,1,36,39
1626,44,61,174,2.7706,1,98,120
1627,3,4,10,0.1859,1,8,9
1628,42,46,182,1.5635,1,87,88
1629,7,7,19,0.1886,1,15,15
1630,20,34,131,0.5281,1,47,55
1631,17,26,129,0.3067,1,39,42
1632,12,16,57,0.2984,1,27,28
1633,66,127,275,5.477,1,183,219
1634,10,9,21,0.1527,1,20,20
1635,104,148,1507,8.5887,1,206,302
1636,8,7,17,0.1184,1,16,16
1637,3,6,7,0.1251,1,8,8
1638,22,26,63,0.5242,1,48,52
1639,5,8,15,0.1144,1,14,15
1640,8,8,18,0.133,1,17,17
1641,9,12,26,0.1653,1,21,22
1642,4,5,10,0.0911,1,10,13
1643,14,16,32,0.3975,1,31,33
1644,38,66,146,2.8152,1,103,117
1645,7,9,19,0.2846,1,17,19
1646,15,21,38,0.2581,1,31,31
1647,11,15,56,0.1725,1,23,27
1648,16,21,55,0.6055,1,36,37
1649,17,121,171,0.2151,1,18,123
1650,22,52,108,2.2906,1,69,75
1651,8,19,36,1.4111,1,27,32
1652,43,110,460,5.2397,1,129,174
1653,21,20,233,0.3907,1,42,42
1654,14,29,55,1.2793,1,38,50
1655,11,18,37,0.3311,1,25,39
1656,32,46,252,1.181,1,69,80
1657,50,161,484,3.1894,1,143,212
1658,48,62,624,1.9981,1,106,108
1659,3,5,7,0.0355,1,5,7
1660,32,38,101,0.9501,1,69,71
1661,2,2,6,0.0426,1,5,5
1662,6,9,19,0.1061,1,16,18
1663,11,20,42,0.2388,1,31,34
1664,7,9,19,0.1357,1,17,20
1665,14,13,29,0.2309,1,28,28
1666,3,4,11,0.06,1,8,9
1667,5,12,23,0.3919,1,18,22
1668,76,125,287,7.2766,1,178,238
1669,9,8,19,0.1397,1,18,18
1670,27,38,103,0.7792,1,63,68
1671,34,44,79,1.1372,1,75,79
1672,19,24,92,0.4085,1,42,45
1673,9,11,30,0.3635,1,19,21
1674,12,23,37,0.2376,1,32,40
1675,106,167,774,11.5824,1,246,305
1676,31,41,71,0.958,1,72,84
1677,256,255,32898,55.3318,1,512,512
1678,44,62,158,1.764,1,103,112
1679,27,40,142,0.7993,1,56,70
1680,10,19,52,0.3071,1,21,40
1681,9,10,22,0.2494,1,20,20
1682,6,5,23,0.1267,1,12,12
1683,51,50,1328,1.9618,1,102,102
1684,14,15,31,0.2261,1,28,28
1685,8,9,28,0.1231,1,17,17
1686,7,10,20,0.1681,1,17,19
1687,5,6,21,0.1701,1,12,13
1688,15,14,31,0.2518,1,30,30
1689,16,22,40,0.3757,1,39,44
1690,11,18,82,0.7306,1,25,32
1691,94,134,281,17.7956,1,218,257
1692,33,40,195,1.078,1,70,77
1693,35,63,319,1.3942,1,88,106
1694,8,15,24,0.3067,1,24,24
1695,85,184,2147,8.5007,1,244,270
1696,34,42,195,1.209,1,73,77
1697,15,19,36,0.3197,1,35,35
1698,5,9,16,0.1057,1,14,15
1699,3,5,9,0.0718,1,7,9
1700,119,154,710,24.8184,1,254,281
1701,10,25,52,0.3244,1,36,36
1702,23,38,110,0.6161,1,52,62
1703,209,4446,10450,205.8625,1,685,4784
1704,14,13,54,0.5648,1,28,28
1705,4,6,17,0.1302,1,11,11
1706,7,8,17,0.1989,1,16,19
1707,10,12,33,0.1819,1,21,22
1708,5,8,17,0.1736,1,14,15
1709,18,21,69,0.3406,1,36,38
1710,17,48,80,2.1655,1,55,73
1711,7,7,15,0.1136,1,15,15
1712,7,8,18,0.1275,1,16,18
1713,16,20,49,1.0488,1,38,40
1714,9,10,20,0.2392,1,19,22
1715,20,30,142,0.7168,1,46,59
1716,3,4,11,0.0647,1,8,8
1717,3,5,11,0.0714,1,9,10
1718,34,39,78,1.0906,1,73,74
1719,10,20,41,0.2328,1,29,37
1720,9,22,40,0.2553,1,29,40
1721,15,20,37,0.3351,1,36,40
1722,30,64,108,2.4623,1,80,100
1723,12,17,48,0.2514,1,25,32
1724,2,2,6,0.0746,1,5,5
1725,36,57,295,3.2139,1,84,95
1726,27,43,70,1.2004,1,72,79
1727,15,20,40,0.3548,1,35,39
1728,16,21,68,0.3098,1,36,38
1729,4,5,10,0.1413,1,10,12
1730,28,38,76,1.0985,1,66,79
1731,2,3,3,0.0501,1,3,4
1732,15,16,63,0.249,1,30,31
1733,8,11,17,0.2234,1,20,21
1734,7,8,16,0.133,1,16,17
1735,35,75,356,1.7301,1,94,139
1736,41,60,238,2.4758,1,99,109
1737,37,48,212,1.2572,1,78,85
1738,28,39,80,0.9157,1,65,68
1739,3,5,11,0.1807,1,7,8
1740,24,27,58,0.6236,1,52,52
1741,19,26,93,0.5313,1,42,47
1742,10,9,21,0.2119,1,20,20
1743,37,42,257,1.2177,1,74,83
1744,104,148,1510,9.2175,1,206,302
1745,24,60,348,0.9785,1,69,98
1746,25,34,77,0.7784,1,60,60
1747,9,9,19,0.1436,1,19,19
1748,15,27,107,0.536,1,35,38
1749,3189,8540,1666263,15927.6766,1,9602,10705
1750,7,10,30,0.4192,1,15,16
1751,6,10,26,0.7713,1,15,19
1752,13,41,60,2.3459,1,46,58
1753,12,13,27,0.2917,1,26,26
1754,11,11,24,0.1792,1,23,23
1755,16,15,61,0.3382,1,32,32
1756,39,39,81,1.2473,1,79,79
1757,29,43,105,1.2138,1,70,71
1758,6,9,19,0.135,1,15,18
1759,7,9,24,0.116,1,15,17
1760,8,9,21,0.1243,1,17,19
1761,8,8,18,0.129,1,17,17
1762,8,9,20,0.3627,1,18,18
1763,9,11,20,0.461,1,21,23
1764,7,7,16,0.3817,1,15,15
1765,5,4,11,0.0738,1,10,10
1766,16,21,67,0.3402,1,35,37
1767,56,108,173,27.3621,1,133,165
1768,5,8,16,0.105,1,14,18
1769,35,44,100,1.1179,1,77,80
1770,23,33,196,0.7018,1,55,57
1771,13,22,57,0.3098,1,34,36
1772,48,59,221,1.9251,1,104,116
1773,12,15,68,0.1772,1,24,26
1774,15,21,59,0.435,1,37,38
1775,11,14,27,0.3051,1,25,27
1776,29,33,289,0.6521,1,56,60
1777,15,15,39,0.2514,1,30,31
1778,256,255,32898,59.6194,1,512,512
1779,11,27,59,0.4677,1,33,39
1780,4,6,15,0.0576,1,8,10
1781,9,14,33,0.1515,1,19,26
1782,6,8,22,0.1203,1,13,15
1783,7,9,19,0.1286,1,17,19
1784,31,65,195,1.0298,1,79,104
1785,10,11,29,0.1693,1,22,23
1786,62,95,228,3.5317,1,148,174
1787,12,23,54,0.2727,1,32,36
1788,12,23,53,0.2696,1,32,36
1789,24,32,107,0.5344,1,51,58
1790,4,4,10,0.0682,1,9,9
1791,41,78,128,2.6668,1,112,123
1792,9,12,31,0.2048,1,20,26
1793,1,1,3,0.0378,1,3,3
1794,11,13,33,0.1685,1,24,27
1795,34,39,77,1.065,1,72,74
1796,12,12,53,0.2167,1,24,27
1797,18,17,37,0.3438,1,36,36
1798,23,37,65,3.896,1,65,84
1799,6,7,23,0.1144,1,14,14
1800,14,24,103,0.3315,1,28,44
1801,83,122,609,18.8231,1,185,234
1802,16,16,33,0.5182,1,33,33
1803,22,32,63,0.7567,1,54,61
1804,2,2,6,0.0907,1,5,5
1805,30,58,104,0.9935,1,74,94
1806,5,9,21,0.1626,1,14,15
1807,11,11,75,0.2396,1,22,22
1808,33,44,126,1.1009,1,76,83
1809,8,15,34,0.1697,1,23,24
1810,25,36,55,3.0529,1,62,65
1811,17,24,52,0.6292,1,42,42
1812,11,10,27,0.1728,1,22,22
1813,18,19,43,0.3343,1,37,38
1814,37,36,75,1.0496,1,74,74
1815,9,17,54,0.1586,1,17,26
1816,9,14,32,0.1488,1,19,26
1817,6,7,22,0.1125,1,14,14
1818,16,22,67,0.3146,1,36,39
1819,9,13,29,0.1602,1,21,30
1820,26,41,381,0.6528,1,52,69
1821,13,20,54,0.2707,1,33,34
1822,10,9,25,0.1547,1,20,20
1823,6,10,23,0.3753,1,15,16
1824,9,12,29,0.283,1,20,23
1825,21,22,55,0.4219,1,43,44
1826,8,8,18,0.1334,1,17,17
1827,5,7,18,0.1014,1,13,13
1828,23,40,74,4.2087,1,57,67
1829,95,133,1431,6.2357,1,191,253
1830,26,38,85,1.4194,1,65,79
1831,8,8,18,0.1334,1,17,17
1832,32,51,97,1.71,1,83,96
1833,17,20,39,0.4318,1,38,38
1834,73,118,424,4.4163,1,167,211
1835,22,26,95,0.5455,1,47,49
1836,23,34,75,0.7365,1,55,58
1837,15,19,38,0.5123,1,35,35
1838,8,8,21,0.1847,1,17,17
1839,9,13,29,0.3323,1,21,24
1840,9,12,23,0.1653,1,19,22
1841,11,17,42,0.4105,1,25,31
1842,46,54,152,4.8438,1,100,103
1843,28,40,96,1.1723,1,67,73
1844,15,20,37,0.3655,1,35,38
1845,25,43,193,0.9651,1,58,87
1846,23,38,75,1.0436,1,56,62
1847,24,29,97,0.6939,1,52,53
1848,10,9,21,0.2269,1,20,20
1849,9,15,26,0.2751,1,24,27
1850,14,16,48,0.2692,1,31,32
1851,62,80,153,3.6596,1,142,144
1852,27,38,77,0.8175,1,66,67
1853,21,22,55,0.4389,1,43,44
1854,32,56,206,1.7992,1,82,106
1855,41,69,419,1.6579,1,92,129
1856,10,12,25,0.4669,1,23,23
1857,7,16,30,1.3713,1,22,30
1858,14,18,36,1.5552,1,33,37
1859,11,10,23,0.328,1,22,22
1860,8,8,18,0.1271,1,17,17
1861,37,41,93,2.4446,1,77,80
1862,11,10,28,0.1867,1,22,22
1863,6,17,34,1.6756,1,24,33
1864,15,22,84,0.234,1,29,37
1865,16,22,67,0.5372,1,36,40
1866,13,16,31,0.3288,1,29,31
1867,37,37,99,1.7009,1,74,75
1868,106,122,3472,10.2813,1,216,228
1869,58,64,372,2.3388,1,111,124
1870,7,9,21,0.1144,1,15,16
1871,2,2,6,0.058,1,5,5
1872,3,5,9,0.1452,1,9,11
1873,20,30,93,0.5936,1,46,53
1874,15,18,37,0.3971,1,35,38
1875,7,7,16,0.1492,1,15,15
1876,26,42,72,1.1115,1,65,73
1877,37,36,75,1.0444,1,74,74
1878,5,12,23,0.1247,1,15,18
1879,3,5,11,0.0671,1,8,9
1880,3,4,11,0.0611,1,8,8
1881,1,1,3,0.0367,1,3,3
1882,9,8,29,0.1298,1,18,18
1883,42,49,322,1.5604,1,89,94
1884,37,39,211,0.9975,1,73,76
1885,2,2,6,0.0438,1,5,5
1886,147,283,9287,28.6616,1,430,431
1887,15,19,36,0.3078,1,30,31
1888,26,35,72,1.2371,1,60,62
1889,27,37,88,1.7715,1,64,69
1890,6,6,19,0.1085,1,13,13
1891,8,9,20,0.2889,1,18,19
1892,9,12,23,0.1823,1,22,23
1893,25,38,128,0.6248,1,54,78
1894,8,8,21,0.1263,1,17,17
1895,12,19,39,0.2573,1,31,33
1896,18,25,72,0.4247,1,41,44
1897,36,51,133,1.8217,1,84,111
1898,20,24,111,0.4038,1,43,44
1899,8,14,36,0.1515,1,19,22
1900,19,23,95,0.3469,1,40,43
1901,27,43,116,0.8214,1,71,73
1902,24,33,50,1.6058,1,58,59
1903,25,30,159,0.5451,1,49,57
1904,13,12,27,0.2048,1,26,26
1905,10,13,30,0.1894,1,23,24
1906,2,1,5,0.0406,1,4,4
1907,2,1,5,0.0434,1,4,4
1908,4,5,13,0.06,1,8,9
1909,11,12,25,0.1859,1,24,24
1910,16,15,99,0.3142,1,32,32
1911,3,4,9,0.086,1,8,8
1912,2,2,6,0.043,1,5,5
1913,2,2,6,0.0568,1,5,5
1914,2,2,6,0.0461,1,5,5
1915,2,1,5,0.0532,1,4,4
1916,12,11,25,0.2005,1,24,24
1917,15,15,39,0.2763,1,30,31
1918,11,10,23,0.1926,1,22,22
1919,6,5,13,0.09,1,12,12
1920,2,1,5,0.0406,1,4,4
