id,states,transitions,simRelSize,time,goodruns,minterms,mintermizedAutomatonTransitions
ex10.mona-walk.dot_5__242states.dfa,234,650,1627,80.9887,1,882,882
ex11.mona-walk.dot_0__143states.dfa,139,574,2699,38.5447,1,711,711
ex11.mona-walk.dot_2__143states.dfa,139,574,2699,40.3175,1,711,711
ex11.mona-walk.dot_4__281states.dfa,279,1541,11663,187.8001,1,1815,1815
ex11.mona-walk.dot_5__281states.dfa,277,2007,12989,264.3258,1,2041,2041
ex11.mona-walk.dot_6__301states.dfa,293,1214,16613,163.835,1,1264,1264
ex11.mona-walk.dot_7__325states.dfa,309,1508,19113,205.201,1,1801,1801
ex12.mona-walk.dot_13__317states.dfa,313,1911,6823,285.0366,1,2220,2220
ex12.mona-walk.dot_14__317states.dfa,313,3046,6823,456.4677,1,3059,3059
ex12.mona-walk.dot_15__290states.dfa,282,4059,11654,677.7346,1,4328,4328
ex12.mona-walk.dot_16__280states.dfa,276,5188,12168,889.21,1,5456,5456
ex12.mona-walk.dot_17__280states.dfa,273,3617,11384,732.3709,1,3886,3886
ex14.mona-walk.dot_10__103states.dfa,95,378,464,30.8556,1,472,472
ex14.mona-walk.dot_11__202states.dfa,194,989,1119,141.445,1,1182,1182
ex14.mona-walk.dot_12__316states.dfa,308,1762,1885,656.5529,1,2069,2069
ex14.mona-walk.dot_13__316states.dfa,308,1762,1885,318.4715,1,2069,2069
ex14.mona-walk.dot_14__852states.dfa,844,5573,14669,2447.8063,1,6414,6414
ex14.mona-walk.dot_15__852states.dfa,844,9038,16705,4449.5049,1,9876,9876
ex14.mona-walk.dot_16__852states.dfa,846,12733,13199,5215.8345,1,13183,13183
ex14.mona-walk.dot_17__167states.dfa,153,1365,1502,214.6767,1,1510,1510
ex14.mona-walk.dot_21__35states.dfa,22,68,114,2.3933,1,86,86
ex14.mona-walk.dot_22__53states.dfa,38,140,250,19.1452,1,174,174
ex14.mona-walk.dot_24__42states.dfa,28,104,183,4.0918,1,128,128
ex14.mona-walk.dot_3__30states.dfa,22,40,78,0.969,1,61,61
ex14.mona-walk.dot_4__30states.dfa,22,40,78,1.0215,1,61,61
ex14.mona-walk.dot_5__45states.dfa,37,81,141,3.0331,1,117,117
ex14.mona-walk.dot_6__65states.dfa,57,150,260,15.3261,1,206,206
ex14.mona-walk.dot_7__65states.dfa,57,150,260,8.6116,1,206,206
ex14.mona-walk.dot_8__77states.dfa,69,219,312,11.7336,1,287,287
ex14.mona-walk.dot_9__103states.dfa,95,378,464,25.3825,1,472,472
ex16.mona-walk.dot_56__16states.dfa,8,23,38,33.1786,1,25,25
ex16.mona-walk.dot_58__25states.dfa,11,34,63,66.077,1,37,37
ex18.mona-walk.dot_106__298states.dfa,290,3207,1912,5373.0572,1,3468,3468
ex18.mona-walk.dot_107__298states.dfa,290,3207,1912,5208.7706,1,3468,3468
ex18.mona-walk.dot_109__269states.dfa,265,1308,1581,2408.0304,1,1565,1565
ex18.mona-walk.dot_94__108states.dfa,104,196,312,16.1164,1,299,299
ex18.mona-walk.dot_95__172states.dfa,168,324,504,44.701,1,491,491
ex18.mona-walk.dot_96__300states.dfa,296,580,888,143.1065,1,875,875
ex18.mona-walk.dot_97__556states.dfa,552,1092,1656,641.43,1,1643,1643
ex19.mona-walk.dot_10__119states.dfa,115,171,1081,14.4008,1,284,284
ex19.mona-walk.dot_47__135states.dfa,131,250,1334,25.7709,1,379,379
ex19.mona-walk.dot_49__247states.dfa,243,578,7902,89.5458,1,819,819
ex19.mona-walk.dot_51__141states.dfa,137,472,1762,66.7097,1,607,607
ex20.mona-walk.dot_20__20states.dfa,6,12,25,0.1965,1,16,16
ex3.mona-walk.dot_33__579states.dfa,572,1782,6342,820.7136,1,2350,2350
ex3.mona-walk.dot_34__449states.dfa,446,1276,3010,544.7145,1,1720,1720
ex4.mona-walk.dot_20__276states.dfa,269,2586,7909,554.7898,1,2851,2851
ex4.mona-walk.dot_21__531states.dfa,524,3606,15235,1722.5513,1,4126,4126
ex4.mona-walk.dot_22__139states.dfa,131,499,1136,66.2799,1,626,626
ex4.mona-walk.dot_23__139states.dfa,131,499,1136,72.2266,1,626,626
ex4.mona-walk.dot_24__147states.dfa,139,530,1170,76.2826,1,665,665
ex4.mona-walk.dot_25__151states.dfa,135,414,1231,38.9702,1,545,545
ex4.mona-walk.dot_26__602states.dfa,586,2686,4370,920.5266,1,3268,3268
ex4.mona-walk.dot_38__134states.dfa,120,442,1093,50.5037,1,558,558
ex5.mona-walk.dot_3__66states.dfa,64,70,369,3.8135,1,132,132
ex8.mona-walk.dot_18__242states.dfa,234,650,1627,91.756,1,882,882
parametric_uabe1_11.mona-walk.dot_0__167states.dfa,163,1123,3095,75.9968,1,1284,1284
parametric_uabe1_12.mona-walk.dot_0__181states.dfa,177,1137,3337,85.3726,1,1312,1312
parametric_uabe1_13.mona-walk.dot_0__195states.dfa,191,1151,3670,87.6902,1,1340,1340
parametric_uabe1_14.mona-walk.dot_0__209states.dfa,205,1165,4094,96.2157,1,1368,1368
parametric_uabe2_03.mona-walk.dot_0__142states.dfa,140,517,558,56.2705,1,654,654
parametric_uabe2_04.mona-walk.dot_0__702states.dfa,700,3197,2798,1643.4424,1,3894,3894
parametric_uabe2_05.mona-walk.dot_0__86states.dfa,78,314,1798,18.5567,1,384,384
parametric_uabe2_06.mona-walk.dot_0__91states.dfa,87,314,2093,37.3238,1,332,332
parametric_uabe2_07.mona-walk.dot_0__108states.dfa,104,380,2879,13.935,1,398,398
parametric_uabe2_08.mona-walk.dot_0__125states.dfa,121,446,3788,21.5358,1,464,464
parametric_uabe3_06.mona-walk.dot_0__97states.dfa,93,528,2050,27.2832,1,619,619
parametric_uabe3_07.mona-walk.dot_0__111states.dfa,107,542,2437,30.6909,1,647,647
parametric_uabe3_08.mona-walk.dot_0__125states.dfa,121,556,2915,35.0433,1,675,675
parametric_uabe3_09.mona-walk.dot_0__139states.dfa,135,570,3484,37.6798,1,703,703
parametric_uabe3_10.mona-walk.dot_0__153states.dfa,149,584,4144,42.8651,1,731,731
parametric_uabe3_11.mona-walk.dot_0__167states.dfa,163,598,4895,51.4925,1,759,759
parametric_uabe3_12.mona-walk.dot_0__181states.dfa,177,612,5737,53.3324,1,787,787
parametric_uabe3_13.mona-walk.dot_0__195states.dfa,191,626,6670,56.7663,1,815,815
parametric_uabe3_14.mona-walk.dot_0__209states.dfa,205,640,7694,72.409,1,843,843
array_axiom.mona-walk.dot_26__901states.dfa,899,5254,8727,3640.7712,1,6147,6147
array_axiom.mona-walk.dot_27__897states.dfa,894,2684,6658,2368.1668,1,3576,3576
array_axiom.mona-walk.dot_36__105states.dfa,102,252,450,15.0889,1,336,336
ex18.mona-walk.dot_98__1068states.dfa,1064,2116,3192,2170.5049,1,3179,3179
ex18.mona-walk.dot_99__2056states.dfa,2052,4092,6156,9202.7098,1,6143,6143
strand-old-bubblesort-loop-else.mona-walk.dot_0__1044states.dfa,18,37,51,1.2311,1,55,55
strand-old-bubblesort-loop-if-else.mona-walk.dot_0__1027states.dfa,1,0,4,0.0307,1,2,2
strand-old-bubblesort-loop-if-if.mona-walk.dot_0__2051states.dfa,1,0,4,0.0288,1,2,2
strand-old-sorted-list-insert-after-loop.mona-walk.dot_0__151states.dfa,21,39,58,1.6373,1,60,60
strand-old-sorted-list-insert-before-head.mona-walk.dot_0__114states.dfa,48,254,382,19.4136,1,302,302
strand-old-sorted-list-insert-before-loop.mona-walk.dot_0__131states.dfa,1,0,4,0.0331,1,2,2
strand-old-sorted-list-insert-error-before-loop.mona-walk.dot_0__156states.dfa,26,65,72,2.6597,1,91,91
strand-old-sorted-list-insert-in-loop.mona-walk.dot_0__515states.dfa,1,0,4,0.0296,1,2,2
strand-old-sorted-list-reverse-after-loop.mona-walk.dot_0__131states.dfa,1,0,4,0.0264,1,2,2
strand-old-sorted-list-reverse-before-loop.mona-walk.dot_0__212states.dfa,111,1043,1333,184.8644,1,1146,1146
strand-old-sorted-list-reverse-in-loop.mona-walk.dot_0__515states.dfa,1,0,4,0.0307,1,2,2
strand-old-sorted-list-search-after-loop.mona-walk.dot_0__317states.dfa,316,8535,8597,7646.3654,1,8843,8843
strand-old-sorted-list-search-before-loop.mona-walk.dot_0__112states.dfa,46,265,390,30.8824,1,311,311
ex11.mona.aut,2217,6513,30280,8704.9262,1,8422,9051
ex12.mona.aut,377,1089,2064,241.264,1,1389,2520
ex13.mona.aut,933,4591,-1,-1,0,0,0
ex15.mona.aut,10,27,32,1.5244,1,33,43
ex16.mona.aut,543,1426,11770,3504.2908,1,3455,244837
ex17.mona.aut,1,0,4,0.0276,1,2,2
ex19.mona.aut,814,2885,13430,7741.6895,1,5790,363406
ex7.mona.aut,148,373,1547,49.7565,1,412,644
horn_trans05.mona.aut,11,25,28,0.6718,1,53,266
horn_trans10.mona.aut,21,50,53,22.5167,1,1065,15411
parametric_uabe1_11.mona.aut,2507,7493,34788,10411.9462,1,9537,10451
parametric_uabe3_10.mona.aut,2257,6733,30470,10057.8202,1,8552,9431
set_closed05.mona.aut,24,53,86,4.6701,1,109,266
set_closed10.mona.aut,44,98,211,52.7731,1,808,4487
set_obvious05.mona.aut,1,0,4,0.0276,1,2,2
set_obvious10.mona.aut,1,0,4,0.0244,1,2,2
set_singletons05.mona.aut,21,55,68,4.8774,1,144,344
set_singletons10.mona.aut,41,110,183,437.3927,1,2518,16980
strand-new-sorted-list-insert-after-loop.mona.aut,674,5429,4987,1576.024,1,5904,8133
strand-new-sorted-list-insert-before-head.mona.aut,219,1699,1570,257.6997,1,1871,3944
strand-new-sorted-list-insert-before-loop.mona.aut,387,3430,2181,777.7399,1,3376,6613
strand-new-sorted-list-insert-error-error.mona.aut,387,3430,2181,668.7172,1,3376,6613
strand-new-sorted-list-reverse-after-loop.mona.aut,956,20383,11152,12237.2834,1,20901,29128
strand-new-sorted-list-reverse-before-loop.mona.aut,956,20383,11152,12371.3291,1,20901,29128
strand-new-sorted-list-search-after-loop.mona.aut,431,5629,4197,1372.627,1,5949,8289
strand-new-sorted-list-search-before-loop.mona.aut,300,2849,1670,429.3167,1,2777,4631
toss05.mona.aut,65,288,174,18.0628,1,358,566
toss10.mona.aut,1413,16619,4772,39869.3577,1,18762,106987
veanes05.mona.aut,6,11,13,0.4681,1,18,18
veanes05_1alts.mona.aut,19,45,109,1.6405,1,46,80
veanes05_2alts.mona.aut,31,172,73,4.6275,1,192,238
veanes05_3alts.mona.aut,19,50,87,2.3127,1,55,92
veanes05_4alts.mona.aut,25,91,70,2.651,1,109,174
veanes10.mona.aut,11,21,23,1.3389,1,33,33
veanes10_1alts.mona.aut,39,95,414,2.9731,1,91,170
veanes10_2alts.mona.aut,780,33596,1576,32210.123,1,34117,41193
veanes10_3alts.mona.aut,39,100,357,3.6623,1,100,202
veanes10_4alts.mona.aut,588,15179,1206,8599.9547,1,15698,20155
