id,states,transitions,simRelSize,time,goodruns,minterms,mintermizedAutomatonTransitions
ex10.mona-walk.dot_5__242states.dfa,234,650,1627,45.3259,1,0,0
ex11.mona-walk.dot_0__143states.dfa,139,574,2699,19.189,1,0,0
ex11.mona-walk.dot_2__143states.dfa,139,574,2699,17.5114,1,0,0
ex11.mona-walk.dot_4__281states.dfa,279,1541,11663,87.7806,1,0,0
ex11.mona-walk.dot_5__281states.dfa,277,2007,12989,166.6057,1,0,0
ex11.mona-walk.dot_6__301states.dfa,293,1214,16613,118.5604,1,0,0
ex11.mona-walk.dot_7__325states.dfa,309,1508,19113,175.8959,1,0,0
ex12.mona-walk.dot_13__317states.dfa,313,1911,6823,118.5616,1,0,0
ex12.mona-walk.dot_14__317states.dfa,313,3046,6823,471.7248,1,0,0
ex12.mona-walk.dot_15__290states.dfa,282,4059,11654,339.8166,1,0,0
ex12.mona-walk.dot_16__280states.dfa,276,5188,12168,413.4932,1,0,0
ex12.mona-walk.dot_17__280states.dfa,273,3617,11384,408.0268,1,0,0
ex14.mona-walk.dot_10__103states.dfa,95,378,464,11.3838,1,0,0
ex14.mona-walk.dot_11__202states.dfa,194,989,1119,39.9965,1,0,0
ex14.mona-walk.dot_12__316states.dfa,308,1762,1885,106.8188,1,0,0
ex14.mona-walk.dot_13__316states.dfa,308,1762,1885,111.0449,1,0,0
ex14.mona-walk.dot_14__852states.dfa,844,5573,14669,951.5611,1,0,0
ex14.mona-walk.dot_15__852states.dfa,844,9038,16705,1301.204,1,0,0
ex14.mona-walk.dot_16__852states.dfa,846,12733,13199,2397.4261,1,0,0
ex14.mona-walk.dot_17__167states.dfa,153,1365,1502,65.3325,1,0,0
ex14.mona-walk.dot_21__35states.dfa,22,68,114,1.1218,1,0,0
ex14.mona-walk.dot_22__53states.dfa,38,140,250,3.4839,1,0,0
ex14.mona-walk.dot_24__42states.dfa,28,104,183,1.8011,1,0,0
ex14.mona-walk.dot_3__30states.dfa,22,40,78,0.5609,1,0,0
ex14.mona-walk.dot_4__30states.dfa,22,40,78,0.57,1,0,0
ex14.mona-walk.dot_5__45states.dfa,37,81,141,1.3859,1,0,0
ex14.mona-walk.dot_6__65states.dfa,57,150,260,3.009,1,0,0
ex14.mona-walk.dot_7__65states.dfa,57,150,260,3.7654,1,0,0
ex14.mona-walk.dot_8__77states.dfa,69,219,312,4.3314,1,0,0
ex14.mona-walk.dot_9__103states.dfa,95,378,464,8.2437,1,0,0
ex16.mona-walk.dot_56__16states.dfa,8,23,38,4.6599,1,0,0
ex16.mona-walk.dot_58__25states.dfa,11,34,63,5.7414,1,0,0
ex18.mona-walk.dot_106__298states.dfa,290,3207,1912,737.4946,1,0,0
ex18.mona-walk.dot_107__298states.dfa,290,3207,1912,722.1586,1,0,0
ex18.mona-walk.dot_109__269states.dfa,265,1308,1581,528.4978,1,0,0
ex18.mona-walk.dot_94__108states.dfa,104,196,312,23.4854,1,0,0
ex18.mona-walk.dot_95__172states.dfa,168,324,504,19.0994,1,0,0
ex18.mona-walk.dot_96__300states.dfa,296,580,888,54.0978,1,0,0
ex18.mona-walk.dot_97__556states.dfa,552,1092,1656,402.7267,1,0,0
ex19.mona-walk.dot_10__119states.dfa,115,171,1081,10.9848,1,0,0
ex19.mona-walk.dot_47__135states.dfa,131,250,1334,13.1783,1,0,0
ex19.mona-walk.dot_49__247states.dfa,243,578,7902,47.1741,1,0,0
ex19.mona-walk.dot_51__141states.dfa,137,472,1762,19.8735,1,0,0
ex20.mona-walk.dot_20__20states.dfa,6,12,25,0.073,1,0,0
ex3.mona-walk.dot_33__579states.dfa,572,1782,6342,398.4718,1,0,0
ex3.mona-walk.dot_34__449states.dfa,446,1276,3010,302.8473,1,0,0
ex4.mona-walk.dot_20__276states.dfa,269,2586,7909,332.6055,1,0,0
ex4.mona-walk.dot_21__531states.dfa,524,3606,15235,1102.3978,1,0,0
ex4.mona-walk.dot_22__139states.dfa,131,499,1136,31.0217,1,0,0
ex4.mona-walk.dot_23__139states.dfa,131,499,1136,33.1293,1,0,0
ex4.mona-walk.dot_24__147states.dfa,139,530,1170,39.9279,1,0,0
ex4.mona-walk.dot_25__151states.dfa,135,414,1231,48.1834,1,0,0
ex4.mona-walk.dot_26__602states.dfa,586,2686,4370,387.511,1,0,0
ex4.mona-walk.dot_38__134states.dfa,120,442,1093,26.3642,1,0,0
ex5.mona-walk.dot_3__66states.dfa,64,70,369,3.1121,1,0,0
ex8.mona-walk.dot_18__242states.dfa,234,650,1627,51.5383,1,0,0
parametric_uabe1_11.mona-walk.dot_0__167states.dfa,163,1123,3095,28.9798,1,0,0
parametric_uabe1_12.mona-walk.dot_0__181states.dfa,177,1137,3337,33.7825,1,0,0
parametric_uabe1_13.mona-walk.dot_0__195states.dfa,191,1151,3670,37.1726,1,0,0
parametric_uabe1_14.mona-walk.dot_0__209states.dfa,205,1165,4094,44.2542,1,0,0
parametric_uabe2_03.mona-walk.dot_0__142states.dfa,140,517,558,44.9217,1,0,0
parametric_uabe2_04.mona-walk.dot_0__702states.dfa,700,3197,2798,1496.216,1,0,0
parametric_uabe2_05.mona-walk.dot_0__86states.dfa,78,314,1798,12.1038,1,0,0
parametric_uabe2_06.mona-walk.dot_0__91states.dfa,87,314,2093,11.1561,1,0,0
parametric_uabe2_07.mona-walk.dot_0__108states.dfa,104,380,2879,13.8833,1,0,0
parametric_uabe2_08.mona-walk.dot_0__125states.dfa,121,446,3788,19.6371,1,0,0
parametric_uabe3_06.mona-walk.dot_0__97states.dfa,93,528,2050,11.3313,1,0,0
parametric_uabe3_07.mona-walk.dot_0__111states.dfa,107,542,2437,13.3374,1,0,0
parametric_uabe3_08.mona-walk.dot_0__125states.dfa,121,556,2915,15.5069,1,0,0
parametric_uabe3_09.mona-walk.dot_0__139states.dfa,135,570,3484,16.7993,1,0,0
parametric_uabe3_10.mona-walk.dot_0__153states.dfa,149,584,4144,19.6315,1,0,0
parametric_uabe3_11.mona-walk.dot_0__167states.dfa,163,598,4895,24.8808,1,0,0
parametric_uabe3_12.mona-walk.dot_0__181states.dfa,177,612,5737,27.0147,1,0,0
parametric_uabe3_13.mona-walk.dot_0__195states.dfa,191,626,6670,27.7359,1,0,0
parametric_uabe3_14.mona-walk.dot_0__209states.dfa,205,640,7694,32.7661,1,0,0
array_axiom.mona-walk.dot_26__901states.dfa,899,5254,8727,1840.7577,1,0,0
array_axiom.mona-walk.dot_27__897states.dfa,894,2684,6658,1163.458,1,0,0
array_axiom.mona-walk.dot_36__105states.dfa,102,252,450,9.9237,1,0,0
ex18.mona-walk.dot_98__1068states.dfa,1064,2116,3192,781.887,1,0,0
ex18.mona-walk.dot_99__2056states.dfa,2052,4092,6156,2466.3788,1,0,0
strand-old-bubblesort-loop-else.mona-walk.dot_0__1044states.dfa,18,37,51,0.6457,1,0,0
strand-old-bubblesort-loop-if-else.mona-walk.dot_0__1027states.dfa,1,0,4,0.015,1,0,0
strand-old-bubblesort-loop-if-if.mona-walk.dot_0__2051states.dfa,1,0,4,0.024,1,0,0
strand-old-sorted-list-insert-after-loop.mona-walk.dot_0__151states.dfa,21,39,58,0.671,1,0,0
strand-old-sorted-list-insert-before-head.mona-walk.dot_0__114states.dfa,48,254,382,6.9963,1,0,0
strand-old-sorted-list-insert-before-loop.mona-walk.dot_0__131states.dfa,1,0,4,0.0098,1,0,0
strand-old-sorted-list-insert-error-before-loop.mona-walk.dot_0__156states.dfa,26,65,72,1.3732,1,0,0
strand-old-sorted-list-insert-in-loop.mona-walk.dot_0__515states.dfa,1,0,4,0.0197,1,0,0
strand-old-sorted-list-reverse-after-loop.mona-walk.dot_0__131states.dfa,1,0,4,0.0146,1,0,0
strand-old-sorted-list-reverse-before-loop.mona-walk.dot_0__212states.dfa,111,1043,1333,34.8203,1,0,0
strand-old-sorted-list-reverse-in-loop.mona-walk.dot_0__515states.dfa,1,0,4,0.013,1,0,0
strand-old-sorted-list-search-after-loop.mona-walk.dot_0__317states.dfa,316,8535,8597,1240.2578,1,0,0
strand-old-sorted-list-search-before-loop.mona-walk.dot_0__112states.dfa,46,265,390,9.2057,1,0,0
ex11.mona.aut,2217,6513,30280,3222.7708,1,0,0
ex12.mona.aut,377,1089,2064,118.6156,1,0,0
ex13.mona.aut,933,4591,10506,805.9034,1,0,0
ex15.mona.aut,10,27,32,0.2869,1,0,0
ex16.mona.aut,543,1426,11770,186.8096,1,0,0
ex17.mona.aut,1,0,4,0.011,1,0,0
ex19.mona.aut,814,2885,13430,435.3878,1,0,0
ex7.mona.aut,148,373,1547,14.6104,1,0,0
horn_trans05.mona.aut,11,25,28,0.1772,1,0,0
horn_trans10.mona.aut,21,50,53,1.0196,1,0,0
parametric_uabe1_11.mona.aut,2507,7493,34788,4050.2996,1,0,0
parametric_uabe3_10.mona.aut,2257,6733,30470,3296.1604,1,0,0
set_closed05.mona.aut,24,53,86,0.6975,1,0,0
set_closed10.mona.aut,44,98,211,2.1675,1,0,0
set_obvious05.mona.aut,1,0,4,0.0094,1,0,0
set_obvious10.mona.aut,1,0,4,0.0126,1,0,0
set_singletons05.mona.aut,21,55,68,0.5569,1,0,0
set_singletons10.mona.aut,41,110,183,1.8675,1,0,0
strand-new-sorted-list-insert-after-loop.mona.aut,674,5429,4987,454.8903,1,0,0
strand-new-sorted-list-insert-before-head.mona.aut,219,1699,1570,65.8015,1,0,0
strand-new-sorted-list-insert-before-loop.mona.aut,387,3430,2181,187.0931,1,0,0
strand-new-sorted-list-insert-error-error.mona.aut,387,3430,2181,185.7664,1,0,0
strand-new-sorted-list-reverse-after-loop.mona.aut,956,20383,11152,1616.7679,1,0,0
strand-new-sorted-list-reverse-before-loop.mona.aut,956,20383,11152,1710.6622,1,0,0
strand-new-sorted-list-search-after-loop.mona.aut,431,5629,4197,272.1476,1,0,0
strand-new-sorted-list-search-before-loop.mona.aut,300,2849,1670,129.2614,1,0,0
toss05.mona.aut,65,288,174,4.6926,1,0,0
toss10.mona.aut,1413,16619,4772,2580.813,1,0,0
veanes05.mona.aut,6,11,13,0.0947,1,0,0
veanes05_1alts.mona.aut,19,45,109,0.3813,1,0,0
veanes05_2alts.mona.aut,31,172,73,1.6314,1,0,0
veanes05_3alts.mona.aut,19,50,87,0.4657,1,0,0
veanes05_4alts.mona.aut,25,91,70,0.8269,1,0,0
veanes10.mona.aut,11,21,23,0.2676,1,0,0
veanes10_1alts.mona.aut,39,95,414,1.3279,1,0,0
veanes10_2alts.mona.aut,780,33596,1576,2191.436,1,0,0
veanes10_3alts.mona.aut,39,100,357,1.5307,1,0,0
veanes10_4alts.mona.aut,588,15179,1206,907.5247,1,0,0
