id,states,transitions,simRelSize,time,goodruns,minterms,mintermizedAutomatonTransitions
0,14,40,160,0.1997,1,0,0
1,59,127,1326,2.6668,1,0,0
2,17,20,53,0.9481,1,0,0
3,2,1,5,0.024,1,0,0
4,29,47,131,0.9473,1,0,0
5,3,3,7,0.1586,1,0,0
6,18,21,41,0.3805,1,0,0
7,25,36,172,0.6659,1,0,0
8,3,6,9,0.0094,1,0,0
9,7,9,30,0.4575,1,0,0
10,12,14,26,0.5285,1,0,0
11,8,13,29,0.1318,1,0,0
12,16,19,38,0.3659,1,0,0
13,38,66,141,1.7068,1,0,0
14,44,81,181,1.9452,1,0,0
15,15,16,32,0.2364,1,0,0
16,3,3,8,0.0623,1,0,0
17,65,135,431,3.9801,1,0,0
18,44,49,215,1.6504,1,0,0
19,40,52,165,0.9694,1,0,0
20,6,10,23,1.125,1,0,0
21,4,5,9,0.1207,1,0,0
22,4,5,15,0.0757,1,0,0
23,11,13,23,0.3734,1,0,0
24,22,29,60,0.5553,1,0,0
25,11,11,78,0.1152,1,0,0
26,8,9,21,0.1705,1,0,0
27,6,11,22,0.2514,1,0,0
28,18,29,81,0.7405,1,0,0
29,11,11,50,0.4286,1,0,0
30,1,1,3,0.0339,1,0,0
31,33,36,220,1.1127,1,0,0
32,16,16,45,0.5317,1,0,0
33,36,51,133,0.8865,1,0,0
34,3,2,8,0.0276,1,0,0
35,19,24,137,0.6035,1,0,0
36,370,804,52332,86.2032,1,0,0
37,6,8,16,0.1207,1,0,0
38,3,3,8,0.03,1,0,0
39,28,66,93,2.3246,1,0,0
40,14,13,29,0.1377,1,0,0
41,13,26,84,0.4772,1,0,0
42,7,8,21,0.1586,1,0,0
43,9,13,22,0.2198,1,0,0
44,4,6,17,0.0769,1,0,0
45,19,23,95,0.309,1,0,0
46,7,8,21,0.2778,1,0,0
47,7,8,21,0.056,1,0,0
48,11,12,63,0.1223,1,0,0
49,2,2,6,0.0386,1,0,0
50,102,202,2363,12.0119,1,0,0
51,101,185,670,7.7676,1,0,0
52,10,9,25,0.1275,1,0,0
53,29,59,164,0.7989,1,0,0
54,17,40,117,1.4329,1,0,0
55,46,66,317,1.4747,1,0,0
56,3,4,8,0.0647,1,0,0
57,55,77,337,1.8304,1,0,0
58,101,185,670,15.0751,1,0,0
59,24,38,66,1.093,1,0,0
60,27,53,103,0.8593,1,0,0
61,14,34,50,0.5451,1,0,0
62,9,18,29,0.1689,1,0,0
63,7,8,31,0.9406,1,0,0
64,62,100,1011,2.263,1,0,0
65,64,102,1044,2.0534,1,0,0
66,15,16,63,0.1551,1,0,0
67,46,69,206,2.01,1,0,0
68,2,2,6,0.0311,1,0,0
69,3,4,9,0.026,1,0,0
70,32,31,530,0.8029,1,0,0
71,55,134,297,3.6793,1,0,0
72,132,230,2221,11.9373,1,0,0
73,143,262,2805,15.4568,1,0,0
74,124,238,2726,12.2716,1,0,0
75,22,50,242,0.8234,1,0,0
76,20,21,105,0.3892,1,0,0
77,6,5,13,0.0603,1,0,0
78,6,5,13,0.0422,1,0,0
79,8,11,31,0.103,1,0,0
80,30,71,141,1.6811,1,0,0
81,16,15,138,0.2384,1,0,0
82,5,5,12,0.039,1,0,0
83,1,1,3,0.0643,1,0,0
84,18,27,199,0.2115,1,0,0
85,32,50,172,0.8992,1,0,0
86,13,22,71,0.1543,1,0,0
87,2,3,3,0.013,1,0,0
88,19,30,168,0.2427,1,0,0
89,9,14,45,0.0844,1,0,0
90,26,42,171,1.1396,1,0,0
91,68,95,163,9.1844,1,0,0
92,25,33,131,0.6315,1,0,0
93,10,11,22,0.2222,1,0,0
94,3,3,9,0.088,1,0,0
95,4,5,12,0.0367,1,0,0
96,4,6,14,0.0525,1,0,0
97,5,8,18,0.0678,1,0,0
98,26,47,78,1.0251,1,0,0
99,6,11,20,0.1271,1,0,0
100,28,43,103,0.5403,1,0,0
101,8,13,26,0.1448,1,0,0
102,15,21,68,0.206,1,0,0
103,33,44,600,0.553,1,0,0
104,33,43,568,0.4728,1,0,0
105,16,24,76,0.4448,1,0,0
106,40,59,605,1.3642,1,0,0
107,29,30,136,0.4969,1,0,0
108,61,85,813,2.3064,1,0,0
109,21,23,120,0.4421,1,0,0
110,27,44,96,0.9292,1,0,0
111,20,20,41,0.2309,1,0,0
112,31,36,148,0.7602,1,0,0
113,43,46,131,1.6255,1,0,0
114,30,52,230,0.735,1,0,0
115,13,20,52,0.3102,1,0,0
116,8,8,18,0.0655,1,0,0
117,13,30,104,0.1642,1,0,0
118,18,33,120,0.3773,1,0,0
119,9,22,68,0.0592,1,0,0
120,49,53,150,1.2679,1,0,0
121,5,5,16,0.06,1,0,0
122,6,7,18,0.1215,1,0,0
123,14,17,55,0.1713,1,0,0
124,10,9,21,0.1125,1,0,0
125,9,8,19,0.0738,1,0,0
126,7,9,21,0.1397,1,0,0
127,21,38,66,4.6804,1,0,0
128,4,5,12,0.0856,1,0,0
129,95,150,1266,5.5981,1,0,0
130,1,1,1,0.0086,1,0,0
131,13,16,115,0.0876,1,0,0
132,79,248,1934,4.1779,1,0,0
133,79,248,1934,3.6919,1,0,0
134,6,9,24,0.1231,1,0,0
135,21,131,177,3.2348,1,0,0
136,3,5,11,0.0442,1,0,0
137,14,16,47,0.1638,1,0,0
138,13,18,42,0.2518,1,0,0
139,7,7,15,0.0769,1,0,0
140,2,3,3,0.03,1,0,0
141,65,69,378,5.7142,1,0,0
142,14,17,34,0.225,1,0,0
143,14,18,32,0.2917,1,0,0
144,31,30,441,0.958,1,0,0
145,7,9,20,0.1634,1,0,0
146,13,15,42,0.1519,1,0,0
147,28,39,97,0.4713,1,0,0
148,13,16,29,0.1381,1,0,0
149,19,32,188,0.3584,1,0,0
150,4,7,15,0.0678,1,0,0
151,39,42,379,1.0673,1,0,0
152,28,30,212,0.6288,1,0,0
153,79,148,2923,5.383,1,0,0
154,74,74,149,3.9446,1,0,0
155,3,5,7,0.0256,1,0,0
156,25,69,326,0.5289,1,0,0
157,13,17,35,0.2171,1,0,0
158,23,32,121,0.5478,1,0,0
159,20,23,106,0.3675,1,0,0
160,10,16,35,0.1748,1,0,0
161,15,16,33,0.159,1,0,0
162,77,108,1056,3.7452,1,0,0
163,13,33,55,0.3213,1,0,0
164,13,12,55,0.1693,1,0,0
165,9,33,63,0.4657,1,0,0
166,747,986,159914,268.0336,1,0,0
167,76,116,234,3.4543,1,0,0
168,11,11,77,0.0943,1,0,0
169,2,2,6,0.0221,1,0,0
170,9,8,20,0.0746,1,0,0
171,9,8,19,0.0746,1,0,0
172,9,8,19,0.0757,1,0,0
173,6,5,13,0.0528,1,0,0
174,80,104,407,3.6134,1,0,0
175,4,7,12,0.1053,1,0,0
176,4,7,12,0.1026,1,0,0
177,10,12,33,0.0947,1,0,0
178,34,55,322,0.9635,1,0,0
179,7,14,37,0.1496,1,0,0
180,279,489,2655,45.742,1,0,0
181,8,8,21,0.1219,1,0,0
182,12,17,73,0.1803,1,0,0
183,19,24,137,0.5246,1,0,0
184,48,59,221,1.2189,1,0,0
185,15,29,81,0.5001,1,0,0
186,3,4,9,0.0359,1,0,0
187,14,13,29,0.1389,1,0,0
188,15,14,31,0.1527,1,0,0
189,14,13,29,0.1381,1,0,0
190,14,13,29,0.1397,1,0,0
191,44,59,108,1.3654,1,0,0
192,25,25,52,0.789,1,0,0
193,18,19,39,0.3892,1,0,0
194,6,8,19,0.1255,1,0,0
195,4,10,12,0.1409,1,0,0
196,8,8,18,0.0971,1,0,0
197,71,118,962,5.218,1,0,0
198,2,3,5,0.0382,1,0,0
199,4,5,10,0.0367,1,0,0
200,4,7,12,0.0469,1,0,0
201,11,15,50,0.2135,1,0,0
202,32,34,138,0.581,1,0,0
203,13,16,29,0.2096,1,0,0
204,10,11,27,0.103,1,0,0
205,8,8,18,0.073,1,0,0
206,95,194,502,12.1994,1,0,0
207,3,6,9,0.009,1,0,0
208,9,38,81,0.0967,1,0,0
209,70,80,1087,3.3651,1,0,0
210,138,186,10006,9.0703,1,0,0
211,23,26,171,0.4993,1,0,0
212,44,52,583,3.4606,1,0,0
213,17,34,206,0.1689,1,0,0
214,16,19,87,0.2976,1,0,0
215,26,42,125,0.7409,1,0,0
216,4,6,15,0.0513,1,0,0
217,36,74,206,1.1344,1,0,0
218,3,4,11,0.0777,1,0,0
219,19,30,91,0.6422,1,0,0
220,6,10,29,0.0702,1,0,0
221,49,110,190,2.966,1,0,0
222,12,15,30,0.1397,1,0,0
223,18,21,72,0.2478,1,0,0
224,52,69,232,1.989,1,0,0
225,94,124,266,4.9295,1,0,0
226,36,51,149,0.7973,1,0,0
227,18,30,76,0.2869,1,0,0
228,6,7,14,0.0714,1,0,0
229,25,34,87,0.5478,1,0,0
230,5,8,13,0.1326,1,0,0
231,5,14,22,0.1271,1,0,0
232,3,5,9,0.0272,1,0,0
233,23,25,48,0.3075,1,0,0
234,15,17,34,0.2032,1,0,0
235,18,36,96,1.108,1,0,0
236,13,26,84,0.1357,1,0,0
237,96,121,215,27.9151,1,0,0
238,20,26,50,0.3035,1,0,0
239,12,23,76,0.3236,1,0,0
240,79,101,295,4.1416,1,0,0
241,31,30,196,0.5553,1,0,0
242,9,10,25,0.1425,1,0,0
243,100,187,1906,30.5978,1,0,0
244,215,401,2470,71.3898,1,0,0
245,27,50,111,9.0284,1,0,0
246,8,11,26,0.1665,1,0,0
247,86,115,1004,3.8723,1,0,0
248,3,4,9,0.0868,1,0,0
249,17,18,60,0.2135,1,0,0
250,20,26,52,0.3552,1,0,0
251,3,2,7,0.0414,1,0,0
252,24,39,69,3.9375,1,0,0
253,65,102,151,3.8495,1,0,0
254,5,5,12,0.0564,1,0,0
255,4,3,9,0.0311,1,0,0
256,37,61,118,1.2051,1,0,0
257,11,12,31,0.1093,1,0,0
258,9,8,19,0.0726,1,0,0
259,15,26,88,0.4432,1,0,0
260,10,11,31,0.1069,1,0,0
261,5,10,17,0.043,1,0,0
262,5,10,20,0.1022,1,0,0
263,43,52,253,5.5642,1,0,0
264,15,16,33,0.165,1,0,0
265,10,9,21,0.0868,1,0,0
266,19,27,51,0.4401,1,0,0
267,13,16,31,0.1602,1,0,0
268,7,6,15,0.0576,1,0,0
269,7,8,21,0.0611,1,0,0
270,11,17,58,0.1744,1,0,0
271,56,94,793,2.0633,1,0,0
272,28,31,113,0.5968,1,0,0
273,11,19,52,0.1894,1,0,0
274,205,3036,8036,84.2366,1,0,0
275,39,41,159,0.8585,1,0,0
276,13,18,35,0.219,1,0,0
277,29,45,145,0.8664,1,0,0
278,7,18,43,0.0165,1,0,0
279,44,45,175,1.6361,1,0,0
280,10,11,27,0.159,1,0,0
281,10,15,36,0.1563,1,0,0
282,6,12,23,0.135,1,0,0
283,22,28,181,1.044,1,0,0
284,20,22,44,0.2447,1,0,0
285,20,22,44,0.2601,1,0,0
286,11,13,52,0.133,1,0,0
287,2,2,6,0.0197,1,0,0
288,14,16,32,0.2605,1,0,0
289,5,9,20,0.0607,1,0,0
290,30,31,90,0.6355,1,0,0
291,9,20,45,0.2617,1,0,0
292,17,36,63,0.7093,1,0,0
293,12,11,25,0.1251,1,0,0
294,3,4,10,0.0896,1,0,0
295,33,54,232,0.9505,1,0,0
296,21,45,218,1.5825,1,0,0
297,2,3,3,0.015,1,0,0
298,11,11,23,0.0963,1,0,0
299,7,9,34,0.1476,1,0,0
300,7,8,18,0.0975,1,0,0
301,60,134,450,3.2731,1,0,0
302,15,19,103,0.2013,1,0,0
303,15,25,108,0.2759,1,0,0
304,59,257,1264,3.3394,1,0,0
305,29,41,92,0.7523,1,0,0
306,24,38,176,0.4938,1,0,0
307,29,61,213,1.2015,1,0,0
308,43,156,434,2.2689,1,0,0
309,16,22,40,0.2672,1,0,0
310,5,9,25,0.0892,1,0,0
311,38,70,168,9.9557,1,0,0
312,4,6,13,0.045,1,0,0
313,29,32,91,0.4626,1,0,0
314,45,46,139,1.0421,1,0,0
315,20,33,55,0.4089,1,0,0
316,24,26,189,0.4788,1,0,0
317,19,20,77,0.2265,1,0,0
318,21,22,89,0.2648,1,0,0
319,16,29,61,0.6347,1,0,0
320,3,5,11,0.0521,1,0,0
321,19,27,60,0.3876,1,0,0
322,393,736,10437,107.4548,1,0,0
323,7,15,22,0.1981,1,0,0
324,5,6,15,0.0418,1,0,0
325,15,14,31,0.2731,1,0,0
326,16,26,52,0.3864,1,0,0
327,43,56,139,1.706,1,0,0
328,45,55,276,1.2769,1,0,0
329,43,70,324,1.4368,1,0,0
330,10,20,52,0.2202,1,0,0
331,30,40,308,1.7715,1,0,0
332,52,84,559,1.9061,1,0,0
333,16,20,97,0.1713,1,0,0
334,2,3,3,0.0288,1,0,0
335,2,3,5,0.0228,1,0,0
336,9,15,42,0.1377,1,0,0
337,13,29,129,0.1042,1,0,0
338,35,120,413,1.6879,1,0,0
339,16,16,33,0.1697,1,0,0
340,15,34,109,1.0602,1,0,0
341,11,19,42,0.2451,1,0,0
342,80,114,229,6.8641,1,0,0
343,57,195,1840,2.188,1,0,0
344,18,27,86,0.3319,1,0,0
345,25,34,87,0.4618,1,0,0
346,10,24,42,0.2403,1,0,0
347,18,21,79,0.2992,1,0,0
348,14,18,101,0.225,1,0,0
349,21,34,148,0.4464,1,0,0
350,40,51,422,0.9631,1,0,0
351,16,22,71,0.1744,1,0,0
352,10,17,46,0.1326,1,0,0
353,3,2,7,0.0307,1,0,0
354,8,8,21,0.0742,1,0,0
355,89,172,1150,10.6627,1,0,0
356,5,6,16,0.0694,1,0,0
357,18,30,120,0.2482,1,0,0
358,11,11,24,0.1393,1,0,0
359,9,11,23,0.0927,1,0,0
360,27,57,156,0.8605,1,0,0
361,64,141,772,4.0208,1,0,0
362,16,21,102,0.1638,1,0,0
363,20,27,159,0.3331,1,0,0
364,23,36,183,0.3303,1,0,0
365,52,78,324,3.3987,1,0,0
366,101,100,1583,20.7396,1,0,0
367,27,31,61,0.6556,1,0,0
368,14,14,60,0.1823,1,0,0
369,16,28,63,0.4531,1,0,0
370,10,21,63,0.3434,1,0,0
371,28,48,85,0.6817,1,0,0
372,54,65,149,1.6855,1,0,0
373,4,3,9,0.0481,1,0,0
374,11,11,24,0.135,1,0,0
375,19,18,39,0.2494,1,0,0
376,9,10,21,0.54,1,0,0
377,8,11,47,0.1488,1,0,0
378,32,33,96,0.5719,1,0,0
379,18,32,56,0.4618,1,0,0
380,45,44,91,1.074,1,0,0
381,30,33,69,0.7527,1,0,0
382,31,30,63,0.5384,1,0,0
383,49,65,231,2.769,1,0,0
384,18,19,55,0.3797,1,0,0
385,34,34,74,0.611,1,0,0
386,5,8,14,0.1342,1,0,0
387,13,14,39,0.2403,1,0,0
388,28,72,159,1.4873,1,0,0
389,11,10,23,0.1101,1,0,0
390,9,10,27,0.1247,1,0,0
391,9,10,27,0.1203,1,0,0
392,2,3,3,0.03,1,0,0
393,3,5,6,0.0228,1,0,0
394,24,26,68,0.4247,1,0,0
395,46,80,462,3.5404,1,0,0
396,7,14,39,0.268,1,0,0
397,9,13,28,0.2036,1,0,0
398,8,12,27,0.129,1,0,0
399,19,29,167,0.7555,1,0,0
400,14,26,69,0.2869,1,0,0
401,7,9,18,0.0986,1,0,0
402,28,29,84,0.4792,1,0,0
403,5,6,15,0.0398,1,0,0
404,11,46,68,0.1547,1,0,0
405,12,17,96,0.3165,1,0,0
406,18,25,44,0.2478,1,0,0
407,13,19,50,0.1827,1,0,0
408,21,47,117,0.6781,1,0,0
409,6,5,13,0.0442,1,0,0
410,13,22,53,0.5194,1,0,0
411,6,8,18,0.1105,1,0,0
412,113,132,1147,8.4979,1,0,0
413,5,5,18,0.0473,1,0,0
414,7,9,22,0.1405,1,0,0
415,558,2116,141672,151.032,1,0,0
416,7,8,18,0.0702,1,0,0
417,17,23,74,0.3311,1,0,0
418,7,8,18,0.0828,1,0,0
419,6,9,25,0.1626,1,0,0
420,9,10,48,0.0765,1,0,0
421,19,18,84,0.2865,1,0,0
422,16,39,83,0.6746,1,0,0
423,20,44,115,0.819,1,0,0
424,16,32,97,0.3126,1,0,0
425,9,14,36,0.1713,1,0,0
426,9,14,36,0.1002,1,0,0
427,5,7,15,0.0856,1,0,0
428,54,120,430,2.8393,1,0,0
429,18,25,64,0.2632,1,0,0
430,13,24,50,0.2676,1,0,0
431,61,86,137,2.3364,1,0,0
432,36,46,322,0.8068,1,0,0
433,42,61,125,1.4577,1,0,0
434,41,62,131,2.9408,1,0,0
435,7,9,16,0.193,1,0,0
436,19,28,265,0.1346,1,0,0
437,302,769,24236,51.0836,1,0,0
438,7,10,21,0.2052,1,0,0
439,4,6,13,0.0682,1,0,0
440,31,55,259,0.8471,1,0,0
441,49,50,147,1.168,1,0,0
442,6,13,22,0.2372,1,0,0
443,12,13,48,0.1148,1,0,0
444,6,9,25,0.0742,1,0,0
445,22,24,105,0.2838,1,0,0
446,17,47,82,0.9513,1,0,0
447,7,9,21,0.1748,1,0,0
448,99,249,2030,8.2883,1,0,0
449,15,20,38,0.1815,1,0,0
450,4,7,16,0.1077,1,0,0
451,15,31,84,0.6892,1,0,0
452,17,28,91,0.3355,1,0,0
453,8,10,33,0.1598,1,0,0
454,2,3,3,0.0244,1,0,0
455,104,167,1501,6.5641,1,0,0
456,4,7,11,0.0197,1,0,0
457,6,5,15,0.0477,1,0,0
458,17,37,99,0.6063,1,0,0
459,11,28,45,0.6011,1,0,0
460,16,25,57,0.1957,1,0,0
461,20,27,59,0.5309,1,0,0
462,22,28,181,0.4318,1,0,0
463,128,145,1484,9.8294,1,0,0
464,11,16,42,0.1867,1,0,0
465,4,9,16,0.026,1,0,0
466,13,37,120,0.1906,1,0,0
467,12,20,83,0.1488,1,0,0
468,17,34,142,0.3931,1,0,0
469,11,14,50,0.15,1,0,0
470,34,36,169,0.6678,1,0,0
471,17,22,72,0.2838,1,0,0
472,20,36,58,0.5759,1,0,0
473,24,25,50,0.7484,1,0,0
474,2,3,3,0.0161,1,0,0
475,5,7,13,0.1073,1,0,0
476,44,125,218,5.5488,1,0,0
477,11,10,24,0.1117,1,0,0
478,27,30,128,0.6288,1,0,0
479,4,7,11,0.071,1,0,0
480,4,6,14,0.0615,1,0,0
481,5,7,19,0.0722,1,0,0
482,6,12,24,0.1598,1,0,0
483,2,2,6,0.0323,1,0,0
484,18,27,111,0.2723,1,0,0
485,13,14,29,0.1614,1,0,0
486,11,16,40,0.2171,1,0,0
487,14,35,75,0.4113,1,0,0
488,20,84,231,1.3164,1,0,0
489,47,70,129,2.0147,1,0,0
490,101,139,1370,5.2804,1,0,0
491,36,51,142,1.856,1,0,0
492,14,23,48,0.27,1,0,0
493,12,15,34,0.1843,1,0,0
494,14,19,68,0.2806,1,0,0
495,31,39,238,0.7784,1,0,0
496,22,29,65,0.4468,1,0,0
497,7,9,27,0.0777,1,0,0
498,6,9,28,0.0596,1,0,0
499,16,18,70,0.1598,1,0,0
500,6,10,23,0.1255,1,0,0
501,70,127,312,4.1712,1,0,0
502,22,29,65,0.3402,1,0,0
503,53,54,160,1.4546,1,0,0
504,63,92,314,2.2756,1,0,0
505,20,27,131,0.5877,1,0,0
506,501,718,3440,144.8066,1,0,0
507,15,16,47,0.2652,1,0,0
508,8,10,25,0.0959,1,0,0
509,76,139,2238,6.6928,1,0,0
510,21,38,80,1.6756,1,0,0
511,22,40,67,1.479,1,0,0
512,13,20,50,0.1571,1,0,0
513,13,22,119,0.1977,1,0,0
514,25,26,76,0.4863,1,0,0
515,13,20,61,0.1346,1,0,0
516,97,132,712,6.3118,1,0,0
517,7,8,23,0.0714,1,0,0
518,4,5,12,0.0477,1,0,0
519,5,4,11,0.0386,1,0,0
520,3,4,11,0.0817,1,0,0
521,3,5,9,0.099,1,0,0
522,20,28,82,0.3078,1,0,0
523,16,34,60,0.4188,1,0,0
524,5,4,11,0.0576,1,0,0
525,10,15,55,0.2135,1,0,0
526,24,50,114,0.5826,1,0,0
527,4,5,11,0.0702,1,0,0
528,39,52,110,1.6385,1,0,0
529,89,90,281,3.6967,1,0,0
530,21,23,62,0.3043,1,0,0
531,12,14,28,0.1634,1,0,0
532,32,67,129,4.5071,1,0,0
533,7,10,22,0.1125,1,0,0
534,12,22,80,0.1136,1,0,0
535,81,82,243,3.3821,1,0,0
536,23,32,181,0.3138,1,0,0
537,17,40,90,0.6418,1,0,0
538,103,143,1559,8.1975,1,0,0
539,13,36,80,0.9884,1,0,0
540,3,5,7,0.0532,1,0,0
541,5,8,21,0.0469,1,0,0
542,30,81,143,1.7194,1,0,0
543,17,27,72,0.3161,1,0,0
544,44,70,313,1.2485,1,0,0
545,25,39,131,0.4796,1,0,0
546,14,35,57,0.5261,1,0,0
547,21,59,148,1.0677,1,0,0
548,6,10,27,0.0907,1,0,0
549,19,32,61,0.4867,1,0,0
550,75,76,225,6.405,1,0,0
551,45,46,135,1.0456,1,0,0
552,11,13,41,0.1117,1,0,0
553,576,1102,10756,268.1161,1,0,0
554,223,1964,39527,33.7758,1,0,0
555,13,16,79,0.3221,1,0,0
556,6,9,21,0.0663,1,0,0
557,18,21,55,0.2652,1,0,0
558,17,22,62,0.3473,1,0,0
559,18,23,85,0.2325,1,0,0
560,27,35,66,1.1167,1,0,0
561,14,17,43,0.2044,1,0,0
562,46,70,238,1.8627,1,0,0
563,20,23,62,0.3094,1,0,0
564,11,10,28,0.1018,1,0,0
565,19,26,44,0.2909,1,0,0
566,21,57,323,0.7815,1,0,0
567,7,9,25,0.1448,1,0,0
568,7,8,16,0.0706,1,0,0
569,99,181,1456,9.5215,1,0,0
570,5,10,19,0.0718,1,0,0
571,8,8,38,0.1132,1,0,0
572,6,6,13,0.045,1,0,0
573,4,6,17,0.0552,1,0,0
574,13,29,105,0.3355,1,0,0
575,10,24,79,0.0706,1,0,0
576,70,84,397,2.595,1,0,0
577,3,4,8,0.0477,1,0,0
578,74,97,1002,2.8583,1,0,0
579,4,4,15,0.0505,1,0,0
580,16,20,37,0.1922,1,0,0
581,57,76,213,2.3581,1,0,0
582,16,21,50,0.3236,1,0,0
583,88,105,544,5.4687,1,0,0
584,68,128,337,4.6433,1,0,0
585,22,61,225,0.8131,1,0,0
586,67,198,908,6.3778,1,0,0
587,5,9,19,0.039,1,0,0
588,36,67,296,1.7234,1,0,0
589,13,30,83,0.2261,1,0,0
590,4,6,14,0.0643,1,0,0
591,12,24,64,0.1709,1,0,0
592,11,12,51,0.0975,1,0,0
593,39,78,663,0.8936,1,0,0
594,220,276,17607,25.6943,1,0,0
595,29,68,572,0.3994,1,0,0
596,5,7,16,0.0615,1,0,0
597,20,30,48,0.3986,1,0,0
598,15,28,81,0.3698,1,0,0
599,12,34,118,0.0896,1,0,0
600,13,25,116,0.2877,1,0,0
601,8,7,17,0.0663,1,0,0
602,5,5,17,0.0426,1,0,0
603,12,13,27,0.12,1,0,0
604,2,1,5,0.0197,1,0,0
605,8,18,44,0.1152,1,0,0
606,32,41,194,0.6911,1,0,0
607,12,37,72,0.3359,1,0,0
608,24,32,86,0.384,1,0,0
609,28,58,261,0.6588,1,0,0
610,15,30,82,0.1934,1,0,0
611,103,166,2122,13.2908,1,0,0
612,107,173,2322,14.5082,1,0,0
613,16,51,74,0.883,1,0,0
614,9,10,48,0.075,1,0,0
615,6,15,30,0.133,1,0,0
616,9,11,30,0.165,1,0,0
617,7,9,25,0.1125,1,0,0
618,16,19,50,0.2775,1,0,0
619,9,13,30,0.161,1,0,0
620,9,11,30,0.0856,1,0,0
621,9,13,35,0.1792,1,0,0
622,8,12,39,0.1831,1,0,0
623,14,16,31,0.1511,1,0,0
624,65,64,2084,3.4673,1,0,0
625,6,6,15,0.0485,1,0,0
626,11,11,24,0.1093,1,0,0
627,19,29,168,0.3078,1,0,0
628,11,18,31,0.1531,1,0,0
629,11,21,34,0.1326,1,0,0
630,15,14,31,0.1547,1,0,0
631,13,20,54,0.1796,1,0,0
632,71,113,630,3.3746,1,0,0
633,8,14,31,0.0975,1,0,0
634,10,9,46,0.1626,1,0,0
635,23,31,75,0.4259,1,0,0
636,19,24,60,0.3414,1,0,0
637,26,35,68,0.6102,1,0,0
638,4,6,17,0.0426,1,0,0
639,13,16,46,0.1764,1,0,0
640,15,17,65,0.146,1,0,0
641,153,200,1035,16.2932,1,0,0
642,65,87,307,2.278,1,0,0
643,194,472,3879,26.5971,1,0,0
644,21,24,56,0.279,1,0,0
645,5,9,20,0.0986,1,0,0
646,22,22,47,0.3217,1,0,0
647,18,23,50,0.3406,1,0,0
648,11,14,27,0.178,1,0,0
649,9,10,27,0.1342,1,0,0
650,12,14,28,0.146,1,0,0
651,9,26,50,0.3225,1,0,0
652,14,25,116,0.1563,1,0,0
653,8,9,18,0.1192,1,0,0
654,19,21,48,0.2617,1,0,0
655,8,7,17,0.0663,1,0,0
656,9,11,20,0.1235,1,0,0
657,12,28,50,0.2021,1,0,0
658,9,11,20,0.1717,1,0,0
659,21,44,97,1.0014,1,0,0
660,12,16,41,0.4057,1,0,0
661,10,10,58,0.0836,1,0,0
662,16,21,43,0.2163,1,0,0
663,8,12,25,0.2818,1,0,0
664,19,20,67,0.371,1,0,0
665,9,9,20,0.1002,1,0,0
666,2,3,3,0.0138,1,0,0
667,18,22,76,0.2265,1,0,0
668,68,95,339,3.4843,1,0,0
669,14,27,116,0.2135,1,0,0
670,6,7,16,0.0497,1,0,0
671,37,110,1009,0.3746,1,0,0
672,3,5,7,0.0157,1,0,0
673,11,70,133,0.3927,1,0,0
674,11,17,41,0.2767,1,0,0
675,7,9,26,0.06,1,0,0
676,29,75,293,1.5434,1,0,0
677,13,25,89,0.1326,1,0,0
678,13,16,30,0.1815,1,0,0
679,8,9,24,0.0694,1,0,0
680,15,20,35,0.3177,1,0,0
681,33,38,123,0.6197,1,0,0
682,2,3,3,0.03,1,0,0
683,35,35,73,0.643,1,0,0
684,72,75,399,2.8496,1,0,0
685,35,47,78,0.7018,1,0,0
686,116,117,468,6.4078,1,0,0
687,1,1,1,0.0082,1,0,0
688,8,9,24,0.1144,1,0,0
689,59,60,179,1.6508,1,0,0
690,20,26,104,0.7957,1,0,0
691,17,29,91,0.3122,1,0,0
692,15,16,33,0.2289,1,0,0
693,4,6,13,0.1053,1,0,0
694,4,8,14,0.0552,1,0,0
695,6,11,25,0.1097,1,0,0
696,9,13,33,0.1626,1,0,0
697,7,12,28,0.1539,1,0,0
698,2,2,6,0.0327,1,0,0
699,307,581,5836,71.7237,1,0,0
700,324,623,7355,71.5346,1,0,0
701,11,10,23,0.1472,1,0,0
702,22,23,66,0.3007,1,0,0
703,15,17,33,0.1673,1,0,0
704,15,19,95,0.2088,1,0,0
705,3,5,9,0.0256,1,0,0
706,7,14,33,0.0651,1,0,0
707,72,118,398,6.883,1,0,0
708,45,73,609,1.1585,1,0,0
709,27,43,116,0.6248,1,0,0
710,3,6,9,0.009,1,0,0
711,15,38,200,0.0848,1,0,0
712,23,35,199,0.4338,1,0,0
713,23,30,98,0.3536,1,0,0
714,9,8,40,0.131,1,0,0
715,26,34,78,0.6331,1,0,0
716,11,16,35,0.1634,1,0,0
717,33,58,112,1.0207,1,0,0
718,92,110,369,4.7479,1,0,0
719,92,110,423,5.4924,1,0,0
720,6,7,22,0.056,1,0,0
721,23,24,70,0.3276,1,0,0
722,14,16,31,0.1421,1,0,0
723,31,51,280,0.7353,1,0,0
724,4,6,14,0.0296,1,0,0
725,42,45,395,0.9146,1,0,0
726,19,27,79,0.3177,1,0,0
727,31,48,118,0.7484,1,0,0
728,48,52,165,1.2157,1,0,0
729,53,55,253,1.4029,1,0,0
730,9,17,51,0.1184,1,0,0
731,2,3,3,0.0146,1,0,0
732,3,6,9,0.0098,1,0,0
733,3,3,8,0.0453,1,0,0
734,46,118,1122,1.7088,1,0,0
735,224,362,757,29.9587,1,0,0
736,21,21,44,0.3118,1,0,0
737,10,17,40,0.1926,1,0,0
738,9,10,34,0.0959,1,0,0
739,5,6,15,0.0465,1,0,0
740,25,61,123,0.9588,1,0,0
741,177,256,7045,22.1938,1,0,0
742,5,8,23,0.2411,1,0,0
743,16,37,71,0.4034,1,0,0
744,12,13,28,0.1101,1,0,0
745,130,195,4295,14.5315,1,0,0
746,7,10,20,0.1614,1,0,0
747,13,22,37,0.5696,1,0,0
748,12,21,53,0.1456,1,0,0
749,17,30,129,0.2084,1,0,0
750,6,9,25,0.12,1,0,0
751,16,17,71,0.2336,1,0,0
752,18,26,46,0.251,1,0,0
753,19,23,77,0.2917,1,0,0
754,16,25,77,0.4456,1,0,0
755,19,33,52,0.4709,1,0,0
756,7,15,35,0.1965,1,0,0
757,54,81,224,2.2563,1,0,0
758,29,39,114,0.8013,1,0,0
759,56,78,1167,2.2373,1,0,0
760,81,118,2709,4.7274,1,0,0
761,17,35,72,0.2857,1,0,0
762,508,923,3710,175.6365,1,0,0
763,51,87,627,16.8261,1,0,0
764,6,8,28,0.0556,1,0,0
765,87,101,612,4.3445,1,0,0
766,25,32,69,0.6371,1,0,0
767,18,18,79,0.236,1,0,0
768,4,5,10,0.0386,1,0,0
769,9,12,24,0.0911,1,0,0
770,16,31,108,0.3761,1,0,0
771,11,14,39,0.1219,1,0,0
772,22,56,251,0.3896,1,0,0
773,13,22,57,0.2281,1,0,0
774,20,30,88,0.7555,1,0,0
775,2,2,6,0.0434,1,0,0
776,55,74,227,1.7573,1,0,0
777,13,16,43,0.2072,1,0,0
778,14,26,63,0.1847,1,0,0
779,12,22,107,0.1184,1,0,0
780,22,25,105,0.3623,1,0,0
781,35,50,350,1.3243,1,0,0
782,39,70,440,1.1396,1,0,0
783,29,37,96,0.4792,1,0,0
784,13,30,77,0.3548,1,0,0
785,8,19,38,0.1148,1,0,0
786,53,149,462,3.1089,1,0,0
787,53,149,462,2.4572,1,0,0
788,23,31,131,0.5719,1,0,0
789,18,23,140,0.2017,1,0,0
790,6,7,17,0.0852,1,0,0
791,15,18,37,0.1618,1,0,0
792,11,18,65,0.2206,1,0,0
793,12,18,47,0.2573,1,0,0
794,6,8,16,0.0651,1,0,0
795,11,12,25,0.131,1,0,0
796,28,55,243,0.9367,1,0,0
797,33,57,399,0.6663,1,0,0
798,9,17,50,0.1117,1,0,0
799,288,465,2609,58.1107,1,0,0
800,546,2608,174629,325.5156,1,0,0
801,5,8,15,0.0907,1,0,0
802,25,32,167,0.5798,1,0,0
803,46,72,1058,1.0855,1,0,0
804,7,8,18,0.0734,1,0,0
805,6,7,15,0.1282,1,0,0
806,72,120,228,3.7105,1,0,0
807,1501,1500,1127253,706.9883,1,0,0
808,38,50,320,1.3081,1,0,0
809,11,10,24,0.1432,1,0,0
810,22,28,69,0.5159,1,0,0
811,15,22,96,0.1519,1,0,0
812,9,11,20,0.1886,1,0,0
813,42,47,410,1.0476,1,0,0
814,10,18,91,0.0244,1,0,0
815,13,23,105,0.6663,1,0,0
816,19,19,41,0.2506,1,0,0
817,6,8,16,0.0947,1,0,0
818,10,11,23,0.114,1,0,0
819,9,8,19,0.0742,1,0,0
820,9,8,19,0.075,1,0,0
821,18,17,37,0.2261,1,0,0
822,10,19,95,0.0497,1,0,0
823,2,2,6,0.0209,1,0,0
824,1,1,3,0.0157,1,0,0
825,29,41,65,0.5846,1,0,0
826,8,11,25,0.0919,1,0,0
827,8,8,17,0.504,1,0,0
828,3,5,7,0.0394,1,0,0
829,4,7,14,0.0414,1,0,0
830,4,7,15,0.028,1,0,0
831,74,99,677,3.1587,1,0,0
832,14,14,30,0.206,1,0,0
833,22,32,80,0.5747,1,0,0
834,307,306,9296,63.6628,1,0,0
835,19,19,39,0.2392,1,0,0
836,15,14,31,0.1531,1,0,0
837,41,42,152,0.9375,1,0,0
838,53,55,238,1.528,1,0,0
839,26,26,74,0.3927,1,0,0
840,32,32,91,0.5581,1,0,0
841,17,16,35,0.2178,1,0,0
842,134,141,1055,9.5894,1,0,0
843,8,11,27,0.1061,1,0,0
844,63,68,702,2.3696,1,0,0
845,8,9,24,0.0801,1,0,0
846,18,23,80,0.2257,1,0,0
847,74,116,443,4.6677,1,0,0
848,56,79,183,1.9752,1,0,0
849,38,41,460,0.8818,1,0,0
850,2,3,6,0.0205,1,0,0
851,2,3,6,0.0197,1,0,0
852,385,1323,3177,120.1022,1,0,0
853,3,5,11,0.0375,1,0,0
854,577,1105,36051,329.33,1,0,0
855,25,279,305,17.2122,1,0,0
856,39,40,171,0.984,1,0,0
857,55,78,164,1.9334,1,0,0
858,19,35,188,0.2317,1,0,0
859,13,13,28,0.1373,1,0,0
860,35,60,167,0.8948,1,0,0
861,12,20,54,0.1519,1,0,0
862,30,45,103,0.7275,1,0,0
863,17,21,46,0.7286,1,0,0
864,5,9,24,0.0319,1,0,0
865,81,96,340,4.1704,1,0,0
866,11,13,30,0.1061,1,0,0
867,13,19,52,0.1701,1,0,0
868,9,26,35,0.2857,1,0,0
869,46,59,148,1.1364,1,0,0
870,178,267,6659,14.7873,1,0,0
871,28,55,258,0.5182,1,0,0
872,21,38,74,0.8842,1,0,0
873,46,65,402,1.9425,1,0,0
874,37,45,430,0.7835,1,0,0
875,28,30,325,0.5652,1,0,0
876,9,11,23,0.1093,1,0,0
877,2,2,6,0.0647,1,0,0
878,13,20,44,0.2498,1,0,0
879,4,4,10,0.0327,1,0,0
880,842,4387,39378,648.6202,1,0,0
881,5,7,18,0.0998,1,0,0
882,2,2,5,0.0907,1,0,0
883,6,9,33,0.0339,1,0,0
884,39,66,396,1.4526,1,0,0
885,10,14,26,0.1365,1,0,0
886,10,30,49,0.8044,1,0,0
887,45,51,193,1.5193,1,0,0
888,22,26,71,0.4523,1,0,0
889,19,30,87,0.6714,1,0,0
890,8,11,38,0.3292,1,0,0
891,34,50,195,0.746,1,0,0
892,5,8,19,0.0532,1,0,0
893,75,99,1939,3.2266,1,0,0
894,36,66,450,0.6825,1,0,0
895,4,6,15,0.0394,1,0,0
896,9,10,28,0.0994,1,0,0
897,12,15,38,0.1263,1,0,0
898,6,7,18,0.0939,1,0,0
899,11,21,68,0.1326,1,0,0
900,16,32,157,0.2601,1,0,0
901,13,23,117,0.1298,1,0,0
902,12,22,56,0.1634,1,0,0
903,64,140,461,3.3552,1,0,0
904,14,13,31,0.1421,1,0,0
905,10,26,68,0.1792,1,0,0
906,17,21,39,0.2218,1,0,0
907,25,31,79,0.4148,1,0,0
908,18,22,41,0.3161,1,0,0
909,7,16,46,0.0607,1,0,0
910,55,71,121,3.178,1,0,0
911,17,19,39,0.2632,1,0,0
912,33,43,80,0.7744,1,0,0
913,10,21,48,0.1709,1,0,0
914,65,98,224,3.3616,1,0,0
915,76,106,521,3.3616,1,0,0
916,2,2,6,0.0189,1,0,0
917,3,4,9,0.041,1,0,0
918,201,4009,5170,93.993,1,0,0
919,72,132,2748,2.4375,1,0,0
920,22,36,66,0.9975,1,0,0
921,52,79,451,4.0543,1,0,0
922,30,40,91,0.6982,1,0,0
923,2,3,3,0.0836,1,0,0
924,11,14,45,0.2265,1,0,0
925,27,41,111,0.6469,1,0,0
926,15,16,33,0.1725,1,0,0
927,17,17,41,0.191,1,0,0
928,5,7,18,0.0596,1,0,0
929,1,1,3,0.03,1,0,0
930,11,21,73,0.2621,1,0,0
931,8,15,45,0.084,1,0,0
932,11,33,63,0.6698,1,0,0
933,10,12,31,0.1006,1,0,0
934,6,8,16,0.0663,1,0,0
935,20,35,61,0.5317,1,0,0
936,7,8,16,0.0627,1,0,0
937,12,44,71,0.3067,1,0,0
938,10,26,58,0.163,1,0,0
939,9,11,35,0.0738,1,0,0
940,26,51,232,0.6623,1,0,0
941,48,56,601,1.1636,1,0,0
942,11,14,58,0.2246,1,0,0
943,19,28,121,0.2305,1,0,0
944,30,50,141,1.1352,1,0,0
945,5,10,14,0.1551,1,0,0
946,20,54,88,1.4885,1,0,0
947,36,166,180,9.0632,1,0,0
948,36,131,171,3.4729,1,0,0
949,20,71,90,0.7101,1,0,0
950,10,9,22,0.1511,1,0,0
951,12,13,27,0.238,1,0,0
952,10,12,36,0.2246,1,0,0
953,6,7,16,0.0911,1,0,0
954,20,29,116,0.5798,1,0,0
955,52,75,195,4.9812,1,0,0
956,59,96,946,1.8801,1,0,0
957,28,61,223,0.7022,1,0,0
958,17,18,38,0.1993,1,0,0
959,21,33,122,0.429,1,0,0
960,28,35,169,0.4689,1,0,0
961,37,66,234,1.2248,1,0,0
962,19,22,60,0.2613,1,0,0
963,6,7,15,0.0501,1,0,0
964,11,16,26,0.1571,1,0,0
965,36,59,100,1.0318,1,0,0
966,19,37,114,0.8392,1,0,0
967,5,6,15,0.0422,1,0,0
968,13,21,62,0.3596,1,0,0
969,4,5,14,0.0382,1,0,0
970,10,11,21,0.1093,1,0,0
971,36,51,146,0.7235,1,0,0
972,1,1,3,0.0331,1,0,0
973,26,31,60,0.3927,1,0,0
974,6,16,29,0.1089,1,0,0
975,12,25,62,0.2265,1,0,0
976,24,36,62,1.8659,1,0,0
977,13,33,123,0.144,1,0,0
978,71,125,250,6.4085,1,0,0
979,28,39,143,0.493,1,0,0
980,13,17,63,0.2767,1,0,0
981,14,28,43,0.3067,1,0,0
982,14,26,60,0.2088,1,0,0
983,10,11,23,0.1203,1,0,0
984,13,15,43,0.1918,1,0,0
985,70,129,2382,2.4406,1,0,0
986,11,22,59,0.1697,1,0,0
987,37,42,261,0.6817,1,0,0
988,34,34,73,0.5747,1,0,0
989,15,34,122,0.285,1,0,0
990,35,58,628,0.5589,1,0,0
991,547,1106,136208,289.7186,1,0,0
992,47,46,877,9.7796,1,0,0
993,23,47,166,0.834,1,0,0
994,4,6,17,0.0596,1,0,0
995,21,28,64,0.5944,1,0,0
996,17,19,53,0.3971,1,0,0
997,208,554,10409,33.119,1,0,0
998,7,11,30,0.0619,1,0,0
999,9,13,33,0.1085,1,0,0
1000,8,31,47,0.3797,1,0,0
1001,28,44,101,0.5632,1,0,0
1002,19,23,52,0.3473,1,0,0
1003,21,42,65,0.5577,1,0,0
1004,14,19,34,0.2198,1,0,0
1005,18,22,62,0.4053,1,0,0
1006,11,14,49,0.2084,1,0,0
1007,306,586,5067,73.0951,1,0,0
1008,6,11,19,0.1156,1,0,0
1009,13,24,81,0.461,1,0,0
1010,150,185,385,11.7194,1,0,0
1011,10,10,22,0.1251,1,0,0
1012,127,250,4041,14.464,1,0,0
1013,6,8,16,0.1089,1,0,0
1014,21,46,141,0.4575,1,0,0
1015,23,62,84,0.8001,1,0,0
1016,15,15,32,0.176,1,0,0
1017,23,25,66,2.2263,1,0,0
1018,11,11,24,0.1444,1,0,0
1019,38,47,257,0.7539,1,0,0
1020,15,15,32,0.1709,1,0,0
1021,22,25,69,0.3055,1,0,0
1022,14,14,30,0.1661,1,0,0
1023,13,13,31,0.1575,1,0,0
1024,12,12,26,0.1081,1,0,0
1025,13,15,30,0.1646,1,0,0
1026,15,16,32,0.176,1,0,0
1027,14,15,30,0.1571,1,0,0
1028,15,19,36,0.2447,1,0,0
1029,15,18,34,0.2175,1,0,0
1030,17,21,65,0.2475,1,0,0
1031,6,5,13,0.0643,1,0,0
1032,8,8,18,0.0888,1,0,0
1033,35,52,446,1.7336,1,0,0
1034,60,86,429,2.0056,1,0,0
1035,28,41,122,2.4035,1,0,0
1036,35,68,151,1.3275,1,0,0
1037,8,11,29,0.1227,1,0,0
1038,87,137,341,4.4017,1,0,0
1039,22,36,160,1.0227,1,0,0
1040,89,94,373,4.3677,1,0,0
1041,15,18,62,0.2135,1,0,0
1042,47,114,1000,1.648,1,0,0
1043,5,7,18,0.0394,1,0,0
1044,5,8,21,0.0189,1,0,0
1045,5,8,21,0.0185,1,0,0
1046,5,8,21,0.0225,1,0,0
1047,8,14,25,0.1184,1,0,0
1048,42,55,273,1.0555,1,0,0
1049,17,25,69,0.4342,1,0,0
1050,8,12,21,0.1646,1,0,0
1051,15,28,67,0.2309,1,0,0
1052,12,11,25,0.1101,1,0,0
1053,51,90,1123,0.9817,1,0,0
1054,11,11,77,0.099,1,0,0
1055,30,50,126,0.7105,1,0,0
1056,12,14,31,0.1413,1,0,0
1057,4,5,12,0.0588,1,0,0
1058,4,5,10,0.6165,1,0,0
1059,8,12,18,0.3146,1,0,0
1060,61,65,264,1.9109,1,0,0
1061,45,48,154,2.2042,1,0,0
1062,3,5,7,0.0931,1,0,0
1063,25,40,111,0.4894,1,0,0
1064,10,19,45,0.3248,1,0,0
1065,46,106,233,2.9329,1,0,0
1066,36,51,122,0.7278,1,0,0
1067,17,17,85,0.2467,1,0,0
1068,14,29,52,0.5005,1,0,0
1069,3,4,8,0.0315,1,0,0
1070,65,70,871,2.1619,1,0,0
1071,52,57,558,1.2979,1,0,0
1072,50,55,495,1.2086,1,0,0
1073,1,1,1,0.0082,1,0,0
1074,56,61,682,1.764,1,0,0
1075,56,61,682,1.6452,1,0,0
1076,56,61,682,2.2263,1,0,0
1077,56,61,682,1.511,1,0,0
1078,56,61,682,1.5106,1,0,0
1079,12,15,35,0.1369,1,0,0
1080,28,35,112,0.6951,1,0,0
1081,64,116,743,3.2818,1,0,0
1082,13,31,74,0.2893,1,0,0
1083,2,3,3,0.039,1,0,0
1084,8,9,24,0.0832,1,0,0
1085,44,57,195,2.0715,1,0,0
1086,6,11,19,0.1871,1,0,0
1087,4,7,15,0.0753,1,0,0
1088,52,72,351,1.798,1,0,0
1089,48,62,397,1.4348,1,0,0
1090,2,2,6,0.0418,1,0,0
1091,28,33,147,0.5372,1,0,0
1092,10,17,44,0.1871,1,0,0
1093,19,21,71,0.4093,1,0,0
1094,5,4,11,0.0461,1,0,0
1095,11,10,23,0.5573,1,0,0
1096,6,5,13,0.0856,1,0,0
1097,6,5,13,0.0461,1,0,0
1098,7,7,16,0.0714,1,0,0
1099,5,4,11,0.0398,1,0,0
1100,6,5,13,0.0497,1,0,0
1101,6,5,13,0.045,1,0,0
1102,5,4,11,0.0382,1,0,0
1103,9,8,19,0.0773,1,0,0
1104,9,8,19,0.075,1,0,0
1105,7,6,15,0.0856,1,0,0
1106,7,7,15,0.0596,1,0,0
1107,7,6,15,0.0552,1,0,0
1108,5,4,11,0.0386,1,0,0
1109,5,5,12,0.084,1,0,0
1110,8,8,18,0.0947,1,0,0
1111,13,15,49,0.1215,1,0,0
1112,6,5,13,0.045,1,0,0
1113,4,5,14,0.0742,1,0,0
1114,6,5,23,0.0453,1,0,0
1115,26,27,79,0.3761,1,0,0
1116,8,9,19,0.1014,1,0,0
1117,5,4,11,0.0386,1,0,0
1118,5,4,11,0.039,1,0,0
1119,2,2,6,0.0596,1,0,0
1120,2,3,3,0.0126,1,0,0
1121,3,4,11,0.0319,1,0,0
1122,14,25,42,0.3248,1,0,0
1123,14,25,42,0.1961,1,0,0
1124,35,49,78,1.5454,1,0,0
1125,39,51,84,1.3243,1,0,0
1126,36,51,137,0.939,1,0,0
1127,21,191,253,5.6341,1,0,0
1128,4,6,14,0.1121,1,0,0
1129,18,17,37,0.5246,1,0,0
1130,64,561,3075,2.1335,1,0,0
1131,44,58,418,0.9813,1,0,0
1132,32,45,159,1.0535,1,0,0
1133,31,39,162,0.6489,1,0,0
1134,11,10,78,0.1353,1,0,0
1135,31,30,206,0.5297,1,0,0
1136,31,30,206,0.5317,1,0,0
1137,34,40,164,0.7294,1,0,0
1138,34,41,202,0.7338,1,0,0
1139,13,12,54,0.1472,1,0,0
1140,40,47,81,0.8767,1,0,0
1141,8,8,18,0.1492,1,0,0
1142,17,21,79,0.1938,1,0,0
1143,3,3,10,0.0671,1,0,0
1144,38,40,96,0.7555,1,0,0
1145,4,4,9,0.0351,1,0,0
1146,28,39,93,0.5905,1,0,0
1147,28,39,93,0.5048,1,0,0
1148,22,28,181,0.4255,1,0,0
1149,60,65,437,2.0944,1,0,0
1150,155,413,8317,27.6641,1,0,0
1151,151,150,11478,18.5188,1,0,0
1152,14,21,60,0.4448,1,0,0
1153,11,18,48,0.1855,1,0,0
1154,8,8,18,0.0789,1,0,0
1155,26,44,92,3.1938,1,0,0
1156,95,115,361,4.8576,1,0,0
1157,30,29,61,0.4776,1,0,0
1158,28,45,196,5.1272,1,0,0
1159,24,39,140,0.7172,1,0,0
1160,3,4,9,0.026,1,0,0
1161,9,12,23,0.1215,1,0,0
1162,42,61,125,1.1948,1,0,0
1163,23,51,178,0.7456,1,0,0
1164,126,220,6058,30.4036,1,0,0
1165,68,88,268,2.5981,1,0,0
1166,53,92,206,2.5433,1,0,0
1167,12,26,67,0.2644,1,0,0
1168,15,19,36,0.204,1,0,0
1169,4,6,13,0.075,1,0,0
1170,13,12,27,0.1294,1,0,0
1171,3,5,9,0.0378,1,0,0
1172,107,152,1648,9.9486,1,0,0
1173,11,23,59,0.189,1,0,0
1174,6,8,21,0.0619,1,0,0
1175,67,94,872,2.0917,1,0,0
1176,14,25,58,0.2131,1,0,0
1177,2,3,3,0.0315,1,0,0
1178,8,9,24,0.0931,1,0,0
1179,10,12,32,0.1097,1,0,0
1180,14,23,60,0.2415,1,0,0
1181,40,52,109,0.939,1,0,0
1182,9,22,40,0.1239,1,0,0
1183,8,8,18,0.0702,1,0,0
1184,25,34,66,0.4152,1,0,0
1185,34,46,86,0.6694,1,0,0
1186,1,1,3,0.041,1,0,0
1187,39,82,225,1.4514,1,0,0
1188,11,29,52,0.3098,1,0,0
1189,43,58,228,7.6374,1,0,0
1190,33,45,174,0.6363,1,0,0
1191,23,32,124,0.3098,1,0,0
1192,27,33,170,0.6252,1,0,0
1193,257,508,65033,3.6564,1,0,0
1194,11,29,59,0.2893,1,0,0
1195,42,66,267,1.468,1,0,0
1196,57,76,213,2.2579,1,0,0
1197,2,2,6,0.0189,1,0,0
1198,3,5,9,0.0371,1,0,0
1199,13,18,42,0.1823,1,0,0
1200,9,10,20,0.0817,1,0,0
1201,13,12,28,0.1306,1,0,0
1202,518,6026,58611,2462.2261,1,0,0
1203,36,40,79,0.9556,1,0,0
1204,13,22,50,0.1831,1,0,0
1205,53,88,600,2.1615,1,0,0
1206,14,26,57,0.2328,1,0,0
1207,13,14,71,0.296,1,0,0
1208,3,4,9,0.0268,1,0,0
1209,13,28,111,0.1046,1,0,0
1210,22,26,76,0.3896,1,0,0
1211,32,40,116,0.8561,1,0,0
1212,9,9,26,0.2593,1,0,0
1213,10,10,22,0.101,1,0,0
1214,5,5,15,0.045,1,0,0
1215,33,44,115,0.6319,1,0,0
1216,21,40,84,0.5175,1,0,0
1217,4,4,9,0.0355,1,0,0
1218,18,33,92,0.5096,1,0,0
1219,29,40,83,0.7472,1,0,0
1220,366,1301,3116,154.9455,1,0,0
1221,15,19,81,0.3248,1,0,0
1222,21,31,95,0.5427,1,0,0
1223,57,76,1020,3.1397,1,0,0
1224,10,13,30,0.1539,1,0,0
1225,54,89,234,2.2184,1,0,0
1226,27,32,198,0.8167,1,0,0
1227,9,8,19,0.0876,1,0,0
1228,95,136,1600,5.1706,1,0,0
1229,10,14,60,0.0836,1,0,0
1230,14,18,73,0.3907,1,0,0
1231,4,5,11,0.253,1,0,0
1232,16,28,165,0.2392,1,0,0
1233,256,255,32898,56.1276,1,0,0
1234,6,9,34,0.0773,1,0,0
1235,8,8,17,0.0698,1,0,0
1236,17,26,45,0.4571,1,0,0
1237,28,43,204,0.7764,1,0,0
1238,57,81,208,1.9354,1,0,0
1239,5,8,19,0.133,1,0,0
1240,41,50,468,1.1447,1,0,0
1241,13,19,36,0.1527,1,0,0
1242,20,26,50,0.3505,1,0,0
1243,3,6,7,0.0244,1,0,0
1244,15,14,31,0.1721,1,0,0
1245,17,16,35,0.2048,1,0,0
1246,16,15,33,0.1882,1,0,0
1247,17,16,35,0.1961,1,0,0
1248,17,16,41,0.2175,1,0,0
1249,11,10,28,0.1109,1,0,0
1250,19,24,133,0.3347,1,0,0
1251,18,23,116,0.2865,1,0,0
1252,28,35,217,0.7701,1,0,0
1253,15,17,69,0.2317,1,0,0
1254,9,15,35,0.1744,1,0,0
1255,13,50,90,0.9414,1,0,0
1256,5,11,24,0.0552,1,0,0
1257,14,19,32,0.18,1,0,0
1258,11,20,42,0.1784,1,0,0
1259,18,31,108,0.4136,1,0,0
1260,61,72,305,1.8864,1,0,0
1261,26,36,94,2.2413,1,0,0
1262,37,69,500,0.9789,1,0,0
1263,27,36,91,0.4503,1,0,0
1264,15,20,37,0.294,1,0,0
1265,11,11,29,0.1097,1,0,0
1266,15,19,36,0.1725,1,0,0
1267,5,8,19,0.073,1,0,0
1268,14,15,66,0.1863,1,0,0
1269,16,19,36,0.1977,1,0,0
1270,11,11,29,0.1207,1,0,0
1271,11,11,29,0.1148,1,0,0
1272,235,427,11502,39.1159,1,0,0
1273,3,4,9,0.0777,1,0,0
1274,30,45,239,1.1794,1,0,0
1275,30,47,92,0.613,1,0,0
1276,13,15,31,0.15,1,0,0
1277,16,20,38,0.3063,1,0,0
1278,3,3,10,0.0453,1,0,0
1279,5,4,12,0.0422,1,0,0
1280,40,72,753,2.3609,1,0,0
1281,23,26,91,0.7772,1,0,0
1282,33,32,473,0.9007,1,0,0
1283,4,6,14,0.0446,1,0,0
1284,8,8,18,0.0789,1,0,0
1285,22,30,135,0.4507,1,0,0
1286,2,2,6,0.0193,1,0,0
1287,24,25,335,0.328,1,0,0
1288,19,27,111,0.2948,1,0,0
1289,22,25,73,0.3244,1,0,0
1290,1,1,3,0.0161,1,0,0
1291,48,60,132,1.228,1,0,0
1292,31,33,94,0.5171,1,0,0
1293,20,25,152,0.264,1,0,0
1294,34,36,147,0.5826,1,0,0
1295,3,5,9,0.1085,1,0,0
1296,3,3,10,0.0252,1,0,0
1297,65,122,1333,6.0296,1,0,0
1298,18,18,50,0.2096,1,0,0
1299,27,29,115,0.4203,1,0,0
1300,6,8,18,0.1184,1,0,0
1301,10,13,31,0.2403,1,0,0
1302,9,14,37,0.2269,1,0,0
1303,13,12,27,0.1302,1,0,0
1304,6,8,19,0.0576,1,0,0
1305,23,50,162,1.2801,1,0,0
1306,6,10,21,0.1286,1,0,0
1307,16,26,64,0.4456,1,0,0
1308,20,30,87,0.3915,1,0,0
1309,37,69,483,0.9454,1,0,0
1310,18,19,94,0.1922,1,0,0
1311,57,83,242,1.8114,1,0,0
1312,6,12,16,0.0963,1,0,0
1313,16,32,66,0.6655,1,0,0
1314,13,14,28,0.1255,1,0,0
1315,18,22,111,0.3256,1,0,0
1316,37,36,90,0.6947,1,0,0
1317,16,19,37,0.2542,1,0,0
1318,104,148,1384,6.6896,1,0,0
1319,18,111,266,2.0956,1,0,0
1320,4,3,12,0.0363,1,0,0
1321,11,10,28,0.1192,1,0,0
1322,50,63,130,1.346,1,0,0
1323,1,1,3,0.0189,1,0,0
1324,11,21,23,0.1132,1,0,0
1325,3,4,9,0.0098,1,0,0
1326,8,16,57,0.024,1,0,0
1327,21,22,59,0.3118,1,0,0
1328,40,60,129,0.9343,1,0,0
1329,16,17,35,0.2257,1,0,0
1330,15,22,39,0.2218,1,0,0
1331,6,16,30,0.375,1,0,0
1332,2,2,6,0.0197,1,0,0
1333,6,10,24,0.0828,1,0,0
1334,2,2,6,0.0418,1,0,0
1335,10,17,59,0.116,1,0,0
1336,39,40,117,0.7626,1,0,0
1337,110,163,435,9.152,1,0,0
1338,22,28,181,0.5478,1,0,0
1339,16,56,100,0.6809,1,0,0
1340,21,36,92,0.4847,1,0,0
1341,9,9,30,0.1211,1,0,0
1342,7,12,36,0.0426,1,0,0
1343,15,32,73,0.463,1,0,0
1344,14,17,66,0.1752,1,0,0
1345,8,11,31,0.24,1,0,0
1346,44,59,173,1.1388,1,0,0
1347,12,15,43,0.2356,1,0,0
1348,30,45,118,1.1514,1,0,0
1349,3,4,8,0.0288,1,0,0
1350,39,42,317,0.7219,1,0,0
1351,21,38,107,0.4105,1,0,0
1352,194,282,8359,21.7983,1,0,0
1353,31,60,377,0.6086,1,0,0
1354,26,30,72,0.675,1,0,0
1355,96,110,454,4.5091,1,0,0
1356,5,5,11,0.0402,1,0,0
1357,66,121,1729,4.1104,1,0,0
1358,3,5,9,0.099,1,0,0
1359,35,48,109,1.7463,1,0,0
1360,18,22,59,0.3153,1,0,0
1361,12,11,25,0.1192,1,0,0
1362,12,11,25,0.1081,1,0,0
1363,19,27,51,0.2952,1,0,0
1364,19,29,54,0.3098,1,0,0
1365,21,22,64,0.2644,1,0,0
1366,9,11,29,0.0994,1,0,0
1367,19,27,45,0.2846,1,0,0
1368,11,11,25,0.1097,1,0,0
1369,19,25,85,0.4136,1,0,0
1370,13,13,32,0.1298,1,0,0
1371,7,8,22,0.0888,1,0,0
1372,19,31,51,0.5242,1,0,0
1373,65,90,163,5.58,1,0,0
1374,32,44,79,16.9126,1,0,0
1375,5,9,20,0.0718,1,0,0
1376,10,15,31,0.24,1,0,0
1377,6,8,23,0.1089,1,0,0
1378,26,27,133,0.9169,1,0,0
1379,19,21,46,0.2439,1,0,0
1380,5,9,22,0.0801,1,0,0
1381,15,20,37,0.3805,1,0,0
1382,25,55,274,0.5344,1,0,0
1383,5,9,20,0.0584,1,0,0
1384,4,6,10,0.0359,1,0,0
1385,18,28,98,1.1198,1,0,0
1386,6,11,20,0.1598,1,0,0
1387,5,9,22,0.0552,1,0,0
1388,12,13,27,0.1196,1,0,0
1389,5,8,20,0.1882,1,0,0
1390,5,8,20,0.1863,1,0,0
1391,4,5,12,0.0453,1,0,0
1392,10,12,25,0.101,1,0,0
1393,7,8,16,0.0876,1,0,0
1394,19,31,111,0.2846,1,0,0
1395,16,22,83,0.5103,1,0,0
1396,4,5,14,0.0359,1,0,0
1397,19,27,51,0.2597,1,0,0
1398,13,17,39,0.1575,1,0,0
1399,5,6,12,0.0473,1,0,0
1400,5,7,18,0.0501,1,0,0
1401,7,11,30,0.0643,1,0,0
1402,21,34,127,0.9809,1,0,0
1403,14,15,45,0.1606,1,0,0
1404,104,148,1384,6.5968,1,0,0
1405,68,88,211,3.4792,1,0,0
1406,7,8,22,0.0544,1,0,0
1407,9,14,43,0.0765,1,0,0
1408,5,5,11,0.0382,1,0,0
1409,12,12,25,0.1314,1,0,0
1410,13,30,104,0.1894,1,0,0
1411,8,8,18,0.0785,1,0,0
1412,33,32,67,1.0113,1,0,0
1413,67,132,1609,5.7785,1,0,0
1414,67,132,1609,1.9658,1,0,0
1415,23,33,163,0.4046,1,0,0
1416,39,50,99,0.8609,1,0,0
1417,6,5,13,0.0453,1,0,0
1418,7,8,18,0.0738,1,0,0
1419,16,24,86,0.1819,1,0,0
1420,19,20,43,0.2269,1,0,0
1421,41,75,171,1.6444,1,0,0
1422,41,57,110,1.1404,1,0,0
1423,59,104,931,2.5879,1,0,0
1424,59,104,931,3.8858,1,0,0
1425,22,26,60,0.3288,1,0,0
1426,2,3,3,0.2143,1,0,0
1427,2,3,3,0.2285,1,0,0
1428,2,3,3,0.0248,1,0,0
1429,2,3,3,0.0284,1,0,0
1430,2,3,3,0.03,1,0,0
1431,2,3,3,0.0153,1,0,0
1432,2,3,3,0.0327,1,0,0
1433,2,3,3,0.0288,1,0,0
1434,2,3,3,0.026,1,0,0
1435,39,43,85,1.545,1,0,0
1436,44,77,1162,0.6142,1,0,0
1437,2,2,6,0.043,1,0,0
1438,14,23,59,0.2317,1,0,0
1439,58,95,295,1.9555,1,0,0
1440,58,91,267,2.3826,1,0,0
1441,22,35,132,0.3686,1,0,0
1442,20,33,55,0.5553,1,0,0
1443,15,21,38,0.1768,1,0,0
1444,13,18,33,0.1847,1,0,0
1445,20,32,53,0.3236,1,0,0
1446,13,18,34,0.191,1,0,0
1447,12,18,44,0.4507,1,0,0
1448,15,21,51,0.2301,1,0,0
1449,11,24,87,0.2798,1,0,0
1450,2,3,3,0.0311,1,0,0
1451,89,107,375,5.2587,1,0,0
1452,7,7,36,0.0525,1,0,0
1453,19,32,99,0.6769,1,0,0
1454,28,57,142,1.4992,1,0,0
1455,7,7,15,0.0607,1,0,0
1456,223,1964,39527,31.3557,1,0,0
1457,19,25,48,0.3623,1,0,0
1458,14,13,29,0.1409,1,0,0
1459,20,20,42,0.3,1,0,0
1460,10,9,21,0.0848,1,0,0
1461,19,18,39,0.2447,1,0,0
1462,5,8,21,0.0367,1,0,0
1463,7,12,25,0.0848,1,0,0
1464,2,3,3,0.0157,1,0,0
1465,7,18,43,0.0426,1,0,0
1466,63,66,314,1.9097,1,0,0
1467,10,13,56,0.101,1,0,0
1468,10,13,59,0.1093,1,0,0
1469,10,13,62,0.0907,1,0,0
1470,10,13,63,0.0907,1,0,0
1471,41,44,205,0.9769,1,0,0
1472,70,100,646,2.9565,1,0,0
1473,71,129,863,4.7124,1,0,0
1474,5,6,17,0.041,1,0,0
1475,10,11,42,0.0927,1,0,0
1476,33,54,219,0.9371,1,0,0
1477,27,32,160,0.538,1,0,0
1478,23,24,139,0.4772,1,0,0
1479,7,12,29,0.0584,1,0,0
1480,33,50,270,1.346,1,0,0
1481,257,415,3147,39.6634,1,0,0
1482,264,7965,23998,960.2252,1,0,0
1483,20,24,55,0.5467,1,0,0
1484,13,23,54,0.2194,1,0,0
1485,11,12,27,0.1061,1,0,0
1486,2,2,6,0.0375,1,0,0
1487,264,7965,23998,952.3904,1,0,0
1488,21,38,107,0.3998,1,0,0
1489,26,63,314,0.9382,1,0,0
1490,22,36,101,0.3667,1,0,0
1491,11,14,26,0.1168,1,0,0
1492,5,7,19,0.0347,1,0,0
1493,73,100,248,3.4966,1,0,0
1494,24,31,63,0.4428,1,0,0
1495,26,52,121,1.9942,1,0,0
1496,32,40,221,0.8281,1,0,0
1497,52,70,180,1.629,1,0,0
1498,17,26,45,0.5056,1,0,0
1499,22,30,49,0.8044,1,0,0
1500,14,13,29,0.1357,1,0,0
1501,2,2,6,0.0228,1,0,0
1502,1,1,3,0.0485,1,0,0
1503,10,16,28,0.1867,1,0,0
1504,65,122,924,5.1892,1,0,0
1505,34,56,170,0.8506,1,0,0
1506,61,93,654,2.0617,1,0,0
1507,26,28,163,0.4397,1,0,0
1508,11,19,40,0.1689,1,0,0
1509,8,13,30,0.6619,1,0,0
1510,7,14,36,0.0888,1,0,0
1511,5,6,15,0.0667,1,0,0
1512,8,8,18,0.0682,1,0,0
1513,8,21,39,0.5546,1,0,0
1514,2,3,6,0.0414,1,0,0
1515,17,26,57,0.4642,1,0,0
1516,294,377,10305,42.7368,1,0,0
1517,385,498,17959,77.8738,1,0,0
1518,329,424,13061,93.8299,1,0,0
1519,265,342,8669,32.8699,1,0,0
1520,423,545,21251,118.0847,1,0,0
1521,4,6,14,0.0584,1,0,0
1522,13,24,157,0.0331,1,0,0
1523,2,3,3,0.0134,1,0,0
1524,2,3,3,0.0138,1,0,0
1525,20,25,81,0.4772,1,0,0
1526,5,5,18,0.0473,1,0,0
1527,10,12,30,0.3592,1,0,0
1528,19,26,81,0.2707,1,0,0
1529,6,8,16,0.0497,1,0,0
1530,14,17,47,0.1571,1,0,0
1531,28,60,202,1.0993,1,0,0
1532,2,2,6,0.041,1,0,0
1533,53,54,131,1.3492,1,0,0
1534,10,9,22,0.1492,1,0,0
1535,8,8,18,0.0801,1,0,0
1536,23,22,278,0.4523,1,0,0
1537,88,105,1544,4.0792,1,0,0
1538,5,9,25,0.0836,1,0,0
1539,5,9,21,0.1598,1,0,0
1540,9,10,21,0.1152,1,0,0
1541,8,7,17,1.1072,1,0,0
1542,8,7,17,0.0678,1,0,0
1543,18,17,37,0.2242,1,0,0
1544,194,245,957,21.8784,1,0,0
1545,19,32,99,0.3082,1,0,0
1546,55,96,934,1.811,1,0,0
1547,9,9,20,0.0821,1,0,0
1548,2,2,6,0.0351,1,0,0
1549,20,35,56,0.4803,1,0,0
1550,12,13,27,0.1294,1,0,0
1551,8,7,38,0.0781,1,0,0
1552,97,132,641,5.456,1,0,0
1553,65,107,212,4.1893,1,0,0
1554,3,3,9,0.0296,1,0,0
1555,30,45,138,0.9035,1,0,0
1556,8,12,32,0.1507,1,0,0
1557,12,16,48,0.1594,1,0,0
1558,13,22,67,0.1634,1,0,0
1559,6,10,24,0.0955,1,0,0
1560,8,12,32,0.103,1,0,0
1561,16,20,64,0.2443,1,0,0
1562,41,54,144,0.956,1,0,0
1563,15,22,72,0.3221,1,0,0
1564,14,20,67,0.1492,1,0,0
1565,106,161,1554,8.6811,1,0,0
1566,404,515,6684,129.375,1,0,0
1567,15,15,39,0.266,1,0,0
1568,19,29,50,0.506,1,0,0
1569,6,7,18,0.0481,1,0,0
1570,15,19,46,0.2289,1,0,0
1571,6,13,31,0.0213,1,0,0
1572,17,16,35,0.1839,1,0,0
1573,21,38,66,0.45,1,0,0
1574,22,212,256,0.4713,1,0,0
1575,2,3,3,0.0536,1,0,0
1576,4,8,14,0.0825,1,0,0
1577,4,7,12,0.1263,1,0,0
1578,5,7,15,0.1756,1,0,0
1579,19,36,91,0.8218,1,0,0
1580,11,11,29,0.1097,1,0,0
1581,27,51,69,5.9278,1,0,0
1582,7,8,16,0.06,1,0,0
1583,41,50,468,1.0709,1,0,0
1584,4,7,11,0.0505,1,0,0
1585,11,10,28,0.1081,1,0,0
1586,5,7,17,0.054,1,0,0
1587,9,8,22,0.0785,1,0,0
1588,3,4,7,0.0331,1,0,0
1589,8,11,48,0.0501,1,0,0
1590,5,12,22,0.2151,1,0,0
1591,3,5,6,0.0173,1,0,0
1592,56,109,1398,3.6671,1,0,0
1593,29,87,380,0.823,1,0,0
1594,42,130,659,1.5935,1,0,0
1595,38,127,575,1.7226,1,0,0
1596,32,126,517,1.1234,1,0,0
1597,14,21,63,0.2526,1,0,0
1598,13,16,79,1.0073,1,0,0
1599,5,12,19,0.0817,1,0,0
1600,31,48,245,0.7578,1,0,0
1601,2,1,5,0.054,1,0,0
1602,3,3,7,0.0919,1,0,0
1603,3,3,10,0.0323,1,0,0
1604,21,23,56,0.298,1,0,0
1605,83,98,375,3.7626,1,0,0
1606,10,13,25,0.1069,1,0,0
1607,2,2,6,0.0963,1,0,0
1608,9,12,43,0.1073,1,0,0
1609,57,76,232,1.7104,1,0,0
1610,3,4,8,0.0323,1,0,0
1611,15,19,69,0.2163,1,0,0
1612,45,55,106,1.243,1,0,0
1613,2,3,3,0.0347,1,0,0
1614,32,91,135,0.93,1,0,0
1615,61,86,137,2.7915,1,0,0
1616,4,4,12,0.0359,1,0,0
1617,29,71,101,0.8313,1,0,0
1618,15,14,31,0.1614,1,0,0
1619,61,118,279,3.5668,1,0,0
1620,2,2,6,0.0343,1,0,0
1621,134,258,7978,17.4814,1,0,0
1622,66,141,457,3.0655,1,0,0
1623,3,4,11,0.0307,1,0,0
1624,11,12,28,0.1026,1,0,0
1625,13,28,44,0.2597,1,0,0
1626,44,61,174,2.9633,1,0,0
1627,3,4,10,0.0864,1,0,0
1628,42,46,182,0.9217,1,0,0
1629,7,7,19,0.0864,1,0,0
1630,20,34,131,0.4136,1,0,0
1631,17,26,129,0.1922,1,0,0
1632,12,16,57,0.1673,1,0,0
1633,66,127,275,3.7776,1,0,0
1634,10,9,21,0.0848,1,0,0
1635,104,148,1507,6.8321,1,0,0
1636,8,7,17,0.0635,1,0,0
1637,3,6,7,0.1263,1,0,0
1638,22,26,63,0.3232,1,0,0
1639,5,8,15,0.0505,1,0,0
1640,8,8,18,0.0761,1,0,0
1641,9,12,26,0.0943,1,0,0
1642,4,5,10,0.0375,1,0,0
1643,14,16,32,0.2084,1,0,0
1644,38,66,146,1.0476,1,0,0
1645,7,9,19,0.0757,1,0,0
1646,15,21,38,0.1768,1,0,0
1647,11,15,56,0.09,1,0,0
1648,16,21,55,0.2814,1,0,0
1649,17,121,171,0.9548,1,0,0
1650,22,52,108,1.1407,1,0,0
1651,8,19,36,0.2861,1,0,0
1652,43,110,460,1.929,1,0,0
1653,21,20,233,1.0204,1,0,0
1654,14,29,55,0.3698,1,0,0
1655,11,18,37,0.1278,1,0,0
1656,32,46,252,0.6698,1,0,0
1657,50,161,484,3.54,1,0,0
1658,48,62,624,1.4313,1,0,0
1659,3,5,7,0.0169,1,0,0
1660,32,38,101,0.7409,1,0,0
1661,2,2,6,0.0201,1,0,0
1662,6,9,19,0.099,1,0,0
1663,11,20,42,0.1215,1,0,0
1664,7,9,19,0.105,1,0,0
1665,14,13,29,0.1428,1,0,0
1666,3,4,11,0.0319,1,0,0
1667,5,12,23,0.1985,1,0,0
1668,76,125,287,3.33,1,0,0
1669,9,8,19,0.075,1,0,0
1670,27,38,103,0.896,1,0,0
1671,34,44,79,0.6592,1,0,0
1672,19,24,92,0.313,1,0,0
1673,9,11,30,0.1661,1,0,0
1674,12,23,37,0.1263,1,0,0
1675,106,167,774,7.0646,1,0,0
1676,31,41,71,0.6525,1,0,0
1677,256,255,32898,54.849,1,0,0
1678,44,62,158,1.4005,1,0,0
1679,27,40,142,0.4803,1,0,0
1680,10,19,52,0.2206,1,0,0
1681,9,10,22,0.101,1,0,0
1682,6,5,23,0.071,1,0,0
1683,51,50,1328,2.4102,1,0,0
1684,14,15,31,0.1302,1,0,0
1685,8,9,28,0.0801,1,0,0
1686,7,10,20,0.116,1,0,0
1687,5,6,21,0.0915,1,0,0
1688,15,14,31,0.1543,1,0,0
1689,16,22,40,0.2253,1,0,0
1690,11,18,82,0.3418,1,0,0
1691,94,134,281,7.0761,1,0,0
1692,33,40,195,0.7263,1,0,0
1693,35,63,319,0.9264,1,0,0
1694,8,15,24,0.1665,1,0,0
1695,85,184,2147,6.7982,1,0,0
1696,34,42,195,0.7263,1,0,0
1697,15,19,36,0.3544,1,0,0
1698,5,9,16,0.0505,1,0,0
1699,3,5,9,0.0288,1,0,0
1700,119,154,710,7.9461,1,0,0
1701,10,25,52,0.1914,1,0,0
1702,23,38,110,0.4239,1,0,0
1703,209,4446,10450,2093.8453,1,0,0
1704,14,13,54,0.2506,1,0,0
1705,4,6,17,0.041,1,0,0
1706,7,8,17,0.0675,1,0,0
1707,10,12,33,0.114,1,0,0
1708,5,8,17,0.0556,1,0,0
1709,18,21,69,0.2155,1,0,0
1710,17,48,80,1.6977,1,0,0
1711,7,7,15,0.0592,1,0,0
1712,7,8,18,0.0655,1,0,0
1713,16,20,49,0.8889,1,0,0
1714,9,10,20,0.1057,1,0,0
1715,20,30,142,0.4302,1,0,0
1716,3,4,11,0.0335,1,0,0
1717,3,5,11,0.0351,1,0,0
1718,34,39,78,1.2702,1,0,0
1719,10,20,41,0.1326,1,0,0
1720,9,22,40,0.1472,1,0,0
1721,15,20,37,0.1784,1,0,0
1722,30,64,108,0.9335,1,0,0
1723,12,17,48,0.1275,1,0,0
1724,2,2,6,0.0386,1,0,0
1725,36,57,295,1.6559,1,0,0
1726,27,43,70,0.6,1,0,0
1727,15,20,40,0.2348,1,0,0
1728,16,21,68,0.18,1,0,0
1729,4,5,10,0.0544,1,0,0
1730,28,38,76,0.6007,1,0,0
1731,2,3,3,0.0331,1,0,0
1732,15,16,63,0.1531,1,0,0
1733,8,11,17,0.0903,1,0,0
1734,7,8,16,0.0718,1,0,0
1735,35,75,356,0.8865,1,0,0
1736,41,60,238,1.273,1,0,0
1737,37,48,212,0.8451,1,0,0
1738,28,39,80,1.5323,1,0,0
1739,3,5,11,0.069,1,0,0
1740,24,27,58,0.3505,1,0,0
1741,19,26,93,0.281,1,0,0
1742,10,9,21,0.0923,1,0,0
1743,37,42,257,0.7275,1,0,0
1744,104,148,1510,5.6806,1,0,0
1745,24,60,348,0.371,1,0,0
1746,25,34,77,0.4421,1,0,0
1747,9,9,19,0.088,1,0,0
1748,15,27,107,0.2838,1,0,0
1749,3189,8540,1666263,24678.4112,1,0,0
1750,7,10,30,0.313,1,0,0
1751,6,10,26,0.2234,1,0,0
1752,13,41,60,0.7847,1,0,0
1753,12,13,27,0.1997,1,0,0
1754,11,11,24,0.0994,1,0,0
1755,16,15,61,0.2431,1,0,0
1756,39,39,81,0.819,1,0,0
1757,29,43,105,0.5806,1,0,0
1758,6,9,19,0.0726,1,0,0
1759,7,9,24,0.1065,1,0,0
1760,8,9,21,0.0757,1,0,0
1761,8,8,18,0.0801,1,0,0
1762,8,9,20,0.1444,1,0,0
1763,9,11,20,0.1776,1,0,0
1764,7,7,16,0.0923,1,0,0
1765,5,4,11,0.0386,1,0,0
1766,16,21,67,0.2017,1,0,0
1767,56,108,173,5.8962,1,0,0
1768,5,8,16,0.0635,1,0,0
1769,35,44,100,0.6785,1,0,0
1770,23,33,196,0.5553,1,0,0
1771,13,22,57,0.2143,1,0,0
1772,48,59,221,1.3251,1,0,0
1773,12,15,68,0.1172,1,0,0
1774,15,21,59,0.2139,1,0,0
1775,11,14,27,0.1302,1,0,0
1776,29,33,289,0.5048,1,0,0
1777,15,15,39,0.1705,1,0,0
1778,256,255,32898,51.2044,1,0,0
1779,11,27,59,0.2771,1,0,0
1780,4,6,15,0.028,1,0,0
1781,9,14,33,0.0955,1,0,0
1782,6,8,22,0.0635,1,0,0
1783,7,9,19,0.0872,1,0,0
1784,31,65,195,1.3677,1,0,0
1785,10,11,29,0.103,1,0,0
1786,62,95,228,3.1512,1,0,0
1787,12,23,54,0.1503,1,0,0
1788,12,23,53,0.161,1,0,0
1789,24,32,107,0.3813,1,0,0
1790,4,4,10,0.0363,1,0,0
1791,41,78,128,1.6638,1,0,0
1792,9,12,31,0.1022,1,0,0
1793,1,1,3,0.0173,1,0,0
1794,11,13,33,0.1046,1,0,0
1795,34,39,77,0.628,1,0,0
1796,12,12,53,0.1278,1,0,0
1797,18,17,37,0.2052,1,0,0
1798,23,37,65,0.911,1,0,0
1799,6,7,23,0.0556,1,0,0
1800,14,24,103,0.2384,1,0,0
1801,83,122,609,4.7068,1,0,0
1802,16,16,33,0.2427,1,0,0
1803,22,32,63,0.3702,1,0,0
1804,2,2,6,0.0414,1,0,0
1805,30,58,104,0.6086,1,0,0
1806,5,9,21,0.0469,1,0,0
1807,11,11,75,0.1555,1,0,0
1808,33,44,126,0.6536,1,0,0
1809,8,15,34,0.1148,1,0,0
1810,25,36,55,0.6169,1,0,0
1811,17,24,52,0.3189,1,0,0
1812,11,10,27,0.103,1,0,0
1813,18,19,43,0.2052,1,0,0
1814,37,36,75,0.671,1,0,0
1815,9,17,54,0.1385,1,0,0
1816,9,14,32,0.0888,1,0,0
1817,6,7,22,0.0552,1,0,0
1818,16,22,67,0.2009,1,0,0
1819,9,13,29,0.0971,1,0,0
1820,26,41,381,0.8707,1,0,0
1821,13,20,54,0.165,1,0,0
1822,10,9,25,0.0982,1,0,0
1823,6,10,23,0.1764,1,0,0
1824,9,12,29,0.1575,1,0,0
1825,21,22,55,0.2759,1,0,0
1826,8,8,18,0.0765,1,0,0
1827,5,7,18,0.0556,1,0,0
1828,23,40,74,0.643,1,0,0
1829,95,133,1431,5.2295,1,0,0
1830,26,38,85,0.4618,1,0,0
1831,8,8,18,0.0702,1,0,0
1832,32,51,97,0.7977,1,0,0
1833,17,20,39,0.2636,1,0,0
1834,73,118,424,2.8484,1,0,0
1835,22,26,95,0.339,1,0,0
1836,23,34,75,0.4121,1,0,0
1837,15,19,38,0.1768,1,0,0
1838,8,8,21,0.0813,1,0,0
1839,9,13,29,0.1282,1,0,0
1840,9,12,23,0.0975,1,0,0
1841,11,17,42,0.1922,1,0,0
1842,46,54,152,1.2288,1,0,0
1843,28,40,96,1.0421,1,0,0
1844,15,20,37,0.165,1,0,0
1845,25,43,193,0.4484,1,0,0
1846,23,38,75,0.4685,1,0,0
1847,24,29,97,0.4105,1,0,0
1848,10,9,21,0.0836,1,0,0
1849,9,15,26,0.1602,1,0,0
1850,14,16,48,0.1575,1,0,0
1851,62,80,153,2.025,1,0,0
1852,27,38,77,0.8652,1,0,0
1853,21,22,55,0.2632,1,0,0
1854,32,56,206,0.8929,1,0,0
1855,41,69,419,0.999,1,0,0
1856,10,12,25,0.1227,1,0,0
1857,7,16,30,0.1665,1,0,0
1858,14,18,36,0.165,1,0,0
1859,11,10,23,0.1219,1,0,0
1860,8,8,18,0.0678,1,0,0
1861,37,41,93,0.8265,1,0,0
1862,11,10,28,0.1002,1,0,0
1863,6,17,34,0.2621,1,0,0
1864,15,22,84,0.1519,1,0,0
1865,16,22,67,0.5968,1,0,0
1866,13,16,31,0.2036,1,0,0
1867,37,37,99,0.6825,1,0,0
1868,106,122,3472,7.5628,1,0,0
1869,58,64,372,1.9827,1,0,0
1870,7,9,21,0.0667,1,0,0
1871,2,2,6,0.0303,1,0,0
1872,3,5,9,0.0793,1,0,0
1873,20,30,93,0.42,1,0,0
1874,15,18,37,0.176,1,0,0
1875,7,7,16,0.0615,1,0,0
1876,26,42,72,0.5265,1,0,0
1877,37,36,75,0.6722,1,0,0
1878,5,12,23,0.0694,1,0,0
1879,3,5,11,0.0367,1,0,0
1880,3,4,11,0.03,1,0,0
1881,1,1,3,0.0169,1,0,0
1882,9,8,29,0.1239,1,0,0
1883,42,49,322,1.5611,1,0,0
1884,37,39,211,0.6789,1,0,0
1885,2,2,6,0.0209,1,0,0
1886,147,283,9287,20.5955,1,0,0
1887,15,19,36,0.2273,1,0,0
1888,26,35,72,0.581,1,0,0
1889,27,37,88,0.5234,1,0,0
1890,6,6,19,0.0528,1,0,0
1891,8,9,20,0.1109,1,0,0
1892,9,12,23,0.1156,1,0,0
1893,25,38,128,0.42,1,0,0
1894,8,8,21,0.0769,1,0,0
1895,12,19,39,0.1373,1,0,0
1896,18,25,72,0.2917,1,0,0
1897,36,51,133,0.8127,1,0,0
1898,20,24,111,0.3055,1,0,0
1899,8,14,36,0.0746,1,0,0
1900,19,23,95,0.2242,1,0,0
1901,27,43,116,0.5127,1,0,0
1902,24,33,50,0.3939,1,0,0
1903,25,30,159,0.6505,1,0,0
1904,13,12,27,0.2676,1,0,0
1905,10,13,30,0.1057,1,0,0
1906,2,1,5,0.0197,1,0,0
1907,2,1,5,0.0205,1,0,0
1908,4,5,13,0.0473,1,0,0
1909,11,12,25,0.1243,1,0,0
1910,16,15,99,0.2277,1,0,0
1911,3,4,9,0.0288,1,0,0
1912,2,2,6,0.0461,1,0,0
1913,2,2,6,0.0201,1,0,0
1914,2,2,6,0.0181,1,0,0
1915,2,1,5,0.0177,1,0,0
1916,12,11,25,0.1168,1,0,0
1917,15,15,39,0.1582,1,0,0
1918,11,10,23,0.0971,1,0,0
1919,6,5,13,0.0446,1,0,0
1920,2,1,5,0.0197,1,0,0
