id,states,transitions,simRelSize,time,goodruns,minterms,mintermizedAutomatonTransitions
ex10.mona-walk.dot_5__242states.dfa,234,650,1627,50.5167,1,0,0
ex11.mona-walk.dot_0__143states.dfa,139,574,2699,17.3488,1,0,0
ex11.mona-walk.dot_2__143states.dfa,139,574,2699,17.9681,1,0,0
ex11.mona-walk.dot_4__281states.dfa,279,1541,11663,87.6432,1,0,0
ex11.mona-walk.dot_5__281states.dfa,277,2007,12989,190.9106,1,0,0
ex11.mona-walk.dot_6__301states.dfa,293,1214,16613,119.0333,1,0,0
ex11.mona-walk.dot_7__325states.dfa,309,1508,19113,173.2105,1,0,0
ex12.mona-walk.dot_13__317states.dfa,313,1911,6823,114.0714,1,0,0
ex12.mona-walk.dot_14__317states.dfa,313,3046,6823,437.864,1,0,0
ex12.mona-walk.dot_15__290states.dfa,282,4059,11654,347.0048,1,0,0
ex12.mona-walk.dot_16__280states.dfa,276,5188,12168,420.2191,1,0,0
ex12.mona-walk.dot_17__280states.dfa,273,3617,11384,395.799,1,0,0
ex14.mona-walk.dot_10__103states.dfa,95,378,464,9.7208,1,0,0
ex14.mona-walk.dot_11__202states.dfa,194,989,1119,39.2248,1,0,0
ex14.mona-walk.dot_12__316states.dfa,308,1762,1885,100.7414,1,0,0
ex14.mona-walk.dot_13__316states.dfa,308,1762,1885,107.5341,1,0,0
ex14.mona-walk.dot_14__852states.dfa,844,5573,14669,940.3627,1,0,0
ex14.mona-walk.dot_15__852states.dfa,844,9038,16705,1390.1956,1,0,0
ex14.mona-walk.dot_16__852states.dfa,846,12733,13199,2461.0719,1,0,0
ex14.mona-walk.dot_17__167states.dfa,153,1365,1502,65.5105,1,0,0
ex14.mona-walk.dot_21__35states.dfa,22,68,114,0.9414,1,0,0
ex14.mona-walk.dot_22__53states.dfa,38,140,250,3.6004,1,0,0
ex14.mona-walk.dot_24__42states.dfa,28,104,183,1.6894,1,0,0
ex14.mona-walk.dot_3__30states.dfa,22,40,78,0.6576,1,0,0
ex14.mona-walk.dot_4__30states.dfa,22,40,78,0.5277,1,0,0
ex14.mona-walk.dot_5__45states.dfa,37,81,141,1.453,1,0,0
ex14.mona-walk.dot_6__65states.dfa,57,150,260,3.5163,1,0,0
ex14.mona-walk.dot_7__65states.dfa,57,150,260,3.0272,1,0,0
ex14.mona-walk.dot_8__77states.dfa,69,219,312,4.7775,1,0,0
ex14.mona-walk.dot_9__103states.dfa,95,378,464,12.3415,1,0,0
ex16.mona-walk.dot_56__16states.dfa,8,23,38,4.3662,1,0,0
ex16.mona-walk.dot_58__25states.dfa,11,34,63,30.9302,1,0,0
ex18.mona-walk.dot_106__298states.dfa,290,3207,1912,805.0235,1,0,0
ex18.mona-walk.dot_107__298states.dfa,290,3207,1912,762.1058,1,0,0
ex18.mona-walk.dot_109__269states.dfa,265,1308,1581,585.5365,1,0,0
ex18.mona-walk.dot_94__108states.dfa,104,196,312,25.0995,1,0,0
ex18.mona-walk.dot_95__172states.dfa,168,324,504,20.2023,1,0,0
ex18.mona-walk.dot_96__300states.dfa,296,580,888,57.9722,1,0,0
ex18.mona-walk.dot_97__556states.dfa,552,1092,1656,195.8527,1,0,0
ex19.mona-walk.dot_10__119states.dfa,115,171,1081,9.8084,1,0,0
ex19.mona-walk.dot_47__135states.dfa,131,250,1334,16.3797,1,0,0
ex19.mona-walk.dot_49__247states.dfa,243,578,7902,47.0115,1,0,0
ex19.mona-walk.dot_51__141states.dfa,137,472,1762,26.7179,1,0,0
ex20.mona-walk.dot_20__20states.dfa,6,12,25,0.0675,1,0,0
ex3.mona-walk.dot_33__579states.dfa,572,1782,6342,402.0931,1,0,0
ex3.mona-walk.dot_34__449states.dfa,446,1276,3010,325.6411,1,0,0
ex4.mona-walk.dot_20__276states.dfa,269,2586,7909,339.866,1,0,0
ex4.mona-walk.dot_21__531states.dfa,524,3606,15235,1100.6475,1,0,0
ex4.mona-walk.dot_22__139states.dfa,131,499,1136,31.6553,1,0,0
ex4.mona-walk.dot_23__139states.dfa,131,499,1136,33.5895,1,0,0
ex4.mona-walk.dot_24__147states.dfa,139,530,1170,37.0174,1,0,0
ex4.mona-walk.dot_25__151states.dfa,135,414,1231,46.9321,1,0,0
ex4.mona-walk.dot_26__602states.dfa,586,2686,4370,398.8618,1,0,0
ex4.mona-walk.dot_38__134states.dfa,120,442,1093,24.1699,1,0,0
ex5.mona-walk.dot_3__66states.dfa,64,70,369,2.1635,1,0,0
ex8.mona-walk.dot_18__242states.dfa,234,650,1627,52.2962,1,0,0
parametric_uabe1_11.mona-walk.dot_0__167states.dfa,163,1123,3095,28.8783,1,0,0
parametric_uabe1_12.mona-walk.dot_0__181states.dfa,177,1137,3337,33.4506,1,0,0
parametric_uabe1_13.mona-walk.dot_0__195states.dfa,191,1151,3670,35.5364,1,0,0
parametric_uabe1_14.mona-walk.dot_0__209states.dfa,205,1165,4094,39.6859,1,0,0
parametric_uabe2_03.mona-walk.dot_0__142states.dfa,140,517,558,44.4149,1,0,0
parametric_uabe2_04.mona-walk.dot_0__702states.dfa,700,3197,2798,1513.3761,1,0,0
parametric_uabe2_05.mona-walk.dot_0__86states.dfa,78,314,1798,11.8311,1,0,0
parametric_uabe2_06.mona-walk.dot_0__91states.dfa,87,314,2093,10.2983,1,0,0
parametric_uabe2_07.mona-walk.dot_0__108states.dfa,104,380,2879,14.5544,1,0,0
parametric_uabe2_08.mona-walk.dot_0__125states.dfa,121,446,3788,19.8696,1,0,0
parametric_uabe3_06.mona-walk.dot_0__97states.dfa,93,528,2050,9.6959,1,0,0
parametric_uabe3_07.mona-walk.dot_0__111states.dfa,107,542,2437,14.0428,1,0,0
parametric_uabe3_08.mona-walk.dot_0__125states.dfa,121,556,2915,17.4549,1,0,0
parametric_uabe3_09.mona-walk.dot_0__139states.dfa,135,570,3484,19.2455,1,0,0
parametric_uabe3_10.mona-walk.dot_0__153states.dfa,149,584,4144,20.5742,1,0,0
parametric_uabe3_11.mona-walk.dot_0__167states.dfa,163,598,4895,23.2604,1,0,0
parametric_uabe3_12.mona-walk.dot_0__181states.dfa,177,612,5737,26.1739,1,0,0
parametric_uabe3_13.mona-walk.dot_0__195states.dfa,191,626,6670,28.1236,1,0,0
parametric_uabe3_14.mona-walk.dot_0__209states.dfa,205,640,7694,31.4998,1,0,0
array_axiom.mona-walk.dot_26__901states.dfa,899,5254,8727,1845.5502,1,0,0
array_axiom.mona-walk.dot_27__897states.dfa,894,2684,6658,1108.5632,1,0,0
array_axiom.mona-walk.dot_36__105states.dfa,102,252,450,10.6346,1,0,0
ex18.mona-walk.dot_98__1068states.dfa,1064,2116,3192,737.2526,1,0,0
ex18.mona-walk.dot_99__2056states.dfa,2052,4092,6156,2476.3558,1,0,0
strand-old-bubblesort-loop-else.mona-walk.dot_0__1044states.dfa,18,37,51,0.6311,1,0,0
strand-old-bubblesort-loop-if-else.mona-walk.dot_0__1027states.dfa,1,0,4,0.0189,1,0,0
strand-old-bubblesort-loop-if-if.mona-walk.dot_0__2051states.dfa,1,0,4,0.013,1,0,0
strand-old-sorted-list-insert-after-loop.mona-walk.dot_0__151states.dfa,21,39,58,0.7444,1,0,0
strand-old-sorted-list-insert-before-head.mona-walk.dot_0__114states.dfa,48,254,382,6.3833,1,0,0
strand-old-sorted-list-insert-before-loop.mona-walk.dot_0__131states.dfa,1,0,4,0.011,1,0,0
strand-old-sorted-list-insert-error-before-loop.mona-walk.dot_0__156states.dfa,26,65,72,1.4194,1,0,0
strand-old-sorted-list-insert-in-loop.mona-walk.dot_0__515states.dfa,1,0,4,0.0122,1,0,0
strand-old-sorted-list-reverse-after-loop.mona-walk.dot_0__131states.dfa,1,0,4,0.0106,1,0,0
strand-old-sorted-list-reverse-before-loop.mona-walk.dot_0__212states.dfa,111,1043,1333,41.0671,1,0,0
strand-old-sorted-list-reverse-in-loop.mona-walk.dot_0__515states.dfa,1,0,4,0.013,1,0,0
strand-old-sorted-list-search-after-loop.mona-walk.dot_0__317states.dfa,316,8535,8597,1206.1685,1,0,0
strand-old-sorted-list-search-before-loop.mona-walk.dot_0__112states.dfa,46,265,390,6.4378,1,0,0
ex11.mona.aut,2217,6513,30280,3204.2599,1,0,0
ex12.mona.aut,377,1089,2064,110.375,1,0,0
ex13.mona.aut,933,4591,10506,802.4881,1,0,0
ex15.mona.aut,10,27,32,0.2715,1,0,0
ex16.mona.aut,543,1426,11770,188.6586,1,0,0
ex17.mona.aut,1,0,4,0.0106,1,0,0
ex19.mona.aut,814,2885,13430,437.4385,1,0,0
ex7.mona.aut,148,373,1547,15.846,1,0,0
horn_trans05.mona.aut,11,25,28,0.1776,1,0,0
horn_trans10.mona.aut,21,50,53,0.5289,1,0,0
parametric_uabe1_11.mona.aut,2507,7493,34788,4096.4514,1,0,0
parametric_uabe3_10.mona.aut,2257,6733,30470,3284.2637,1,0,0
set_closed05.mona.aut,24,53,86,0.6998,1,0,0
set_closed10.mona.aut,44,98,211,1.9973,1,0,0
set_obvious05.mona.aut,1,0,4,0.0094,1,0,0
set_obvious10.mona.aut,1,0,4,0.009,1,0,0
set_singletons05.mona.aut,21,55,68,0.5601,1,0,0
set_singletons10.mona.aut,41,110,183,2.1304,1,0,0
strand-new-sorted-list-insert-after-loop.mona.aut,674,5429,4987,450.7282,1,0,0
strand-new-sorted-list-insert-before-head.mona.aut,219,1699,1570,62.8456,1,0,0
strand-new-sorted-list-insert-before-loop.mona.aut,387,3430,2181,186.6198,1,0,0
strand-new-sorted-list-insert-error-error.mona.aut,387,3430,2181,186.1552,1,0,0
strand-new-sorted-list-reverse-after-loop.mona.aut,956,20383,11152,1611.7243,1,0,0
strand-new-sorted-list-reverse-before-loop.mona.aut,956,20383,11152,1685.9969,1,0,0
strand-new-sorted-list-search-after-loop.mona.aut,431,5629,4197,275.0434,1,0,0
strand-new-sorted-list-search-before-loop.mona.aut,300,2849,1670,126.6304,1,0,0
toss05.mona.aut,65,288,174,4.421,1,0,0
toss10.mona.aut,1413,16619,4772,2518.3451,1,0,0
veanes05.mona.aut,6,11,13,0.0998,1,0,0
veanes05_1alts.mona.aut,19,45,109,0.3884,1,0,0
veanes05_2alts.mona.aut,31,172,73,1.258,1,0,0
veanes05_3alts.mona.aut,19,50,87,0.8427,1,0,0
veanes05_4alts.mona.aut,25,91,70,0.8175,1,0,0
veanes10.mona.aut,11,21,23,0.264,1,0,0
veanes10_1alts.mona.aut,39,95,414,2.0735,1,0,0
veanes10_2alts.mona.aut,780,33596,1576,2182.567,1,0,0
veanes10_3alts.mona.aut,39,100,357,1.5331,1,0,0
veanes10_4alts.mona.aut,588,15179,1206,883.5253,1,0,0
