id,states,transitions,statesSim,transitionsSim,timeSim,stateMinAfterSim,transitionsMinAfterSim,timeSimAndMin
0,14,40,4,5,4.1179,4,8,5.4189
1,59,127,29,61,8.0282,43,236,14.6704
2,17,20,17,20,1.258,26,88,3.7784
3,2,1,2,1,0.0765,2,1,0.1121
4,29,47,27,44,2.3597,35,74,3.3975
5,3,3,3,3,0.2798,3,3,0.4697
6,18,21,15,15,1.5469,15,15,1.7727
7,25,36,21,26,1.23,23,74,2.8109
8,3,6,1,1,0.0438,1,1,0.0584
9,7,9,6,8,1.0669,6,8,1.2106
10,12,14,12,14,0.5293,12,15,1.1467
11,8,13,8,13,0.2384,7,20,1.2801
12,16,19,15,18,0.823,15,18,1.0397
13,38,66,32,59,5.5101,34,53,13.6244
14,44,81,28,46,5.471,28,74,10.7428
15,15,16,15,16,0.6438,15,16,1.1052
16,3,3,3,3,0.1571,3,5,0.2865
17,65,135,31,54,8.3195,36,128,12.6182
18,44,49,14,19,2.235,14,19,2.4213
19,40,52,28,42,3.4338,24,51,7.9812
20,6,10,6,10,2.0025,6,10,2.7375
21,4,5,4,5,0.1547,4,5,0.2388
22,4,5,4,5,0.1969,4,5,0.315
23,11,13,11,13,0.3067,11,13,0.4417
24,22,29,22,29,0.7243,22,35,1.4309
25,11,11,11,11,0.2167,11,11,0.2715
26,8,9,5,5,0.4353,6,6,0.5407
27,6,11,4,6,0.5534,4,9,1.2967
28,18,29,14,19,1.5213,21,81,2.5886
29,11,11,9,10,0.4819,6,9,0.7089
30,1,1,1,1,0.0868,1,1,0.1132
31,33,36,33,36,1.17,33,114,17.7897
32,16,16,10,10,0.5423,10,10,0.6738
33,36,51,24,39,2.3597,24,54,2.9214
34,3,2,3,2,0.0955,3,2,0.1381
35,19,24,5,6,0.6138,5,6,0.7014
36,370,804,71,108,83.7466,76,315,94.9861
37,6,8,6,8,0.1981,6,8,0.3276
38,3,3,3,3,0.1014,3,3,0.1831
39,28,66,27,56,5.3696,44,106,9.049
40,14,13,14,13,0.2731,14,13,0.3446
41,13,26,6,9,0.8929,6,14,1.2118
42,7,8,7,8,0.2526,7,18,0.6513
43,9,13,9,13,0.3655,9,15,0.6935
44,4,6,2,3,0.1472,2,3,0.2265
45,19,23,9,10,0.7547,9,19,0.9777
46,7,8,7,8,0.2344,7,18,0.6813
47,7,8,7,8,0.1938,7,18,0.3817
48,11,12,11,12,0.21,11,22,8.023
49,2,2,2,2,0.0892,2,2,0.1132
50,102,202,1,1,9.585,1,1,9.6047
51,101,185,50,82,24.1225,63,269,33.5046
52,10,9,10,9,0.3161,10,9,0.435
53,29,59,17,25,1.6819,21,39,2.3104
54,17,40,12,24,1.7854,12,24,2.4552
55,46,66,2,3,2.1272,2,3,2.2105
56,3,4,3,4,0.2072,3,4,0.2822
57,55,77,11,14,3.8798,11,26,4.4629
58,101,185,50,82,25.8834,60,270,29.5572
59,24,38,23,37,1.9879,23,37,2.666
60,27,53,27,51,3.1042,27,51,3.7543
61,14,34,14,27,1.528,25,47,2.1063
62,9,18,9,18,0.2518,9,15,0.4882
63,7,8,7,8,0.116,7,13,0.2621
64,62,100,26,37,6.371,106,753,47.1721
65,64,102,29,40,9.8144,86,769,27.9692
66,15,16,15,16,0.2396,15,42,0.6856
67,46,69,19,39,2.9688,19,27,3.281
68,2,2,2,2,0.0971,2,2,0.1243
69,3,4,3,4,0.1638,3,6,0.3714
70,32,31,32,31,1.633,32,31,1.8268
71,55,134,20,50,9.0024,26,55,10.1333
72,132,230,84,138,29.5474,84,293,33.1087
73,143,262,113,213,48.4929,424,1596,65.7351
74,124,238,105,200,40.7824,416,1583,53.2965
75,22,50,6,10,3.0106,6,24,4.2604
76,20,21,20,21,0.3564,20,42,0.7369
77,6,5,6,5,0.1582,6,5,0.1946
78,6,5,6,5,0.1503,6,5,0.2107
79,8,11,6,7,0.2285,6,7,0.3809
80,30,71,27,64,3.9544,38,96,6.3154
81,16,15,16,15,0.3434,16,15,0.4488
82,5,5,5,5,0.1219,5,5,0.1973
83,1,1,1,1,0.0757,1,1,0.0931
84,18,27,1,1,0.4172,1,1,0.4377
85,32,50,18,27,1.7644,18,35,2.6013
86,13,22,8,11,0.746,8,28,1.3152
87,2,3,2,3,0.0694,2,3,0.2009
88,19,30,7,10,4.7585,7,22,5.2077
89,9,14,6,9,0.268,6,15,0.5222
90,26,42,21,26,3.6722,21,42,5.4517
91,68,95,56,82,11.1573,56,84,13.5079
92,25,33,19,22,6.8293,19,73,8.3455
93,10,11,10,11,0.2767,38,46,0.69
94,3,3,3,3,0.2032,3,3,0.3761
95,4,5,4,5,0.1357,4,5,0.238
96,4,6,4,5,0.1752,4,5,0.2703
97,5,8,5,7,0.2048,5,7,0.3
98,26,47,25,44,1.8434,55,98,3.0923
99,6,11,2,3,0.4961,2,3,0.6051
100,28,43,22,37,1.8781,22,42,2.2579
101,8,13,8,13,0.2352,7,11,0.4247
102,15,21,14,19,0.9544,26,77,2.1225
103,33,44,1,1,0.9221,1,1,0.939
104,33,43,3,4,0.7811,3,6,0.9138
105,16,24,14,19,1.3105,57,210,11.3613
106,40,59,7,11,8.4718,7,25,9.6387
107,29,30,29,30,0.6655,26,30,0.9568
108,61,85,28,37,5.8883,157,510,22.8996
109,21,23,12,15,1.0661,12,17,1.6184
110,27,44,25,40,1.9511,31,47,2.7201
111,20,20,20,20,0.3935,20,44,0.6319
112,31,36,30,33,1.601,30,89,6.9758
113,43,46,43,46,1.3657,44,131,2.9463
114,30,52,9,11,5.4967,11,25,5.8287
115,13,20,10,15,0.6734,10,15,0.9347
116,8,8,8,8,0.1622,8,8,0.281
117,13,30,4,5,0.4176,4,9,0.5443
118,18,33,11,15,0.7673,16,64,2.2547
119,9,22,2,3,0.1665,2,3,0.2076
120,49,53,49,53,1.5852,51,154,3.0809
121,5,5,5,5,0.1768,6,7,0.3832
122,6,7,6,7,1.8533,6,15,2.4146
123,14,17,14,17,0.298,14,43,0.8751
124,10,9,10,9,0.2127,10,9,0.2648
125,9,8,9,8,0.2305,9,8,0.279
126,7,9,6,8,0.7665,6,9,1.1964
127,21,38,20,36,7.571,20,36,12.1196
128,4,5,4,5,0.1338,4,9,0.3465
129,95,150,40,54,12.1382,70,324,37.7947
130,1,1,1,1,0.0513,1,1,0.0813
131,13,16,9,9,0.2992,9,9,0.3525
132,79,248,5,7,5.3475,5,15,5.6929
133,79,248,5,7,4.3152,5,15,4.4708
134,6,9,5,7,0.3118,5,7,0.4452
135,21,131,13,42,9.8238,45,265,29.6689
136,3,5,2,3,0.189,2,3,0.2628
137,14,16,8,10,0.5202,8,10,0.6335
138,13,18,12,16,0.6071,13,33,1.3413
139,7,7,7,7,0.1365,7,7,0.2171
140,2,3,2,3,0.073,2,3,0.1476
141,65,69,65,69,2.6909,66,71,3.3015
142,14,17,10,13,0.8356,10,29,1.5615
143,14,18,14,18,0.4709,15,23,0.9367
144,31,30,31,30,0.9935,31,30,1.185
145,7,9,7,9,0.2573,7,15,0.5838
146,13,15,13,14,0.5044,13,24,0.7353
147,28,39,24,35,1.275,24,47,5.2784
148,13,16,13,16,0.2617,14,21,0.5478
149,19,32,19,32,0.5226,19,32,0.763
150,4,7,3,5,0.3078,3,6,0.5257
151,39,42,20,25,2.3246,20,29,2.8954
152,28,30,19,23,1.7739,19,25,2.1769
153,79,148,7,14,23.89,6,17,28.8514
154,74,74,74,74,3.7204,74,74,4.5102
155,3,5,2,3,0.1057,2,3,0.1515
156,25,69,9,10,1.4494,9,18,2.6865
157,13,17,13,17,0.3603,13,23,0.8842
158,23,32,20,25,3.5368,20,27,4.1439
159,20,23,19,23,0.5388,19,25,0.9457
160,10,16,7,13,0.6986,7,23,1.5039
161,15,16,15,16,0.2692,15,16,0.4148
162,77,108,34,48,10.0078,50,327,23.8075
163,13,33,13,12,0.9375,13,12,1.0326
164,13,12,13,12,0.3161,13,12,0.4215
165,9,33,4,7,0.3331,4,7,0.4215
166,747,986,235,397,413.0085,243,5534,890.9371
167,76,116,48,68,19.6489,157,1082,30.9933
168,11,11,11,11,0.2431,11,11,0.3138
169,2,2,2,2,0.101,2,2,0.1417
170,9,8,9,8,0.2317,9,8,0.2988
171,9,8,9,8,0.2238,9,8,0.283
172,9,8,9,8,0.1973,9,8,0.2573
173,6,5,6,5,0.1334,6,5,0.1748
174,80,104,59,79,37.9462,57,104,39.4885
175,4,7,4,7,0.2944,4,8,0.4709
176,4,7,4,7,0.2226,4,8,0.4172
177,10,12,8,10,0.9165,8,10,1.0654
178,34,55,34,55,1.2359,34,55,1.71
179,7,14,2,3,0.3753,2,3,0.4507
180,279,489,205,335,109.4485,223,408,114.033
181,8,8,8,8,0.2056,8,8,0.3825
182,12,17,9,12,0.4563,9,29,1.0492
183,19,24,12,17,1.6136,22,61,3.2944
184,48,59,28,42,3.1346,24,51,3.5767
185,15,29,10,17,1.245,10,20,1.6456
186,3,4,3,4,0.1353,3,4,0.2613
187,14,13,14,13,0.2269,14,13,0.2897
188,15,14,15,14,0.2684,15,14,0.3343
189,14,13,14,13,0.2928,14,13,0.3564
190,14,13,14,13,0.2455,14,13,0.3086
191,44,59,43,55,3.6663,43,56,4.2987
192,25,25,25,25,0.4914,25,25,0.6753
193,18,19,18,19,0.371,18,27,0.6288
194,6,8,6,8,0.2163,6,16,0.6955
195,4,10,4,9,0.3675,4,9,0.5846
196,8,8,8,8,0.2068,8,8,0.3256
197,71,118,44,55,8.1312,45,67,9.3501
198,2,3,2,3,0.0911,2,4,0.1527
199,4,5,4,5,0.18,5,7,0.3473
200,4,7,4,7,0.1117,4,8,0.2261
201,11,15,11,15,0.4235,7,9,0.6059
202,32,34,32,34,0.851,32,34,1.1601
203,13,16,13,16,0.2593,14,21,0.5348
204,10,11,10,11,0.1867,10,13,0.324
205,8,8,8,8,0.1677,8,8,0.2996
206,95,194,38,68,35.7996,74,1466,126.6256
207,3,6,1,1,0.0738,1,1,0.09
208,9,38,1,1,0.1002,1,1,0.1144
209,70,80,29,42,4.961,21,39,6.2858
210,138,186,4,8,13.0307,2,3,13.1175
211,23,26,14,20,1.0867,11,20,1.5809
212,44,52,19,33,2.0972,16,36,2.6479
213,17,34,4,8,0.3971,2,3,0.4732
214,16,19,10,17,0.5368,9,18,0.7196
215,26,42,21,33,3.1879,270,1825,102.4995
216,4,6,3,4,0.2514,3,6,0.4405
217,36,74,15,28,2.9794,15,33,4.0326
218,3,4,2,2,0.1713,2,2,0.1926
219,19,30,18,29,1.4972,18,29,2.1797
220,6,10,4,6,0.1977,4,10,0.4464
221,49,110,34,61,3.9647,34,61,5.4774
222,12,15,8,9,0.51,8,10,0.6122
223,18,21,11,13,0.7551,11,20,0.911
224,52,69,32,49,3.6813,28,61,4.2485
225,94,124,38,64,13.3133,42,64,14.0657
226,36,51,24,36,1.5477,24,33,1.8248
227,18,30,14,20,1.3875,24,97,3.1551
228,6,7,6,7,0.1223,6,7,0.2119
229,25,34,18,27,2.3885,18,30,2.7497
230,5,8,4,5,0.2905,4,5,0.3856
231,5,14,4,9,0.3051,4,9,0.4776
232,3,5,3,4,0.1835,3,6,0.2921
233,23,25,23,25,0.4878,23,25,0.6892
234,15,17,15,17,0.4113,24,29,0.8964
235,18,36,14,20,1.2351,22,79,5.2733
236,13,26,6,9,0.5739,6,14,0.7752
237,96,121,86,111,20.8501,85,111,24.8808
238,20,26,15,21,4.3014,17,24,4.5541
239,12,23,8,17,1.1518,9,27,2.6538
240,79,101,44,66,7.5209,44,95,9.5009
241,31,30,13,18,1.3934,10,17,1.601
242,9,10,8,8,0.9102,8,13,1.1159
243,100,187,51,110,65.1943,51,110,71.9799
244,215,401,87,243,115.6964,88,244,138.5337
245,27,50,27,50,10.1858,27,50,12.694
246,8,11,8,11,0.4476,7,19,0.9067
247,86,115,15,19,19.9343,16,47,20.9768
248,3,4,3,4,0.1207,3,5,0.2755
249,17,18,17,18,0.326,17,48,0.9434
250,20,26,16,21,1.0697,16,20,1.2817
251,3,2,3,2,0.1144,3,2,0.1432
252,24,39,24,39,9.2526,24,39,12.5081
253,65,102,56,92,20.1009,56,102,23.181
254,5,5,5,5,0.1922,7,7,0.369
255,4,3,4,3,0.1148,4,3,0.148
256,37,61,16,19,2.5563,15,17,2.818
257,11,12,7,7,0.4113,7,7,0.495
258,9,8,9,8,0.1713,9,8,0.2186
259,15,26,11,16,0.8782,11,15,1.3843
260,10,11,10,11,0.2609,10,27,0.8269
261,5,10,3,5,0.1602,3,5,0.2171
262,5,10,3,5,0.4125,3,5,0.5147
263,43,52,43,52,1.4151,53,81,2.6127
264,15,16,15,16,0.3011,15,16,0.5159
265,10,9,10,9,0.1965,10,9,0.2565
266,19,27,19,26,15.4421,20,31,16.0504
267,13,16,11,12,0.4973,11,12,0.6489
268,7,6,7,6,0.1677,7,6,0.2092
269,7,8,7,8,0.2178,7,18,0.6402
270,11,17,10,11,0.4022,10,11,0.5222
271,56,94,23,43,4.4554,39,169,10.3544
272,28,31,28,31,0.8755,28,31,1.2761
273,11,19,7,12,0.4922,7,13,0.7547
274,205,3036,136,264,99.1494,198,463,164.9733
275,39,41,17,19,2.4434,17,17,2.6242
276,13,18,10,14,1.1782,11,17,1.4186
277,29,45,25,41,2.259,25,47,2.9668
278,7,18,2,2,0.0951,2,2,0.1156
279,44,45,44,45,1.5982,44,128,3.1729
280,10,11,10,11,0.2684,10,23,0.8064
281,10,15,10,15,0.2688,10,26,0.7101
282,6,12,4,5,0.3031,5,8,0.4713
283,22,28,13,19,1.3279,14,23,1.6965
284,20,22,20,22,0.4282,20,22,0.6307
285,20,22,20,22,2.4955,20,22,2.7075
286,11,13,11,13,0.2285,11,13,0.3477
287,2,2,2,2,0.0805,2,2,0.1219
288,14,16,14,16,0.3225,14,16,0.5048
289,5,9,4,5,0.2301,4,7,0.3027
290,30,31,30,31,0.864,30,86,2.8156
291,9,20,6,14,0.6386,2,3,1.2315
292,17,36,12,23,1.933,12,23,2.4754
293,12,11,12,11,0.2088,12,11,0.2648
294,3,4,3,3,0.2648,3,3,0.3453
295,33,54,20,26,3.8463,31,112,5.2259
296,21,45,8,11,0.9201,11,37,1.4139
297,2,3,2,3,0.0667,2,3,0.163
298,11,11,11,11,0.1843,1024,3070,17.597
299,7,9,6,7,0.3078,6,7,0.3998
300,7,8,7,8,0.1365,7,10,0.251
301,60,134,34,88,14.8599,36,110,16.5983
302,15,19,11,12,0.4701,11,12,0.654
303,15,25,10,16,0.6848,9,13,1.0085
304,59,257,5,6,4.0066,5,13,4.1637
305,29,41,24,34,2.4694,26,46,3.3927
306,24,38,15,23,1.4309,22,87,3.3675
307,29,61,20,32,2.9175,20,32,3.4531
308,43,156,40,77,4.2497,100,252,13.9903
309,16,22,16,21,1.5351,16,21,1.9168
310,5,9,2,3,0.2198,2,3,0.2936
311,38,70,35,60,3.8451,55,197,7.7747
312,4,6,2,3,0.1389,2,4,0.2155
313,29,32,16,19,2.2575,16,18,2.4304
314,45,46,45,46,1.4873,45,132,4.2252
315,20,33,20,31,1.0602,33,56,1.7917
316,24,26,21,23,2.3743,21,23,2.5867
317,19,20,19,20,0.3659,19,54,1.0681
318,21,22,21,22,0.4097,21,60,0.9311
319,16,29,15,22,1.6965,18,59,3.208
320,3,5,2,3,0.1464,2,3,0.1981
321,19,27,16,22,1.2809,15,42,1.764
322,393,736,111,192,173.4357,107,186,177.1435
323,7,15,7,15,0.4353,5,10,0.671
324,5,6,5,6,0.1365,5,11,0.3757
325,15,14,15,14,0.2727,15,14,0.3378
326,16,26,13,22,1.6973,13,22,2.2504
327,43,56,34,46,5.0056,34,47,5.715
328,45,55,40,48,3.0971,52,157,5.882
329,43,70,25,33,7.0054,25,165,16.1022
330,10,20,8,15,0.6244,8,15,0.8301
331,30,40,16,22,4.9172,16,50,6.3951
332,52,84,26,35,5.096,26,118,13.6579
333,16,20,7,9,0.7361,7,9,0.9023
334,2,3,2,3,0.0876,2,3,0.1681
335,2,3,2,3,0.075,2,4,0.1326
336,9,15,5,7,0.5735,5,11,0.7788
337,13,29,2,3,0.2475,2,3,0.2881
338,35,120,1,1,2.6096,1,1,2.6388
339,16,16,16,16,0.2711,16,16,0.3414
340,15,34,15,26,0.7803,17,29,1.0969
341,11,19,7,11,0.5313,7,15,0.7803
342,80,114,44,64,13.0457,44,72,15.8144
343,57,195,13,24,7.98,18,77,9.7476
344,18,27,12,19,1.376,12,23,1.7123
345,25,34,25,34,0.6375,84,276,2.9585
346,10,24,9,20,0.581,10,18,1.2268
347,18,21,7,8,0.6078,8,8,0.7843
348,14,18,10,15,0.5167,10,15,0.6781
349,21,34,21,34,0.6165,35,61,1.0673
350,40,51,25,29,2.3048,25,29,2.52
351,16,22,11,12,0.6442,11,31,1.0259
352,10,17,8,14,1.1897,9,30,2.0218
353,3,2,3,2,0.1002,3,2,0.1409
354,8,8,8,8,0.1484,8,8,0.249
355,89,172,32,51,18.619,240,1161,64.6373
356,5,6,5,6,0.1515,5,11,0.309
357,18,30,9,12,1.8458,12,41,3.0418
358,11,11,11,11,0.2415,11,11,0.4065
359,9,11,9,11,0.1705,9,12,0.3355
360,27,57,27,54,2.4675,37,81,3.3418
361,64,141,64,141,4.6922,92,231,7.6271
362,16,21,8,10,0.7136,10,22,0.9611
363,20,27,11,12,0.7918,11,21,17.9858
364,23,36,3,4,0.5944,3,6,0.6978
365,52,78,33,42,5.5267,35,273,11.6886
366,101,100,28,36,12.1725,20,36,12.9869
367,27,31,27,31,0.6694,27,31,0.9142
368,14,14,14,14,0.266,14,14,0.3296
369,16,28,16,18,0.9532,16,18,1.2884
370,10,21,5,7,0.5309,5,13,0.8309
371,28,48,18,31,2.1698,18,30,2.4777
372,54,65,49,59,6.2139,49,60,6.7804
373,4,3,4,3,0.1484,4,3,0.2119
374,11,11,11,11,0.1906,11,11,0.3023
375,19,18,19,18,0.3453,19,18,0.4263
376,9,10,9,10,0.1898,9,10,0.2992
377,8,11,4,5,0.2826,4,5,0.3682
378,32,33,32,33,1.0109,32,93,2.5294
379,18,32,15,23,0.7492,22,60,1.1861
380,45,44,45,44,1.2682,45,44,1.4325
381,30,33,19,20,2.439,19,20,2.683
382,31,30,31,30,0.6753,31,30,0.7914
383,49,65,32,42,4.9125,85,273,8.0795
384,18,19,18,19,0.3967,19,55,1.4723
385,34,34,30,30,2.1367,30,30,2.3822
386,5,8,4,5,0.3418,4,5,0.4203
387,13,14,13,14,0.2814,13,36,0.9438
388,28,72,21,48,3.6438,29,120,5.6506
389,11,10,11,10,0.1784,11,10,0.236
390,9,10,9,10,0.1871,9,24,0.6185
391,9,10,9,10,0.2471,9,24,0.6702
392,2,3,2,3,0.0848,2,3,0.1819
393,3,5,3,5,0.0753,3,5,0.1575
394,24,26,14,15,1.0831,14,15,1.2651
395,46,80,24,32,4.4625,167,815,40.4193
396,7,14,4,6,0.4748,4,6,0.5672
397,9,13,7,7,0.3497,7,17,0.63
398,8,12,6,9,0.2565,6,9,0.3426
399,19,29,18,27,0.8869,18,51,14.5457
400,14,26,13,22,3.8187,14,24,4.1044
401,7,9,7,9,0.2988,9,12,0.4476
402,28,29,28,29,0.5952,28,81,1.7747
403,5,6,5,6,0.1614,5,12,5.7513
404,11,46,11,10,1.4404,11,10,1.4976
405,12,17,4,6,0.7196,4,10,1.1202
406,18,25,18,25,0.3947,18,25,0.6019
407,13,19,8,12,0.4136,9,18,0.853
408,21,47,14,23,4.0827,27,96,5.3313
409,6,5,6,5,0.1539,6,5,0.2123
410,13,22,12,18,1.0709,17,69,3.1638
411,6,8,6,8,0.1961,6,15,0.5151
412,113,132,35,44,10.4605,50,216,15.7339
413,5,5,5,5,0.1926,5,5,0.2885
414,7,9,7,9,0.2313,7,19,0.5561
415,558,2116,5,7,153.2827,5,11,153.7272
416,7,8,7,8,0.2313,7,10,0.4436
417,17,23,13,16,0.7093,13,22,1.0709
418,7,8,7,8,0.144,7,10,0.4314
419,6,9,4,6,0.2853,4,6,0.3576
420,9,10,9,10,0.2103,9,17,0.3844
421,19,18,19,18,0.4428,19,18,0.5696
422,16,39,13,24,1.6867,14,26,2.1146
423,20,44,13,28,2.1635,13,35,3.2076
424,16,32,12,24,0.6801,12,31,1.065
425,9,14,8,11,0.3931,8,21,1.1415
426,9,14,8,11,1.0827,8,21,1.4344
427,5,7,5,7,0.1322,5,13,0.3781
428,54,120,52,108,6.5664,54,114,7.5616
429,18,25,14,21,0.6576,14,23,0.898
430,13,24,9,15,0.7831,13,35,1.2363
431,61,86,40,62,8.5346,40,60,9.6916
432,36,46,16,22,1.4554,16,22,1.6504
433,42,61,42,61,2.4615,32,64,3.4559
434,41,62,35,57,4.5501,38,74,5.951
435,7,9,7,9,0.2581,7,9,0.448
436,19,28,9,9,0.3422,9,9,0.4263
437,302,769,169,316,89.9464,255,941,839.9525
438,7,10,7,10,0.324,7,20,1.3484
439,4,6,4,6,0.2218,4,10,0.4421
440,31,55,22,40,1.6192,31,65,2.3408
441,49,50,13,13,2.1746,13,13,2.2405
442,6,13,3,4,0.4823,3,4,0.5928
443,12,13,12,13,0.2021,12,26,0.4334
444,6,9,4,5,0.941,4,4,1.0211
445,22,24,22,24,0.4792,22,45,1.4404
446,17,47,10,20,2.4181,18,91,8.1967
447,7,9,5,6,0.3596,5,6,0.4807
448,99,249,9,17,8.0941,10,34,8.998
449,15,20,14,19,0.5601,14,21,0.8818
450,4,7,3,5,0.2285,3,5,0.3371
451,15,31,12,20,1.6129,12,20,2.0506
452,17,28,12,23,0.8013,12,29,1.1822
453,8,10,6,7,0.3153,6,7,0.4018
454,2,3,2,3,0.0836,2,3,0.1602
455,104,167,16,25,13.3694,34,163,16.6753
456,4,7,3,5,0.1973,3,5,0.2522
457,6,5,6,5,0.1878,6,5,0.24
458,17,37,13,29,1.5967,13,29,2.094
459,11,28,10,18,1.4873,10,18,2.0111
460,16,25,12,18,1.2288,12,18,1.3784
461,20,27,17,23,2.4126,17,28,3.2056
462,22,28,12,17,1.0125,13,17,1.1968
463,128,145,20,37,12.2827,20,38,12.8057
464,11,16,9,14,0.9967,10,14,1.2051
465,4,9,1,1,0.0635,1,1,0.0777
466,13,37,4,8,0.5325,2,3,0.6142
467,12,20,7,11,0.6177,10,39,1.3452
468,17,34,4,5,0.8925,4,8,1.0452
469,11,14,10,12,0.3821,10,27,0.7148
470,34,36,34,36,0.883,42,121,3.6162
471,17,22,10,12,0.7421,10,12,0.8826
472,20,36,20,35,1.3804,41,77,2.385
473,24,25,24,25,0.5668,24,25,0.8273
474,2,3,2,3,0.1026,2,3,0.2565
475,5,7,5,7,0.1906,4,6,0.2838
476,44,125,35,87,6.2179,57,208,10.489
477,11,10,11,10,0.2017,11,10,0.2561
478,27,30,27,30,0.8597,27,78,3.5439
479,4,7,4,7,0.1235,4,10,0.2253
480,4,6,3,4,0.2218,3,4,0.3071
481,5,7,5,7,0.1278,5,10,0.311
482,6,12,6,9,0.401,6,9,0.5601
483,2,2,2,2,0.0785,2,2,0.1077
484,18,27,12,16,0.9592,19,80,2.0763
485,13,14,13,14,0.3868,13,14,0.5652
486,11,16,9,12,0.6509,12,45,1.6377
487,14,35,7,14,1.0018,9,21,1.4905
488,20,84,20,56,2.259,20,56,2.996
489,47,70,47,70,2.6096,45,68,3.5747
490,101,139,32,48,13.4373,88,439,26.1108
491,36,51,24,39,3.0773,70,224,9.6608
492,14,23,12,16,1.8031,12,28,2.1718
493,12,15,12,15,0.2925,12,16,0.5253
494,14,19,9,12,0.5613,9,16,0.8013
495,31,39,11,18,1.5588,11,25,1.9168
496,22,29,22,29,0.6003,22,30,0.909
497,7,9,6,7,0.2234,6,15,0.5609
498,6,9,4,6,0.984,4,6,1.1052
499,16,18,13,14,0.6903,13,28,0.9702
500,6,10,5,8,0.3323,5,8,0.48
501,70,127,44,77,11.3025,51,93,13.3386
502,22,29,22,29,0.4985,22,30,0.7547
503,53,54,53,54,1.8529,53,156,4.0373
504,63,92,35,44,6.4153,35,107,8.4067
505,20,27,12,20,1.0148,12,19,1.1814
506,501,718,228,406,237.7084,233,656,256.3779
507,15,16,15,16,0.4389,16,45,1.6981
508,8,10,8,10,0.4444,11,35,7.6678
509,76,139,75,138,10.6761,76,268,12.3995
510,21,38,18,32,4.9145,18,32,7.5762
511,22,40,20,36,3.6418,20,36,4.7183
512,13,20,13,20,0.2396,22,90,4.9748
513,13,22,2,2,0.4527,2,2,0.4744
514,25,26,25,26,0.5538,25,72,1.3306
515,13,20,12,19,0.5964,17,60,3.6493
516,97,132,29,52,9.1018,29,75,9.9565
517,7,8,7,8,0.2151,7,17,0.7689
518,4,5,4,5,0.1231,4,9,0.3698
519,5,4,5,4,0.1196,5,4,0.1551
520,3,4,2,2,0.1582,2,2,0.18
521,3,5,2,2,0.2178,2,2,0.2392
522,20,28,15,18,1.288,111,460,9.0178
523,16,34,10,20,1.3409,35,121,4.3038
524,5,4,5,4,0.1365,5,4,0.1803
525,10,15,8,10,0.5494,8,19,1.2004
526,24,50,16,36,1.6835,30,95,4.1423
527,4,5,4,5,0.2127,4,5,0.2992
528,39,52,36,48,2.2598,35,55,2.8113
529,89,90,89,90,5.2417,91,272,9.6545
530,21,23,13,15,0.643,13,13,0.8028
531,12,14,12,14,0.3398,12,14,0.5972
532,32,67,27,49,5.8452,52,164,11.1051
533,7,10,6,7,0.3576,6,15,0.6552
534,12,22,6,10,0.465,8,24,0.7847
535,81,82,81,82,4.4996,85,256,8.0159
536,23,32,1,1,0.5344,1,1,0.5498
537,17,40,9,11,1.4092,11,25,1.7419
538,103,143,1,1,10.0425,1,1,10.0634
539,13,36,11,24,0.8194,9,15,1.1696
540,3,5,2,3,0.1255,2,3,0.1811
541,5,8,3,5,0.2001,3,5,0.2656
542,30,81,22,51,3.9663,22,69,4.7664
543,17,27,12,17,0.8182,12,35,1.1569
544,44,70,24,51,2.3542,24,51,2.7987
545,25,39,15,18,1.8142,15,31,2.1165
546,14,35,13,25,1.5568,14,34,2.1142
547,21,59,12,28,1.9342,15,54,3.8739
548,6,10,3,5,0.2403,3,5,0.3453
549,19,32,14,22,3.6683,16,30,5.2421
550,75,76,75,76,8.1671,75,221,25.6162
551,45,46,45,46,18.7153,45,131,21.0621
552,11,13,6,7,0.253,6,7,0.3331
553,576,1102,102,182,333.4026,102,186,438.9338
554,223,1964,9,12,59.7137,11,25,60.0485
555,13,16,8,13,0.7823,8,13,1.0563
556,6,9,6,9,0.1448,6,8,0.2747
557,18,21,12,14,1.125,13,17,1.4427
558,17,22,12,15,1.1546,12,17,1.5173
559,18,23,7,9,0.6852,8,13,0.9015
560,27,35,19,26,2.5646,40,214,7.7518
561,14,17,14,17,0.3122,11,13,0.4547
562,46,70,24,47,10.363,27,46,12.1279
563,20,23,16,19,1.1601,16,19,1.3657
564,11,10,11,10,0.2542,11,10,0.3335
565,19,26,19,26,0.7953,28,39,1.8686
566,21,57,4,5,1.1171,4,5,1.2146
567,7,9,7,9,0.2471,7,18,1.2718
568,7,8,7,8,0.1409,7,9,0.2589
569,99,181,32,71,12.9904,36,114,14.7691
570,5,10,5,10,0.2147,4,7,0.6682
571,8,8,6,7,0.2984,6,7,0.4073
572,6,6,6,6,0.1101,6,16,0.223
573,4,6,2,3,0.1519,2,3,0.2356
574,13,29,5,9,1.2635,5,9,1.5904
575,10,24,1,1,0.1582,1,1,0.1725
576,70,84,19,26,7.0824,19,27,7.4135
577,3,4,3,4,0.1401,3,6,0.2881
578,74,97,32,43,6.1299,34,146,8.535
579,4,4,4,4,0.116,4,4,0.1496
580,16,20,16,20,0.3351,14,16,0.5368
581,57,76,39,54,5.6676,36,55,6.2617
582,16,21,13,15,0.7981,13,15,1.0385
583,88,105,50,68,9.583,261,1042,17.6945
584,68,128,47,85,10.1661,58,104,12.7098
585,22,61,4,7,1.9259,4,10,2.2993
586,67,198,11,23,9.7101,20,90,13.3177
587,5,9,4,6,0.2317,4,8,0.4085
588,36,67,16,27,3.4409,18,112,6.315
589,13,30,2,3,0.6481,2,3,0.7215
590,4,6,3,4,0.2257,3,4,0.3015
591,12,24,7,15,0.5253,7,14,0.8202
592,11,12,11,12,0.1835,11,25,0.4081
593,39,78,23,33,2.7687,23,66,5.1402
594,220,276,25,36,32.8079,313,1350,88.9406
595,29,68,2,3,0.5917,2,3,0.6501
596,5,7,4,5,0.2482,4,5,0.3181
597,20,30,20,30,0.6773,26,46,1.4873
598,15,28,9,13,1.1135,11,34,1.6369
599,12,34,2,3,0.208,2,3,0.2518
600,13,25,6,12,0.8155,4,10,1.1538
601,8,7,8,7,0.1681,8,7,0.2372
602,5,5,5,5,0.1164,5,5,0.268
603,12,13,12,13,0.268,12,13,0.4156
604,2,1,2,1,0.0836,2,1,0.1184
605,8,18,3,4,0.4259,3,5,0.521
606,32,41,31,39,1.7826,72,317,13.847
607,12,37,9,21,0.7215,8,16,1.0918
608,24,32,18,23,1.6381,18,59,3.6083
609,28,58,14,27,1.6669,13,45,2.6143
610,15,30,8,15,0.6173,8,26,1.0729
611,103,166,55,102,20.6736,85,736,51.7779
612,107,173,56,104,28.5112,88,764,52.882
613,16,51,12,34,3.898,27,151,9.8897
614,9,10,9,10,0.1689,9,17,14.9081
615,6,15,3,5,0.5384,3,5,0.7606
616,9,11,9,11,0.39,9,25,1.0886
617,7,9,7,9,0.2328,7,18,1.1613
618,16,19,16,19,0.4725,16,47,1.3851
619,9,13,9,13,0.2905,10,28,0.6947
620,9,11,9,11,0.266,9,25,0.6185
621,9,13,9,13,0.3169,9,13,0.5226
622,8,12,8,12,0.7823,8,12,1.4597
623,14,16,14,16,0.2482,14,16,0.3923
624,65,64,65,64,4.2537,65,64,4.6212
625,6,6,6,6,0.1136,6,14,0.2313
626,11,11,11,11,0.1882,11,11,0.3118
627,19,29,10,13,1.0713,10,45,2.2665
628,11,18,9,13,1.033,12,17,1.2118
629,11,21,8,12,1.2663,9,13,1.5548
630,15,14,15,14,0.3003,15,14,0.3868
631,13,20,12,16,4.7191,13,20,5.1079
632,71,113,31,55,26.7463,42,242,35.3958
633,8,14,7,12,0.476,6,8,0.6177
634,10,9,7,8,0.5388,7,8,0.7563
635,23,31,23,31,0.6382,37,167,7.5493
636,19,24,19,24,0.4697,23,90,1.9642
637,26,35,25,31,3.0959,25,32,3.9122
638,4,6,2,3,0.1326,2,3,0.2167
639,13,16,12,16,0.4598,15,49,1.2043
640,15,17,13,14,1.0594,13,29,1.6239
641,153,200,59,88,21.4896,177,968,39.7983
642,65,87,38,59,5.9352,91,491,10.2837
643,194,472,1,1,30.295,1,1,30.3155
644,21,24,20,23,0.8605,20,23,1.0906
645,5,9,4,6,0.4176,4,8,0.6434
646,22,22,13,13,0.926,13,12,1.0429
647,18,23,18,23,0.7819,18,25,1.3042
648,11,14,9,10,0.6015,9,28,1.3851
649,9,10,8,8,0.3378,8,8,0.448
650,12,14,12,14,0.255,12,14,0.3777
651,9,26,6,9,0.5565,6,9,0.7377
652,14,25,6,7,0.6572,9,24,1.1972
653,8,9,8,9,0.236,8,24,1.05
654,19,21,16,18,0.7346,23,27,0.9844
655,8,7,8,7,0.1811,8,7,0.2344
656,9,11,9,11,0.2459,9,29,1.0886
657,12,28,11,21,0.868,11,20,1.0827
658,9,11,9,11,0.2865,9,42,1.2864
659,21,44,17,32,1.9827,17,32,3.0596
660,12,16,10,13,0.765,10,27,1.5461
661,10,10,10,10,0.1886,10,10,0.24
662,16,21,16,15,0.9075,16,15,1.0125
663,8,12,7,10,0.6963,8,21,1.4068
664,19,20,15,18,1.0069,15,18,1.3685
665,9,9,9,9,0.1653,9,9,0.2707
666,2,3,2,3,0.0631,2,3,0.1488
667,18,22,15,16,1.063,16,36,1.4301
668,68,95,39,63,6.7859,39,78,11.0305
669,14,27,9,15,0.5486,9,15,0.8123
670,6,7,6,7,0.1839,6,16,0.3086
671,37,110,2,3,0.643,2,3,0.686
672,3,5,2,3,0.1207,2,3,0.1768
673,11,70,1,1,0.4476,1,1,0.4638
674,11,17,11,17,0.7973,18,71,2.4493
675,7,9,7,9,0.1223,7,17,0.7571
676,29,75,8,19,1.4944,10,25,2.1272
677,13,25,6,10,0.3027,6,10,1.0819
678,13,16,13,16,0.3856,13,16,0.7286
679,8,9,8,9,0.2088,8,21,0.6615
680,15,20,14,18,0.838,29,51,1.9583
681,33,38,21,26,2.5436,21,29,2.8006
682,2,3,2,3,0.0864,2,3,0.1748
683,35,35,35,35,0.9623,35,35,1.4175
684,72,75,22,25,3.8948,34,36,4.3259
685,35,47,29,40,2.7505,29,41,3.5621
686,116,117,116,117,8.8761,117,348,12.6336
687,1,1,1,1,0.0457,1,1,0.0718
688,8,9,8,9,0.2743,8,21,1.1964
689,59,60,59,60,2.053,62,186,3.7808
690,20,26,18,21,1.2398,18,43,1.9579
691,17,29,14,21,1.3354,14,22,1.5517
692,15,16,15,16,0.3442,15,16,0.4957
693,4,6,4,6,0.191,4,10,0.4314
694,4,8,3,5,0.1843,3,5,0.27
695,6,11,5,8,0.2881,5,13,0.5522
696,9,13,9,13,0.2932,9,27,0.915
697,7,12,7,12,0.266,7,22,0.6884
698,2,2,2,2,0.0805,2,2,0.1061
699,307,581,4,6,73.5118,4,10,73.6816
700,324,623,55,96,93.173,60,362,178.5531
701,11,10,11,10,0.3343,11,10,0.4243
702,22,23,22,23,0.4638,22,63,1.0184
703,15,17,15,17,0.2767,15,17,0.4247
704,15,19,10,14,1.0172,10,14,1.3156
705,3,5,2,2,0.1547,2,4,0.2103
706,7,14,4,5,0.2526,4,8,0.3406
707,72,118,50,82,21.9972,48,78,23.5505
708,45,73,22,33,2.7446,50,131,5.2192
709,27,43,25,40,1.3993,31,62,1.905
710,3,6,1,1,0.0793,1,1,0.0971
711,15,38,3,4,0.2522,3,6,0.3564
712,23,35,13,21,1.3705,39,165,19.9398
713,23,30,21,26,0.9659,21,58,1.4775
714,9,8,9,8,0.2767,9,8,0.3489
715,26,34,23,30,2.5369,43,136,4.6089
716,11,16,9,11,0.4164,9,19,0.5664
717,33,58,25,39,4.8837,25,47,5.4702
718,92,110,38,54,10.2012,35,51,10.8028
719,92,110,36,51,9.3118,42,72,10.1487
720,6,7,6,7,0.1432,6,7,0.234
721,23,24,23,24,0.718,26,75,1.734
722,14,16,14,16,0.2439,14,16,0.3892
723,31,51,12,20,2.3996,25,152,5.2579
724,4,6,4,6,0.1097,4,7,0.2056
725,42,45,34,37,1.931,7223,21615,1081.1161
726,19,27,15,17,2.3273,16,74,2.8981
727,31,48,21,35,2.6096,26,70,4.766
728,48,52,30,34,3.9766,30,34,4.3543
729,53,55,17,19,22.0138,17,16,22.1906
730,9,17,5,8,0.3078,5,8,0.4057
731,2,3,2,3,0.0623,2,3,0.1314
732,3,6,1,1,0.0765,1,1,0.0939
733,3,3,3,3,0.1006,3,3,0.1622
734,46,118,3,5,2.786,3,6,2.9696
735,224,362,218,316,61.9128,218,310,64.676
736,21,21,21,21,0.4484,21,21,0.6394
737,10,17,10,17,0.3339,8,24,0.8731
738,9,10,8,10,0.1713,10,16,0.3268
739,5,6,5,6,0.1125,6,9,0.2206
740,25,61,12,16,1.8793,12,16,2.0865
741,177,256,78,102,37.6561,-1,-1,-1
742,5,8,3,4,0.6217,3,4,0.9564
743,16,37,11,14,1.3369,177,795,32.138
744,12,13,11,12,0.4527,11,12,0.5964
745,130,195,130,195,15.7272,66,130,17.1466
746,7,10,6,9,0.553,6,9,0.9461
747,13,22,12,21,1.2197,11,20,1.7198
748,12,21,11,18,0.4878,10,13,0.688
749,17,30,12,17,0.9615,12,30,1.2584
750,6,9,5,7,0.3477,5,12,0.7065
751,16,17,16,17,1.4601,31,97,2.5401
752,18,26,18,26,0.4543,18,26,1.0989
753,19,23,8,13,0.8443,8,10,0.9773
754,16,25,16,25,0.8889,19,80,5.2812
755,19,33,19,33,0.7452,29,50,1.5876
756,7,15,6,11,0.6521,6,11,0.9517
757,54,81,40,67,5.9135,36,89,7.7625
758,29,39,29,39,0.8917,57,241,12.6521
759,56,78,13,20,9.628,13,86,12.6636
760,81,118,20,30,5.8409,20,192,12.1303
761,17,35,5,9,0.7215,5,9,0.9157
762,508,923,154,304,234.3385,174,518,248.0951
763,51,87,14,20,3.8218,16,68,7.3871
764,6,8,6,8,0.135,6,8,0.2648
765,87,101,82,92,13.5127,320,1126,43.9368
766,25,32,21,28,1.8761,23,43,2.4067
767,18,18,18,18,0.3375,18,18,0.416
768,4,5,4,5,0.0876,3,3,0.1634
769,9,12,9,12,0.1792,9,12,0.2996
770,16,31,10,21,0.9536,13,41,2.4852
771,11,14,11,14,0.2139,11,14,0.3698
772,22,56,10,13,0.9122,10,29,2.7158
773,13,22,12,18,0.7519,13,21,2.4777
774,20,30,14,23,1.5923,65,383,11.3021
775,2,2,2,2,0.1172,2,2,0.1507
776,55,74,33,47,4.1897,28,43,4.592
777,13,16,13,16,0.3327,13,40,0.6896
778,14,26,7,11,0.5321,7,15,0.6453
779,12,22,3,4,0.2664,3,6,0.3773
780,22,25,18,25,0.4902,19,33,1.0732
781,35,50,17,19,5.6929,17,53,6.2191
782,39,70,29,37,2.1039,78,367,11.7904
783,29,37,29,37,0.6769,78,367,6.3912
784,13,30,10,18,1.0357,10,18,1.3263
785,8,19,5,9,0.3825,5,9,0.5009
786,53,149,21,55,5.8074,21,57,6.9489
787,53,149,21,55,6.6028,21,57,7.0796
788,23,31,22,27,1.6772,32,117,8.4249
789,18,23,13,16,0.615,13,33,0.9529
790,6,7,6,7,0.1464,6,7,0.2297
791,15,18,14,16,0.521,14,16,0.6757
792,11,18,1,1,0.3718,1,1,0.3864
793,12,18,8,11,0.7042,8,21,1.6598
794,6,8,6,8,0.1385,6,8,0.2257
795,11,12,11,12,0.1989,11,14,0.3631
796,28,55,22,45,2.7,34,134,6.4662
797,33,57,15,20,1.8967,26,106,3.9335
798,9,17,6,9,0.2735,6,13,0.431
799,288,465,141,250,93.2022,144,539,134.6269
800,546,2608,29,41,318.1653,29,45,318.8182
801,5,8,3,4,0.3702,3,5,0.4977
802,25,32,21,28,2.7098,31,134,5.8729
803,46,72,13,20,1.6559,13,22,1.9977
804,7,8,7,8,0.135,7,10,1.4632
805,6,7,6,7,0.2392,6,7,0.3536
806,72,120,58,85,9.6276,52,95,10.7029
807,1501,1500,1501,1500,756.8891,1501,1500,761.5451
808,38,50,32,40,6.7974,56,145,8.3349
809,11,10,11,10,0.2471,11,10,0.3063
810,22,28,18,23,3.0979,18,25,3.9604
811,15,22,8,10,0.5017,8,18,0.7014
812,9,11,9,11,0.3039,9,11,0.4965
813,42,47,22,27,2.6214,22,27,2.9396
814,10,18,2,3,0.1227,2,3,0.1685
815,13,23,13,18,0.596,13,18,0.7922
816,19,19,19,19,0.4077,19,19,0.5739
817,6,8,6,8,0.4168,6,8,0.6525
818,10,11,10,11,0.2143,10,11,0.3359
819,9,8,9,8,0.2672,9,8,0.3671
820,9,8,9,8,0.1863,9,8,0.2376
821,18,17,18,17,0.3501,18,17,0.4322
822,10,19,1,1,0.1448,1,1,0.159
823,2,2,2,2,0.0864,2,2,0.1235
824,1,1,1,1,0.0607,1,1,0.0793
825,29,41,27,39,1.4601,80,175,2.9858
826,8,11,7,9,0.2672,7,11,0.3986
827,8,8,8,8,0.3359,6,6,0.5186
828,3,5,2,3,0.7914,2,3,0.8506
829,4,7,3,5,0.2285,3,5,0.2822
830,4,7,3,5,0.2297,3,5,0.2842
831,74,99,57,74,8.8082,53,188,11.8019
832,14,14,14,14,0.2482,21,24,1.7305
833,22,32,22,32,0.7843,35,193,13.2438
834,307,306,65,76,70.7597,65,74,72.0829
835,19,19,19,19,0.6153,18,18,0.8096
836,15,14,15,14,0.2534,15,14,0.3193
837,41,42,17,18,1.7814,17,18,1.9697
838,53,55,19,21,3.1302,18,18,3.5455
839,26,26,16,16,0.7752,16,15,0.9189
840,32,32,19,19,1.3926,19,19,1.56
841,17,16,17,16,0.4953,17,16,1.1534
842,134,141,28,35,12.1177,39,60,12.9782
843,8,11,6,8,0.2988,6,9,0.4792
844,63,68,53,55,9.2262,55,165,11.0858
845,8,9,8,9,0.1421,8,18,0.36
846,18,23,18,23,0.3394,49,214,4.5517
847,74,116,29,40,8.1434,34,232,12.9715
848,56,79,33,48,6.7342,35,127,9.8897
849,38,41,8,13,1.4889,8,16,2.0183
850,2,3,1,1,0.1401,1,1,0.1567
851,2,3,1,1,0.1796,1,1,0.1997
852,385,1323,274,651,246.6243,2849,37006,1953.9532
853,3,5,2,3,0.1282,2,3,0.219
854,577,1105,328,640,449.1054,338,707,510.7163
855,25,279,25,48,32.1771,25,48,32.5162
856,39,40,33,36,2.8456,94,332,4.7139
857,55,78,53,71,4.3077,53,74,5.0514
858,19,35,8,11,0.6142,9,24,0.7827
859,13,13,13,13,0.2352,13,13,0.3726
860,35,60,19,28,3.0612,45,195,10.2336
861,12,20,11,16,0.6927,12,20,0.9315
862,30,45,21,31,1.3421,21,31,1.6046
863,17,21,17,21,0.4744,31,87,2.3064
864,5,9,2,3,0.1484,2,3,0.193
865,81,96,45,59,9.3861,46,64,10.727
866,11,13,10,11,0.3564,10,13,0.6153
867,13,19,13,19,0.3023,10,27,1.6275
868,9,26,5,8,0.8352,6,14,1.1881
869,46,59,28,41,5.036,27,38,5.4379
870,178,267,32,58,28.4784,27,97,32.29
871,28,55,14,19,1.9271,21,96,3.8033
872,21,38,19,34,2.2504,19,34,3.8127
873,46,65,32,44,5.0542,325,2202,484.5731
874,37,45,16,19,13.909,69,217,33.029
875,28,30,15,17,1.2789,15,17,1.4786
876,9,11,9,11,0.1918,9,23,0.5502
877,2,2,2,2,0.0963,2,2,0.1203
878,13,20,10,13,0.673,10,21,0.8589
879,4,4,4,4,0.1038,4,4,0.1701
880,842,4387,66,143,651.7973,95,1173,848.7781
881,5,7,5,7,0.2028,5,7,0.3667
882,2,2,2,2,0.0951,2,4,0.1614
883,6,9,3,4,0.1318,3,5,0.1973
884,39,66,38,62,2.9096,38,63,3.5159
885,10,14,9,12,0.4263,9,13,0.6556
886,10,30,10,30,1.059,10,24,1.7715
887,45,51,40,45,14.1198,48,169,41.2376
888,22,26,22,26,0.6793,24,80,2.4896
889,19,30,14,19,1.8055,120,565,33.7545
890,8,11,7,9,0.4417,7,15,0.9521
891,34,50,22,27,9.8226,24,154,13.1996
892,5,8,4,5,0.2001,4,8,0.2936
893,75,99,40,62,9.1626,41,155,19.3824
894,36,66,10,13,6.2435,10,24,6.5053
895,4,6,3,4,0.1373,3,5,0.2234
896,9,10,9,10,0.2372,9,10,0.3556
897,12,15,9,12,0.5502,9,12,0.684
898,6,7,6,7,0.1934,6,14,0.3805
899,11,21,7,12,0.2913,7,22,1.363
900,16,32,9,15,0.735,8,18,1.0981
901,13,23,7,12,0.3872,7,12,0.63
902,12,22,11,19,0.4898,10,14,0.6734
903,64,140,38,94,8.1636,48,142,9.9134
904,14,13,14,13,0.2581,14,13,0.3481
905,10,26,3,5,0.6635,3,6,0.7942
906,17,21,17,21,0.3781,17,24,0.6276
907,25,31,25,30,2.0143,25,30,2.3269
908,18,22,18,22,0.5459,18,22,0.8127
909,7,16,1,1,0.2127,1,1,0.2372
910,55,71,46,62,6.763,47,70,8.957
911,17,19,17,19,0.4492,17,19,0.6836
912,33,43,33,43,1.0476,33,46,1.6681
913,10,21,9,18,0.4563,9,18,1.9792
914,65,98,45,69,7.9812,48,210,14.8362
915,76,106,36,62,7.3476,38,66,8.6345
916,2,2,2,2,0.0852,2,2,0.1251
917,3,4,3,4,0.1271,3,6,0.3118
918,201,4009,126,271,144.7114,186,504,157.4141
919,72,132,6,8,6.3071,7,17,6.4934
920,22,36,17,25,1.725,26,41,2.3163
921,52,79,36,46,6.4247,97,556,60.999
922,30,40,30,40,1.0879,31,103,2.6613
923,2,3,2,3,0.1057,2,3,0.2261
924,11,14,10,12,1.0598,10,12,1.3377
925,27,41,25,36,8.3187,24,59,8.8318
926,15,16,15,16,0.268,17,18,0.4543
927,17,17,10,10,0.6481,10,10,0.7543
928,5,7,5,7,0.3915,5,7,0.5735
929,1,1,1,1,0.1231,1,1,0.1851
930,11,21,11,21,0.4184,11,21,0.5853
931,8,15,8,15,0.1657,8,15,0.2747
932,11,33,10,24,1.3385,10,31,2.1351
933,10,12,6,6,0.3663,6,6,0.4452
934,6,8,6,8,0.2739,6,11,0.504
935,20,35,16,25,1.3823,38,113,3.354
936,7,8,7,8,0.1863,7,9,0.3078
937,12,44,10,27,0.9631,9,19,1.5288
938,10,26,8,16,0.4235,6,9,0.5711
939,9,11,9,11,0.1507,9,23,0.7867
940,26,51,15,23,1.8177,21,58,3.1492
941,48,56,24,27,2.6952,64,223,5.6076
942,11,14,8,10,0.6059,8,10,0.7393
943,19,28,9,13,0.7567,9,27,1.2951
944,30,50,26,37,4.3563,36,55,5.2551
945,5,10,5,10,0.2139,4,10,0.4357
946,20,54,18,41,3.0765,17,72,7.8434
947,36,166,23,128,13.5596,25,174,30.5966
948,36,131,23,105,8.1588,24,176,21.5523
949,20,71,12,25,1.948,16,47,3.0955
950,10,9,10,9,0.2494,10,9,0.3098
951,12,13,12,13,0.2688,12,13,0.4286
952,10,12,10,12,0.2238,10,27,0.6047
953,6,7,6,7,0.1827,6,7,0.2976
954,20,29,15,20,12.8842,37,198,20.9886
955,52,75,29,46,4.7617,41,297,10.2624
956,59,96,44,68,16.1408,75,389,20.0811
957,28,61,13,18,1.766,19,46,2.2061
958,17,18,17,18,0.3165,17,18,0.5135
959,21,33,14,20,1.5094,23,77,3.1038
960,28,35,10,17,1.0815,10,18,1.3188
961,37,66,37,64,2.7402,46,76,3.6335
962,19,22,19,22,0.3955,496,3183,39.7932
963,6,7,6,7,0.1148,6,6,0.2151
964,11,16,10,14,0.4571,11,18,0.7334
965,36,59,33,56,2.5575,38,72,3.7559
966,19,37,13,20,1.1285,22,75,2.1193
967,5,6,5,6,0.204,5,11,0.3722
968,13,21,10,14,1.0977,12,39,2.6562
969,4,5,4,5,0.1393,4,5,0.2348
970,10,11,10,11,0.1969,15,37,0.7563
971,36,51,24,39,5.9222,71,226,11.5058
972,1,1,1,1,0.0746,1,1,0.0931
973,26,31,24,27,1.2268,24,27,1.6626
974,6,16,5,6,0.2952,5,6,0.3896
975,12,25,6,10,0.4428,6,10,0.5538
976,24,36,24,36,0.7626,24,36,1.1088
977,13,33,2,3,0.2921,2,3,0.3335
978,71,125,36,77,8.7217,36,72,9.9055
979,28,39,24,30,1.7688,24,55,3.7279
980,13,17,13,17,0.2636,13,39,6.4267
981,14,28,12,20,0.8151,15,27,1.7747
982,14,26,7,14,0.9627,7,8,1.1873
983,10,11,10,11,0.2668,10,11,0.4184
984,13,15,13,15,0.315,13,42,1.4475
985,70,129,30,53,6.2088,30,113,8.6684
986,11,22,9,19,0.5407,9,25,0.8064
987,37,42,30,32,5.4099,30,77,6.3497
988,34,34,30,30,2.5646,30,30,2.7856
989,15,34,9,14,0.6572,19,59,3.1717
990,35,58,11,12,1.7277,11,23,1.9385
991,547,1106,259,513,408.722,-1,-1,-1
992,47,46,25,46,16.0797,25,46,24.5113
993,23,47,15,28,2.6743,14,25,3.4002
994,4,6,2,3,0.2163,2,3,0.3055
995,21,28,18,26,1.644,41,110,11.6582
996,17,19,14,17,0.5735,16,23,0.7788
997,208,554,22,35,139.1818,46,290,158.453
998,7,11,6,8,0.4732,6,15,0.7555
999,9,13,9,13,0.3323,9,13,0.6505
1000,8,31,6,17,1.0807,6,17,6.4599
1001,28,44,6,12,0.9718,6,12,1.0879
1002,19,23,19,23,0.5593,19,23,0.9473
1003,21,42,21,38,1.6721,27,55,2.6325
1004,14,19,13,16,0.9627,13,16,1.2288
1005,18,22,18,22,0.8569,18,51,1.9121
1006,11,14,8,12,0.4657,8,13,0.7278
1007,306,586,51,91,313.7991,168,1268,671.946
1008,6,11,5,9,0.448,5,9,0.641
1009,13,24,11,19,1.764,12,38,2.9522
1010,150,185,147,182,189.5798,322,1072,219.8871
1011,10,10,10,10,0.2917,10,10,0.4859
1012,127,250,127,250,58.987,125,308,73.828
1013,6,8,6,8,0.2455,8,14,0.613
1014,21,46,11,16,1.0018,9,24,1.6042
1015,23,62,19,41,7.4704,19,41,8.3159
1016,15,15,15,15,0.4057,15,15,0.6903
1017,23,25,15,17,1.4538,15,15,1.7952
1018,11,11,11,11,0.444,11,11,0.6781
1019,38,47,33,39,17.5876,89,464,36.1241
1020,15,15,15,15,5.6893,15,17,6.0166
1021,22,25,22,25,2.0467,39,113,2.7829
1022,14,14,14,14,0.5182,14,14,0.8328
1023,13,13,13,13,0.2601,13,13,0.6465
1024,12,12,12,12,0.3532,12,12,0.5826
1025,13,15,13,15,0.2625,21,23,0.521
1026,15,16,15,16,0.3225,15,16,1.74
1027,14,15,14,15,0.6075,14,15,1.1277
1028,15,19,13,15,1.4486,13,15,1.9961
1029,15,18,14,16,1.256,14,16,1.6685
1030,17,21,17,21,0.6596,21,64,2.1209
1031,6,5,6,5,0.1519,6,5,0.191
1032,8,8,8,8,0.1736,8,8,0.2739
1033,35,52,14,23,4.6875,14,41,18.1982
1034,60,86,28,49,5.0968,24,55,5.9187
1035,28,41,27,37,2.3088,59,237,37.4445
1036,35,68,29,52,9.4646,88,638,45.5146
1037,8,11,7,10,0.3746,7,8,0.5222
1038,87,137,57,91,45.3665,109,1087,108.8971
1039,22,36,21,24,1.0263,45,147,13.4692
1040,89,94,61,65,45.2157,61,182,48.1964
1041,15,18,9,12,0.7843,9,12,1.0109
1042,47,114,17,41,9.0442,15,41,11.2903
1043,5,7,2,3,3.853,2,3,3.9098
1044,5,8,2,3,0.1484,2,3,0.2206
1045,5,8,2,3,0.1606,2,3,0.2538
1046,5,8,2,3,0.1144,2,3,0.1634
1047,8,14,7,13,0.3603,7,11,0.4938
1048,42,55,36,49,20.0863,43,137,39.6953
1049,17,25,14,19,1.4009,15,24,2.1134
1050,8,12,8,12,0.5372,4,6,2.3471
1051,15,28,9,13,1.3172,9,27,17.192
1052,12,11,12,11,0.4669,12,11,0.5767
1053,51,90,22,32,31.8538,22,232,48.9429
1054,11,11,11,11,2.7118,11,11,2.7951
1055,30,50,20,30,11.5038,30,148,19.2388
1056,12,14,9,11,0.6039,9,11,0.7563
1057,4,5,4,5,0.099,4,5,0.2664
1058,4,5,4,5,0.1539,4,5,0.2988
1059,8,12,8,12,2.6388,8,12,3.881
1060,61,65,27,31,19.8628,30,33,20.164
1061,45,48,18,20,5.97,21,26,6.5613
1062,3,5,2,3,0.2143,2,3,0.3094
1063,25,40,16,22,2.184,16,36,3.0398
1064,10,19,8,14,1.9717,8,24,18.0964
1065,46,106,27,52,19.838,31,67,21.0648
1066,36,51,24,39,21.1339,24,52,22.0051
1067,17,17,13,16,3.2155,10,16,18.3826
1068,14,29,10,16,3.9659,11,19,5.008
1069,3,4,3,4,0.0971,3,4,0.1602
1070,65,70,54,56,44.87,54,160,56.694
1071,52,57,43,45,39.1107,43,127,41.6536
1072,50,55,42,44,29.1222,42,124,30.2362
1073,1,1,1,1,0.0477,1,1,0.0714
1074,56,61,45,47,32.6248,45,133,35.3228
1075,56,61,45,47,34.919,45,133,37.274
1076,56,61,45,47,47.5743,45,133,49.5449
1077,56,61,45,47,36.8473,45,133,40.2543
1078,56,61,45,47,50.9383,45,133,53.499
1079,12,15,12,15,0.2834,12,15,0.6627
1080,28,35,28,35,9.9636,65,293,48.0673
1081,64,116,27,42,27.4718,161,988,129.7598
1082,13,31,4,7,0.7105,4,8,0.9971
1083,2,3,2,3,0.0682,2,3,0.1503
1084,8,9,8,9,0.1863,8,21,0.6201
1085,44,57,35,48,3.4519,32,109,5.383
1086,6,11,5,9,0.5068,6,14,0.915
1087,4,7,3,5,0.2411,3,6,0.4361
1088,52,72,47,67,9.6292,1936,9094,182.8645
1089,48,62,43,57,4.4826,1638,6156,135.5045
1090,2,2,2,2,0.0821,2,2,0.1152
1091,28,33,28,33,0.7263,30,104,5.4655
1092,10,17,6,10,0.2731,6,10,0.369
1093,19,21,19,21,0.568,19,53,2.4852
1094,5,4,5,4,0.1231,5,4,0.1594
1095,11,10,11,10,0.2672,11,10,0.3268
1096,6,5,6,5,0.2147,6,5,0.2542
1097,6,5,6,5,0.1563,6,5,0.2076
1098,7,7,7,7,0.1263,7,7,0.2147
1099,5,4,5,4,0.1369,5,4,0.1815
1100,6,5,6,5,0.1578,6,5,0.2218
1101,6,5,6,5,0.1456,6,5,0.2028
1102,5,4,5,4,0.1322,5,4,0.1701
1103,9,8,9,8,0.1871,9,8,0.2344
1104,9,8,9,8,0.1673,9,8,0.2186
1105,7,6,7,6,0.1701,7,6,0.2107
1106,7,7,7,7,0.1665,6,6,0.2522
1107,7,6,7,6,0.1464,7,6,0.1886
1108,5,4,5,4,0.1227,5,4,0.1594
1109,5,5,5,5,0.1097,7,8,0.2246
1110,8,8,8,8,0.1725,12,12,0.2913
1111,13,15,13,15,0.2238,13,33,0.4882
1112,6,5,6,5,0.1421,6,5,0.1823
1113,4,5,4,5,0.2743,4,5,0.4713
1114,6,5,5,5,7.2785,5,6,7.3962
1115,26,27,13,14,0.9501,14,15,1.0863
1116,8,9,8,9,0.2044,15,22,0.4851
1117,5,4,5,4,0.1231,5,4,0.1586
1118,5,4,5,4,0.1575,5,4,0.2226
1119,2,2,2,2,0.1046,2,2,0.1503
1120,2,3,2,3,0.0643,2,3,0.1298
1121,3,4,2,2,0.1259,2,2,0.1496
1122,14,25,14,25,0.5032,27,48,0.879
1123,14,25,14,25,0.3256,27,48,0.6667
1124,35,49,35,49,1.0965,35,49,1.423
1125,39,51,39,51,2.666,39,51,3.0758
1126,36,51,24,39,2.1829,24,55,2.5744
1127,21,191,21,20,7.0496,21,20,7.1862
1128,4,6,2,2,0.4046,2,2,0.4302
1129,18,17,18,17,0.763,18,17,0.8471
1130,64,561,3,4,2.4051,3,6,2.4994
1131,44,58,30,35,4.5493,48,216,7.007
1132,32,45,27,39,2.319,95,504,13.3492
1133,31,39,26,34,3.011,44,181,8.1821
1134,11,10,11,10,0.2218,11,10,0.298
1135,31,30,13,18,1.3302,10,18,1.6097
1136,31,30,13,18,1.3531,10,18,1.6057
1137,34,40,14,20,1.6125,14,20,1.8359
1138,34,41,13,20,1.6405,16,29,2.0415
1139,13,12,10,12,0.2451,8,12,0.4275
1140,40,47,40,47,1.1368,48,62,1.7222
1141,8,8,8,8,0.2731,8,8,0.4397
1142,17,21,17,21,0.3098,21,43,1.0042
1143,3,3,3,3,0.1661,3,3,0.1942
1144,38,40,36,38,2.9455,36,38,3.2352
1145,4,4,4,4,0.1409,4,4,0.2526
1146,28,39,21,32,1.7565,21,32,2.01
1147,28,39,21,32,2.6972,21,32,2.938
1148,22,28,13,19,1.0582,14,23,1.284
1149,60,65,36,39,4.453,56,124,5.2073
1150,155,413,88,217,33.5023,91,260,37.4615
1151,151,150,151,150,21.6131,151,150,22.8569
1152,14,21,12,14,1.016,12,32,1.5805
1153,11,18,9,11,0.6027,9,23,0.8648
1154,8,8,8,8,0.1918,8,8,0.2861
1155,26,44,26,44,2.3486,12,39,7.108
1156,95,115,95,115,5.233,456,2171,66.6529
1157,30,29,30,29,3.9698,30,29,4.0981
1158,28,45,22,33,5.5855,22,33,8.5618
1159,24,39,17,30,1.8217,18,34,2.4004
1160,3,4,3,4,0.0959,3,5,0.2107
1161,9,12,8,9,0.3963,8,21,0.6568
1162,42,61,42,61,1.3294,32,64,1.869
1163,23,51,8,15,2.1386,16,73,5.113
1164,126,220,33,63,44.1456,46,853,134.1458
1165,68,88,50,68,7.7124,51,80,8.5812
1166,53,92,40,70,12.2542,41,81,17.886
1167,12,26,6,14,0.4736,4,8,0.6576
1168,15,19,15,19,0.4772,15,19,0.6919
1169,4,6,4,6,0.2028,4,7,0.4026
1170,13,12,13,12,0.2325,13,12,0.2913
1171,3,5,3,5,0.1681,3,6,0.3513
1172,107,152,45,63,12.3304,75,636,30.0534
1173,11,23,8,13,0.5009,8,13,0.6315
1174,6,8,6,8,0.1768,6,8,0.2818
1175,67,94,30,42,5.8014,49,292,10.7976
1176,14,25,13,21,0.9193,14,24,1.1711
1177,2,3,2,3,0.0836,2,3,0.1582
1178,8,9,8,9,0.1661,8,16,0.4034
1179,10,12,9,12,0.1969,9,12,0.3327
1180,14,23,11,19,0.5644,14,27,1.8797
1181,40,52,40,52,2.2658,30,48,2.7051
1182,9,22,5,12,0.3331,6,13,0.5028
1183,8,8,8,8,0.144,8,8,0.2455
1184,25,34,20,29,1.6192,20,40,4.078
1185,34,46,27,39,2.5365,25,52,3.1918
1186,1,1,1,1,0.0706,1,1,0.0868
1187,39,82,28,69,4.6591,53,180,7.5722
1188,11,29,6,14,0.7464,7,17,1.1238
1189,43,58,1,1,1.605,1,1,1.6196
1190,33,45,1,1,1.0298,1,1,1.0436
1191,23,32,1,1,0.5877,1,1,0.6027
1192,27,33,24,30,1.9148,28,99,3.9908
1193,257,508,6,7,4.0729,6,11,4.1893
1194,11,29,8,17,0.928,3,6,1.3519
1195,42,66,32,52,3.9564,1193,7326,270.6387
1196,57,76,39,54,4.6531,36,55,5.0964
1197,2,2,2,2,0.0773,2,2,0.1132
1198,3,5,3,5,0.1073,4,6,0.2028
1199,13,18,11,14,0.6627,11,26,0.9086
1200,9,10,9,10,0.2514,9,11,0.4385
1201,13,12,13,12,0.2443,13,12,0.3051
1202,518,6026,130,256,2651.7342,134,646,2659.276
1203,36,40,33,37,2.9779,33,37,3.4543
1204,13,22,12,18,0.896,13,21,1.6914
1205,53,88,26,37,6.3221,29,147,14.8485
1206,14,26,12,19,0.945,13,22,1.434
1207,13,14,9,13,0.5613,9,13,0.7207
1208,3,4,3,4,0.0702,3,5,0.1527
1209,13,28,2,3,0.2755,2,3,0.3193
1210,22,26,22,26,1.0346,22,26,1.65
1211,32,40,23,30,1.588,31,42,3.2048
1212,9,9,7,8,0.4346,7,8,0.596
1213,10,10,10,10,0.2088,7,6,0.2996
1214,5,5,5,5,0.1709,5,6,0.3256
1215,33,44,26,35,2.3502,26,44,3.4977
1216,21,40,20,38,1.2564,22,49,2.5697
1217,4,4,4,4,0.1543,4,4,0.2344
1218,18,33,13,16,1.284,20,40,1.7135
1219,29,40,29,39,1.9223,40,86,3.6434
1220,366,1301,262,638,202.6334,2793,36774,1147.0577
1221,15,19,11,15,0.8628,11,33,1.6192
1222,21,31,21,31,0.5265,40,129,3.8692
1223,57,76,19,27,3.6213,168,567,50.4354
1224,10,13,10,13,0.2103,10,16,0.399
1225,54,89,38,68,5.2595,58,171,8.0518
1226,27,32,18,22,0.9675,18,22,1.1431
1227,9,8,9,8,0.1756,9,8,0.2269
1228,95,136,46,57,18.5839,47,508,33.5855
1229,10,14,7,8,0.3552,7,16,0.6619
1230,14,18,13,18,0.3832,12,20,0.6532
1231,4,5,4,5,0.1275,5,8,0.3528
1232,16,28,4,8,0.4357,2,3,0.5222
1233,256,255,256,255,57.8158,256,255,59.7248
1234,6,9,3,4,0.2644,3,4,0.3817
1235,8,8,8,8,0.1965,8,8,0.2889
1236,17,26,17,26,0.6931,17,26,1.2505
1237,28,43,28,43,1.0101,43,116,2.8539
1238,57,81,45,67,5.9581,44,78,7.7858
1239,5,8,4,6,0.2802,5,11,0.5897
1240,41,50,20,24,2.3921,41,105,4.0551
1241,13,19,9,12,0.6572,10,15,0.8569
1242,20,26,15,18,1.425,16,19,1.721
1243,3,6,2,3,0.1026,2,3,0.1539
1244,15,14,15,14,0.2952,15,14,1.5915
1245,17,16,17,16,0.3323,17,16,0.4057
1246,16,15,16,15,0.2877,16,15,0.3572
1247,17,16,17,16,0.3181,17,16,0.3951
1248,17,16,17,16,0.3525,17,16,0.4334
1249,11,10,11,10,0.2905,11,10,0.3761
1250,19,24,1,1,0.5202,1,1,0.5344
1251,18,23,1,1,0.4669,1,1,0.4819
1252,28,35,1,1,1.0918,1,1,1.1064
1253,15,17,14,15,0.5703,14,38,1.4565
1254,9,15,9,15,0.2992,9,15,0.5175
1255,13,50,11,34,3.1906,11,26,4.1909
1256,5,11,2,3,0.1843,2,3,0.2253
1257,14,19,14,19,0.2621,15,21,0.4871
1258,11,20,7,11,0.3892,7,18,0.5684
1259,18,31,5,6,0.7918,6,13,1.2446
1260,61,72,37,55,5.177,34,73,5.8433
1261,26,36,22,32,2.4848,22,32,3.0623
1262,37,69,15,28,2.5267,63,275,14.6511
1263,27,36,19,27,2.199,19,27,2.4327
1264,15,20,14,19,0.7689,15,23,1.1463
1265,11,11,11,11,0.2032,11,11,0.3181
1266,15,19,15,19,0.2798,26,33,0.5471
1267,5,8,4,6,0.2352,4,10,0.4717
1268,14,15,14,15,0.2814,63,277,5.0313
1269,16,19,16,19,0.2936,26,32,0.5253
1270,11,11,11,11,0.2009,11,11,0.324
1271,11,11,11,11,0.1953,11,11,0.3122
1272,235,427,113,204,70.6693,410,2833,96.5796
1273,3,4,3,4,0.1586,3,6,0.3394
1274,30,45,17,31,2.4734,20,45,3.3035
1275,30,47,24,36,1.4084,32,62,2.2405
1276,13,15,13,15,0.4622,13,16,0.7401
1277,16,20,16,20,0.4811,16,20,1.0192
1278,3,3,3,3,0.135,3,3,0.2072
1279,5,4,5,4,0.1689,5,4,0.2403
1280,40,72,39,70,4.6634,42,126,16.2486
1281,23,26,19,25,1.7518,19,25,2.6787
1282,33,32,33,32,2.3202,33,32,2.544
1283,4,6,3,4,0.163,3,4,0.225
1284,8,8,8,8,0.1977,8,8,0.3201
1285,22,30,11,15,1.5382,12,35,5.5674
1286,2,2,2,2,0.0793,2,2,0.116
1287,24,25,13,14,0.6359,13,14,0.7709
1288,19,27,15,20,1.2821,22,87,2.3636
1289,22,25,22,25,0.5328,22,25,0.8372
1290,1,1,1,1,0.0667,1,1,0.0963
1291,48,60,48,60,1.8067,48,63,7.5166
1292,31,33,31,33,0.7164,31,91,1.9302
1293,20,25,10,12,0.9019,32,85,5.3163
1294,34,36,34,36,0.8309,46,98,1.5193
1295,3,5,2,2,0.2794,2,2,0.3019
1296,3,3,3,3,0.1101,3,3,0.1835
1297,65,122,26,67,9.9872,30,76,11.0992
1298,18,18,17,18,0.3481,13,14,0.4906
1299,27,29,27,29,0.6631,39,83,1.2631
1300,6,8,6,8,0.2119,6,18,0.8988
1301,10,13,10,13,0.3919,11,40,1.4029
1302,9,14,7,10,0.5084,7,10,0.7472
1303,13,12,13,12,0.283,13,12,0.3426
1304,6,8,6,8,0.2155,5,6,0.3153
1305,23,50,11,16,1.0847,11,17,1.4557
1306,6,10,5,8,0.386,5,7,0.645
1307,16,26,13,19,0.9694,13,31,1.363
1308,20,30,16,26,1.3504,18,31,1.8134
1309,37,69,15,28,2.9222,28,115,4.721
1310,18,19,18,19,0.3122,18,40,0.658
1311,57,83,39,60,5.4967,36,66,6.3888
1312,6,12,5,9,0.2972,6,12,0.5336
1313,16,32,13,26,2.6372,30,160,7.603
1314,13,14,13,14,0.2198,13,14,0.4105
1315,18,22,10,15,0.9039,10,16,1.2094
1316,37,36,34,34,2.6123,34,34,2.8883
1317,16,19,16,19,0.4207,16,19,0.671
1318,104,148,41,58,16.7787,101,660,30.2504
1319,18,111,3,4,1.7565,3,4,1.8292
1320,4,3,4,3,0.1302,4,3,0.2257
1321,11,10,11,10,0.2202,11,10,0.2984
1322,50,63,46,59,5.3064,44,61,5.8804
1323,1,1,1,1,0.1022,1,1,0.1551
1324,11,21,11,21,1.2047,66,186,2.2575
1325,3,4,1,1,0.0718,1,1,0.0967
1326,8,16,2,3,0.1121,2,3,0.1551
1327,21,22,13,14,0.6722,13,13,0.8175
1328,40,60,40,60,1.71,40,60,2.1398
1329,16,17,16,17,0.2775,16,17,0.4282
1330,15,22,15,20,0.6225,17,30,1.2086
1331,6,16,3,5,0.3351,3,6,0.5218
1332,2,2,2,2,0.0761,2,2,0.1101
1333,6,10,5,7,0.2435,5,7,0.3359
1334,2,2,2,2,0.0793,2,2,0.1527
1335,10,17,6,8,0.523,6,8,0.6825
1336,39,40,39,40,1.0579,39,114,2.0131
1337,110,163,87,103,17.3811,87,271,21.1149
1338,22,28,13,19,1.1143,14,23,1.3732
1339,16,56,14,34,1.9926,15,43,2.6601
1340,21,36,20,34,1.0776,20,46,1.4475
1341,9,9,9,9,0.2581,9,9,0.4192
1342,7,12,3,4,0.1934,3,4,0.2471
1343,15,32,14,28,1.3634,15,29,1.7443
1344,14,17,9,13,0.6351,9,12,0.7752
1345,8,11,1,1,0.5925,1,1,0.6236
1346,44,59,30,40,3.2869,30,40,3.6102
1347,12,15,6,7,0.5996,9,10,0.8735
1348,30,45,21,32,1.3721,25,48,1.8193
1349,3,4,3,4,0.1046,3,6,0.1855
1350,39,42,1,1,1.0879,1,1,1.1013
1351,21,38,16,22,0.9276,16,49,1.299
1352,194,282,73,103,42.6618,138,2124,133.7088
1353,31,60,6,10,1.2059,6,19,1.5185
1354,26,30,22,26,0.9746,22,26,1.1786
1355,96,110,30,39,13.7333,33,41,14.3846
1356,5,5,5,5,0.1421,5,13,0.2928
1357,66,121,66,121,5.1545,122,343,7.3433
1358,3,5,2,2,0.2309,2,2,0.2518
1359,35,48,31,44,7.4487,31,50,7.9145
1360,18,22,18,22,0.4697,23,82,2.2705
1361,12,11,12,11,0.2151,12,11,0.2727
1362,12,11,12,11,0.1985,12,11,0.2585
1363,19,27,18,25,0.7796,26,35,1.2229
1364,19,29,18,27,0.8186,26,38,1.2205
1365,21,22,11,12,0.7543,10,10,0.8688
1366,9,11,9,11,0.5072,9,11,0.6244
1367,19,27,19,27,0.4275,33,44,0.8151
1368,11,11,11,11,0.1965,11,11,0.3059
1369,19,25,18,24,1.7475,18,55,4.8166
1370,13,13,11,11,0.3706,11,11,0.4867
1371,7,8,7,8,0.2261,7,18,0.583
1372,19,31,19,31,0.8111,22,44,1.6294
1373,65,90,54,78,11.1944,63,129,18.8484
1374,32,44,29,37,1.6413,35,88,3.116
1375,5,9,4,5,0.3268,4,7,0.3971
1376,10,15,5,8,0.4867,5,10,0.6927
1377,6,8,3,4,0.24,3,4,0.3256
1378,26,27,26,27,0.6513,26,75,5.4738
1379,19,21,18,20,0.8455,22,24,1.1092
1380,5,9,4,6,0.2348,4,6,0.3378
1381,15,20,15,20,0.4744,23,32,0.9205
1382,25,55,6,9,1.0354,6,14,1.2011
1383,5,9,4,5,0.2542,4,7,0.3323
1384,4,6,4,6,0.086,5,14,0.2103
1385,18,28,14,18,0.6185,14,18,0.7657
1386,6,11,6,11,0.1736,4,11,0.5218
1387,5,9,4,6,0.1938,4,6,0.2751
1388,12,13,12,13,0.2167,12,14,0.4113
1389,5,8,4,6,0.3323,4,10,0.7014
1390,5,8,4,6,0.3639,4,10,0.746
1391,4,5,4,5,0.1389,4,5,0.2277
1392,10,12,9,10,0.4764,9,11,0.5944
1393,7,8,7,8,0.1515,8,12,0.2928
1394,19,31,10,13,0.9525,15,52,1.753
1395,16,22,11,19,2.8946,11,17,3.2617
1396,4,5,4,5,0.1164,4,5,0.206
1397,19,27,17,24,0.7152,27,36,0.9888
1398,13,17,13,17,0.27,10,13,0.6059
1399,5,6,5,6,0.118,5,6,0.2182
1400,5,7,5,7,0.1456,5,7,0.24
1401,7,11,6,8,0.7196,6,15,0.8929
1402,21,34,13,18,1.316,16,61,2.4525
1403,14,15,13,15,0.2486,9,10,0.3623
1404,104,148,41,58,13.1894,101,660,25.1034
1405,68,88,33,44,7.7787,33,45,8.1525
1406,7,8,7,8,0.1211,7,15,0.2711
1407,9,14,8,12,0.279,7,18,0.5032
1408,5,5,5,5,0.1239,5,5,0.1626
1409,12,12,12,12,0.2139,12,12,0.2719
1410,13,30,8,9,0.4705,8,18,0.7117
1411,8,8,8,8,0.1421,8,8,0.2392
1412,33,32,33,32,0.7492,33,32,0.8719
1413,67,132,24,46,10.1945,16,182,21.6463
1414,67,132,24,46,8.6333,16,182,14.2137
1415,23,33,19,28,1.7179,23,76,2.8121
1416,39,50,29,39,3.2005,31,54,3.6548
1417,6,5,6,5,0.1713,6,5,0.2171
1418,7,8,7,8,0.1472,7,10,0.2636
1419,16,24,10,14,1.5335,13,48,2.4225
1420,19,20,18,19,0.7002,18,19,0.868
1421,41,75,38,65,7.8833,83,247,18.1512
1422,41,57,34,50,4.2805,32,51,5.4785
1423,59,104,29,51,8.0633,465,2006,581.4564
1424,59,104,29,51,6.0035,465,2006,574.5717
1425,22,26,12,13,1.1202,15,38,1.6879
1426,2,3,2,3,0.3426,2,3,0.6394
1427,2,3,2,3,0.2771,2,3,0.615
1428,2,3,2,3,0.0868,2,3,0.1559
1429,2,3,2,3,0.0907,2,3,0.2143
1430,2,3,2,3,0.0939,2,3,0.178
1431,2,3,2,3,0.0675,2,3,0.161
1432,2,3,2,3,0.0442,2,3,0.1235
1433,2,3,2,3,0.0911,2,3,0.1823
1434,2,3,2,3,0.0896,2,3,0.1697
1435,39,43,39,43,1.1269,39,43,1.4885
1436,44,77,5,6,1.2102,5,9,1.344
1437,2,2,2,2,0.0564,2,2,0.0801
1438,14,23,13,19,0.8309,14,22,1.0267
1439,58,95,39,67,7.5892,39,75,8.6949
1440,58,91,39,65,5.8899,36,70,6.5566
1441,22,35,12,20,1.2339,10,17,1.5604
1442,20,33,20,31,0.8925,21,32,1.2568
1443,15,21,15,20,0.5439,15,20,1.498
1444,13,18,13,17,0.5317,13,17,0.7847
1445,20,32,20,30,0.9347,20,30,1.4621
1446,13,18,13,18,0.3517,18,22,0.6671
1447,12,18,12,18,0.6844,48,302,14.1889
1448,15,21,10,15,0.7164,12,26,1.404
1449,11,24,4,8,0.5628,4,8,0.8447
1450,2,3,2,3,0.0884,2,3,0.1863
1451,89,107,51,68,10.5379,52,122,11.8816
1452,7,7,7,7,0.1594,7,7,0.206
1453,19,32,14,18,0.7057,14,30,1.1293
1454,28,57,22,41,5.053,38,216,12.4982
1455,7,7,7,7,0.1361,7,19,0.6951
1456,223,1964,9,12,35.9031,11,25,36.19
1457,19,25,16,20,0.8246,16,20,1.0642
1458,14,13,14,13,0.2419,14,13,0.3142
1459,20,20,20,20,0.3919,20,20,0.5664
1460,10,9,10,9,0.1906,10,9,0.2419
1461,19,18,19,18,0.4077,19,18,0.5092
1462,5,8,4,7,0.51,3,6,0.6288
1463,7,12,7,12,0.1898,7,12,0.3655
1464,2,3,2,3,0.0698,2,3,0.146
1465,7,18,2,3,0.131,2,3,0.1851
1466,63,66,1,1,3.1405,1,1,3.2037
1467,10,13,1,1,0.2257,1,1,0.2392
1468,10,13,1,1,0.2194,1,1,0.2336
1469,10,13,1,1,0.2494,1,1,0.264
1470,10,13,1,1,0.2167,1,1,0.2309
1471,41,44,1,1,1.5493,1,1,1.5643
1472,70,100,70,100,3.9375,41,145,7.8253
1473,71,129,33,72,7.9141,35,84,8.8934
1474,5,6,5,6,0.1057,5,6,0.1811
1475,10,11,10,11,0.1803,10,20,0.3702
1476,33,54,18,33,2.3333,19,63,3.3165
1477,27,32,16,23,1.4431,16,27,1.7838
1478,23,24,15,19,0.8301,15,23,1.1029
1479,7,12,6,10,0.2214,7,19,0.3738
1480,33,50,17,23,1.9508,17,80,7.1783
1481,257,415,169,248,89.6717,169,320,92.3405
1482,264,7965,135,261,1047.6919,-1,-1,-1
1483,20,24,18,21,1.1842,18,21,1.5884
1484,13,23,12,19,0.9363,13,22,1.1731
1485,11,12,10,10,14.5942,10,10,14.9294
1486,2,2,2,2,0.1121,2,2,0.1476
1487,264,7965,135,261,1020.4577,-1,-1,-1
1488,21,38,16,22,7.8312,16,49,8.4355
1489,26,63,18,40,3.5798,18,40,4.2158
1490,22,36,20,34,9.8309,20,67,10.9516
1491,11,14,11,14,0.2218,11,14,0.4298
1492,5,7,4,5,0.191,4,8,0.45
1493,73,100,37,55,31.9205,40,58,33.0357
1494,24,31,23,29,5.9862,23,29,21.2278
1495,26,52,18,38,3.5056,31,97,14.9685
1496,32,40,17,24,18.0608,17,26,18.4931
1497,52,70,30,44,9.2353,32,45,11.284
1498,17,26,17,26,0.941,17,26,1.6101
1499,22,30,22,30,1.1842,18,22,1.8446
1500,14,13,14,13,0.3126,14,13,0.4436
1501,2,2,2,2,0.0773,2,2,0.1125
1502,1,1,1,1,0.1136,1,1,0.1436
1503,10,16,10,16,0.6414,11,18,1.0436
1504,65,122,58,105,38.127,106,623,58.2157
1505,34,56,24,41,20.6338,24,49,21.2728
1506,61,93,30,40,18.0458,83,468,51.4826
1507,26,28,16,20,4.1573,16,18,4.3962
1508,11,19,10,17,0.4602,11,20,0.776
1509,8,13,8,13,0.51,8,13,0.883
1510,7,14,4,6,0.3059,4,6,0.3872
1511,5,6,5,6,0.1401,5,14,0.4788
1512,8,8,8,8,0.2242,8,8,0.3675
1513,8,21,7,16,2.0901,7,26,4.1692
1514,2,3,1,1,0.1772,1,1,0.195
1515,17,26,14,19,1.6511,14,19,2.0869
1516,294,377,52,68,300.136,50,172,314.9948
1517,385,498,43,59,466.5991,40,129,472.2494
1518,329,424,46,62,375.5331,42,139,379.0325
1519,265,342,32,43,225.6254,30,95,226.9557
1520,423,545,48,67,544.8759,45,151,561.0187
1521,4,6,3,4,0.2293,3,4,0.3315
1522,13,24,2,3,0.1788,2,3,0.2455
1523,2,3,2,3,0.0647,2,3,0.1413
1524,2,3,2,3,0.0639,2,3,0.1353
1525,20,25,19,24,9.7461,41,199,23.8347
1526,5,5,5,5,0.1851,5,5,0.3292
1527,10,12,9,12,0.7492,8,11,1.2114
1528,19,26,16,20,1.3744,16,48,1.9646
1529,6,8,6,8,0.1827,6,8,0.3307
1530,14,17,10,13,6.7101,10,13,6.9912
1531,28,60,11,23,9.2187,13,42,12.8748
1532,2,2,2,2,0.135,2,2,0.163
1533,53,54,37,38,18.2673,37,38,18.8472
1534,10,9,10,9,0.4085,10,9,0.5175
1535,8,8,8,8,13.6642,8,8,13.8731
1536,23,22,23,22,0.6497,23,22,0.8072
1537,88,105,59,76,33.6641,58,188,51.0295
1538,5,9,2,3,0.3122,2,3,0.4815
1539,5,9,3,4,0.6284,4,8,1.2742
1540,9,10,9,10,0.2064,9,10,6.795
1541,8,7,8,7,0.2925,8,7,0.3801
1542,8,7,8,7,0.2048,8,7,0.2518
1543,18,17,18,17,0.6809,18,17,0.8439
1544,194,245,79,113,139.0516,78,141,151.3501
1545,19,32,14,18,1.3188,14,30,1.6547
1546,55,96,45,77,25.2155,45,77,35.9125
1547,9,9,9,9,0.3323,9,9,0.4484
1548,2,2,2,2,0.1065,2,2,0.1428
1549,20,35,17,26,2.1852,19,31,2.9313
1550,12,13,12,13,0.2178,12,13,0.3505
1551,8,7,8,7,6.2775,8,7,6.4275
1552,97,132,28,50,40.8424,48,124,55.4292
1553,65,107,47,84,24.7387,94,383,38.7574
1554,3,3,3,3,0.1338,3,3,0.238
1555,30,45,30,45,17.7873,172,730,47.0908
1556,8,12,6,7,0.8017,6,15,1.4222
1557,12,16,10,11,1.1032,10,28,2.0321
1558,13,22,7,9,4.7313,7,19,5.4351
1559,6,10,4,5,0.2925,4,9,0.4961
1560,8,12,6,7,0.3931,6,15,0.7543
1561,16,20,14,15,0.9292,15,44,1.961
1562,41,54,28,37,15.9218,27,38,16.4377
1563,15,22,9,10,1.1889,9,19,1.6618
1564,14,20,11,13,13.7787,11,36,14.7853
1565,106,161,72,100,96.7675,82,1041,191.4666
1566,404,515,86,122,157.221,86,122,162.2741
1567,15,15,11,11,0.4531,11,10,0.6205
1568,19,29,19,29,0.7496,27,41,1.3184
1569,6,7,6,7,0.1752,6,15,0.4567
1570,15,19,15,19,0.3568,15,19,0.538
1571,6,13,2,3,0.0903,2,3,0.133
1572,17,16,17,16,0.3213,17,16,0.3939
1573,21,38,20,36,1.3235,20,36,1.8225
1574,22,212,22,41,1.3263,22,41,1.5765
1575,2,3,2,3,0.0773,2,3,0.2001
1576,4,8,3,5,0.204,3,5,0.285
1577,4,7,4,7,0.2486,4,9,0.4725
1578,5,7,5,7,0.3686,5,7,0.6584
1579,19,36,15,24,2.7533,15,27,3.4531
1580,11,11,11,11,0.1934,11,11,0.311
1581,27,51,24,42,1.8446,34,65,2.5768
1582,7,8,7,8,0.1409,7,20,0.3268
1583,41,50,20,24,2.2646,41,105,3.2301
1584,4,7,4,7,0.1448,5,8,0.2451
1585,11,10,11,10,0.1728,11,10,0.268
1586,5,7,5,7,0.105,5,11,0.279
1587,9,8,9,8,0.2542,9,8,0.3146
1588,3,4,3,4,0.1436,3,4,0.2565
1589,8,11,5,6,0.2123,5,9,0.3142
1590,5,12,4,8,0.416,4,8,0.6217
1591,3,5,3,5,0.0809,3,5,0.1725
1592,56,109,39,70,7.616,38,141,8.8749
1593,29,87,9,16,2.0423,10,28,2.7315
1594,42,130,10,23,3.0544,9,33,4.0946
1595,38,127,13,29,2.4189,12,43,3.3272
1596,32,126,8,22,2.4071,8,28,2.8279
1597,14,21,12,17,0.5771,12,19,0.8396
1598,13,16,8,13,0.6706,8,13,0.9063
1599,5,12,4,8,0.2356,5,9,0.3414
1600,31,48,19,24,2.1951,19,104,5.3952
1601,2,1,2,1,0.0765,2,1,0.0959
1602,3,3,3,3,0.2482,3,3,0.3568
1603,3,3,3,3,0.1061,3,3,0.1365
1604,21,23,16,18,0.7014,16,17,0.8747
1605,83,98,31,45,7.5833,29,45,7.9421
1606,10,13,5,6,0.5419,5,6,0.6678
1607,2,2,2,2,0.0742,2,2,0.0947
1608,9,12,9,12,0.2293,9,12,0.3647
1609,57,76,39,54,4.8189,36,55,5.2583
1610,3,4,3,4,0.1239,3,4,0.2293
1611,15,19,15,19,0.3201,25,65,1.0504
1612,45,55,40,50,3.3912,40,50,3.9169
1613,2,3,2,3,0.0876,2,3,0.1646
1614,32,91,20,53,1.7581,23,68,2.576
1615,61,86,40,62,6.133,40,60,6.6999
1616,4,4,4,3,0.1989,4,3,0.2467
1617,29,71,27,55,2.2061,28,67,3.6166
1618,15,14,15,14,0.2565,15,14,0.3268
1619,61,118,24,44,11.3041,20,36,18.1062
1620,2,2,2,2,0.0702,2,2,0.0943
1621,134,258,71,133,23.5821,132,333,25.7855
1622,66,141,40,95,7.922,50,142,9.0545
1623,3,4,2,2,0.1373,2,2,0.1606
1624,11,12,11,12,0.2013,11,26,0.4176
1625,13,28,13,28,0.4275,37,176,4.1534
1626,44,61,31,49,3.6075,31,169,6.0983
1627,3,4,3,3,0.2028,3,3,0.2285
1628,42,46,41,44,2.2472,41,44,2.5527
1629,7,7,7,7,0.1661,7,7,0.2684
1630,20,34,12,21,1.4344,12,19,1.6093
1631,17,26,12,17,2.0554,12,30,2.6234
1632,12,16,12,16,0.3007,21,53,0.8328
1633,66,127,41,90,9.1851,62,151,11.3077
1634,10,9,10,9,0.1788,10,9,0.9418
1635,104,148,41,58,13.8723,120,742,27.9068
1636,8,7,8,7,0.2182,8,7,0.3193
1637,3,6,3,6,0.0907,3,6,0.2001
1638,22,26,21,26,0.4831,27,39,0.9635
1639,5,8,5,8,0.1677,4,7,0.27
1640,8,8,8,8,0.1488,8,8,0.2419
1641,9,12,8,10,0.2917,8,13,0.4022
1642,4,5,4,5,0.1034,4,5,0.204
1643,14,16,14,16,0.3339,20,23,0.5778
1644,38,66,32,60,4.3934,51,123,5.7355
1645,7,9,7,9,0.1492,9,17,0.3434
1646,15,21,15,21,0.2593,15,21,0.4057
1647,11,15,9,12,0.7405,9,28,1.0614
1648,16,21,15,18,0.7377,16,48,1.5931
1649,17,121,17,16,0.9769,17,16,1.048
1650,22,52,15,37,2.1327,15,33,4.1731
1651,8,19,5,10,0.6675,5,11,0.8952
1652,43,110,19,34,5.9499,69,449,18.2345
1653,21,20,21,20,0.5459,21,20,0.6722
1654,14,29,8,17,1.3729,7,18,2.3092
1655,11,18,8,9,0.5905,8,27,1.1755
1656,32,46,19,27,2.094,24,75,3.3552
1657,50,161,16,57,5.3526,21,51,6.8183
1658,48,62,33,40,2.4919,33,40,2.7769
1659,3,5,2,3,0.1282,2,3,0.193
1660,32,38,28,34,1.3819,28,34,1.6547
1661,2,2,2,2,0.0809,2,2,0.1207
1662,6,9,5,7,0.2013,9,17,0.3923
1663,11,20,7,11,0.3209,7,18,0.4661
1664,7,9,7,9,0.1918,7,11,0.3509
1665,14,13,14,13,2.6246,14,13,2.6937
1666,3,4,2,2,0.1298,2,2,0.1535
1667,5,12,3,5,0.3951,3,5,0.5131
1668,76,125,57,104,10.6354,58,154,12.9849
1669,9,8,9,8,0.163,9,8,0.2198
1670,27,38,20,29,1.5694,20,38,1.8923
1671,34,44,27,35,2.9348,27,34,3.2514
1672,19,24,19,24,0.4365,37,114,1.7569
1673,9,11,9,11,0.2593,9,25,0.5984
1674,12,23,12,15,0.4144,12,15,0.5368
1675,106,167,47,83,12.9731,43,86,13.9149
1676,31,41,20,26,2.5413,22,34,2.8539
1677,256,255,256,255,54.4495,256,255,56.1927
1678,44,62,33,50,3.5613,37,65,4.2091
1679,27,40,20,28,2.0064,82,331,5.5287
1680,10,19,7,15,1.0464,6,18,1.5939
1681,9,10,9,10,0.2628,9,10,0.4263
1682,6,5,6,5,0.1223,6,5,0.1768
1683,51,50,51,50,2.4722,51,50,2.7643
1684,14,15,14,15,0.2407,14,15,0.384
1685,8,9,8,9,0.66,8,9,0.7622
1686,7,10,7,10,0.1752,8,19,0.5025
1687,5,6,5,6,0.2246,5,6,0.3481
1688,15,14,15,14,0.2526,15,14,0.3209
1689,16,22,15,21,0.5917,15,26,0.8798
1690,11,18,6,8,0.8186,6,8,0.9347
1691,94,134,66,102,17.1987,97,385,27.471
1692,33,40,9,10,1.3717,9,19,1.5651
1693,35,63,17,24,2.3885,252,869,56.2337
1694,8,15,8,15,0.2621,8,15,0.4875
1695,85,184,79,154,23.5422,79,235,25.4598
1696,34,42,16,19,1.6748,16,47,2.2259
1697,15,19,15,19,0.2794,15,19,0.4689
1698,5,9,4,8,0.1894,3,5,0.2735
1699,3,5,3,5,0.0967,3,6,0.3442
1700,119,154,33,55,14.6602,31,60,15.1733
1701,10,25,9,22,0.4918,9,22,0.6868
1702,23,38,16,25,1.4534,16,26,1.68
1703,209,4446,12,16,2161.6015,11,28,2161.8316
1704,14,13,8,8,0.6481,8,8,0.8186
1705,4,6,2,3,0.1709,2,3,0.2246
1706,7,8,7,8,0.1346,7,11,0.2869
1707,10,12,10,12,0.1906,10,28,0.444
1708,5,8,4,6,0.2253,4,6,0.3252
1709,18,21,18,21,0.3256,18,49,1.8931
1710,17,48,14,33,2.2456,61,314,38.7144
1711,7,7,7,7,0.2115,7,7,0.3457
1712,7,8,7,8,0.1425,7,10,0.27
1713,16,20,16,20,0.6907,16,21,1.0717
1714,9,10,9,10,0.1934,15,41,0.9292
1715,20,30,10,12,0.8786,10,30,1.7727
1716,3,4,2,2,0.1389,2,2,0.1669
1717,3,5,2,3,0.1409,2,3,0.2036
1718,34,39,23,27,2.0696,23,25,2.291
1719,10,20,6,11,0.3086,7,14,0.461
1720,9,22,5,12,0.3,6,13,0.4472
1721,15,20,14,19,0.5182,15,23,0.7227
1722,30,64,17,26,1.946,16,28,2.355
1723,12,17,12,17,0.2139,14,50,1.5126
1724,2,2,2,2,0.1061,2,2,0.1306
1725,36,57,26,42,2.9881,30,56,4.003
1726,27,43,26,40,3.2305,57,118,4.0216
1727,15,20,14,19,0.731,14,21,1.4577
1728,16,21,9,13,0.4117,9,11,0.594
1729,4,5,4,5,0.1606,4,5,0.2613
1730,28,38,26,36,2.0329,27,46,2.775
1731,2,3,2,3,0.0939,2,3,0.1894
1732,15,16,15,16,0.2577,15,42,0.6161
1733,8,11,8,11,0.1922,8,12,1.1139
1734,7,8,7,8,0.1377,7,9,0.2463
1735,35,75,9,12,1.704,9,26,2.0396
1736,41,60,19,34,3.6181,19,36,4.2568
1737,37,48,31,35,2.409,33,97,3.2321
1738,28,39,26,35,1.466,26,35,1.8951
1739,3,5,2,3,0.2293,2,3,0.2976
1740,24,27,24,27,0.6722,24,27,0.9375
1741,19,26,18,24,0.7342,22,69,1.3926
1742,10,9,10,9,0.1886,10,9,0.2396
1743,37,42,33,37,3.0205,33,121,4.0105
1744,104,148,37,54,12.7331,107,655,24.3265
1745,24,60,7,11,0.894,8,25,1.7415
1746,25,34,25,34,0.6351,25,34,0.9098
1747,9,9,9,9,0.1661,9,9,0.2652
1748,15,27,12,20,0.6315,34,144,8.3372
1749,3189,8540,91,237,25515.9715,98,363,25522.3351
1750,7,10,7,10,0.3114,7,17,1.7921
1751,6,10,2,2,0.3982,2,2,0.4361
1752,13,41,7,8,1.813,7,18,2.0017
1753,12,13,12,13,0.2905,12,13,0.4389
1754,11,11,11,11,0.268,11,11,0.5431
1755,16,15,16,15,0.6019,16,15,0.72
1756,39,39,39,39,1.1332,39,39,2.0143
1757,29,43,27,38,2.2176,62,238,6.6825
1758,6,9,6,9,0.1606,5,7,0.2723
1759,7,9,7,9,0.1736,8,21,0.8996
1760,8,9,7,7,0.2561,7,7,0.3493
1761,8,8,8,8,0.1555,8,8,0.2522
1762,8,9,7,7,0.5976,7,7,0.8936
1763,9,11,9,11,0.2609,9,11,0.4701
1764,7,7,7,7,0.1906,7,7,0.2877
1765,5,4,5,4,0.1515,5,4,0.2257
1766,16,21,10,14,0.6935,9,12,0.8609
1767,56,108,24,44,17.2019,22,40,22.3205
1768,5,8,4,5,0.195,4,9,0.3414
1769,35,44,31,40,2.6206,31,41,2.9605
1770,23,33,14,24,1.7739,15,27,2.1888
1771,13,22,12,18,1.6429,13,21,2.0573
1772,48,59,28,42,3.1358,24,51,3.5692
1773,12,15,10,12,0.3406,10,22,0.5557
1774,15,21,12,15,0.5238,12,29,0.7231
1775,11,14,11,14,0.399,18,57,2.6483
1776,29,33,16,20,1.2059,20,43,1.5639
1777,15,15,11,11,0.4444,11,10,0.5778
1778,256,255,256,255,64.5615,256,255,65.863
1779,11,27,8,15,1.0042,8,15,1.2071
1780,4,6,3,4,0.1926,3,6,0.2873
1781,9,14,9,14,0.1744,9,30,0.6228
1782,6,8,6,8,0.1748,6,13,0.4093
1783,7,9,7,9,0.596,12,37,1.0306
1784,31,65,12,21,1.3977,14,35,3.101
1785,10,11,10,11,0.1914,10,23,0.3619
1786,62,95,48,76,12.4153,46,88,14.147
1787,12,23,11,18,0.9023,11,38,1.888
1788,12,23,11,18,0.4847,11,38,0.8553
1789,24,32,9,10,2.6767,2,4,2.8425
1790,4,4,4,4,0.1444,4,4,0.2092
1791,41,78,37,64,8.3151,53,136,10.3125
1792,9,12,6,9,0.4267,6,9,0.5526
1793,1,1,1,1,0.0663,1,1,0.0959
1794,11,13,9,10,0.3138,9,21,0.4614
1795,34,39,23,26,1.9926,23,25,2.1915
1796,12,12,9,11,0.3525,9,13,0.5131
1797,18,17,18,17,0.3161,18,17,0.3986
1798,23,37,18,24,1.7111,23,61,3.054
1799,6,7,6,7,0.1898,6,7,0.2956
1800,14,24,9,16,1.5371,7,23,2.0017
1801,83,122,35,64,8.9487,39,94,10.6701
1802,16,16,16,16,0.3438,16,16,0.5242
1803,22,32,17,21,1.179,20,40,1.7084
1804,2,2,2,2,0.0825,2,2,0.1053
1805,30,58,21,28,2.649,20,30,3.0351
1806,5,9,3,4,0.1965,3,4,0.2605
1807,11,11,11,11,0.2842,11,11,0.3398
1808,33,44,26,35,2.0167,26,87,3.0904
1809,8,15,7,12,0.3,7,12,0.4196
1810,25,36,24,33,2.2926,24,77,4.6101
1811,17,24,14,19,0.7085,14,19,0.9347
1812,11,10,11,10,0.2313,11,10,0.2988
1813,18,19,16,17,0.5676,16,17,0.7334
1814,37,36,37,36,0.8798,37,36,1.016
1815,9,17,5,11,0.3785,3,6,0.4957
1816,9,14,9,14,0.1709,9,30,0.6367
1817,6,7,6,7,0.1207,6,7,0.2151
1818,16,22,13,19,0.8277,13,21,1.0744
1819,9,13,7,11,0.4184,9,14,0.5632
1820,26,41,8,11,0.9307,10,36,2.1185
1821,13,20,12,16,0.6769,13,20,0.855
1822,10,9,10,9,0.1942,10,9,0.2593
1823,6,10,5,9,0.4365,5,13,0.6769
1824,9,12,9,12,0.2478,21,89,3.6158
1825,21,22,16,17,1.1692,16,16,1.3334
1826,8,8,8,8,0.1472,8,8,0.2392
1827,5,7,5,7,0.163,5,7,0.2565
1828,23,40,23,33,1.811,29,48,2.396
1829,95,133,31,47,10.7909,99,534,23.1119
1830,26,38,18,30,1.524,22,49,1.9835
1831,8,8,8,8,0.8565,8,8,0.9682
1832,32,51,29,47,2.6277,40,84,3.5542
1833,17,20,17,20,1.2975,17,20,1.7242
1834,73,118,31,45,5.5752,31,52,6.161
1835,22,26,16,21,1.3748,15,20,1.6807
1836,23,34,18,29,1.4032,18,29,1.6843
1837,15,19,14,17,0.5411,14,17,0.6947
1838,8,8,8,8,0.1563,8,8,0.2672
1839,9,13,6,7,0.4539,8,11,0.5905
1840,9,12,9,12,0.9146,6,6,1.0263
1841,11,17,5,6,0.5005,5,14,0.7796
1842,46,54,37,45,4.063,40,50,4.5383
1843,28,40,25,32,1.4451,25,88,3.7583
1844,15,20,15,20,0.2834,32,42,0.5992
1845,25,43,14,18,1.5465,21,95,3.135
1846,23,38,18,30,1.5138,18,30,1.828
1847,24,29,24,29,0.5842,36,119,3.6351
1848,10,9,10,9,0.2538,10,9,0.3063
1849,9,15,9,14,0.4109,13,26,0.7097
1850,14,16,14,16,0.2715,14,24,0.4488
1851,62,80,60,77,5.0727,61,86,6.1156
1852,27,38,25,36,1.1944,26,44,1.5047
1853,21,22,16,17,0.6552,16,16,0.8277
1854,32,56,16,24,1.9772,48,229,13.746
1855,41,69,14,24,3.836,21,94,7.3476
1856,10,12,9,10,0.3694,9,10,0.5025
1857,7,16,5,7,0.3517,5,6,0.4752
1858,14,18,13,17,0.4882,14,23,0.7302
1859,11,10,11,10,0.2052,11,10,0.2581
1860,8,8,8,8,0.1488,8,8,0.2992
1861,37,41,32,36,3.1069,49,73,3.7476
1862,11,10,11,10,0.489,11,10,0.6477
1863,6,17,3,4,0.4961,3,4,0.6355
1864,15,22,8,10,0.4744,8,19,0.6509
1865,16,22,13,19,0.924,13,21,1.1743
1866,13,16,12,15,0.431,12,15,0.5802
1867,37,37,20,20,2.6254,20,20,2.7943
1868,106,122,50,60,11.4344,194,736,3671.1747
1869,58,64,30,38,5.4363,164,625,9.5751
1870,7,9,7,9,0.1373,8,20,0.3753
1871,2,2,2,2,0.0892,2,2,0.1298
1872,3,5,2,2,0.2502,2,2,0.2723
1873,20,30,17,21,1.6646,25,86,3.2337
1874,15,18,14,17,0.5668,15,22,0.8147
1875,7,7,7,7,0.1503,7,7,0.2435
1876,26,42,23,34,2.2946,35,57,3.0947
1877,37,36,37,36,0.9375,37,36,1.0831
1878,5,12,3,5,0.2265,3,5,0.2984
1879,3,5,2,3,0.1942,2,3,0.2526
1880,3,4,2,2,0.1831,2,2,0.223
1881,1,1,1,1,0.0584,1,1,0.0872
1882,9,8,9,8,0.2486,9,8,0.3086
1883,42,49,40,47,3.129,1635,6137,135.3758
1884,37,39,37,39,0.9615,37,76,1.6085
1885,2,2,2,2,0.0801,2,2,0.1176
1886,147,283,80,150,27.2812,152,296,29.6768
1887,15,19,15,18,0.553,15,18,0.7038
1888,26,35,26,35,0.8336,24,31,1.329
1889,27,37,13,18,8.4667,15,103,10.02
1890,6,6,6,6,0.1152,6,6,0.2056
1891,8,9,8,9,0.2234,8,17,0.3828
1892,9,12,9,12,0.1898,10,15,0.3825
1893,25,38,19,24,3.3383,19,104,4.4396
1894,8,8,8,8,0.2597,8,8,0.4732
1895,12,19,10,13,0.3947,10,13,0.521
1896,18,25,16,21,1.269,18,58,2.1829
1897,36,51,24,39,2.1169,32,65,2.6044
1898,20,24,20,24,0.4492,41,105,1.4147
1899,8,14,6,8,0.2976,6,14,0.4381
1900,19,23,9,10,0.671,9,19,0.8632
1901,27,43,25,40,1.8154,31,62,2.265
1902,24,33,24,33,0.5771,24,77,1.1427
1903,25,30,13,14,1.5829,13,38,1.9397
1904,13,12,13,12,0.2853,13,12,0.3461
1905,10,13,9,11,0.3394,9,15,0.4626
1906,2,1,2,1,0.0734,2,1,0.1065
1907,2,1,2,1,0.073,2,1,0.1069
1908,4,5,4,5,0.1247,4,9,0.266
1909,11,12,11,12,0.1989,11,12,0.3201
1910,16,15,16,15,0.3572,16,15,0.4551
1911,3,4,3,4,0.1184,3,4,0.1878
1912,2,2,2,2,0.0805,2,2,0.1176
1913,2,2,2,2,0.0781,2,2,0.1148
1914,2,2,2,2,0.0809,2,2,0.114
1915,2,1,2,1,0.0738,2,1,0.1061
1916,12,11,12,11,0.208,12,11,0.2636
1917,15,15,11,11,0.4326,11,10,0.5573
1918,11,10,11,10,0.2625,11,10,0.3209
1919,6,5,6,5,0.1476,6,5,0.1878
1920,2,1,2,1,0.0746,2,1,0.1077
