id,states,transitions,simRelSize,time,goodruns,minterms,mintermizedAutomatonTransitions
0,14,40,160,11.6278,1,5,100
1,59,127,1326,115.5354,1,9,602
2,17,20,53,4.3523,1,11,200
3,2,1,5,0.0639,1,2,6
4,29,47,131,7.4822,1,9,272
5,3,3,7,0.3339,1,4,17
6,18,21,41,2.548,1,7,136
7,25,36,172,4.0156,1,9,252
8,3,6,9,0.0347,1,2,10
9,7,9,30,2.0269,1,7,56
10,12,14,26,2.3621,1,8,108
11,8,13,29,1.2075,1,7,74
12,16,19,38,1.5982,1,7,119
13,38,66,141,7.3014,1,9,390
14,44,81,181,6.3012,1,8,400
15,15,16,32,2.8026,1,8,128
16,3,3,8,0.2001,1,3,13
17,65,135,431,18.1126,1,13,919
18,44,49,215,1.8446,1,3,140
19,40,52,165,3.0552,1,7,299
20,6,10,23,2.2954,1,6,42
21,4,5,9,0.2763,1,4,20
22,4,5,15,0.1701,1,3,16
23,11,13,23,0.5964,1,4,48
24,22,29,60,3.1737,1,10,247
25,11,11,78,0.4176,1,3,36
26,8,9,21,0.4243,1,4,39
27,6,11,22,1.6894,1,6,45
28,18,29,81,3.656,1,9,179
29,11,11,50,0.5703,1,5,63
30,1,1,3,0.0975,1,2,4
31,33,36,220,13.6986,1,19,649
32,16,16,45,0.4863,1,3,51
33,36,51,133,2.3747,1,8,328
34,3,2,8,0.2601,1,3,12
35,19,24,137,0.4531,1,3,63
36,370,804,52332,196.0255,1,11,5258
37,6,8,16,0.236,1,2,14
38,3,3,8,0.0619,1,3,13
39,28,66,93,9.0391,1,10,304
40,14,13,29,0.7377,1,6,90
41,13,26,84,1.286,1,6,93
42,7,8,21,0.8865,1,5,41
43,9,13,22,1.7356,1,10,102
44,4,6,17,0.1693,1,3,15
45,19,23,95,1.8604,1,6,123
46,7,8,21,3.1531,1,7,57
47,7,8,21,0.2518,1,7,57
48,11,12,63,0.7373,1,4,50
49,2,2,6,0.1192,1,2,6
50,102,202,2363,90.4126,1,34,3970
51,101,185,670,57.4337,1,34,3672
52,10,9,25,0.2913,1,3,33
53,29,59,164,1.6306,1,7,274
54,17,40,117,2.7292,1,11,207
55,46,66,317,2.8002,1,9,458
56,3,4,8,0.5628,1,4,16
57,55,77,337,12.5898,1,18,1062
58,101,185,670,65.3696,1,34,3672
59,24,38,66,3.3647,1,12,300
60,27,53,103,1.1755,1,5,142
61,14,34,50,1.0926,1,6,106
62,9,18,29,0.5289,1,5,60
63,7,8,31,0.0943,1,2,17
64,62,100,1011,11.6542,1,13,1001
65,64,102,1044,12.3099,1,16,1258
66,15,16,63,0.33,1,6,97
67,46,69,206,12.7773,1,5,237
68,2,2,6,0.0907,1,2,6
69,3,4,9,0.1492,1,3,13
70,32,31,530,1.2094,1,3,99
71,55,134,297,13.5308,1,7,414
72,132,230,2221,28.3959,1,9,1389
73,143,262,2805,168.5587,1,23,4312
74,124,238,2726,53.9494,1,21,3493
75,22,50,242,3.6438,1,12,355
76,20,21,105,0.3872,1,3,64
77,6,5,13,0.1938,1,3,21
78,6,5,13,0.1061,1,3,21
79,8,11,31,0.3828,1,5,50
80,30,71,141,3.2423,1,10,364
81,16,15,138,0.2044,1,2,34
82,5,5,12,0.3043,1,5,30
83,1,1,3,0.1196,1,2,4
84,18,27,199,0.776,1,5,118
85,32,50,172,4.8213,1,10,339
86,13,22,71,0.6982,1,6,91
87,2,3,3,0.0331,1,2,5
88,19,30,168,1.001,1,6,131
89,9,14,45,0.1717,1,4,45
90,26,42,171,5.1122,1,17,553
91,68,95,163,42.708,1,33,2293
92,25,33,131,3.8794,1,14,398
93,10,11,22,0.684,1,4,45
94,3,3,9,0.0592,1,3,13
95,4,5,12,0.1827,1,4,21
96,4,6,14,0.0959,1,3,16
97,5,8,18,0.1622,1,4,25
98,26,47,78,2.591,1,9,247
99,6,11,20,0.5234,1,4,31
100,28,43,103,2.081,1,9,315
101,8,13,26,0.5175,1,5,48
102,15,21,68,0.8009,1,5,86
103,33,44,600,2.0214,1,10,391
104,33,43,568,1.6823,1,10,381
105,16,24,76,2.4138,1,7,122
106,40,59,605,23.9365,1,20,859
107,29,30,136,1.4944,1,8,242
108,61,85,813,8.1817,1,7,487
109,21,23,120,2.6112,1,9,214
110,27,44,96,2.758,1,7,212
111,20,20,41,0.4085,1,3,64
112,31,36,148,6.1638,1,17,548
113,43,46,131,14.6124,1,24,1057
114,30,52,230,1.4309,1,7,241
115,13,20,52,1.8217,1,9,126
116,8,8,18,0.2052,1,3,27
117,13,30,104,0.3288,1,6,99
118,18,33,120,2.0163,1,11,220
119,9,22,68,0.1713,1,4,53
120,49,53,150,35.4456,1,25,1251
121,5,5,16,0.3864,1,4,26
122,6,7,18,1.7933,1,7,50
123,14,17,55,0.9146,1,9,140
124,10,9,21,0.5013,1,4,44
125,9,8,19,0.1823,1,3,30
126,7,9,21,0.3742,1,6,53
127,21,38,66,17.6728,1,25,550
128,4,5,12,0.3513,1,4,21
129,95,150,1266,21.2922,1,14,1600
130,1,1,1,0.0315,1,1,1
131,13,16,115,0.6098,1,4,62
132,79,248,1934,60.7748,1,29,3387
133,79,248,1934,18.3131,1,29,3381
134,6,9,24,0.2573,1,4,29
135,21,131,177,4.2075,1,11,302
136,3,5,11,0.1164,1,3,14
137,14,16,47,0.2238,1,4,62
138,13,18,42,1.0444,1,9,132
139,7,7,15,0.3943,1,5,40
140,2,3,3,0.0477,1,2,5
141,65,69,378,14.9179,1,21,1387
142,14,17,34,1.6385,1,11,168
143,14,18,32,0.9805,1,9,139
144,31,30,441,0.4405,1,3,96
145,7,9,20,0.7669,1,6,50
146,13,15,42,0.6746,1,5,72
147,28,39,97,0.7196,1,6,198
148,13,16,29,0.3098,1,7,102
149,19,32,188,0.2076,1,3,60
150,4,7,15,0.4117,1,4,22
151,39,42,379,8.2161,1,9,372
152,28,30,212,1.1321,1,7,207
153,79,148,2923,4.5963,1,4,384
154,74,74,149,3.5427,1,5,375
155,3,5,7,0.0307,1,2,8
156,25,69,326,1.5556,1,7,317
157,13,17,35,2.6565,1,11,171
158,23,32,121,1.4948,1,9,240
159,20,23,106,0.9039,1,7,151
160,10,16,35,1.6452,1,8,103
161,15,16,33,0.4547,1,6,96
162,77,108,1056,25.4697,1,26,2202
163,13,33,55,0.1594,1,2,49
164,13,12,55,0.1571,1,2,28
165,9,33,63,0.2206,1,3,46
166,747,986,159914,1831.0748,1,27,20873
167,76,116,234,25.3217,1,14,1266
168,11,11,77,0.1713,1,4,48
169,2,2,6,0.0501,1,2,6
170,9,8,20,0.1239,1,2,20
171,9,8,19,0.1247,1,2,20
172,9,8,19,0.1393,1,3,30
173,6,5,13,0.1176,1,2,14
174,80,104,407,16.9291,1,16,1364
175,4,7,12,0.3225,1,4,21
176,4,7,12,0.3189,1,4,21
177,10,12,33,0.1969,1,3,35
178,34,55,322,1.8844,1,10,350
179,7,14,37,0.5127,1,5,51
180,279,489,2655,148.0378,1,12,3551
181,8,8,21,0.3414,1,3,27
182,12,17,73,0.3118,1,5,73
183,19,24,137,18.4777,1,12,251
184,48,59,221,3.5802,1,7,355
185,15,29,81,0.8767,1,5,84
186,3,4,9,0.075,1,3,12
187,14,13,29,0.1622,1,3,45
188,15,14,31,0.2253,1,3,48
189,14,13,29,0.2269,1,3,45
190,14,13,29,0.2159,1,3,45
191,44,59,108,12.0403,1,15,676
192,25,25,52,1.3622,1,6,156
193,18,19,39,2.7454,1,11,210
194,6,8,19,0.9307,1,6,44
195,4,10,12,0.66,1,4,21
196,8,8,18,0.7748,1,5,45
197,71,118,962,5.5729,1,4,325
198,2,3,5,0.0947,1,2,7
199,4,5,10,0.1965,1,6,33
200,4,7,12,0.1547,1,4,21
201,11,15,50,0.63,1,6,74
202,32,34,138,2.1994,1,12,396
203,13,16,29,0.3967,1,8,116
204,10,11,27,0.2115,1,7,79
205,8,8,18,0.3611,1,5,45
206,95,194,502,91.6406,1,34,4430
207,3,6,9,0.0635,1,2,10
208,9,38,81,0.191,1,4,65
209,70,80,1087,11.4273,1,12,858
210,138,186,10006,23.3685,1,13,2047
211,23,26,171,1.7502,1,9,221
212,44,52,583,6.2846,1,12,549
213,17,34,206,0.8242,1,8,190
214,16,19,87,0.6035,1,9,156
215,26,42,125,1.723,1,10,304
216,4,6,15,0.1756,1,3,17
217,36,74,206,4.6823,1,15,593
218,3,4,11,0.1811,1,3,13
219,19,30,91,25.4231,1,11,220
220,6,10,29,0.4002,1,4,31
221,49,110,190,92.1384,1,13,656
222,12,15,30,0.2565,1,3,42
223,18,21,72,1.9815,1,6,116
224,52,69,232,6.4918,1,10,546
225,94,124,266,25.09,1,9,878
226,36,51,149,3.133,1,3,114
227,18,30,76,1.8675,1,9,206
228,6,7,14,0.1859,1,7,50
229,25,34,87,4.1443,1,11,300
230,5,8,13,0.3607,1,4,25
231,5,14,22,0.3461,1,4,27
232,3,5,9,0.0935,1,3,14
233,23,25,48,1.0768,1,10,240
234,15,17,34,1.2264,1,6,97
235,18,36,96,2.2097,1,11,221
236,13,26,84,0.2127,1,6,93
237,96,121,215,71.8054,1,32,3113
238,20,26,50,2.064,1,11,234
239,12,23,76,0.384,1,5,82
240,79,101,295,14.7723,1,16,1339
241,31,30,196,1.1869,1,8,270
242,9,10,25,0.6738,1,7,72
243,100,187,1906,31.1587,1,11,1111
244,215,401,2470,230.4171,1,27,5833
245,27,50,111,25.1772,1,27,756
246,8,11,26,0.4736,1,5,46
247,86,115,1004,7.6914,1,8,738
248,3,4,9,0.133,1,3,13
249,17,18,60,0.5881,1,6,109
250,20,26,52,0.3532,1,4,88
251,3,2,7,0.1448,1,3,12
252,24,39,69,34.045,1,26,650
253,65,102,151,24.8334,1,34,2279
254,5,5,12,0.1377,1,3,19
255,4,3,9,0.0655,1,2,10
256,37,61,118,3.4034,1,12,476
257,11,12,31,0.1839,1,3,37
258,9,8,19,0.1361,1,3,30
259,15,26,88,1.331,1,5,84
260,10,11,31,0.984,1,9,100
261,5,10,17,0.1093,1,3,18
262,5,10,20,0.1128,1,3,22
263,43,52,253,7.8122,1,21,967
264,15,16,33,0.6003,1,7,112
265,10,9,21,0.2727,1,4,44
266,19,27,51,1.1009,1,7,144
267,13,16,31,1.1546,1,14,196
268,7,6,15,0.1496,1,4,32
269,7,8,21,0.5743,1,7,57
270,11,17,58,0.3746,1,4,52
271,56,94,793,2.6522,1,8,547
272,28,31,113,1.1613,1,6,174
273,11,19,52,0.6544,1,6,80
274,205,3036,8036,122.7106,1,8,10289
275,39,41,159,1.3535,1,3,123
276,13,18,35,0.5628,1,4,58
277,29,45,145,3.2096,1,10,324
278,7,18,43,0.0552,1,1,18
279,44,45,175,21.3151,1,21,946
280,10,11,27,1.723,1,6,68
281,10,15,36,0.399,1,4,46
282,6,12,23,0.3785,1,4,32
283,22,28,181,1.3886,1,6,139
284,20,22,44,1.1565,1,5,105
285,20,22,44,1.2777,1,6,126
286,11,13,52,0.4421,1,8,96
287,2,2,6,0.0497,1,2,6
288,14,16,32,0.5257,1,3,45
289,5,9,20,0.1263,1,2,16
290,30,31,90,9.6734,1,18,559
291,9,20,45,0.7405,1,5,68
292,17,36,63,4.631,1,14,256
293,12,11,25,0.4555,1,4,52
294,3,4,10,1.0977,1,4,17
295,33,54,232,7.0287,1,10,350
296,21,45,218,2.7237,1,11,265
297,2,3,3,0.041,1,2,5
298,11,11,23,0.2601,1,3,37
299,7,9,34,0.6106,1,4,34
300,7,8,18,0.283,1,7,58
301,60,134,450,10.6741,1,15,977
302,15,19,103,2.7162,1,10,164
303,15,25,108,2.8381,1,10,164
304,59,257,1264,31.0111,1,32,3121
305,29,41,92,4.9066,1,13,396
306,24,38,176,2.1438,1,7,206
307,29,61,213,11.5642,1,18,593
308,43,156,434,6.2625,1,11,801
309,16,22,40,1.3385,1,7,120
310,5,9,25,0.15,1,3,19
311,38,70,168,14.7758,1,14,560
312,4,6,13,0.1661,1,4,22
313,29,32,91,1.5659,1,5,152
314,45,46,139,12.1998,1,21,967
315,20,33,55,2.9514,1,8,171
316,24,26,189,0.3268,1,3,76
317,19,20,77,2.2579,1,9,181
318,21,22,89,1.0093,1,8,177
319,16,29,61,2.5898,1,9,157
320,3,5,11,0.1053,1,2,9
321,19,27,60,2.9269,1,10,224
322,393,736,10437,748.5625,1,30,13685
323,7,15,22,0.4914,1,4,36
324,5,6,15,0.2735,1,4,25
325,15,14,31,0.4259,1,3,48
326,16,26,52,3.1243,1,12,204
327,43,56,139,9.8282,1,11,487
328,45,55,276,6.4634,1,14,654
329,43,70,324,10.9678,1,19,1000
330,10,20,52,1.7135,1,5,56
331,30,40,308,37.7216,1,19,609
332,52,84,559,9.5238,1,14,829
333,16,20,97,2.7955,1,11,189
334,2,3,3,0.0481,1,2,5
335,2,3,5,0.0836,1,2,7
336,9,15,42,3.8459,1,5,53
337,13,29,129,0.6378,1,6,102
338,35,120,413,1.168,1,4,186
339,16,16,33,0.3205,1,3,51
340,15,34,109,0.6627,1,5,89
341,11,19,42,0.9015,1,6,74
342,80,114,229,59.7591,1,42,3422
343,57,195,1840,4.7826,1,11,938
344,18,27,86,0.6355,1,5,98
345,25,34,87,0.7669,1,5,131
346,10,24,42,0.4748,1,6,79
347,18,21,79,1.5793,1,8,156
348,14,18,101,0.2921,1,4,60
349,21,34,148,0.5107,1,3,80
350,40,51,422,19.7148,1,16,660
351,16,22,71,1.6646,1,10,190
352,10,17,46,0.5688,1,6,77
353,3,2,7,0.0773,1,3,12
354,8,8,21,0.1263,1,3,27
355,89,172,1150,22.9118,1,15,1479
356,5,6,16,0.0986,1,3,19
357,18,30,120,0.3896,1,6,140
358,11,11,24,0.4571,1,3,36
359,9,11,23,0.2107,1,4,41
360,27,57,156,1.5351,1,8,231
361,64,141,772,4.1483,1,6,405
362,16,21,102,0.264,1,3,58
363,20,27,159,0.735,1,7,151
364,23,36,183,1.0184,1,9,243
365,52,78,324,15.9537,1,19,1173
366,101,100,1583,17.4593,1,11,1141
367,27,31,61,1.6744,1,11,308
368,14,14,60,0.3023,1,5,75
369,16,28,63,1.0847,1,10,180
370,10,21,63,0.6603,1,7,104
371,28,48,85,1.213,1,6,179
372,54,65,149,6.6403,1,15,828
373,4,3,9,0.0809,1,2,10
374,11,11,24,0.1176,1,3,36
375,19,18,39,0.2206,1,3,60
376,9,10,21,0.3765,1,8,80
377,8,11,47,0.339,1,5,53
378,32,33,96,5.1773,1,18,595
379,18,32,56,1.1921,1,7,140
380,45,44,91,1.2596,1,4,184
381,30,33,69,0.9947,1,6,190
382,31,30,63,1.0661,1,6,192
383,49,65,231,4.7566,1,11,574
384,18,19,55,2.2693,1,13,248
385,34,34,74,7.2635,1,4,141
386,5,8,14,0.4409,1,5,32
387,13,14,39,1.59,1,10,141
388,28,72,159,2.61,1,9,273
389,11,10,23,0.1286,1,3,36
390,9,10,27,0.598,1,7,71
391,9,10,27,0.8459,1,8,81
392,2,3,3,0.0501,1,2,5
393,3,5,6,0.0639,1,3,10
394,24,26,68,1.4329,1,9,227
395,46,80,462,5.2962,1,13,638
396,7,14,39,0.3477,1,4,37
397,9,13,28,0.8688,1,10,103
398,8,12,27,0.4788,1,6,54
399,19,29,167,1.4273,1,11,239
400,14,26,69,0.3813,1,5,78
401,7,9,18,0.1069,1,3,26
402,28,29,84,4.4684,1,16,465
403,5,6,15,0.3086,1,5,31
404,11,46,68,0.0903,1,1,48
405,12,17,96,0.8854,1,10,144
406,18,25,44,0.5419,1,7,133
407,13,19,50,0.7815,1,6,90
408,21,47,117,1.3255,1,7,163
409,6,5,13,0.0773,1,2,14
410,13,22,53,2.518,1,12,194
411,6,8,18,0.6584,1,6,43
412,113,132,1147,24.4043,1,16,1862
413,5,5,18,0.0947,1,3,18
414,7,9,22,0.339,1,4,33
415,558,2116,141672,434.3307,1,19,12040
416,7,8,18,0.238,1,7,58
417,17,23,74,1.5138,1,10,200
418,7,8,18,0.3043,1,7,58
419,6,9,25,0.2988,1,5,40
420,9,10,48,0.1034,1,2,21
421,19,18,84,0.6797,1,4,80
422,16,39,83,1.4107,1,7,127
423,20,44,115,3.2194,1,8,171
424,16,32,97,1.3492,1,7,120
425,9,14,36,0.759,1,6,63
426,9,14,36,0.3548,1,6,63
427,5,7,15,0.3631,1,6,37
428,54,120,430,4.5517,1,9,509
429,18,25,64,0.433,1,4,79
430,13,24,50,1.1147,1,7,105
431,61,86,137,40.8357,1,41,2558
432,36,46,322,1.828,1,6,228
433,42,61,125,6.913,1,12,543
434,41,62,131,6.81,1,12,547
435,7,9,16,0.6753,1,7,56
436,19,28,265,0.1594,1,3,78
437,302,769,24236,253.0665,1,19,6065
438,7,10,21,0.5119,1,5,41
439,4,6,13,0.3363,1,4,21
440,31,55,259,1.8008,1,6,210
441,49,50,147,7.9224,1,3,152
442,6,13,22,1.2339,1,6,58
443,12,13,48,0.2253,1,3,40
444,6,9,25,0.0919,1,3,23
445,22,24,105,0.5798,1,3,72
446,17,47,82,5.805,1,11,214
447,7,9,21,0.3047,1,8,73
448,99,249,2030,30.4892,1,22,2481
449,15,20,38,1.6077,1,7,121
450,4,7,16,0.191,1,3,15
451,15,31,84,3.0465,1,8,133
452,17,28,91,1.4179,1,8,146
453,8,10,33,0.8139,1,5,47
454,2,3,3,0.054,1,2,5
455,104,167,1501,28.7322,1,12,1498
456,4,7,11,0.0967,1,3,15
457,6,5,15,0.1985,1,4,28
458,17,37,99,1.2659,1,6,116
459,11,28,45,3.7184,1,10,125
460,16,25,57,0.384,1,4,68
461,20,27,59,3.6844,1,20,451
462,22,28,181,0.4247,1,5,122
463,128,145,1484,32.1088,1,12,1632
464,11,16,42,0.6055,1,4,50
465,4,9,16,0.1172,1,3,19
466,13,37,120,0.39,1,4,79
467,12,20,83,0.4815,1,7,117
468,17,34,142,1.3421,1,9,186
469,11,14,50,0.9264,1,8,103
470,34,36,169,4.4072,1,18,631
471,17,22,72,0.5814,1,6,112
472,20,36,58,5.9183,1,10,215
473,24,25,50,17.7356,1,19,475
474,2,3,3,0.0386,1,2,5
475,5,7,13,1.065,1,5,31
476,44,125,218,15.8033,1,16,749
477,11,10,24,0.2167,1,4,48
478,27,30,128,10.1661,1,18,505
479,4,7,11,0.0963,1,3,20
480,4,6,14,0.144,1,3,16
481,5,7,19,0.1811,1,3,19
482,6,12,24,0.5672,1,5,44
483,2,2,6,0.1302,1,2,6
484,18,27,111,0.675,1,8,169
485,13,14,29,0.9442,1,10,140
486,11,16,40,0.675,1,8,104
487,14,35,75,0.9004,1,4,77
488,20,84,231,1.7285,1,5,133
489,47,70,129,5.3459,1,15,722
490,101,139,1370,17.526,1,13,1478
491,36,51,142,2.6175,1,10,406
492,14,23,48,2.1161,1,9,141
493,12,15,34,1.0235,1,9,118
494,14,19,68,0.4267,1,8,124
495,31,39,238,3.5041,1,10,333
496,22,29,65,1.5189,1,6,139
497,7,9,27,1.271,1,7,63
498,6,9,28,0.1413,1,3,21
499,16,18,70,0.6817,1,5,88
500,6,10,23,0.7397,1,5,36
501,70,127,312,15.9166,1,13,949
502,22,29,65,0.8956,1,6,139
503,53,54,160,16.7602,1,24,1297
504,63,92,314,25.2471,1,22,1419
505,20,27,131,0.2542,1,3,64
506,501,718,3440,1241.274,1,36,18316
507,15,16,47,4.1889,1,12,193
508,8,10,25,2.1576,1,7,64
509,76,139,2238,8.0672,1,11,857
510,21,38,80,5.5689,1,25,550
511,22,40,67,6.2179,1,25,576
512,13,20,50,0.5909,1,8,128
513,13,22,119,0.2206,1,4,71
514,25,26,76,5.2255,1,17,443
515,13,20,61,0.9059,1,9,139
516,97,132,712,15.8574,1,11,1135
517,7,8,23,0.296,1,4,33
518,4,5,12,0.1863,1,4,21
519,5,4,11,0.2028,1,3,18
520,3,4,11,0.2786,1,3,13
521,3,5,9,0.1744,1,3,14
522,20,28,82,0.5538,1,6,146
523,16,34,60,1.3377,1,7,136
524,5,4,11,0.1717,1,3,18
525,10,15,55,0.864,1,8,97
526,24,50,114,1.0642,1,9,251
527,4,5,11,0.1665,1,3,15
528,39,52,110,2.7422,1,14,578
529,89,90,281,40.6727,1,34,3061
530,21,23,62,0.7176,1,4,90
531,12,14,28,0.4428,1,5,65
532,32,67,129,6.806,1,20,705
533,7,10,22,0.7215,1,7,58
534,12,22,80,0.2175,1,5,81
535,81,82,243,41.1152,1,27,2215
536,23,32,181,0.405,1,4,105
537,17,40,90,1.7526,1,6,124
538,103,143,1559,34.8286,1,17,1928
539,13,36,80,0.7823,1,5,79
540,3,5,7,0.0418,1,2,8
541,5,8,21,0.1156,1,3,18
542,30,81,143,5.4446,1,10,325
543,17,27,72,1.08,1,7,128
544,44,70,313,2.531,1,8,376
545,25,39,131,1.8833,1,11,291
546,14,35,57,2.3873,1,7,107
547,21,59,148,4.862,1,10,255
548,6,10,27,0.4053,1,4,28
549,19,32,61,3.5992,1,20,422
550,75,76,225,39.4798,1,29,2205
551,45,46,135,11.2326,1,23,1059
552,11,13,41,0.2092,1,3,36
553,576,1102,10756,1696.9334,1,32,18936
554,223,1964,39527,14.2654,1,4,2617
555,13,16,79,0.5388,1,5,70
556,6,9,21,0.1294,1,4,36
557,18,21,55,1.3606,1,10,202
558,17,22,62,1.4344,1,10,193
559,18,23,85,0.4168,1,7,148
560,27,35,66,5.2184,1,20,688
561,14,17,43,1.5888,1,7,109
562,46,70,238,167.9015,1,13,624
563,20,23,62,3.4962,1,8,170
564,11,10,28,0.2036,1,3,36
565,19,26,44,2.0404,1,6,121
566,21,57,323,1.8722,1,6,132
567,7,9,25,1.7017,1,8,65
568,7,8,16,0.251,1,7,57
569,99,181,1456,30.959,1,15,1576
570,5,10,19,0.1831,1,4,31
571,8,8,38,0.3189,1,5,46
572,6,6,13,0.1322,1,3,22
573,4,6,17,0.1255,1,3,15
574,13,29,105,0.8147,1,5,70
575,10,24,79,0.1918,1,3,53
576,70,84,397,15.4639,1,8,582
577,3,4,8,0.1922,1,3,13
578,74,97,1002,6.9406,1,5,427
579,4,4,15,0.0915,1,2,10
580,16,20,37,0.525,1,8,138
581,57,76,213,6.5084,1,13,771
582,16,21,50,1.6247,1,9,153
583,88,105,544,19.7768,1,17,1535
584,68,128,337,20.0156,1,15,1072
585,22,61,225,3.2017,1,13,315
586,67,198,908,16.6947,1,23,1707
587,5,9,19,0.253,1,4,29
588,36,67,296,10.0682,1,17,665
589,13,30,83,0.6035,1,5,80
590,4,6,14,0.2992,1,5,26
591,12,24,64,0.2652,1,4,61
592,11,12,51,0.1109,1,3,37
593,39,78,663,5.9451,1,12,618
594,220,276,17607,69.4381,1,11,2668
595,29,68,572,1.0184,1,5,205
596,5,7,16,0.3146,1,6,36
597,20,30,48,2.2148,1,11,235
598,15,28,81,1.4388,1,7,119
599,12,34,118,0.1819,1,4,74
600,13,25,116,1.119,1,8,140
601,8,7,17,0.4886,1,5,45
602,5,5,17,0.071,1,3,18
603,12,13,27,0.328,1,7,91
604,2,1,5,0.0473,1,2,6
605,8,18,44,0.2759,1,4,51
606,32,41,194,2.3068,1,9,318
607,12,37,72,0.3592,1,5,77
608,24,32,86,1.9121,1,11,282
609,28,58,261,2.1971,1,11,345
610,15,30,82,1.2643,1,11,184
611,103,166,2122,71.7485,1,32,3604
612,107,173,2322,133.8683,1,31,3622
613,16,51,74,3.2743,1,9,164
614,9,10,48,0.2909,1,3,31
615,6,15,30,0.2719,1,5,40
616,9,11,30,0.7176,1,5,51
617,7,9,25,2.0802,1,7,57
618,16,19,50,4.1206,1,11,188
619,9,13,30,0.6035,1,5,51
620,9,11,30,0.4172,1,5,51
621,9,13,35,1.1096,1,8,81
622,8,12,39,0.9331,1,7,64
623,14,16,31,0.7934,1,8,120
624,65,64,2084,1.7526,1,2,132
625,6,6,15,0.2826,1,4,29
626,11,11,24,0.3078,1,4,48
627,19,29,168,3.3458,1,12,272
628,11,18,31,0.4922,1,6,77
629,11,21,34,0.2652,1,6,79
630,15,14,31,0.8388,1,5,80
631,13,20,54,0.6706,1,5,71
632,71,113,630,13.8277,1,14,1064
633,8,14,31,0.2972,1,4,40
634,10,9,46,1.0579,1,8,88
635,23,31,75,3.3343,1,12,320
636,19,24,60,2.6415,1,10,216
637,26,35,68,2.4055,1,9,244
638,4,6,17,0.1105,1,3,15
639,13,16,46,0.9244,1,8,122
640,15,17,65,0.4385,1,5,83
641,153,200,1035,67.3689,1,17,2692
642,65,87,307,10.6484,1,12,857
643,194,472,3879,288.8074,1,44,9495
644,21,24,56,1.2671,1,10,220
645,5,9,20,0.1989,1,3,21
646,22,22,47,0.6118,1,4,93
647,18,23,50,4.498,1,16,306
648,11,14,27,1.8572,1,12,147
649,9,10,27,0.2948,1,4,41
650,12,14,28,1.001,1,9,117
651,9,26,50,0.4121,1,4,52
652,14,25,116,0.3161,1,4,80
653,8,9,18,1.8213,1,9,83
654,19,21,48,1.1632,1,7,142
655,8,7,17,0.3505,1,4,36
656,9,11,20,15.3182,1,11,112
657,12,28,50,0.3276,1,4,59
658,9,11,20,2.5279,1,10,104
659,21,44,97,4.616,1,16,352
660,12,16,41,3.9955,1,12,157
661,10,10,58,0.1196,1,3,33
662,16,21,43,0.3319,1,3,63
663,8,12,25,1.6204,1,9,83
664,19,20,67,1.4632,1,10,200
665,9,9,20,0.2881,1,4,40
666,2,3,3,0.0481,1,2,5
667,18,22,76,1.0575,1,5,100
668,68,95,339,9.9561,1,13,991
669,14,27,116,0.8328,1,7,112
670,6,7,16,0.1969,1,3,22
671,37,110,1009,1.2754,1,6,379
672,3,5,7,0.0378,1,2,8
673,11,70,133,0.3836,1,3,84
674,11,17,41,1.6476,1,7,88
675,7,9,26,0.7042,1,7,58
676,29,75,293,3.4831,1,8,254
677,13,25,89,0.24,1,6,92
678,13,16,30,0.7902,1,7,98
679,8,9,24,1.1001,1,7,64
680,15,20,35,1.6602,1,9,147
681,33,38,123,0.7685,1,4,141
682,2,3,3,0.0481,1,2,5
683,35,35,73,1.995,1,4,144
684,72,75,399,6.3197,1,9,665
685,35,47,78,6.3987,1,29,1051
686,116,117,468,71.9878,1,28,3277
687,1,1,1,0.0244,1,1,1
688,8,9,24,1.0144,1,8,73
689,59,60,179,14.6179,1,23,1381
690,20,26,104,1.3314,1,9,207
691,17,29,91,0.7748,1,5,92
692,15,16,33,3.8609,1,11,176
693,4,6,13,0.2984,1,4,21
694,4,8,14,0.1965,1,4,22
695,6,11,25,0.8309,1,6,45
696,9,13,33,0.5463,1,5,51
697,7,12,28,0.7661,1,5,41
698,2,2,6,0.099,1,2,6
699,307,581,5836,440.0959,1,32,10176
700,324,623,7355,424.7516,1,36,12061
701,11,10,23,0.3785,1,4,48
702,22,23,66,15.0225,1,16,369
703,15,17,33,0.4898,1,8,128
704,15,19,95,0.1657,1,3,49
705,3,5,9,0.1259,1,3,14
706,7,14,33,0.0801,1,3,29
707,72,118,398,11.0965,1,16,1414
708,45,73,609,1.785,1,3,186
709,27,43,116,2.0644,1,8,226
710,3,6,9,0.0378,1,2,10
711,15,38,200,0.1827,1,4,111
712,23,35,199,1.0993,1,7,190
713,23,30,98,0.9161,1,10,246
714,9,8,40,0.2972,1,4,40
715,26,34,78,4.1048,1,18,510
716,11,16,35,0.7294,1,7,87
717,33,58,112,26.573,1,13,448
718,92,110,369,11.0992,1,11,1036
719,92,110,423,11.7565,1,11,1057
720,6,7,22,0.1397,1,4,28
721,23,24,70,3.4993,1,15,361
722,14,16,31,0.3769,1,8,120
723,31,51,280,4.9934,1,12,476
724,4,6,14,0.0639,1,2,11
725,42,45,395,1.3361,1,5,222
726,19,27,79,0.735,1,6,133
727,31,48,118,3.7504,1,16,563
728,48,52,165,3.7934,1,9,443
729,53,55,253,1.5422,1,4,222
730,9,17,51,0.1239,1,4,47
731,2,3,3,0.0327,1,2,5
732,3,6,9,0.0351,1,2,10
733,3,3,8,0.0892,1,4,17
734,46,118,1122,4.3314,1,12,710
735,224,362,757,239.7223,1,29,6628
736,21,21,44,1.1273,1,9,198
737,10,17,40,0.5763,1,5,63
738,9,10,34,0.2526,1,6,67
739,5,6,15,0.0852,1,4,26
740,25,61,123,3.645,1,11,470
741,177,256,7045,69.7555,1,15,2899
742,5,8,23,0.403,1,4,24
743,16,37,71,2.2808,1,9,167
744,12,13,28,0.1961,1,4,52
745,130,195,4295,11.4355,1,4,526
746,7,10,20,1.7984,1,6,52
747,13,22,37,2.4493,1,7,110
748,12,21,53,0.3118,1,5,67
749,17,30,129,0.191,1,3,61
750,6,9,25,0.51,1,4,32
751,16,17,71,0.4255,1,5,87
752,18,26,46,1.194,1,8,152
753,19,23,77,0.7614,1,5,102
754,16,25,77,1.9918,1,13,254
755,19,33,52,2.9435,1,10,202
756,7,15,35,0.2988,1,5,49
757,54,81,224,12.1938,1,14,823
758,29,39,114,10.0694,1,20,648
759,56,78,1167,22.8313,1,24,1484
760,81,118,2709,19.8245,1,22,1984
761,17,35,72,0.6935,1,5,101
762,508,923,3710,1208.5395,1,31,16217
763,51,87,627,6.8341,1,14,847
764,6,8,28,0.1417,1,4,30
765,87,101,612,12.4915,1,10,892
766,25,32,69,4.4838,1,15,401
767,18,18,79,0.4306,1,4,76
768,4,5,10,0.1618,1,5,27
769,9,12,24,0.4484,1,4,40
770,16,31,108,0.9375,1,6,124
771,11,14,39,0.2171,1,3,36
772,22,56,251,2.4311,1,14,467
773,13,22,57,0.279,1,5,72
774,20,30,88,4.1305,1,15,318
775,2,2,6,0.1057,1,2,6
776,55,74,227,6.5451,1,11,626
777,13,16,43,0.7176,1,7,100
778,14,26,63,0.5467,1,5,79
779,12,22,107,0.3576,1,4,61
780,22,25,105,0.6678,1,6,153
781,35,50,350,7.6007,1,13,494
782,39,70,440,9.7042,1,21,871
783,29,37,96,2.2602,1,19,571
784,13,30,77,0.3746,1,6,98
785,8,19,38,0.1267,1,4,42
786,53,149,462,5.2685,1,8,492
787,53,149,462,3.129,1,8,492
788,23,31,131,3.4926,1,15,379
789,18,23,140,0.3505,1,7,138
790,6,7,17,0.2798,1,5,35
791,15,18,37,0.4902,1,8,128
792,11,18,65,0.9339,1,9,126
793,12,18,47,0.9122,1,9,121
794,6,8,16,0.1661,1,3,21
795,11,12,25,0.2297,1,7,90
796,28,55,243,2.3565,1,9,267
797,33,57,399,11.7423,1,12,474
798,9,17,50,0.2909,1,3,35
799,288,465,2609,271.7953,1,31,9134
800,546,2608,174629,421.7851,1,24,23555
801,5,8,15,0.116,1,3,21
802,25,32,167,2.9092,1,16,419
803,46,72,1058,4.2844,1,11,566
804,7,8,18,0.1772,1,7,58
805,6,7,15,0.8072,1,5,35
806,72,120,228,19.1349,1,22,1662
807,1501,1500,1127253,526.9599,1,1,1502
808,38,50,320,1.8619,1,4,167
809,11,10,24,0.6339,1,5,60
810,22,28,69,3.8419,1,21,499
811,15,22,96,0.1539,1,3,56
812,9,11,20,1.4064,1,7,70
813,42,47,410,3.761,1,11,478
814,10,18,91,0.0848,1,3,38
815,13,23,105,0.1496,1,3,47
816,19,19,41,0.5798,1,5,100
817,6,8,16,0.3813,1,5,35
818,10,11,23,0.2719,1,4,44
819,9,8,19,0.1709,1,3,30
820,9,8,19,0.1188,1,2,20
821,18,17,37,0.2802,1,3,57
822,10,19,95,0.3059,1,5,78
823,2,2,6,0.1109,1,2,6
824,1,1,3,0.0643,1,2,4
825,29,41,65,4.7029,1,12,364
826,8,11,25,0.2972,1,8,80
827,8,8,17,0.3501,1,4,37
828,3,5,7,0.0588,1,2,8
829,4,7,14,0.1144,1,4,22
830,4,7,15,0.0406,1,2,12
831,74,99,677,27.8859,1,25,1916
832,14,14,30,0.7275,1,6,91
833,22,32,80,4.423,1,18,458
834,307,306,9296,177.0314,1,12,3772
835,19,19,39,1.1431,1,7,141
836,15,14,31,0.5242,1,5,80
837,41,42,152,2.1004,1,8,338
838,53,55,238,3.223,1,8,447
839,26,26,74,0.5988,1,4,111
840,32,32,91,1.0156,1,6,199
841,17,16,35,0.3497,1,4,72
842,134,141,1055,40.323,1,12,1628
843,8,11,27,0.3078,1,5,48
844,63,68,702,5.7217,1,6,394
845,8,9,24,0.2723,1,5,47
846,18,23,80,0.8088,1,7,144
847,74,116,443,15.1414,1,18,1562
848,56,79,183,30.5551,1,26,1578
849,38,41,460,4.1408,1,10,403
850,2,3,6,0.0469,1,2,7
851,2,3,6,0.0513,1,2,7
852,385,1323,3177,1026.815,1,49,19600
853,3,5,11,0.1018,1,3,12
854,577,1105,36051,1525.1251,1,37,21660
855,25,279,305,0.5948,1,3,309
856,39,40,171,1.8935,1,8,324
857,55,78,164,11.6953,1,25,1443
858,19,35,188,0.36,1,6,142
859,13,13,28,0.5581,1,6,84
860,35,60,167,4.0437,1,10,436
861,12,20,54,0.4251,1,4,53
862,30,45,103,1.4585,1,5,158
863,17,21,46,2.6036,1,11,209
864,5,9,24,0.0718,1,3,22
865,81,96,340,11.0957,1,13,1074
866,11,13,30,0.4061,1,8,99
867,13,19,52,1.3065,1,11,169
868,9,26,35,0.6181,1,5,66
869,46,59,148,4.0812,1,12,575
870,178,267,6659,94.283,1,18,3804
871,28,55,258,1.963,1,12,472
872,21,38,74,7.4874,1,25,550
873,46,65,402,4.0097,1,12,629
874,37,45,430,1.2201,1,4,166
875,28,30,325,1.4597,1,7,204
876,9,11,23,0.4503,1,6,65
877,2,2,6,0.1089,1,2,6
878,13,20,44,0.6856,1,7,100
879,4,4,10,0.0651,1,2,10
880,842,4387,39378,3855.6083,1,36,35224
881,5,7,18,0.1164,1,4,24
882,2,2,5,0.0576,1,2,7
883,6,9,33,0.069,1,2,17
884,39,66,396,1.3744,1,6,258
885,10,14,26,0.9872,1,11,125
886,10,30,49,1.6125,1,8,96
887,45,51,193,11.4229,1,23,1066
888,22,26,71,3.478,1,16,370
889,19,30,87,3.3438,1,12,247
890,8,11,38,0.3915,1,5,53
891,34,50,195,5.22,1,17,690
892,5,8,19,0.0856,1,3,20
893,75,99,1939,33.6432,1,41,3125
894,36,66,450,1.8256,1,8,334
895,4,6,15,0.1128,1,3,18
896,9,10,28,0.101,1,3,30
897,12,15,38,0.2001,1,4,55
898,6,7,18,0.1298,1,3,22
899,11,21,68,0.2526,1,5,90
900,16,32,157,0.5202,1,9,205
901,13,23,117,0.3426,1,7,124
902,12,22,56,0.2005,1,5,67
903,64,140,461,8.1486,1,15,1036
904,14,13,31,0.2332,1,3,45
905,10,26,68,0.4294,1,3,45
906,17,21,39,0.4669,1,8,148
907,25,31,79,0.9521,1,7,184
908,18,22,41,0.7464,1,6,114
909,7,16,46,0.1614,1,3,37
910,55,71,121,15.8882,1,29,1633
911,17,19,39,1.5086,1,10,180
912,33,43,80,1.9658,1,10,344
913,10,21,48,0.3943,1,6,66
914,65,98,224,18.1031,1,27,1822
915,76,106,521,7.4728,1,10,777
916,2,2,6,0.058,1,2,6
917,3,4,9,0.1535,1,3,13
918,201,4009,5170,302.2711,1,20,55103
919,72,132,2748,2.3463,1,3,256
920,22,36,66,1.4719,1,7,168
921,52,79,451,9.9415,1,23,1336
922,30,40,91,6.0102,1,22,684
923,2,3,3,0.0469,1,2,5
924,11,14,45,1.1463,1,9,109
925,27,41,111,6.8775,1,6,177
926,15,16,33,0.24,1,4,65
927,17,17,41,0.2364,1,3,55
928,5,7,18,0.0836,1,4,24
929,1,1,3,0.0734,1,2,4
930,11,21,73,0.3718,1,4,48
931,8,15,45,0.1926,1,3,27
932,11,33,63,1.0894,1,7,93
933,10,12,31,0.3315,1,7,80
934,6,8,16,0.5048,1,5,36
935,20,35,61,2.7071,1,14,365
936,7,8,16,0.1669,1,7,57
937,12,44,71,0.2064,1,5,82
938,10,26,58,0.326,1,4,53
939,9,11,35,0.1748,1,6,61
940,26,51,232,1.2852,1,8,236
941,48,56,601,2.1525,1,8,415
942,11,14,58,1.104,1,7,90
943,19,28,121,1.0831,1,10,217
944,30,50,141,3.0726,1,10,312
945,5,10,14,0.1353,1,4,28
946,20,54,88,8.4154,1,16,381
947,36,166,180,33.925,1,22,884
948,36,131,171,14.3108,1,22,827
949,20,71,90,1.3247,1,14,341
950,10,9,22,0.144,1,3,33
951,12,13,27,0.6347,1,6,78
952,10,12,36,0.369,1,6,67
953,6,7,16,0.6513,1,6,42
954,20,29,116,3.1022,1,17,405
955,52,75,195,7.4814,1,17,989
956,59,96,946,2.6487,1,6,384
957,28,61,223,1.4009,1,8,271
958,17,18,38,0.4038,1,5,90
959,21,33,122,4.1017,1,12,292
960,28,35,169,2.8326,1,10,317
961,37,66,234,2.1,1,7,275
962,19,22,60,0.8925,1,9,187
963,6,7,15,0.0702,1,3,23
964,11,16,26,0.84,1,11,136
965,36,59,100,5.1209,1,14,521
966,19,37,114,0.9805,1,6,132
967,5,6,15,0.0963,1,4,25
968,13,21,62,0.9371,1,9,154
969,4,5,14,0.06,1,3,15
970,10,11,21,0.7235,1,8,101
971,36,51,146,1.4214,1,9,365
972,1,1,3,0.1101,1,2,4
973,26,31,60,1.0306,1,11,297
974,6,16,29,0.1543,1,4,35
975,12,25,62,0.2415,1,6,81
976,24,36,62,1.2694,1,8,200
977,13,33,123,0.6288,1,8,135
978,71,125,250,8.7651,1,12,984
979,28,39,143,2.4351,1,15,521
980,13,17,63,0.9686,1,12,170
981,14,28,43,0.8822,1,9,146
982,14,26,60,0.4673,1,7,117
983,10,11,23,0.7085,1,8,88
984,13,15,43,1.8233,1,13,184
985,70,129,2382,4.0654,1,6,464
986,11,22,59,0.3544,1,7,85
987,37,42,261,0.9742,1,4,160
988,34,34,73,0.6552,1,4,141
989,15,34,122,1.9918,1,9,220
990,35,58,628,0.7571,1,6,239
991,547,1106,136208,610.5096,1,16,10370
992,47,46,877,41.5999,1,45,2160
993,23,47,166,1.8383,1,7,173
994,4,6,17,0.1002,1,4,20
995,21,28,64,0.6075,1,7,169
996,17,19,53,0.6225,1,6,111
997,208,554,10409,130.7727,1,21,5445
998,7,11,30,0.0959,1,4,37
999,9,13,33,0.5936,1,5,50
1000,8,31,47,0.701,1,5,54
1001,28,44,101,0.4409,1,3,97
1002,19,23,52,0.9489,1,10,200
1003,21,42,65,2.0404,1,10,248
1004,14,19,34,0.9568,1,5,75
1005,18,22,62,4.0946,1,12,230
1006,11,14,49,1.1317,1,5,62
1007,306,586,5067,470.3902,1,36,11481
1008,6,11,19,0.2222,1,4,30
1009,13,24,81,4.7301,1,13,200
1010,150,185,385,52.1067,1,10,1520
1011,10,10,22,0.4022,1,7,77
1012,127,250,4041,13.2975,1,4,635
1013,6,8,16,0.4626,1,6,43
1014,21,46,141,0.4428,1,5,140
1015,23,62,84,4.2702,1,9,223
1016,15,15,32,0.459,1,5,80
1017,23,25,66,0.54,1,4,98
1018,11,11,24,0.5617,1,6,72
1019,38,47,257,3.8037,1,9,377
1020,15,15,32,0.5147,1,6,97
1021,22,25,69,0.5305,1,5,126
1022,14,14,30,0.688,1,5,75
1023,13,13,31,0.5577,1,4,56
1024,12,12,26,0.8557,1,5,65
1025,13,15,30,0.4602,1,5,72
1026,15,16,32,0.5435,1,6,96
1027,14,15,30,0.8719,1,6,90
1028,15,19,36,2.1213,1,10,160
1029,15,18,34,1.3602,1,7,113
1030,17,21,65,1.0113,1,9,169
1031,6,5,13,0.2751,1,3,21
1032,8,8,18,0.3146,1,5,45
1033,35,52,446,3.7752,1,9,390
1034,60,86,429,4.8829,1,8,496
1035,28,41,122,16.2999,1,16,497
1036,35,68,151,9.2372,1,20,728
1037,8,11,29,4.3989,1,3,29
1038,87,137,341,55.8709,1,27,2389
1039,22,36,160,8.8224,1,6,185
1040,89,94,373,12.3012,1,13,1173
1041,15,18,62,0.5293,1,3,51
1042,47,114,1000,1.1739,1,4,267
1043,5,7,18,0.1744,1,4,26
1044,5,8,21,0.1973,1,4,23
1045,5,8,21,0.0651,1,4,23
1046,5,8,21,0.1346,1,4,23
1047,8,14,25,0.4657,1,6,57
1048,42,55,273,3.7243,1,13,567
1049,17,25,69,2.7193,1,20,365
1050,8,12,21,0.5115,1,5,46
1051,15,28,67,1.4044,1,11,233
1052,12,11,25,0.1811,1,4,52
1053,51,90,1123,5.4758,1,11,701
1054,11,11,77,0.176,1,4,48
1055,30,50,126,3.2408,1,20,789
1056,12,14,31,0.8289,1,8,106
1057,4,5,12,0.1772,1,6,33
1058,4,5,10,0.1484,1,5,26
1059,8,12,18,1.7388,1,12,109
1060,61,65,264,2.8267,1,6,379
1061,45,48,154,2.6688,1,9,417
1062,3,5,7,0.0564,1,2,8
1063,25,40,111,3.0181,1,17,474
1064,10,19,45,1.5659,1,9,107
1065,46,106,233,6.2388,1,13,646
1066,36,51,122,1.3977,1,8,328
1067,17,17,85,0.4306,1,8,148
1068,14,29,52,1.4182,1,6,103
1069,3,4,8,0.1882,1,4,16
1070,65,70,871,2.4394,1,5,339
1071,52,57,558,2.2271,1,5,274
1072,50,55,495,1.6136,1,5,264
1073,1,1,1,0.041,1,1,1
1074,56,61,682,2.1158,1,5,294
1075,56,61,682,1.8856,1,5,294
1076,56,61,682,1.9101,1,5,294
1077,56,61,682,3.3039,1,5,294
1078,56,61,682,1.886,1,5,294
1079,12,15,35,0.1365,1,3,39
1080,28,35,112,5.3735,1,18,524
1081,64,116,743,15.2621,1,24,1856
1082,13,31,74,0.8147,1,6,100
1083,2,3,3,0.0572,1,2,5
1084,8,9,24,0.7168,1,8,73
1085,44,57,195,10.5426,1,16,730
1086,6,11,19,0.7338,1,5,38
1087,4,7,15,0.9071,1,6,37
1088,52,72,351,6.0324,1,13,695
1089,48,62,397,3.2696,1,13,643
1090,2,2,6,0.135,1,2,6
1091,28,33,147,4.772,1,17,496
1092,10,17,44,0.3213,1,5,55
1093,19,21,71,2.2736,1,13,261
1094,5,4,11,0.0975,1,3,18
1095,11,10,23,0.5407,1,6,72
1096,6,5,13,0.4294,1,6,42
1097,6,5,13,0.0726,1,2,14
1098,7,7,16,0.3134,1,5,40
1099,5,4,11,0.0738,1,3,18
1100,6,5,13,0.0675,1,2,14
1101,6,5,13,0.0757,1,2,14
1102,5,4,11,0.0678,1,2,12
1103,9,8,19,0.2569,1,5,50
1104,9,8,19,0.0923,1,3,30
1105,7,6,15,0.3193,1,5,40
1106,7,7,15,0.3027,1,4,33
1107,7,6,15,0.0836,1,2,16
1108,5,4,11,0.1061,1,3,18
1109,5,5,12,0.1653,1,4,25
1110,8,8,18,0.3892,1,5,46
1111,13,15,49,0.204,1,4,59
1112,6,5,13,0.0943,1,2,14
1113,4,5,14,0.1594,1,3,15
1114,6,5,23,0.0978,1,4,29
1115,26,27,79,0.4077,1,4,110
1116,8,9,19,0.2877,1,4,38
1117,5,4,11,0.0825,1,3,18
1118,5,4,11,0.1152,1,3,18
1119,2,2,6,0.2001,1,3,9
1120,2,3,3,0.0315,1,2,5
1121,3,4,11,0.0513,1,3,13
1122,14,25,42,0.6248,1,6,93
1123,14,25,42,0.6825,1,6,93
1124,35,49,78,4.2777,1,13,470
1125,39,51,84,8.6017,1,11,441
1126,36,51,137,1.5122,1,9,365
1127,21,191,253,0.281,1,2,215
1128,4,6,14,0.2952,1,4,21
1129,18,17,37,0.3781,1,4,76
1130,64,561,3075,1.644,1,4,788
1131,44,58,418,1.1561,1,5,259
1132,32,45,159,3.7705,1,16,539
1133,31,39,162,4.9141,1,15,485
1134,11,10,78,0.1081,1,2,24
1135,31,30,206,1.3938,1,9,296
1136,31,30,206,1.3788,1,9,294
1137,34,40,164,1.9725,1,11,390
1138,34,41,202,3.1192,1,10,359
1139,13,12,54,1.8339,1,7,100
1140,40,47,81,2.3111,1,4,172
1141,8,8,18,0.2111,1,4,36
1142,17,21,79,0.2526,1,3,58
1143,3,3,10,0.2001,1,3,12
1144,38,40,96,3.2881,1,12,469
1145,4,4,9,0.0943,1,3,15
1146,28,39,93,1.3065,1,6,175
1147,28,39,93,0.7385,1,6,175
1148,22,28,181,0.7642,1,6,139
1149,60,65,437,2.9419,1,5,316
1150,155,413,8317,54.4601,1,14,2187
1151,151,150,11478,8.6787,1,2,304
1152,14,21,60,3.1618,1,13,217
1153,11,18,48,1.0729,1,10,139
1154,8,8,18,0.4267,1,5,45
1155,26,44,92,12.3261,1,24,666
1156,95,115,361,22.0611,1,15,1444
1157,30,29,61,0.8609,1,3,93
1158,28,45,196,27.4284,1,23,667
1159,24,39,140,1.9519,1,8,205
1160,3,4,9,0.0702,1,3,13
1161,9,12,23,0.8932,1,10,102
1162,42,61,125,4.4684,1,12,543
1163,23,51,178,2.3419,1,10,260
1164,126,220,6058,132.255,1,27,4140
1165,68,88,268,15.33,1,16,1137
1166,53,92,206,51.4104,1,34,1859
1167,12,26,67,0.4077,1,4,64
1168,15,19,36,18.9636,1,7,112
1169,4,6,13,0.3742,1,4,21
1170,13,12,27,0.2538,1,4,56
1171,3,5,9,0.1026,1,3,13
1172,107,152,1648,40.6068,1,21,2378
1173,11,23,59,0.4902,1,4,56
1174,6,8,21,0.3359,1,5,38
1175,67,94,872,14.117,1,15,1064
1176,14,25,58,0.8475,1,7,107
1177,2,3,3,0.0521,1,2,5
1178,8,9,24,0.1634,1,3,29
1179,10,12,32,0.2384,1,4,45
1180,14,23,60,0.6225,1,5,76
1181,40,52,109,2.7698,1,12,504
1182,9,22,40,0.1401,1,4,51
1183,8,8,18,0.1882,1,6,54
1184,25,34,66,2.4821,1,11,299
1185,34,46,86,4.2671,1,11,403
1186,1,1,3,0.1385,1,2,4
1187,39,82,225,10.6334,1,12,510
1188,11,29,52,0.911,1,5,75
1189,43,58,228,18.5776,1,27,1277
1190,33,45,174,13.2478,1,22,820
1191,23,32,124,5.3621,1,14,384
1192,27,33,170,5.8176,1,15,427
1193,257,508,65033,8.8749,1,2,767
1194,11,29,59,2.0881,1,5,78
1195,42,66,267,4.6251,1,13,595
1196,57,76,213,5.156,1,13,771
1197,2,2,6,0.058,1,2,6
1198,3,5,9,0.0825,1,3,13
1199,13,18,42,0.9501,1,8,118
1200,9,10,20,0.358,1,9,91
1201,13,12,28,0.2723,1,5,70
1202,518,6026,58611,280.5845,1,6,8618
1203,36,40,79,13.322,1,20,741
1204,13,22,50,1.2509,1,6,86
1205,53,88,600,10.7574,1,14,859
1206,14,26,57,0.5206,1,6,94
1207,13,14,71,1.1167,1,7,98
1208,3,4,9,0.0714,1,3,13
1209,13,28,111,0.234,1,3,59
1210,22,26,76,0.7756,1,4,93
1211,32,40,116,4.0697,1,7,234
1212,9,9,26,1.035,1,5,50
1213,10,10,22,0.7215,1,7,78
1214,5,5,15,0.118,1,4,25
1215,33,44,115,2.6747,1,11,386
1216,21,40,84,1.0188,1,9,211
1217,4,4,9,0.1275,1,5,25
1218,18,33,92,1.0247,1,7,149
1219,29,40,83,3.0592,1,11,337
1220,366,1301,3116,701.9458,1,47,17927
1221,15,19,81,1.5975,1,10,162
1222,21,31,95,0.8415,1,7,174
1223,57,76,1020,2.0668,1,6,382
1224,10,13,30,0.21,1,7,87
1225,54,89,234,6.4153,1,13,742
1226,27,32,198,0.6556,1,6,168
1227,9,8,19,0.0817,1,2,20
1228,95,136,1600,40.9265,1,33,3625
1229,10,14,60,0.3442,1,7,87
1230,14,18,73,0.4377,1,6,92
1231,4,5,11,0.1144,1,3,16
1232,16,28,165,0.5936,1,9,200
1233,256,255,32898,22.4575,1,3,771
1234,6,9,34,0.225,1,4,34
1235,8,8,17,0.1476,1,5,45
1236,17,26,45,1.8181,1,10,180
1237,28,43,204,0.9568,1,6,189
1238,57,81,208,7.3883,1,16,967
1239,5,8,19,0.4121,1,5,33
1240,41,50,468,0.6848,1,3,133
1241,13,19,36,0.1835,1,4,58
1242,20,26,50,1.3669,1,10,213
1243,3,6,7,0.0868,1,2,8
1244,15,14,31,0.3138,1,4,64
1245,17,16,35,0.2972,1,3,54
1246,16,15,33,0.3193,1,4,68
1247,17,16,35,0.3276,1,4,72
1248,17,16,41,0.3252,1,3,54
1249,11,10,28,0.1934,1,3,36
1250,19,24,133,2.7426,1,13,286
1251,18,23,116,1.8402,1,11,231
1252,28,35,217,3.9789,1,17,540
1253,15,17,69,1.8746,1,11,186
1254,9,15,35,0.9604,1,6,60
1255,13,50,90,2.2334,1,7,110
1256,5,11,24,0.1275,1,3,27
1257,14,19,32,0.9343,1,6,97
1258,11,20,42,0.5597,1,7,88
1259,18,31,108,1.9496,1,12,272
1260,61,72,305,8.9747,1,12,803
1261,26,36,94,8.9254,1,20,540
1262,37,69,500,1.2702,1,6,249
1263,27,36,91,1.0946,1,8,228
1264,15,20,37,0.8332,1,8,137
1265,11,11,29,0.1286,1,3,36
1266,15,19,36,0.4646,1,6,104
1267,5,8,19,0.5115,1,4,29
1268,14,15,66,0.7503,1,9,137
1269,16,19,36,0.4685,1,5,91
1270,11,11,29,0.1859,1,3,36
1271,11,11,29,0.148,1,3,36
1272,235,427,11502,135.9264,1,16,4921
1273,3,4,9,0.1756,1,3,13
1274,30,45,239,1.9594,1,8,256
1275,30,47,92,20.7767,1,15,470
1276,13,15,31,1.0942,1,11,155
1277,16,20,38,2.1979,1,9,153
1278,3,3,10,0.1326,1,2,8
1279,5,4,12,0.0532,1,2,12
1280,40,72,753,4.376,1,8,336
1281,23,26,91,6.0616,1,16,384
1282,33,32,473,0.6378,1,2,68
1283,4,6,14,0.1338,1,5,26
1284,8,8,18,0.3347,1,5,45
1285,22,30,135,3.5044,1,11,271
1286,2,2,6,0.0493,1,2,6
1287,24,25,335,0.7073,1,4,100
1288,19,27,111,0.5518,1,8,172
1289,22,25,73,0.4736,1,4,93
1290,1,1,3,0.0442,1,2,4
1291,48,60,132,18.6076,1,25,1228
1292,31,33,94,5.7217,1,18,577
1293,20,25,152,0.6631,1,4,92
1294,34,36,147,1.3452,1,5,178
1295,3,5,9,0.2285,1,3,14
1296,3,3,10,0.1397,1,3,12
1297,65,122,1333,24.0921,1,6,416
1298,18,18,50,0.3781,1,3,58
1299,27,29,115,0.4586,1,4,115
1300,6,8,18,0.8605,1,6,48
1301,10,13,31,2.3301,1,10,117
1302,9,14,37,1.3026,1,6,61
1303,13,12,27,0.4456,1,5,70
1304,6,8,19,0.1148,1,3,22
1305,23,50,162,4.3962,1,7,183
1306,6,10,21,0.3777,1,5,42
1307,16,26,64,1.2663,1,7,120
1308,20,30,87,1.5225,1,6,130
1309,37,69,483,1.7317,1,6,249
1310,18,19,94,0.1969,1,3,58
1311,57,83,242,7.1589,1,13,794
1312,6,12,16,0.2727,1,5,41
1313,16,32,66,3.9327,1,13,242
1314,13,14,28,0.3019,1,7,99
1315,18,22,111,0.5842,1,7,137
1316,37,36,90,0.6078,1,3,115
1317,16,19,37,0.5096,1,4,68
1318,104,148,1384,15.1516,1,13,1567
1319,18,111,266,2.1509,1,13,325
1320,4,3,12,0.0722,1,3,15
1321,11,10,28,0.1389,1,3,36
1322,50,63,130,6.3091,1,18,938
1323,1,1,3,0.0422,1,2,4
1324,11,21,23,0.1192,1,3,46
1325,3,4,9,0.0276,1,1,4
1326,8,16,57,0.0596,1,4,40
1327,21,22,59,0.4642,1,4,89
1328,40,60,129,1.2209,1,3,123
1329,16,17,35,0.2632,1,4,68
1330,15,22,39,1.1767,1,12,208
1331,6,16,30,0.2439,1,4,30
1332,2,2,6,0.045,1,2,6
1333,6,10,24,0.1235,1,4,30
1334,2,2,6,0.2076,1,3,9
1335,10,17,59,0.7168,1,6,72
1336,39,40,117,1.033,1,5,201
1337,110,163,435,36.0294,1,23,2566
1338,22,28,181,0.6078,1,6,139
1339,16,56,100,1.3594,1,7,131
1340,21,36,92,1.8501,1,13,292
1341,9,9,30,0.3035,1,4,40
1342,7,12,36,0.0896,1,3,31
1343,15,32,73,0.9959,1,7,116
1344,14,17,66,0.2368,1,3,46
1345,8,11,31,1.0136,1,9,84
1346,44,59,173,3.5483,1,13,589
1347,12,15,43,0.6169,1,7,96
1348,30,45,118,2.4833,1,9,282
1349,3,4,8,0.058,1,2,9
1350,39,42,317,0.6564,1,3,125
1351,21,38,107,0.4736,1,6,155
1352,194,282,8359,100.6932,1,25,5527
1353,31,60,377,0.8652,1,5,191
1354,26,30,72,1.2363,1,6,162
1355,96,110,454,9.319,1,5,492
1356,5,5,11,0.2107,1,4,25
1357,66,121,1729,2.156,1,4,324
1358,3,5,9,0.2451,1,3,14
1359,35,48,109,2.6135,1,13,476
1360,18,22,59,2.486,1,14,267
1361,12,11,25,0.1251,1,3,39
1362,12,11,25,0.236,1,4,52
1363,19,27,51,0.5948,1,6,122
1364,19,29,54,0.8131,1,6,123
1365,21,22,64,0.2747,1,3,68
1366,9,11,29,0.3793,1,9,90
1367,19,27,45,0.429,1,5,102
1368,11,11,25,0.6825,1,7,84
1369,19,25,85,3.1298,1,14,281
1370,13,13,32,0.135,1,3,43
1371,7,8,22,0.669,1,6,49
1372,19,31,51,2.505,1,9,186
1373,65,90,163,29.8395,1,30,2025
1374,32,44,79,3.3165,1,14,493
1375,5,9,20,0.0493,1,2,16
1376,10,15,31,0.2388,1,4,49
1377,6,8,23,0.1847,1,3,21
1378,26,27,133,6.5739,1,14,379
1379,19,21,46,0.3572,1,5,101
1380,5,9,22,0.1306,1,4,24
1381,15,20,37,0.7977,1,6,97
1382,25,55,274,0.7346,1,8,229
1383,5,9,20,0.0655,1,3,22
1384,4,6,10,0.1038,1,3,18
1385,18,28,98,0.6517,1,11,229
1386,6,11,20,0.234,1,5,44
1387,5,9,22,0.1089,1,4,24
1388,12,13,27,0.735,1,11,147
1389,5,8,20,0.429,1,4,26
1390,5,8,20,0.444,1,5,34
1391,4,5,12,0.0963,1,5,25
1392,10,12,25,0.2944,1,9,102
1393,7,8,16,0.1989,1,8,67
1394,19,31,111,0.4503,1,7,169
1395,16,22,83,1.2213,1,10,174
1396,4,5,14,0.1369,1,3,15
1397,19,27,51,0.3347,1,5,106
1398,13,17,39,0.4073,1,8,118
1399,5,6,12,0.1638,1,5,33
1400,5,7,18,0.1693,1,4,24
1401,7,11,30,0.0884,1,4,37
1402,21,34,127,0.9643,1,8,211
1403,14,15,45,0.1764,1,3,46
1404,104,148,1384,29.6895,1,13,1567
1405,68,88,211,6.8917,1,13,907
1406,7,8,22,0.0757,1,3,25
1407,9,14,43,0.2775,1,5,57
1408,5,5,11,0.1006,1,3,18
1409,12,12,25,0.2127,1,3,39
1410,13,30,104,1.3942,1,8,158
1411,8,8,18,0.3007,1,5,45
1412,33,32,67,0.4109,1,2,68
1413,67,132,1609,17.9014,1,15,1423
1414,67,132,1609,6.1543,1,15,1423
1415,23,33,163,2.2551,1,20,518
1416,39,50,99,4.862,1,13,526
1417,6,5,13,0.0836,1,2,14
1418,7,8,18,0.161,1,7,58
1419,16,24,86,0.6971,1,8,163
1420,19,20,43,0.8735,1,7,140
1421,41,75,171,14.6807,1,17,723
1422,41,57,110,12.1477,1,23,1069
1423,59,104,931,6.8629,1,8,518
1424,59,104,931,2.9881,1,8,518
1425,22,26,60,1.228,1,8,187
1426,2,3,3,0.1752,1,2,5
1427,2,3,3,0.2478,1,2,5
1428,2,3,3,0.086,1,2,5
1429,2,3,3,0.0461,1,2,5
1430,2,3,3,0.0548,1,2,5
1431,2,3,3,0.0434,1,2,5
1432,2,3,3,0.0355,1,2,5
1433,2,3,3,0.0584,1,2,5
1434,2,3,3,0.0536,1,2,5
1435,39,43,85,1.6054,1,6,240
1436,44,77,1162,1.4289,1,5,264
1437,2,2,6,0.1042,1,2,6
1438,14,23,59,1.0014,1,6,92
1439,58,95,295,5.7872,1,13,880
1440,58,91,267,6.4887,1,13,844
1441,22,35,132,0.7531,1,7,223
1442,20,33,55,1.6373,1,9,192
1443,15,21,38,0.3311,1,5,81
1444,13,18,33,0.808,1,6,85
1445,20,32,53,2.1229,1,10,212
1446,13,18,34,0.3832,1,4,57
1447,12,18,44,5.2496,1,10,142
1448,15,21,51,0.939,1,10,171
1449,11,24,87,0.4496,1,4,48
1450,2,3,3,0.1243,1,2,5
1451,89,107,375,19.099,1,12,1140
1452,7,7,36,0.0892,1,2,16
1453,19,32,99,1.0918,1,13,282
1454,28,57,142,5.6838,1,15,441
1455,7,7,15,0.476,1,6,49
1456,223,1964,39527,21.5985,1,4,2617
1457,19,25,48,2.0258,1,9,190
1458,14,13,29,0.2167,1,3,45
1459,20,20,42,0.6363,1,5,105
1460,10,9,21,0.1803,1,3,33
1461,19,18,39,0.3978,1,5,100
1462,5,8,21,0.1136,1,3,21
1463,7,12,25,0.401,1,4,32
1464,2,3,3,0.103,1,2,5
1465,7,18,43,0.054,1,2,25
1466,63,66,314,30.1853,1,27,1757
1467,10,13,56,1.0906,1,8,98
1468,10,13,59,0.3919,1,7,86
1469,10,13,62,0.255,1,6,74
1470,10,13,63,0.165,1,5,62
1471,41,44,205,8.8472,1,17,733
1472,70,100,646,23.1688,1,22,1581
1473,71,129,863,7.8142,1,10,733
1474,5,6,17,0.2636,1,4,24
1475,10,11,42,0.1602,1,3,34
1476,33,54,219,3.4058,1,11,423
1477,27,32,160,0.7452,1,6,175
1478,23,24,139,0.4677,1,5,124
1479,7,12,29,0.135,1,4,38
1480,33,50,270,5.7304,1,15,514
1481,257,415,3147,139.6133,1,11,3652
1482,264,7965,23998,86.8319,1,6,9163
1483,20,24,55,1.3405,1,7,147
1484,13,23,54,0.3552,1,5,72
1485,11,12,27,0.5909,1,6,72
1486,2,2,6,0.084,1,2,6
1487,264,7965,23998,86.4182,1,5,8898
1488,21,38,107,0.825,1,6,155
1489,26,63,314,0.4152,1,4,122
1490,22,36,101,0.5388,1,5,124
1491,11,14,26,0.8794,1,8,96
1492,5,7,19,0.3252,1,4,27
1493,73,100,248,7.2454,1,9,675
1494,24,31,63,1.65,1,9,225
1495,26,52,121,1.5568,1,10,296
1496,32,40,221,2.2326,1,8,269
1497,52,70,180,2.8093,1,7,377
1498,17,26,45,2.1209,1,7,126
1499,22,30,49,7.1313,1,15,353
1500,14,13,29,0.3035,1,5,75
1501,2,2,6,0.0998,1,3,9
1502,1,1,3,0.1503,1,2,4
1503,10,16,28,0.5494,1,4,45
1504,65,122,924,9.673,1,9,644
1505,34,56,170,3.5471,1,9,343
1506,61,93,654,5.1043,1,12,880
1507,26,28,163,0.609,1,3,83
1508,11,19,40,0.371,1,4,56
1509,8,13,30,0.6142,1,6,54
1510,7,14,36,0.1136,1,3,28
1511,5,6,15,0.4192,1,5,34
1512,8,8,18,0.2277,1,4,36
1513,8,21,39,3.0698,1,8,74
1514,2,3,6,0.0757,1,3,10
1515,17,26,57,4.0421,1,10,180
1516,294,377,10305,321.1957,1,26,8428
1517,385,498,17959,653.5243,1,31,13189
1518,329,424,13061,473.7443,1,30,10894
1519,265,342,8669,171.513,1,25,7327
1520,423,545,21251,556.5006,1,31,14466
1521,4,6,14,0.1353,1,4,22
1522,13,24,157,0.0568,1,2,37
1523,2,3,3,0.0351,1,2,5
1524,2,3,3,0.0343,1,2,5
1525,20,25,81,6.3474,1,20,436
1526,5,5,18,0.0714,1,3,18
1527,10,12,30,0.9055,1,5,57
1528,19,26,81,0.6019,1,6,131
1529,6,8,16,0.0769,1,2,14
1530,14,17,47,0.5182,1,7,107
1531,28,60,202,3.8881,1,11,329
1532,2,2,6,0.1188,1,2,6
1533,53,54,131,2.5851,1,4,218
1534,10,9,22,0.6639,1,6,66
1535,8,8,18,0.3205,1,5,45
1536,23,22,278,0.624,1,2,48
1537,88,105,1544,39.252,1,23,2050
1538,5,9,25,0.3339,1,3,19
1539,5,9,21,1.8619,1,5,34
1540,9,10,21,0.789,1,5,50
1541,8,7,17,0.5964,1,7,63
1542,8,7,17,0.4417,1,7,63
1543,18,17,37,0.8289,1,5,95
1544,194,245,957,212.3116,1,33,6467
1545,19,32,99,2.6585,1,15,326
1546,55,96,934,3.7567,1,9,531
1547,9,9,20,1.076,1,9,90
1548,2,2,6,0.1069,1,2,6
1549,20,35,56,1.8122,1,8,172
1550,12,13,27,0.1543,1,3,39
1551,8,7,38,0.0994,1,2,18
1552,97,132,641,18.9048,1,11,1107
1553,65,107,212,16.1116,1,20,1429
1554,3,3,9,0.071,1,3,12
1555,30,45,138,3.7141,1,12,383
1556,8,12,32,0.7444,1,7,77
1557,12,16,48,1.9669,1,10,152
1558,13,22,67,1.9894,1,9,164
1559,6,10,24,7.1305,1,5,45
1560,8,12,32,0.6039,1,7,77
1561,16,20,64,4.9721,1,14,268
1562,41,54,144,3.6541,1,12,513
1563,15,22,72,0.5557,1,5,84
1564,14,20,67,1.4652,1,9,154
1565,106,161,1554,76.6453,1,35,4142
1566,404,515,6684,578.2641,1,25,10208
1567,15,15,39,0.4539,1,3,49
1568,19,29,50,1.1905,1,8,162
1569,6,7,18,0.4152,1,5,36
1570,15,19,46,3.7058,1,14,224
1571,6,13,31,0.0659,1,3,25
1572,17,16,35,0.2822,1,3,54
1573,21,38,66,4.7266,1,25,550
1574,22,212,256,0.5313,1,2,407
1575,2,3,3,0.1622,1,2,5
1576,4,8,14,0.3619,1,4,21
1577,4,7,12,0.1326,1,4,22
1578,5,7,15,0.6651,1,5,30
1579,19,36,91,4.7633,1,16,333
1580,11,11,29,0.2305,1,3,36
1581,27,51,69,4.2091,1,11,311
1582,7,8,16,0.6284,1,7,57
1583,41,50,468,4.4909,1,3,133
1584,4,7,11,0.0896,1,3,16
1585,11,10,28,0.1701,1,3,36
1586,5,7,17,0.0852,1,3,20
1587,9,8,22,0.1152,1,2,20
1588,3,4,7,0.0836,1,3,12
1589,8,11,48,0.073,1,2,21
1590,5,12,22,1.0879,1,5,31
1591,3,5,6,0.0663,1,3,10
1592,56,109,1398,1.6488,1,5,307
1593,29,87,380,1.9156,1,12,536
1594,42,130,659,3.9643,1,13,776
1595,38,127,575,1.7846,1,12,686
1596,32,126,517,1.3827,1,12,629
1597,14,21,63,0.345,1,6,92
1598,13,16,79,0.3572,1,5,70
1599,5,12,19,0.1306,1,4,27
1600,31,48,245,5.1075,1,19,728
1601,2,1,5,0.1203,1,2,6
1602,3,3,7,0.3607,1,4,17
1603,3,3,10,0.0698,1,3,12
1604,21,23,56,1.0468,1,6,133
1605,83,98,375,10.337,1,12,1017
1606,10,13,25,0.1898,1,4,47
1607,2,2,6,0.1022,1,2,6
1608,9,12,43,0.1014,1,3,30
1609,57,76,232,5.036,1,13,771
1610,3,4,8,0.0817,1,3,12
1611,15,19,69,0.2463,1,4,67
1612,45,55,106,10.952,1,27,1242
1613,2,3,3,0.0536,1,2,5
1614,32,91,135,1.8773,1,7,264
1615,61,86,137,26.3918,1,41,2558
1616,4,4,12,0.0647,1,2,11
1617,29,71,101,5.7975,1,17,532
1618,15,14,31,0.418,1,6,96
1619,61,118,279,15.2164,1,25,1590
1620,2,2,6,0.1014,1,2,6
1621,134,258,7978,14.0195,1,5,920
1622,66,141,457,7.3034,1,16,1132
1623,3,4,11,0.1136,1,3,13
1624,11,12,28,0.1902,1,5,62
1625,13,28,44,1.6129,1,9,129
1626,44,61,174,10.6591,1,19,903
1627,3,4,10,0.2036,1,3,13
1628,42,46,182,11.569,1,25,1076
1629,7,7,19,0.3288,1,4,32
1630,20,34,131,0.2261,1,3,71
1631,17,26,129,0.189,1,3,57
1632,12,16,57,0.1835,1,3,40
1633,66,127,275,8.2958,1,16,1123
1634,10,9,21,0.1109,1,3,33
1635,104,148,1507,19.5759,1,13,1567
1636,8,7,17,0.1547,1,3,27
1637,3,6,7,0.1811,1,4,16
1638,22,26,63,1.0871,1,12,280
1639,5,8,15,0.0947,1,4,25
1640,8,8,18,0.1377,1,5,45
1641,9,12,26,0.2167,1,4,41
1642,4,5,10,0.0769,1,5,28
1643,14,16,32,1.0654,1,8,122
1644,38,66,146,3.7227,1,14,566
1645,7,9,19,0.2625,1,7,58
1646,15,21,38,0.461,1,3,48
1647,11,15,56,0.178,1,5,64
1648,16,21,55,3.0848,1,9,154
1649,17,121,171,0.148,1,1,123
1650,22,52,108,3.5041,1,15,351
1651,8,19,36,0.7476,1,6,60
1652,43,110,460,18.3577,1,25,1158
1653,21,20,233,0.1934,1,2,44
1654,14,29,55,0.9694,1,7,123
1655,11,18,37,0.7073,1,8,123
1656,32,46,252,2.0131,1,6,212
1657,50,161,484,2.9664,1,6,375
1658,48,62,624,13.8352,1,10,492
1659,3,5,7,0.0446,1,3,12
1660,32,38,101,1.213,1,7,235
1661,2,2,6,0.0631,1,3,9
1662,6,9,19,0.174,1,4,30
1663,11,20,42,0.2798,1,7,88
1664,7,9,19,0.2036,1,7,62
1665,14,13,29,0.3181,1,5,75
1666,3,4,11,0.0765,1,3,13
1667,5,12,23,0.4101,1,5,34
1668,76,125,287,18.8361,1,14,1188
1669,9,8,19,0.146,1,3,30
1670,27,38,103,1.976,1,11,320
1671,34,44,79,7.8983,1,24,844
1672,19,24,92,0.7065,1,5,103
1673,9,11,30,0.7456,1,10,106
1674,12,23,37,0.1886,1,4,64
1675,106,167,774,23.4293,1,13,1526
1676,31,41,71,1.5229,1,11,368
1677,256,255,32898,20.1399,1,2,514
1678,44,62,158,6.3126,1,14,639
1679,27,40,142,2.7114,1,11,338
1680,10,19,52,0.4002,1,5,75
1681,9,10,22,0.3027,1,4,40
1682,6,5,23,0.1231,1,2,14
1683,51,50,1328,1.2667,1,2,104
1684,14,15,31,0.3086,1,4,60
1685,8,9,28,0.1701,1,4,36
1686,7,10,20,0.2636,1,4,34
1687,5,6,21,0.4168,1,4,25
1688,15,14,31,0.3272,1,4,64
1689,16,22,40,0.7523,1,8,142
1690,11,18,82,0.8771,1,6,83
1691,94,134,281,53.8625,1,34,3306
1692,33,40,195,2.0123,1,8,279
1693,35,63,319,1.1534,1,6,236
1694,8,15,24,0.643,1,8,72
1695,85,184,2147,13.1227,1,9,838
1696,34,42,195,8.8859,1,16,564
1697,15,19,36,0.3473,1,5,80
1698,5,9,16,0.2577,1,4,25
1699,3,5,9,0.0892,1,4,18
1700,119,154,710,22.3678,1,12,1469
1701,10,25,52,0.3292,1,5,55
1702,23,38,110,0.506,1,5,130
1703,209,4446,10450,28.8732,1,4,4939
1704,14,13,54,0.538,1,4,60
1705,4,6,17,0.0805,1,3,15
1706,7,8,17,0.1097,1,5,43
1707,10,12,33,0.2589,1,6,67
1708,5,8,17,0.3481,1,6,37
1709,18,21,69,1.1877,1,10,192
1710,17,48,80,1.9421,1,9,182
1711,7,7,15,0.1582,1,7,56
1712,7,8,18,0.1555,1,7,58
1713,16,20,49,6.0347,1,18,315
1714,9,10,20,1.048,1,8,93
1715,20,30,142,0.9457,1,9,220
1716,3,4,11,0.0817,1,3,12
1717,3,5,11,0.101,1,4,17
1718,34,39,78,1.7194,1,10,351
1719,10,20,41,0.3911,1,5,63
1720,9,22,40,0.1531,1,4,51
1721,15,20,37,0.9947,1,8,137
1722,30,64,108,3.0663,1,16,519
1723,12,17,48,0.2498,1,7,102
1724,2,2,6,0.0769,1,2,6
1725,36,57,295,2.503,1,9,352
1726,27,43,70,1.5809,1,8,235
1727,15,20,40,0.42,1,8,138
1728,16,21,68,0.2123,1,4,70
1729,4,5,10,0.2269,1,5,27
1730,28,38,76,3.0264,1,14,422
1731,2,3,3,0.0532,1,2,5
1732,15,16,63,0.2494,1,5,81
1733,8,11,17,0.7247,1,10,91
1734,7,8,16,0.2293,1,7,57
1735,35,75,356,6.2889,1,14,605
1736,41,60,238,3.6718,1,11,474
1737,37,48,212,7.0385,1,15,577
1738,28,39,80,2.3443,1,13,380
1739,3,5,11,0.2289,1,4,19
1740,24,27,58,1.4198,1,11,275
1741,19,26,93,1.1364,1,9,192
1742,10,9,21,0.2786,1,4,44
1743,37,42,257,2.7426,1,6,239
1744,104,148,1510,31.7484,1,12,1449
1745,24,60,348,1.9965,1,9,254
1746,25,34,77,1.8868,1,6,156
1747,9,9,19,0.2068,1,7,70
1748,15,27,107,2.3577,1,11,182
1749,3189,8540,1666263,29881.1669,1,19,61713
1750,7,10,30,1.404,1,6,49
1751,6,10,26,1.2706,1,5,39
1752,13,41,60,3.3813,1,11,166
1753,12,13,27,1.1743,1,8,104
1754,11,11,24,1.0732,1,5,60
1755,16,15,61,0.3296,1,2,34
1756,39,39,81,1.8402,1,5,200
1757,29,43,105,4.0879,1,14,421
1758,6,9,19,0.3509,1,6,46
1759,7,9,24,0.2309,1,7,62
1760,8,9,21,0.1306,1,3,29
1761,8,8,18,0.3702,1,5,45
1762,8,9,20,1.016,1,5,45
1763,9,11,20,2.8417,1,6,62
1764,7,7,16,0.9375,1,5,40
1765,5,4,11,0.2455,1,3,18
1766,16,21,67,0.5707,1,4,70
1767,56,108,173,48.3823,1,35,2027
1768,5,8,16,0.1464,1,5,34
1769,35,44,100,2.2401,1,13,471
1770,23,33,196,0.6138,1,6,146
1771,13,22,57,0.3292,1,5,72
1772,48,59,221,2.2081,1,7,355
1773,12,15,68,0.6142,1,3,41
1774,15,21,59,0.433,1,5,81
1775,11,14,27,0.626,1,10,128
1776,29,33,289,0.6446,1,4,124
1777,15,15,39,0.2581,1,3,49
1778,256,255,32898,19.0943,1,2,514
1779,11,27,59,0.5668,1,5,66
1780,4,6,15,0.0935,1,3,17
1781,9,14,33,0.4725,1,7,81
1782,6,8,22,0.1867,1,3,23
1783,7,9,19,0.3165,1,5,42
1784,31,65,195,1.8011,1,15,507
1785,10,11,29,0.18,1,5,56
1786,62,95,228,10.4534,1,16,1071
1787,12,23,54,0.5056,1,5,69
1788,12,23,53,0.2273,1,5,69
1789,24,32,107,0.448,1,4,109
1790,4,4,10,0.1373,1,3,15
1791,41,78,128,12.0888,1,16,688
1792,9,12,31,0.3876,1,8,88
1793,1,1,3,0.0769,1,2,4
1794,11,13,33,0.2368,1,4,51
1795,34,39,77,2.5239,1,10,354
1796,12,12,53,0.4259,1,5,69
1797,18,17,37,0.3457,1,3,57
1798,23,37,65,3.135,1,15,430
1799,6,7,23,0.1677,1,3,21
1800,14,24,103,0.4511,1,4,76
1801,83,122,609,14.5721,1,12,1092
1802,16,16,33,0.885,1,6,102
1803,22,32,63,1.0859,1,13,317
1804,2,2,6,0.1101,1,2,6
1805,30,58,104,15.7828,1,15,487
1806,5,9,21,0.4389,1,4,25
1807,11,11,75,0.7361,1,6,72
1808,33,44,126,7.1724,1,19,653
1809,8,15,34,0.4334,1,5,46
1810,25,36,55,12.1982,1,28,755
1811,17,24,52,1.3863,1,12,216
1812,11,10,27,0.2411,1,4,48
1813,18,19,43,0.4894,1,5,96
1814,37,36,75,1.198,1,3,114
1815,9,17,54,0.5285,1,5,64
1816,9,14,32,0.3307,1,7,81
1817,6,7,22,0.1385,1,4,28
1818,16,22,67,0.8542,1,5,88
1819,9,13,29,0.3126,1,8,91
1820,26,41,381,1.2544,1,7,218
1821,13,20,54,0.4109,1,5,71
1822,10,9,25,0.1843,1,3,33
1823,6,10,23,0.6426,1,4,29
1824,9,12,29,0.4677,1,5,55
1825,21,22,55,0.8826,1,5,111
1826,8,8,18,0.1215,1,4,36
1827,5,7,18,0.1097,1,4,24
1828,23,40,74,2.8164,1,9,233
1829,95,133,1431,15.3675,1,12,1294
1830,26,38,85,2.1339,1,9,261
1831,8,8,18,0.0967,1,3,27
1832,32,51,97,2.3044,1,14,481
1833,17,20,39,0.9667,1,9,162
1834,73,118,424,8.2958,1,12,947
1835,22,26,95,2.5519,1,4,94
1836,23,34,75,2.3625,1,9,219
1837,15,19,38,1.9579,1,8,128
1838,8,8,21,0.1847,1,3,27
1839,9,13,29,0.7298,1,8,83
1840,9,12,23,0.2621,1,7,73
1841,11,17,42,1.6661,1,10,142
1842,46,54,152,4.3433,1,13,614
1843,28,40,96,6.3537,1,16,470
1844,15,20,37,0.4744,1,4,67
1845,25,43,193,7.3468,1,12,402
1846,23,38,75,3.195,1,9,222
1847,24,29,97,4.6693,1,11,276
1848,10,9,21,0.204,1,3,33
1849,9,15,26,0.3193,1,4,43
1850,14,16,48,1.0527,1,10,151
1851,62,80,153,27.0802,1,17,1079
1852,27,38,77,1.4885,1,8,225
1853,21,22,55,0.714,1,5,111
1854,32,56,206,7.1435,1,15,553
1855,41,69,419,4.7072,1,9,448
1856,10,12,25,0.8968,1,6,66
1857,7,16,30,1.2734,1,7,64
1858,14,18,36,0.9856,1,9,142
1859,11,10,23,0.3284,1,3,36
1860,8,8,18,0.1784,1,4,36
1861,37,41,93,3.3738,1,7,270
1862,11,10,28,0.2017,1,3,36
1863,6,17,34,1.0871,1,6,51
1864,15,22,84,0.2376,1,3,57
1865,16,22,67,0.5747,1,5,89
1866,13,16,31,0.525,1,8,119
1867,37,37,99,1.1526,1,3,115
1868,106,122,3472,11.533,1,8,872
1869,58,64,372,9.5396,1,12,739
1870,7,9,21,0.1468,1,4,33
1871,2,2,6,0.0817,1,2,6
1872,3,5,9,0.3876,1,3,14
1873,20,30,93,0.8625,1,5,114
1874,15,18,37,0.8506,1,10,166
1875,7,7,16,0.2905,1,7,56
1876,26,42,72,1.9733,1,6,170
1877,37,36,75,1.2043,1,3,114
1878,5,12,23,0.1413,1,4,27
1879,3,5,11,0.0828,1,3,13
1880,3,4,11,0.0884,1,3,12
1881,1,1,3,0.0493,1,2,4
1882,9,8,29,0.1267,1,2,20
1883,42,49,322,5.8993,1,12,521
1884,37,39,211,0.9296,1,3,117
1885,2,2,6,0.0461,1,2,6
1886,147,283,9287,10.3441,1,5,742
1887,15,19,36,0.748,1,2,33
1888,26,35,72,5.9317,1,15,427
1889,27,37,88,4.3938,1,14,397
1890,6,6,19,0.1278,1,4,28
1891,8,9,20,0.643,1,6,55
1892,9,12,23,0.1969,1,4,41
1893,25,38,128,1.8951,1,17,517
1894,8,8,21,0.1322,1,3,27
1895,12,19,39,0.4657,1,6,82
1896,18,25,72,1.5418,1,9,175
1897,36,51,133,1.4396,1,8,331
1898,20,24,111,0.253,1,3,64
1899,8,14,36,0.1697,1,4,39
1900,19,23,95,0.3607,1,6,123
1901,27,43,116,1.8327,1,9,254
1902,24,33,50,6.0556,1,27,676
1903,25,30,159,0.5305,1,5,140
1904,13,12,27,0.3319,1,4,56
1905,10,13,30,0.1961,1,4,45
1906,2,1,5,0.058,1,2,6
1907,2,1,5,0.1176,1,2,6
1908,4,5,13,0.0959,1,3,16
1909,11,12,25,0.2147,1,3,36
1910,16,15,99,0.1582,1,3,51
1911,3,4,9,0.0655,1,3,12
1912,2,2,6,0.0493,1,2,6
1913,2,2,6,0.0461,1,2,6
1914,2,2,6,0.0457,1,2,6
1915,2,1,5,0.0497,1,2,6
1916,12,11,25,0.1875,1,3,39
1917,15,15,39,0.2107,1,3,49
1918,11,10,23,0.1132,1,3,36
1919,6,5,13,0.0686,1,2,14
1920,2,1,5,0.0505,1,2,6
