id,states,transitions,simRelSize,time,goodruns,minterms,mintermizedAutomatonTransitions
ex10.mona-walk.dot_5__242states.dfa,234,650,1627,141.184,1,882,882
ex11.mona-walk.dot_0__143states.dfa,139,574,2699,52.3108,1,711,711
ex11.mona-walk.dot_2__143states.dfa,139,574,2699,63.0441,1,711,711
ex11.mona-walk.dot_4__281states.dfa,279,1541,11663,396.2491,1,1815,1815
ex11.mona-walk.dot_5__281states.dfa,277,2007,12989,485.7132,1,2041,2041
ex11.mona-walk.dot_6__301states.dfa,293,1214,16613,317.96,1,1264,1264
ex11.mona-walk.dot_7__325states.dfa,309,1508,19113,410.4415,1,1801,1801
ex12.mona-walk.dot_13__317states.dfa,313,1911,6823,591.5716,1,2220,2220
ex12.mona-walk.dot_14__317states.dfa,313,3046,6823,840.8703,1,3059,3059
ex12.mona-walk.dot_15__290states.dfa,282,4059,11654,1048.9689,1,4328,4328
ex12.mona-walk.dot_16__280states.dfa,276,5188,12168,1664.6034,1,5456,5456
ex12.mona-walk.dot_17__280states.dfa,273,3617,11384,1002.3605,1,3886,3886
ex14.mona-walk.dot_10__103states.dfa,95,378,464,45.963,1,472,472
ex14.mona-walk.dot_11__202states.dfa,194,989,1119,289.088,1,1182,1182
ex14.mona-walk.dot_12__316states.dfa,308,1762,1885,604.834,1,2069,2069
ex14.mona-walk.dot_13__316states.dfa,308,1762,1885,642.9346,1,2069,2069
ex14.mona-walk.dot_14__852states.dfa,844,5573,14669,4233.9793,1,6414,6414
ex14.mona-walk.dot_15__852states.dfa,844,9038,16705,7037.4607,1,9876,9876
ex14.mona-walk.dot_16__852states.dfa,846,12733,13199,8212.3247,1,13183,13183
ex14.mona-walk.dot_17__167states.dfa,153,1365,1502,406.26,1,1510,1510
ex14.mona-walk.dot_21__35states.dfa,22,68,114,29.6204,1,86,86
ex14.mona-walk.dot_22__53states.dfa,38,140,250,16.4014,1,174,174
ex14.mona-walk.dot_24__42states.dfa,28,104,183,6.81,1,128,128
ex14.mona-walk.dot_3__30states.dfa,22,40,78,2.1604,1,61,61
ex14.mona-walk.dot_4__30states.dfa,22,40,78,1.4672,1,61,61
ex14.mona-walk.dot_5__45states.dfa,37,81,141,6.716,1,117,117
ex14.mona-walk.dot_6__65states.dfa,57,150,260,20.5272,1,206,206
ex14.mona-walk.dot_7__65states.dfa,57,150,260,11.6199,1,206,206
ex14.mona-walk.dot_8__77states.dfa,69,219,312,23.7159,1,287,287
ex14.mona-walk.dot_9__103states.dfa,95,378,464,45.1723,1,472,472
ex16.mona-walk.dot_56__16states.dfa,8,23,38,14.6148,1,25,25
ex16.mona-walk.dot_58__25states.dfa,11,34,63,55.5457,1,37,37
ex18.mona-walk.dot_106__298states.dfa,290,3207,1912,7219.7564,1,3468,3468
ex18.mona-walk.dot_107__298states.dfa,290,3207,1912,7012.2598,1,3468,3468
ex18.mona-walk.dot_109__269states.dfa,265,1308,1581,3707.0644,1,1565,1565
ex18.mona-walk.dot_94__108states.dfa,104,196,312,33.5449,1,299,299
ex18.mona-walk.dot_95__172states.dfa,168,324,504,73.8517,1,491,491
ex18.mona-walk.dot_96__300states.dfa,296,580,888,298.0257,1,875,875
ex18.mona-walk.dot_97__556states.dfa,552,1092,1656,914.6159,1,1643,1643
ex19.mona-walk.dot_10__119states.dfa,115,171,1081,22.6209,1,284,284
ex19.mona-walk.dot_47__135states.dfa,131,250,1334,52.2638,1,379,379
ex19.mona-walk.dot_49__247states.dfa,243,578,7902,103.2894,1,819,819
ex19.mona-walk.dot_51__141states.dfa,137,472,1762,64.9815,1,607,607
ex20.mona-walk.dot_20__20states.dfa,6,12,25,0.165,1,16,16
ex3.mona-walk.dot_33__579states.dfa,572,1782,6342,1284.4467,1,2350,2350
ex3.mona-walk.dot_34__449states.dfa,446,1276,3010,899.2878,1,1720,1720
ex4.mona-walk.dot_20__276states.dfa,269,2586,7909,735.3628,1,2851,2851
ex4.mona-walk.dot_21__531states.dfa,524,3606,15235,3161.3358,1,4126,4126
ex4.mona-walk.dot_22__139states.dfa,131,499,1136,89.5908,1,626,626
ex4.mona-walk.dot_23__139states.dfa,131,499,1136,82.0773,1,626,626
ex4.mona-walk.dot_24__147states.dfa,139,530,1170,97.5558,1,665,665
ex4.mona-walk.dot_25__151states.dfa,135,414,1231,82.7866,1,545,545
ex4.mona-walk.dot_26__602states.dfa,586,2686,4370,1568.5212,1,3268,3268
ex4.mona-walk.dot_38__134states.dfa,120,442,1093,53.1066,1,558,558
ex5.mona-walk.dot_3__66states.dfa,64,70,369,7.7542,1,132,132
ex8.mona-walk.dot_18__242states.dfa,234,650,1627,109.5594,1,882,882
parametric_uabe1_11.mona-walk.dot_0__167states.dfa,163,1123,3095,114.2943,1,1284,1284
parametric_uabe1_12.mona-walk.dot_0__181states.dfa,177,1137,3337,147.1453,1,1312,1312
parametric_uabe1_13.mona-walk.dot_0__195states.dfa,191,1151,3670,234.4668,1,1340,1340
parametric_uabe1_14.mona-walk.dot_0__209states.dfa,205,1165,4094,226.733,1,1368,1368
parametric_uabe2_03.mona-walk.dot_0__142states.dfa,140,517,558,138.9829,1,654,654
parametric_uabe2_04.mona-walk.dot_0__702states.dfa,700,3197,2798,2512.9075,1,3894,3894
parametric_uabe2_05.mona-walk.dot_0__86states.dfa,78,314,1798,27.726,1,384,384
parametric_uabe2_06.mona-walk.dot_0__91states.dfa,87,314,2093,61.5299,1,332,332
parametric_uabe2_07.mona-walk.dot_0__108states.dfa,104,380,2879,26.7534,1,398,398
parametric_uabe2_08.mona-walk.dot_0__125states.dfa,121,446,3788,45.003,1,464,464
parametric_uabe3_06.mona-walk.dot_0__97states.dfa,93,528,2050,47.5159,1,619,619
parametric_uabe3_07.mona-walk.dot_0__111states.dfa,107,542,2437,64.6748,1,647,647
parametric_uabe3_08.mona-walk.dot_0__125states.dfa,121,556,2915,69.6939,1,675,675
parametric_uabe3_09.mona-walk.dot_0__139states.dfa,135,570,3484,76.2229,1,703,703
parametric_uabe3_10.mona-walk.dot_0__153states.dfa,149,584,4144,70.9377,1,731,731
parametric_uabe3_11.mona-walk.dot_0__167states.dfa,163,598,4895,84.3009,1,759,759
parametric_uabe3_12.mona-walk.dot_0__181states.dfa,177,612,5737,91.7259,1,787,787
parametric_uabe3_13.mona-walk.dot_0__195states.dfa,191,626,6670,128.5041,1,815,815
parametric_uabe3_14.mona-walk.dot_0__209states.dfa,205,640,7694,170.6189,1,843,843
array_axiom.mona-walk.dot_26__901states.dfa,899,5254,8727,5589.6843,1,6147,6147
array_axiom.mona-walk.dot_27__897states.dfa,894,2684,6658,3604.6635,1,3576,3576
array_axiom.mona-walk.dot_36__105states.dfa,102,252,450,32.5225,1,336,336
ex18.mona-walk.dot_98__1068states.dfa,1064,2116,3192,3647.4674,1,3179,3179
ex18.mona-walk.dot_99__2056states.dfa,2052,4092,6156,12423.9005,1,6143,6143
strand-old-bubblesort-loop-else.mona-walk.dot_0__1044states.dfa,18,37,51,1.2896,1,55,55
strand-old-bubblesort-loop-if-else.mona-walk.dot_0__1027states.dfa,1,0,4,0.0292,1,2,2
strand-old-bubblesort-loop-if-if.mona-walk.dot_0__2051states.dfa,1,0,4,0.041,1,2,2
strand-old-sorted-list-insert-after-loop.mona-walk.dot_0__151states.dfa,21,39,58,3.6169,1,60,60
strand-old-sorted-list-insert-before-head.mona-walk.dot_0__114states.dfa,48,254,382,41.3457,1,302,302
strand-old-sorted-list-insert-before-loop.mona-walk.dot_0__131states.dfa,1,0,4,0.0359,1,2,2
strand-old-sorted-list-insert-error-before-loop.mona-walk.dot_0__156states.dfa,26,65,72,3.9663,1,91,91
strand-old-sorted-list-insert-in-loop.mona-walk.dot_0__515states.dfa,1,0,4,0.06,1,2,2
strand-old-sorted-list-reverse-after-loop.mona-walk.dot_0__131states.dfa,1,0,4,0.0394,1,2,2
strand-old-sorted-list-reverse-before-loop.mona-walk.dot_0__212states.dfa,111,1043,1333,288.6968,1,1146,1146
strand-old-sorted-list-reverse-in-loop.mona-walk.dot_0__515states.dfa,1,0,4,0.0406,1,2,2
strand-old-sorted-list-search-after-loop.mona-walk.dot_0__317states.dfa,316,8535,8597,11466.5237,1,8843,8843
strand-old-sorted-list-search-before-loop.mona-walk.dot_0__112states.dfa,46,265,390,43.2835,1,311,311
ex11.mona.aut,2217,6513,30280,13057.5636,1,8422,9051
ex12.mona.aut,377,1089,2064,503.1338,1,1389,2520
ex13.mona.aut,933,4591,-1,-1,0,0,0
ex15.mona.aut,10,27,32,1.4542,1,33,43
ex16.mona.aut,543,1426,11770,4964.3183,1,3455,244837
ex17.mona.aut,1,0,4,0.0284,1,2,2
ex19.mona.aut,814,2885,13430,10146.7818,1,5790,363406
ex7.mona.aut,148,373,1547,61.8615,1,412,644
horn_trans05.mona.aut,11,25,28,1.6969,1,53,266
horn_trans10.mona.aut,21,50,53,77.7225,1,1065,15411
parametric_uabe1_11.mona.aut,2507,7493,34788,21856.1779,1,9537,10451
parametric_uabe3_10.mona.aut,2257,6733,30470,12473.5358,1,8552,9431
set_closed05.mona.aut,24,53,86,3.3193,1,109,266
set_closed10.mona.aut,44,98,211,91.3738,1,808,4487
set_obvious05.mona.aut,1,0,4,0.0256,1,2,2
set_obvious10.mona.aut,1,0,4,0.026,1,2,2
set_singletons05.mona.aut,21,55,68,5.5831,1,144,344
set_singletons10.mona.aut,41,110,183,642.8008,1,2518,16980
strand-new-sorted-list-insert-after-loop.mona.aut,674,5429,4987,2654.5111,1,5904,8133
strand-new-sorted-list-insert-before-head.mona.aut,219,1699,1570,357.087,1,1871,3944
strand-new-sorted-list-insert-before-loop.mona.aut,387,3430,2181,1018.4757,1,3376,6613
strand-new-sorted-list-insert-error-error.mona.aut,387,3430,2181,1219.7197,1,3376,6613
strand-new-sorted-list-reverse-after-loop.mona.aut,956,20383,11152,16187.6992,1,20901,29128
strand-new-sorted-list-reverse-before-loop.mona.aut,956,20383,11152,15729.4915,1,20901,29128
strand-new-sorted-list-search-after-loop.mona.aut,431,5629,4197,2318.6082,1,5949,8289
strand-new-sorted-list-search-before-loop.mona.aut,300,2849,1670,583.1833,1,2777,4631
toss05.mona.aut,65,288,174,38.8849,1,358,566
toss10.mona.aut,1413,16619,4772,56120.6255,1,18762,106987
veanes05.mona.aut,6,11,13,0.4539,1,18,18
veanes05_1alts.mona.aut,19,45,109,1.3843,1,46,80
veanes05_2alts.mona.aut,31,172,73,11.563,1,192,238
veanes05_3alts.mona.aut,19,50,87,1.17,1,55,92
veanes05_4alts.mona.aut,25,91,70,4.2837,1,109,174
veanes10.mona.aut,11,21,23,2.6648,1,33,33
veanes10_1alts.mona.aut,39,95,414,3.298,1,91,170
veanes10_2alts.mona.aut,780,33596,1576,44204.5293,1,34117,41193
veanes10_3alts.mona.aut,39,100,357,5.1501,1,100,202
veanes10_4alts.mona.aut,588,15179,1206,13293.2328,1,15698,20155
